[
  {
    "label": "Demo102_0_Text004",
    "attribute": "",
    "locale": {
      "CNzh": "醒一醒……",
      "EUde": "Öffne die Augen...",
      "EUen": "Open your eyes...",
      "EUes": "Abre los ojos...",
      "EUfr": "Réveille-toi...",
      "EUit": "Svegliati...",
      "EUnl": "Doe je ogen open.",
      "EUru": "Открой глаза...",
      "JPja": "{{ruby charSpan=\"1\" value=\"め\"}}目を{{ruby charSpan=\"1\" value=\"さ\"}}覚まして……",
      "KRko": "눈을 뜨세요……",
      "TWzh": "醒醒吧……",
      "USen": "Open your eyes...",
      "USes": "Abre los ojos...",
      "USfr": "Réveille-toi..."
    }
  },
  {
    "label": "Demo102_0_Text005",
    "attribute": "",
    "locale": {
      "CNzh": "醒一醒……",
      "EUde": "Öffne die Augen...",
      "EUen": "Open your eyes.",
      "EUes": "Abre los ojos...",
      "EUfr": "Réveille-toi...",
      "EUit": "Svegliati...",
      "EUnl": "Doe je ogen open.",
      "EUru": "Открой глаза...",
      "JPja": "{{ruby charSpan=\"1\" value=\"め\"}}目を{{ruby charSpan=\"1\" value=\"さ\"}}覚まして……",
      "KRko": "눈을 뜨세요……",
      "TWzh": "醒醒吧……",
      "USen": "Open your eyes.",
      "USes": "Abre los ojos...",
      "USfr": "Réveille-toi..."
    }
  },
  {
    "label": "Demo102_0_Text006",
    "attribute": "",
    "locale": {
      "CNzh": "醒一醒……\n\n林克。",
      "EUde": "Wach auf, Link!",
      "EUen": "Wake up, Link.",
      "EUes": "Despierta...{{pageBreak}}  {{pageBreak}}Link.",
      "EUfr": "Ouvre les yeux...{{pageBreak}}Link...",
      "EUit": "Apri gli occhi, Link...",
      "EUnl": "Word wakker, Link.",
      "EUru": "Проснись...{{pageBreak}}Линк!",
      "JPja": "{{ruby charSpan=\"1\" value=\"め\"}}目を{{ruby charSpan=\"1\" value=\"さ\"}}覚まして……\n\nリンク",
      "KRko": "눈을 뜨세요……\n\n링크",
      "TWzh": "醒醒吧……\n\n林克。",
      "USen": "Wake up, Link.",
      "USes": "Despierta, Link...",
      "USfr": "Ouvre les yeux...{{pageBreak}}Link..."
    }
  }
]