[
  {
    "label": "Demo119_0_Text010",
    "attribute": "",
    "locale": {
      "CNzh": "好，梅德已经瞄准好了。",
      "EUde": "Gut, Medoh... Das Ziel haben wir erfasst.",
      "EUen": "Medoh's sights are now set.",
      "EUes": "Muy bien, Medoh... Lo tienes en el punto de mira.",
      "EUfr": "Bien, Medoh... Tu ne pouvais pas choisir\nmeilleur endroit.",
      "EUit": "Bene Medoh, hai puntato il bersaglio.",
      "EUnl": "Medoh is er klaar voor.",
      "EUru": "Отлично, Медо! Ганон на мушке.",
      "JPja": "ようし メドー……\n{{ruby charSpan=\"1\" value=\"ねら\"}}狙いを{{ruby charSpan=\"1\" value=\"さだ\"}}定めたね",
      "KRko": "좋아, 메도……\n조준을 마쳤구나",
      "TWzh": "好，梅德……已經瞄準目標了呢。",
      "USen": "Medoh's sights are now set.",
      "USes": "Muy bien, Medoh... Lo tienes en la mira.",
      "USfr": "Bien, Medoh... Tu ne pouvais pas\nchoisir meilleur endroit."
    }
  },
  {
    "label": "Demo119_0_Text014",
    "attribute": "",
    "locale": {
      "CNzh": "从这里盯紧盖侬……等到那家伙开始战斗，\n就让它尝尝这重击的厉害。",
      "EUde": "Wir müssen Ganon mit Adleraugen im Blick\nbehalten...{{pageBreak}}Wenn Link gegen ihn kämpft, kriegt er dann\neine gewaltige Ladung ab.",
      "EUen": "You'll have a precise bead on Ganon\nfrom this vantage point. {{pageBreak}}And when the time is right,\ngive him everything you've got!",
      "EUes": "Debes seguir apuntando a Ganon.{{pageBreak}}Cuando llegue el momento del combate,\ndispárale con toda tu furia.",
      "EUfr": "D'ici, tu ne risques pas de manquer Ganon...{{pageBreak}}Quand le gringalet l'affrontera... je compte sur toi\npour calmer ce monstre d'un coup bien placé.",
      "EUit": "Da qui terremo Ganon sotto mira e quando comincerà\nla battaglia, lo travolgeremo con un colpo.",
      "EUnl": "Vanaf hier moet je Ganon precies kunnen raken.{{pageBreak}}Als het zover is, geef hem dan de volle lading.",
      "EUru": "Не выпускай его из виду.{{pageBreak}}Когда Линк начнет бой, выстрели\nтак точно, как только можешь.",
      "JPja": "ここからガノンを{{ruby charSpan=\"1\" value=\"とら\"}}捉え{{ruby charSpan=\"1\" value=\"つづ\"}}続けて……\nあいつが{{ruby charSpan=\"1\" value=\"たたか\"}}戦う{{ruby charSpan=\"1\" value=\"とき\"}}時 {{ruby charSpan=\"1\" value=\"やつ\"}}奴に{{ruby charSpan=\"2\" value=\"きょうれつ\"}}強烈な{{ruby charSpan=\"2\" value=\"いちげき\"}}一撃を{{ruby charSpan=\"1\" value=\"く\"}}食らわせるんだ",
      "KRko": "이곳에서 가논을 계속 지켜보며……\n녀석이 싸울 때 가논에게 강렬한 한 방을 먹이는 거야",
      "TWzh": "從這裡緊盯加儂……\n在那傢伙開始戰鬥時，給它重重一擊。",
      "USen": "You'll have a precise bead on Ganon\nfrom this vantage point. {{pageBreak}}And when the time is right,\ngive him everything you've got!",
      "USes": "Sigue apuntando a Ganon...{{pageBreak}}Y cuando llegue el momento del combate,\ndispárale con toda tu furia.",
      "USfr": "D'ici, tu ne risques pas de manquer Ganon...{{pageBreak}}Quand le gringalet l'affrontera... je compte sur toi\npour calmer ce monstre d'un coup bien placé."
    }
  },
  {
    "label": "Demo119_0_Text012",
    "attribute": "",
    "locale": {
      "CNzh": "在那天到来之前，你可要好好加油啊……",
      "EUde": "Ich hoffe, du hältst bis dahin durch.",
      "EUen": "Now we wait for that perfect moment...",
      "EUes": "Sé paciente, compañera.",
      "EUfr": "Pour le moment, il nous faut patienter...",
      "EUit": "Intanto, attendi con pazienza.",
      "EUnl": "Nu is het wachten op het perfecte moment.",
      "EUru": "Ну а пока остается ждать.",
      "JPja": "その{{ruby charSpan=\"1\" value=\"ひ\"}}日まで{{ruby charSpan=\"2\" value=\"がんば\"}}頑張ってくれよ……",
      "KRko": "그때까지 힘내 줘……",
      "TWzh": "在那天到來之前，你可要好好加油啊……",
      "USen": "Now we wait for that perfect moment...",
      "USes": "Sé paciente, princesa.",
      "USfr": "Pour le moment, il nous faut patienter..."
    }
  },
  {
    "label": "Demo119_0_Text015",
    "attribute": "",
    "locale": {
      "CNzh": "不过，你我等这一天都等了100年了……\n\n再等一会又有什么关系呢，对吧？",
      "EUde": "Na ja, 100 Jahre haben wir ja\nschon zusammen gewartet...{{pageBreak}}Da schaffen wir den Rest auch noch.",
      "EUen": " {{pageBreak}}Medoh, we've been artfully patient\nfor the last 100 years.{{pageBreak}}I doubt you'll suffer a feather\nover a few more moments...",
      "EUes": "Al fin y al cabo, hemos estado\nesperando durante cien años.{{pageBreak}}Solo tenemos que resistir un poco más.",
      "EUfr": "Ah... Ça fait 100 ans... 100 ans qu'on attend\nce moment, toi et moi...{{pageBreak}}On n'est plus à ça près, n'est-ce pas ?",
      "EUit": "Io e te... sogniamo questo momento da cento anni.\nPossiamo aspettare ancora un po'.",
      "EUnl": "Medoh, we zijn al honderd jaar geduldig.\nDie paar momentjes meer lukken ook nog wel.",
      "EUru": "Хотя...{{pageBreak}}Мы с тобой ждали целых сто лет.{{pageBreak}}Я думаю...{{pageBreak}}Можем и еще немного потерпеть.",
      "JPja": "ま {{ruby charSpan=\"1\" value=\"ぼく\"}}僕とお{{ruby charSpan=\"1\" value=\"まえ\"}}前は100{{ruby charSpan=\"1\" value=\"ねん\"}}年もこの{{ruby charSpan=\"1\" value=\"とき\"}}時を{{ruby charSpan=\"1\" value=\"ま\"}}待ってたんだ……\n\n{{ruby charSpan=\"2\" value=\"あとすこ\"}}後少し{{ruby charSpan=\"1\" value=\"くらい\"}}位 どうって{{ruby charSpan=\"1\" value=\"こと\"}}事ないだろ?",
      "KRko": "뭐, 나와 너는 100년이나 이 시간을 기다렸으니……\n\n조금 정도는 아무렇지도 않잖아?",
      "TWzh": "不過，我們等這一刻都等了100年了…‥\n\n再多等一下子也不算什麼，對吧？",
      "USen": " {{pageBreak}}Medoh, we've been artfully patient\nfor the last 100 years.{{pageBreak}}I doubt you'll suffer a feather\nover a few more moments...",
      "USes": "Al fin y al cabo, llevamos cien años\nesperando.{{pageBreak}}Solo tenemos que resistir un poco más.",
      "USfr": "Ah... Ça fait 100 ans... 100 ans qu'on attend\nce moment, toi et moi...{{pageBreak}}On n'est plus à ça près, n'est-ce pas?"
    }
  },
  {
    "label": "Demo119_0_Text004",
    "attribute": "",
    "locale": {
      "CNzh": "嗯……",
      "EUde": " ",
      "EUen": "... Hm.",
      "EUes": "  ",
      "EUfr": " ",
      "EUit": "  ",
      "EUnl": " ",
      "EUru": " ",
      "JPja": "ふん……",
      "KRko": "ふん……",
      "TWzh": "嗯……",
      "USen": "... Hm.",
      "USes": " ",
      "USfr": " "
    }
  },
  {
    "label": "Demo119_0_Text005",
    "attribute": "",
    "locale": {
      "CNzh": "看来我必须得承认……",
      "EUde": "So langsam muss ich wohl zugeben,\ndass er gar nicht schlecht ist...",
      "EUen": "After all these years, I simply must admit the truth...",
      "EUes": "Supongo que va siendo hora de que lo reconozca.",
      "EUfr": "Je suis bien obligé de reconnaître que je l'avais\nmal jugé.",
      "EUit": "Di fronte all'evidenza dei fatti sono\ncostretto a riconoscerlo...",
      "EUnl": "Na al die jaren moet ik de waarheid onder ogen zien.",
      "EUru": "Вынужден признать, что на этот\nраз он меня поразил...",
      "JPja": "そろそろ{{ruby charSpan=\"1\" value=\"みと\"}}認めるしかないみたいだな……",
      "KRko": "이젠 인정할 수밖에 없겠는데……",
      "TWzh": "看來我也不得不承認了……",
      "USen": "After all these years, I simply must admit the truth...",
      "USes": "Supongo que va siendo hora de que lo reconozca.",
      "USfr": "Je suis bien obligé de reconnaître que\nje l'avais mal jugé."
    }
  },
  {
    "label": "Demo119_0_Text006",
    "attribute": "",
    "locale": {
      "CNzh": "那家伙根本就不会飞，\n却还是来到了神兽这里……",
      "EUde": "Er hat es in diesen Titanen geschafft,\ndabei kann er nicht einmal fliegen...",
      "EUen": "Even without the power of flight,\nLink made his way to this Divine Beast...",
      "EUes": "A pesar de no poder volar, el chaval\nha conseguido llegar hasta aquí...",
      "EUfr": "Il a beau ne pas savoir voler, il est arrivé jusqu'à\nla créature divine...",
      "EUit": "È stato in grado di raggiungere il colosso\nsenza nemmeno saper volare...",
      "EUnl": "Zelfs zonder te kunnen vliegen\nheeft Link deze Titaan bereikt...",
      "EUru": "Он ведь даже не умеет летать,\nа смог добраться сюда...",
      "JPja": "あいつは{{ruby charSpan=\"1\" value=\"と\"}}飛べもしない{{ruby charSpan=\"1\" value=\"くせ\"}}癖に この{{ruby charSpan=\"2\" value=\"しんじゅう\"}}神獣にやって{{ruby charSpan=\"1\" value=\"き\"}}来て……",
      "KRko": "녀석은 날지도 못하는 주제에 이 신수까지 와서……",
      "TWzh": "那傢伙明明不會飛，卻還是來到了這座神獸……",
      "USen": "Even without the power of flight,\nLink made his way to this Divine Beast...",
      "USes": "Un simple chico sin alas logró llegar hasta aquí.",
      "USfr": "Il a beau ne pas savoir voler, il est arrivé jusqu'à\nla créature divine..."
    }
  },
  {
    "label": "Demo119_0_Text007",
    "attribute": "",
    "locale": {
      "CNzh": "他做到了我无法做到的事情……",
      "EUde": "Er hat vollbracht, woran ich gescheitert bin.",
      "EUen": "And accomplished something that even I could not...",
      "EUes": "y ha salido victorioso donde yo fracasé.",
      "EUfr": "Et il a réussi là où j'ai misérablement échoué...",
      "EUit": "E riconquistandolo è riuscito dove io fallii.",
      "EUnl": "...en heeft iets voor elkaar gekregen\ndat zelfs mij niet is gelukt.",
      "EUru": "И справился с тем, с чем не справился я.",
      "JPja": "{{ruby charSpan=\"1\" value=\"ぼく\"}}僕には{{ruby charSpan=\"2\" value=\"でき\"}}出来なかった{{ruby charSpan=\"1\" value=\"こと\"}}事を やり{{ruby charSpan=\"1\" value=\"と\"}}遂げた……",
      "KRko": "내가 하지 못했던 일들을 해냈어……",
      "TWzh": "他辦到了我做不到的事……",
      "USen": "And accomplished something that even I could not...",
      "USes": "Y sometió a Medoh cuando yo no pude.",
      "USfr": "Et il a réussi là où j'ai misérablement échoué..."
    }
  },
  {
    "label": "Demo119_0_Text008",
    "attribute": "",
    "locale": {
      "CNzh": "虽然很不甘心……\n但我彻底输了……",
      "EUde": "Er ist von uns beiden der Stärkere.",
      "EUen": "Guess I was wrong about...{{pageBreak}}how lucky he would be.",
      "EUes": "Es evidente que me ha superado con creces.",
      "EUfr": "Je m'incline, Link. Tu as gagné.",
      "EUit": "È dura ammetterlo... ma ha vinto lui.",
      "EUnl": "Nooit gedacht dat hij zoveel geluk zou hebben.",
      "EUru": "Я признаю...{{pageBreak}}Он сильнее меня...",
      "JPja": "{{ruby charSpan=\"1\" value=\"くや\"}}悔しいけど……\n{{ruby charSpan=\"2\" value=\"かんぱい\"}}完敗だ……",
      "KRko": "분하지만……\n완패다……",
      "TWzh": "雖然很不甘心……\n但是我徹底輸了……",
      "USen": "Guess I was wrong about...{{pageBreak}}how lucky he would be.",
      "USes": "Debo admitir que ese chico...\ntiene muchísima suerte.",
      "USfr": "Je m'incline, Link. Tu as gagné."
    }
  },
  {
    "label": "Demo119_0_Text013",
    "attribute": "",
    "locale": {
      "CNzh": "林克……\n\n你才是我们的核心。",
      "EUde": "Link...{{pageBreak}}Du bist der Schlüssel... Du warst es immer!",
      "EUen": "I hope that luck holds out, Link...{{pageBreak}}For everyone's sake.",
      "EUes": "Link...{{pageBreak}}Eres el héroe que nos salvará.",
      "EUfr": "Tu es notre seul espoir de remporter la victoire.",
      "EUit": "Link... sei tu la vera chiave di tutto.",
      "EUnl": "Ik hoop dat je zo'n geluksvogel blijft, Link...\n\n\n...voor iedereen.",
      "EUru": "Линк...{{pageBreak}}Ты — последний луч надежды!",
      "JPja": "リンク……\n\n{{ruby charSpan=\"1\" value=\"きみ\"}}君こそ {{ruby charSpan=\"2\" value=\"ぼくら\"}}僕等の{{ruby charSpan=\"1\" value=\"かなめ\"}}要だ",
      "KRko": "링크……\n\n너야말로 우리들의 핵심이다",
      "TWzh": "林克……\n\n你才是我們的中心人物。",
      "USen": "I hope that luck holds out, Link...{{pageBreak}}For everyone's sake.",
      "USes": "Que no se le acabe nunca.",
      "USfr": "Tu es notre seul espoir de remporter la victoire."
    }
  }
]