[
  {
    "label": "Demo139_0_Text011",
    "attribute": "",
    "locale": {
      "CNzh": "今天我们要去卓拉领地。",
      "EUde": "Heute geht es weiter zum Dorf der Zoras.",
      "EUen": "We'll make our way to Zora's Domain.",
      "EUes": "Hoy debemos ir a la región de los zora.",
      "EUfr": "Je dois me rendre au domaine Zora, aujourd'hui.",
      "EUit": "Oggi andiamo al villaggio degli Zora.",
      "EUnl": "Laten we naar het Zora-paleis gaan.",
      "EUru": "Пора отправляться во владения зора.",
      "JPja": "{{ruby charSpan=\"2\" value=\"きょう\"}}今日は ゾーラの{{ruby charSpan=\"1\" value=\"さと\"}}里に{{ruby charSpan=\"1\" value=\"む\"}}向かいます",
      "KRko": "오늘은 조라의 마을로 갈 거예요",
      "TWzh": "今天我們要去卓拉領地。",
      "USen": "We'll make our way to Zora's Domain.",
      "USes": "Hoy debemos ir a la región de los zora.",
      "USfr": "Je dois me rendre au domaine\ndes Zoras, aujourd'hui."
    }
  },
  {
    "label": "Demo139_0_Text012",
    "attribute": "",
    "locale": {
      "CNzh": "确认一下已停止行动的神兽瓦·露塔的状态……\n\n再检查一下蓄水库的水位……",
      "EUde": "Vah Ruta bewegt sich nicht mehr... Ich muss\nherausfinden, warum. Der Pegel des Stausees\nmacht mir auch Sorgen...",
      "EUen": "Divine Beast Vah Ruta...looks like it\nstopped working. {{pageBreak}}Let's investigate the situation.",
      "EUes": "Vah Ruta ha dejado de moverse sin\nmás y quiero averiguar por qué.{{pageBreak}}Y también debo comprobar\nlas reservas de agua.",
      "EUfr": "J'aimerais bien comprendre pourquoi Vah'Ruta\ns'est immobilisée...{{pageBreak}}Il faut que je jette un coup d'œil à son réservoir\nd'eau !",
      "EUit": "Devo capire perché il colosso sacro Vah Ruta si è\nfermato e ricontrollare l'acqua del bacino.",
      "EUnl": "Titaan Vah Ruta beweegt niet meer.{{pageBreak}}Laten we op onderzoek gaan.",
      "EUru": "Надо понять, почему Чудище Ва-Рута\nостановилось...{{pageBreak}}И проверить еще раз уровень воды.",
      "JPja": "{{ruby charSpan=\"2\" value=\"ていし\"}}停止している{{ruby charSpan=\"2\" value=\"しんじゅう\"}}神獣ヴァ・ルッタの{{ruby charSpan=\"2\" value=\"じょうたい\"}}状態を{{ruby charSpan=\"2\" value=\"はあく\"}}把握……\n\n{{ruby charSpan=\"3\" value=\"ちょすいこ\"}}貯水庫の{{ruby charSpan=\"2\" value=\"すいい\"}}水位を{{ruby charSpan=\"3\" value=\"さいかくにん\"}}再確認……",
      "KRko": "정지 상태로 있는 신수 바·루타의 상태 파악과……\n\n저수지의 수위를 재확인……",
      "TWzh": "確認一下已經停止行動的神獸瓦‧露塔的狀態……\n還要再次檢查儲水庫的水位……",
      "USen": "Divine Beast Vah Ruta...looks like it\nstopped working. {{pageBreak}}Let's investigate the situation.",
      "USes": "La bestia divina Vah Ruta dejó de\nmoverse y quiero averiguar por qué.{{pageBreak}}Y necesito ver cómo están\nlas reservas de agua.",
      "USfr": "J'aimerais bien comprendre pourquoi Vah'Ruta\ns'est immobilisée...{{pageBreak}}Il faut que je jette un œil à son réservoir d'eau!"
    }
  },
  {
    "label": "Demo139_0_Text002",
    "attribute": "",
    "locale": {
      "CNzh": "之后……米法的父亲\n想听一听他女儿的事情……",
      "EUde": "Und abgesehen davon... wollte Miphas\nVater uns sehen. Wir sollten noch einmal\nmit ihm über seine Tochter sprechen...",
      "EUen": "Mipha's father...{{pageBreak}}I believe he would like to hear more about her.\nThe least we can do is visit him and offer him\nsome closure.",
      "EUes": "Además...{{pageBreak}}el padre de Mipha quiere preguntarnos\nalgo sobre su hija.",
      "EUfr": "Et aussi... le père de Mipha...{{pageBreak}}Il aimerait que nous lui parlions un peu de sa fille.",
      "EUit": "Inoltre... il padre di Mipha vorrebbe incontrarci\ne farci alcune domande su di lei.",
      "EUnl": "Mipha's vader...{{pageBreak}}Hij wil meer over haar dood horen.\nWe moeten bij hem langs zodat hij het kan afsluiten.",
      "EUru": "И еще...{{pageBreak}}Король Дорефан, отец Мифы,\nон будет рад услышать о ней.",
      "JPja": "それから……\nミファーの{{ruby charSpan=\"3\" value=\"おちちうえ\"}}御父上が {{ruby charSpan=\"2\" value=\"わたしたち\"}}私達から{{ruby charSpan=\"2\" value=\"かのじょ\"}}彼女の{{ruby charSpan=\"1\" value=\"こと\"}}事を{{ruby charSpan=\"1\" value=\"き\"}}聞きたいと……",
      "KRko": "그리고…… 미파의 아버님께서\n우리들에게 그녀의 이야기를 듣고 싶으시다고……",
      "TWzh": "之後……米法的父親\n想問我們關於他女兒的事情……",
      "USen": "Mipha's father...{{pageBreak}}I believe he would like to hear more about her.\nThe least we can do is visit him and offer him\nsome closure.",
      "USes": "Además de eso, aún tenemos algo pendiente.\nEl padre de Mipha quiere hablar con\nnosotros sobre su hija.",
      "USfr": "Et aussi... le père de Mipha...{{pageBreak}}Il aimerait que nous lui parlions un peu de sa fille."
    }
  },
  {
    "label": "Demo139_0_Text003",
    "attribute": "",
    "locale": {
      "CNzh": "虽然灾厄的威胁已经远去，但那些悲伤的回忆将会\n永远地留在这里……而且，许多事情仍需我们去完成。",
      "EUde": "Die Verheerung haben wir zwar abgewendet, aber...\nEs gibt noch so viel zu tun. Und einige traurige\nErinnerungen werden bestehen bleiben.",
      "EUen": "Although Ganon is gone for now, there is still\nso much more for us to do.{{pageBreak}}And so many painful memories that we must bear.",
      "EUes": "Es cierto que hemos evitado el cataclismo.{{pageBreak}}Pero nos ha dejado otras tareas\nde las que ocuparnos...{{pageBreak}}y también muchos recuerdos dolorosos.",
      "EUfr": "La menace de Ganon est levée, mais son passage\na laissé des traces.{{pageBreak}}Il y a tant à réparer... et nos cœurs ne cesseront\njamais de saigner.",
      "EUit": "La calamità non è più una minaccia{{pageBreak}}ma ci ha lasciato molto da fare\ne tanti ricordi amari che non svaniranno.",
      "EUnl": "Ganon mag dan wel weg zijn...{{pageBreak}}...maar we hebben nog heel veel te doen\nen we hebben nog veel treurige herinneringen.",
      "EUru": "Мы выстояли против Ганона.{{pageBreak}}Но у нас еще много дел, и многие раны\nнавсегда останутся в наших сердцах.",
      "JPja": "{{ruby charSpan=\"2\" value=\"やくさい\"}}厄災の{{ruby charSpan=\"2\" value=\"きょうい\"}}脅威は{{ruby charSpan=\"1\" value=\"さ\"}}去りましたが {{ruby charSpan=\"1\" value=\"な\"}}成さねばならない{{ruby charSpan=\"1\" value=\"こと\"}}事や\n{{ruby charSpan=\"1\" value=\"けっ\"}}決して{{ruby charSpan=\"1\" value=\"き\"}}消えない{{ruby charSpan=\"1\" value=\"かな\"}}悲しい{{ruby charSpan=\"1\" value=\"おも\"}}想いは {{ruby charSpan=\"1\" value=\"のこ\"}}残されています……",
      "KRko": "재앙의 위협은 사라졌지만, 반드시 해야 하는 일들이나\n결코 사라지지 않는 슬픔은 남아 있어요……",
      "TWzh": "雖然災厄的威脅已經遠去，但留下了很多該做的事情，\n和永遠不會忘懷的悲傷回憶……",
      "USen": "Although Ganon is gone for now, there is still\nso much more for us to do.{{pageBreak}}And so many painful memories that we must bear.",
      "USes": "Pudimos evitar el cataclismo.{{pageBreak}}Pero aún nos quedan muchos recuerdos\ndolorosos y heridas por sanar.{{pageBreak}}Tenemos mucho trabajo por delante.",
      "USfr": "La menace de Ganon est levée,\nmais son passage a laissé des traces.{{pageBreak}}Il y a tant à réparer... et nos cœurs ne\ncesseront jamais de saigner."
    }
  },
  {
    "label": "Demo139_0_Text004",
    "attribute": "",
    "locale": {
      "CNzh": "但是，这个国家的人们一定会建立\n一个比以往更加出色的海拉鲁……",
      "EUde": "Eines steht fest. Die Einwohner dieses Reiches sind\nstark. Sie können ein Hyrule aufbauen, das schöner\nist als jemals zuvor!",
      "EUen": "I believe in my heart, that if all of us work together...{{pageBreak}}we can restore Hyrule to its former glory.",
      "EUes": "Ahora las gentes de Hyrule podrán construir un reino\nincluso más espléndido del que conocimos en su día.",
      "EUfr": "Pourtant, je sais qu'Hyrule se relèvera.{{pageBreak}}Elle renaîtra plus belle encore ! Tous les\nhabitants du royaume s'y emploient.",
      "EUit": "Però, credo che le genti di questo paese\nsapranno costruire una Hyrule ancora più bella...",
      "EUnl": "Van binnen geloof ik dat als we samenwerken,\nwe Hyrule volledig in ere kunnen herstellen.",
      "EUru": "Но я верю!{{pageBreak}}Жители этих земель восстановят Хайрул!\nОн будет еще лучше прежнего!",
      "JPja": "けれど この{{ruby charSpan=\"1\" value=\"くに\"}}国の{{ruby charSpan=\"2\" value=\"ひとびと\"}}人々なら きっと{{ruby charSpan=\"1\" value=\"むかし\"}}昔よりも\n{{ruby charSpan=\"2\" value=\"すば\"}}素晴らしいハイラルを{{ruby charSpan=\"1\" value=\"つく\"}}造る{{ruby charSpan=\"1\" value=\"こと\"}}事が{{ruby charSpan=\"2\" value=\"でき\"}}出来る……",
      "KRko": "하지만 이 나라 사람들이라면 틀림없이\n예전보다 멋진 하이랄을 만들 수 있을 테죠……",
      "TWzh": "不過，這個國家的人們一定會\n建立一個比以前更加出色的海拉魯……",
      "USen": "I believe in my heart, that if all of us work together...{{pageBreak}}we can restore Hyrule to its former glory.",
      "USes": "Creo firmemente que podemos construir un\nreino de Hyrule tan magnífico como el de nuestros\nantespasados...",
      "USfr": "Pourtant, je sais qu'Hyrule se relèvera.{{pageBreak}}Il renaîtra plus beau encore! Tous les\nhabitants du royaume s'y emploient."
    }
  },
  {
    "label": "Demo139_0_Text005",
    "attribute": "",
    "locale": {
      "CNzh": "所以……\n我要去帮助他们。",
      "EUde": "Und deshalb... muss ich tun, was ich kann.\nIch möchte meinen Beitrag leisten.",
      "EUen": "Perhaps...even beyond. {{pageBreak}}But it all must start with us.",
      "EUes": "Y yo...{{pageBreak}}también quiero poner mi granito de arena.",
      "EUfr": "Moi aussi... Je les aiderai, je mettrai tout mon\ncœur à l'ouvrage !",
      "EUit": "Quindi anche io voglio dare il mio contributo.",
      "EUnl": "Misschien wordt het zelfs wel mooier dan ooit.\nMaar het begint bij ons.",
      "EUru": "И поэтому...{{pageBreak}}Я должна помогать им всем, чем могу!",
      "JPja": "だから……\n{{ruby charSpan=\"1\" value=\"わたし\"}}私は その{{ruby charSpan=\"1\" value=\"たす\"}}助けになりたいのです",
      "KRko": "그러니까……\n저는 그것을 곁에서 돕고 싶어요",
      "TWzh": "所以……\n我要去幫助他們。",
      "USen": "Perhaps...even beyond. {{pageBreak}}But it all must start with us.",
      "USes": "O incluso más. Y ese cambio empieza\naquí con nosotros.",
      "USfr": "Moi aussi... Je les aiderai, je mettrai tout\nmon cœur à l'ouvrage!"
    }
  },
  {
    "label": "Demo139_0_Text006",
    "attribute": "",
    "locale": {
      "CNzh": "好了，我们走吧。",
      "EUde": "Komm, lass uns gehen.",
      "EUen": "Let's be off.",
      "EUes": "Es hora de irnos.",
      "EUfr": "Viens, allons-y.",
      "EUit": "Dai, andiamo.",
      "EUnl": "Kom.",
      "EUru": "Ладно, идем.",
      "JPja": "さあ {{ruby charSpan=\"1\" value=\"い\"}}行きましょう",
      "KRko": "자, 갈까요",
      "TWzh": "好了，我們走吧。",
      "USen": "Let's be off.",
      "USes": "{{pageBreak}}Vamos.",
      "USfr": "Viens, allons-y."
    }
  },
  {
    "label": "Demo139_0_Text007",
    "attribute": "",
    "locale": {
      "CNzh": "我已经听不见那把剑的声音了。",
      "EUde": "Ich höre die Stimme des Schwertes nicht mehr.",
      "EUen": "I can no longer hear the voice inside the sword.",
      "EUes": "Ya no escucho la voz que emana de la espada.",
      "EUfr": "Je n'entends plus la voix de l'épée.\nComme autrefois.",
      "EUit": "Ho smesso di nuovo di sentire la voce della spada.",
      "EUnl": "Ik hoor de stem van het zwaard niet meer.",
      "EUru": "Я перестала слышать голос меча.",
      "JPja": "またその{{ruby charSpan=\"1\" value=\"つるぎ\"}}剣の{{ruby charSpan=\"1\" value=\"こえ\"}}声が{{ruby charSpan=\"1\" value=\"き\"}}聞こえなくなりました",
      "KRko": "다시 그 검의 목소리가 들리지 않게 되었네요",
      "TWzh": "我已經聽不見那把劍的聲音了。",
      "USen": "I can no longer hear the voice inside the sword.",
      "USes": "Ya no escucho la voz que emana de la espada.",
      "USfr": "Je n'entends plus la voix de l'épée.\nComme autrefois."
    }
  },
  {
    "label": "Demo139_0_Text008",
    "attribute": "",
    "locale": {
      "CNzh": "或许我的力量……\n已被那100年的封印耗尽了……",
      "EUde": "Meine Kraft... Vielleicht ist sie durch die\nhundertjährige Versiegelung verkümmert...",
      "EUen": "I suppose it would make sense if my power had\ndwindled over the past 100 years...",
      "EUes": "Puede que mi poder se haya debilitado\ntras cien años de asedio.",
      "EUfr": "Quand on y pense... ça n'a rien de surprenant.\nMon pouvoir a dû s'épuiser en 100 ans.",
      "EUit": "Forse, dopo un assedio durato cent'anni,\nil mio potere è appassito.",
      "EUnl": "Misschien zijn mijn krachten afgezwakt\nin de afgelopen honderd jaar.",
      "EUru": "Моя сила...{{pageBreak}}Возможно, за сто лет борьбы\nс Ганоном она угасла.",
      "JPja": "{{ruby charSpan=\"1\" value=\"わたし\"}}私の{{ruby charSpan=\"1\" value=\"ちから\"}}力は……\n100{{ruby charSpan=\"1\" value=\"ねん\"}}年の{{ruby charSpan=\"2\" value=\"ふういん\"}}封印で{{ruby charSpan=\"1\" value=\"か\"}}枯れ{{ruby charSpan=\"1\" value=\"は\"}}果てたのかもしれません……",
      "KRko": "제 힘은……\n100년 동안의 봉인에 의해 사라져 버린지도 모르죠……",
      "TWzh": "也許是我的力量……\n已經因為那100年的封印而耗盡了……",
      "USen": "I suppose it would make sense if my power had\ndwindled over the past 100 years...",
      "USes": "Supongo que mi poder se debilitó\ntras esos cien años de asedio.",
      "USfr": "Quand on y pense... ça n'a rien de surprenant.\nMon pouvoir a dû s'épuiser en 100 ans."
    }
  },
  {
    "label": "Demo139_0_Text009",
    "attribute": "",
    "locale": {
      "CNzh": "但是……\n\n现在已经没关系了。",
      "EUde": "Aber... was soll's?{{pageBreak}}Ich brauche sie nicht mehr.",
      "EUen": "I'm surprised to admit it...{{pageBreak}}But I can accept that.",
      "EUes": "Pero...{{pageBreak}}ya no me importa.",
      "EUfr": "Eh bien, si c'est ça...{{pageBreak}}... je m'en accommoderai !",
      "EUit": "Però, per me...{{pageBreak}}va bene così!",
      "EUnl": "Ik had niet verwacht dat ik er zo over zou denken,\nmaar het is goed zo.",
      "EUru": "Но теперь... мне уже все равно.",
      "JPja": "でも {{ruby charSpan=\"1\" value=\"わたし\"}}私……\n\nもう{{ruby charSpan=\"2\" value=\"へいき\"}}平気です",
      "KRko": "하지만 전……\n\n이제 괜찮아요",
      "TWzh": "但是我……\n\n已經不要緊了。",
      "USen": "I'm surprised to admit it...{{pageBreak}}But I can accept that.",
      "USes": "Pero... yo...{{pageBreak}}ya lo acepté.",
      "USfr": "Eh bien, si c'est ça...{{pageBreak}}... je m'en accommoderai!"
    }
  },
  {
    "label": "Demo139_0_Text010",
    "attribute": "",
    "locale": {
      "CNzh": "……",
      "EUde": "[Sie kichert.]",
      "EUen": " ",
      "EUes": "  ",
      "EUfr": " ",
      "EUit": "  ",
      "EUnl": " ",
      "EUru": " ",
      "JPja": "……",
      "KRko": " ",
      "TWzh": "……",
      "USen": " ",
      "USes": "(Risa)",
      "USfr": " "
    }
  }
]