[
  {
    "label": "Demo044_0_Text004",
    "attribute": "",
    "locale": {
      "CNzh": "剩余的{{color id=\"0\"}}控制终端{{color id=\"65535\"}}还有{{color id=\"0\"}}4{{color id=\"65535\"}}个！\n任重而道远啊。{{delay frames=\"163\"}}",
      "EUde": "{{color id=\"0\"}}4 Kontrollsiegel{{color id=\"65535\"}} fehlen noch!\nIch hoffe, du gibst nicht schon auf.{{delay frames=\"146\"}}",
      "EUen": "There are {{color id=\"0\"}}four{{color id=\"65535\"}} {{color id=\"0\"}}terminals {{color id=\"65535\"}}remaining!\nStill a ways to go.{{delay frames=\"113\"}}",
      "EUes": "Todavía quedan {{color id=\"0\"}}4{{color id=\"65535\"}} {{color id=\"0\"}}terminales{{color id=\"65535\"}}.\nLa cosa no pinta mal.{{delay frames=\"147\"}}",
      "EUfr": "Il reste {{color id=\"0\"}}quatre terminaux de contrôle{{color id=\"65535\"}}.\nJ'ai déjà vu des escargots plus rapides\nque toi, tu sais.{{delay frames=\"155\"}}",
      "EUit": "Restano ancora {{color id=\"0\"}}4 terminali{{color id=\"65535\"}}.\nNe hai ancora di lavoro da fare!{{delay frames=\"180\"}}",
      "EUnl": "Nog {{color id=\"0\"}}vier{{color id=\"65535\"}} {{color id=\"0\"}}controlezuilen{{color id=\"65535\"}} te gaan.\nWe zijn er nog niet.{{delay frames=\"163\"}}",
      "EUru": "Еще {{color id=\"0\"}}четыре контрольных модуля{{color id=\"65535\"}}!\nНеплохо, неплохо.{{delay frames=\"116\"}}",
      "JPja": "{{ruby charSpan=\"1\" value=\"のこ\"}}残りの{{color id=\"0\"}}{{ruby charSpan=\"4\" value=\"せいぎょたんまつ\"}}制御端末{{color id=\"65535\"}}は あと {{color id=\"0\"}}4{{color id=\"65535\"}} {{ruby charSpan=\"1\" value=\"こ\"}}個だよ！\n{{ruby charSpan=\"1\" value=\"さき\"}}先は{{ruby charSpan=\"1\" value=\"なが\"}}長いね{{delay frames=\"163\"}}",
      "KRko": "남은 {{color id=\"0\"}}제어 단말{{color id=\"65535\"}}은 앞으로 {{color id=\"0\"}}4{{color id=\"65535\"}}개야!\n아직 멀었네{{delay frames=\"163\"}}",
      "TWzh": "還剩下{{color id=\"0\"}}4{{color id=\"65535\"}}個{{color id=\"0\"}}控制裝置{{color id=\"65535\"}}喔！\n還差得遠呢。{{delay frames=\"163\"}}",
      "USen": "There are {{color id=\"0\"}}four{{color id=\"65535\"}} {{color id=\"0\"}}terminals {{color id=\"65535\"}}remaining!\nStill a ways to go.{{delay frames=\"113\"}}",
      "USes": "Muy bien, pero no cantes victoria.\nTodavía quedan {{color id=\"0\"}}4{{color id=\"65535\"}} {{color id=\"0\"}}terminales{{color id=\"65535\"}}.{{delay frames=\"160\"}}",
      "USfr": "Il reste {{color id=\"0\"}}quatre terminaux de contrôle{{color id=\"65535\"}}.\nJ'ai déjà vu des escargots plus rapides\nque toi, tu sais.{{delay frames=\"155\"}}"
    }
  },
  {
    "label": "Demo044_0_Text003",
    "attribute": "",
    "locale": {
      "CNzh": "剩余的{{color id=\"0\"}}控制终端{{color id=\"65535\"}}还有{{color id=\"0\"}}3{{color id=\"65535\"}}个！\n还有很长的路要走啊。{{delay frames=\"140\"}}",
      "EUde": "{{color id=\"0\"}}3 Kontrollsiegel{{color id=\"65535\"}} stehen dir noch bevor!\nLangsam kommen wir weiter...{{delay frames=\"137\"}}",
      "EUen": "There are {{color id=\"0\"}}three terminals{{color id=\"65535\"}} remaining!\nKeep going.{{delay frames=\"96\"}}",
      "EUes": "Todavía quedan {{color id=\"0\"}}3{{color id=\"65535\"}} {{color id=\"0\"}}terminales{{color id=\"65535\"}}.\nYa casi está.{{delay frames=\"131\"}}",
      "EUfr": "Il reste {{color id=\"0\"}}trois terminaux de contrôle{{color id=\"65535\"}}.\nAllez, du nerf.{{delay frames=\"115\"}}",
      "EUit": "Restano ancora {{color id=\"0\"}}3 terminali{{color id=\"65535\"}}.\nAncora non ci siamo...{{delay frames=\"144\"}}",
      "EUnl": "Nog {{color id=\"0\"}}drie{{color id=\"65535\"}} {{color id=\"0\"}}controlezuilen{{color id=\"65535\"}} te gaan.\nWe komen er wel.{{delay frames=\"140\"}}",
      "EUru": "Осталось {{color id=\"0\"}}три контрольных модуля{{color id=\"65535\"}}!\nДавай поднажми!{{delay frames=\"103\"}}",
      "JPja": "{{ruby charSpan=\"1\" value=\"のこ\"}}残りの{{color id=\"0\"}}{{ruby charSpan=\"4\" value=\"せいぎょたんまつ\"}}制御端末{{color id=\"65535\"}}は あと {{color id=\"0\"}}3{{color id=\"65535\"}} {{ruby charSpan=\"1\" value=\"こ\"}}個！\nほら まだまだ{{delay frames=\"140\"}}",
      "KRko": "남은 {{color id=\"0\"}}제어 단말{{color id=\"65535\"}}은 앞으로 {{color id=\"0\"}}3{{color id=\"65535\"}}개!\n자, 아직이야{{delay frames=\"140\"}}",
      "TWzh": "還剩下{{color id=\"0\"}}3{{color id=\"65535\"}}個{{color id=\"0\"}}控制裝置{{color id=\"65535\"}}！\n喂喂喂，還沒結束喔。{{delay frames=\"140\"}}",
      "USen": "There are {{color id=\"0\"}}three terminals{{color id=\"65535\"}} remaining!\nKeep going.{{delay frames=\"96\"}}",
      "USes": "Te quedan {{color id=\"0\"}}3{{color id=\"65535\"}} {{color id=\"0\"}}terminales{{color id=\"65535\"}}.\nVas muy bien, muchacho.{{delay frames=\"128\"}}",
      "USfr": "Il reste {{color id=\"0\"}}trois terminaux de contrôle{{color id=\"65535\"}}.\nAllez, du nerf.{{delay frames=\"115\"}}"
    }
  },
  {
    "label": "Demo044_0_Text002",
    "attribute": "",
    "locale": {
      "CNzh": "剩余的{{color id=\"0\"}}控制终端{{color id=\"65535\"}}还有{{color id=\"0\"}}2{{color id=\"65535\"}}个！\n哦……剩下的已经不多了呢。{{delay frames=\"183\"}}",
      "EUde": "Jetzt sind nur noch {{color id=\"0\"}}2 Kontrollsiegel{{color id=\"65535\"}}\nübrig! Na so was, du hast es ja fast\ngeschafft!{{delay frames=\"177\"}}",
      "EUen": "There are {{color id=\"0\"}}two{{color id=\"65535\"}} {{color id=\"0\"}}terminals {{color id=\"65535\"}}remaining.\nYou're almost there.{{delay frames=\"112\"}}",
      "EUes": "Todavía faltan {{color id=\"0\"}}2{{color id=\"65535\"}} {{color id=\"0\"}}terminales{{color id=\"65535\"}}.\nNo te queda nada.{{delay frames=\"126\"}}",
      "EUfr": "Il reste {{color id=\"0\"}}deux terminaux de contrôle{{color id=\"65535\"}}.\nHé... Mais c'est que tu en verrais\npresque le bout...{{delay frames=\"155\"}}",
      "EUit": "Restano solo {{color id=\"0\"}}2 terminali{{color id=\"65535\"}}.\nNiente male, vedo che ci sei quasi!{{delay frames=\"178\"}}",
      "EUnl": "Nog {{color id=\"0\"}}twee{{color id=\"65535\"}} {{color id=\"0\"}}controlezuilen{{color id=\"65535\"}} te gaan.\nJe bent er bijna.{{delay frames=\"183\"}}",
      "EUru": "Осталось {{color id=\"0\"}}два контрольных модуля{{color id=\"65535\"}}!\nХм, а ведь почти справился.{{delay frames=\"148\"}}",
      "JPja": "{{ruby charSpan=\"1\" value=\"のこ\"}}残りの{{color id=\"0\"}}{{ruby charSpan=\"4\" value=\"せいぎょたんまつ\"}}制御端末{{color id=\"65535\"}}はあと {{color id=\"0\"}}2{{color id=\"65535\"}} {{ruby charSpan=\"1\" value=\"こ\"}}個だよ！\nへえ……もう{{ruby charSpan=\"1\" value=\"すこ\"}}少しじゃないか{{delay frames=\"183\"}}",
      "KRko": "남은 {{color id=\"0\"}}제어 단말{{color id=\"65535\"}}은 앞으로 {{color id=\"0\"}}2{{color id=\"65535\"}}개!\n호오…… 거의 다 왔는데{{delay frames=\"183\"}}",
      "TWzh": "還剩下{{color id=\"0\"}}2{{color id=\"65535\"}}個{{color id=\"0\"}}控制裝置{{color id=\"65535\"}}喔！\n哼～只差一點了啊。{{delay frames=\"183\"}}",
      "USen": "There are {{color id=\"0\"}}two{{color id=\"65535\"}} {{color id=\"0\"}}terminals {{color id=\"65535\"}}remaining.\nYou're almost there.{{delay frames=\"112\"}}",
      "USes": "Faltan {{color id=\"0\"}}2{{color id=\"65535\"}} {{color id=\"0\"}}terminales{{color id=\"65535\"}}. Ya casi lo tienes.{{delay frames=\"150\"}}",
      "USfr": "Il reste {{color id=\"0\"}}deux terminaux de contrôle{{color id=\"65535\"}}.\nHé... Mais c'est que tu en verrais\npresque le bout...{{delay frames=\"155\"}}"
    }
  },
  {
    "label": "Demo044_0_Text001",
    "attribute": "",
    "locale": {
      "CNzh": "剩余的{{color id=\"0\"}}控制终端{{color id=\"65535\"}}还有{{color id=\"0\"}}1{{color id=\"65535\"}}个！\n真是令人吃惊，终点就在眼前了。{{delay frames=\"203\"}}",
      "EUde": "Nur noch {{color id=\"0\"}}1 Kontrollsiegel{{color id=\"65535\"}} übrig!\nSieht aus, als hättest du dich selbst\nübertroffen...{{delay frames=\"154\"}}",
      "EUen": "Just {{color id=\"0\"}}one{{color id=\"65535\"}} {{color id=\"0\"}}terminal {{color id=\"65535\"}}remaining!\nWhat do you know?{{delay frames=\"139\"}}",
      "EUes": "Solo queda {{color id=\"0\"}}un terminal de control{{color id=\"65535\"}}.\n¡Puedo oler la victoria!{{delay frames=\"153\"}}",
      "EUfr": "Il ne reste plus qu'{{color id=\"0\"}}un seul terminal de\ncontrôle{{color id=\"65535\"}}. Allez, tu y es presque. En tout\ncas, je suis impressionné !{{delay frames=\"210\"}}",
      "EUit": "Resta solo {{color id=\"0\"}}1 terminale{{color id=\"65535\"}}!\nSono senza parole, ce l'hai quasi fatta!{{delay frames=\"151\"}}",
      "EUnl": "Nog maar {{color id=\"0\"}}één{{color id=\"65535\"}} {{color id=\"0\"}}controlezuil{{color id=\"65535\"}} te gaan.\nHet is bijna gelukt.{{delay frames=\"203\"}}",
      "EUru": "Остался {{color id=\"0\"}}один контрольный модуль{{color id=\"65535\"}}!\nПоследний. Действуй!{{delay frames=\"160\"}}",
      "JPja": "{{ruby charSpan=\"1\" value=\"のこ\"}}残りの{{color id=\"0\"}}{{ruby charSpan=\"4\" value=\"せいぎょたんまつ\"}}制御端末{{color id=\"65535\"}}はあと {{color id=\"0\"}}1{{color id=\"65535\"}} {{ruby charSpan=\"1\" value=\"こ\"}}個！\n{{ruby charSpan=\"1\" value=\"おどろ\"}}驚いたね ゴールは{{ruby charSpan=\"2\" value=\"もくぜん\"}}目前だよ{{delay frames=\"203\"}}",
      "KRko": "남은 {{color id=\"0\"}}제어 단말{{color id=\"65535\"}}은 앞으로 {{color id=\"0\"}}1{{color id=\"65535\"}}개!\n놀랍군, 목표가 눈앞이야{{delay frames=\"203\"}}",
      "TWzh": "還剩下{{color id=\"0\"}}1{{color id=\"65535\"}}個{{color id=\"0\"}}控制裝置{{color id=\"65535\"}}！\n真讓我驚訝，你居然離終點那麼近了。{{delay frames=\"183\"}}",
      "USen": "Just {{color id=\"0\"}}one{{color id=\"65535\"}} {{color id=\"0\"}}terminal {{color id=\"65535\"}}remaining!\nWhat do you know?{{delay frames=\"139\"}}",
      "USes": "Solo queda {{color id=\"0\"}}una terminal{{color id=\"65535\"}}. Puedo oler\nla victoria.{{delay frames=\"168\"}}",
      "USfr": "Il ne reste plus qu'{{color id=\"0\"}}un seul terminal de\ncontrôle{{color id=\"65535\"}}. Allez, tu y es presque.\nEn tout cas, je suis impressionné!{{delay frames=\"210\"}}"
    }
  },
  {
    "label": "Demo044_0_Text007",
    "attribute": "",
    "locale": {
      "CNzh": "厉害！这样一来，所有的{{color id=\"0\"}}控制终端{{color id=\"65535\"}}就都启动了！\n接下来可以去启动{{color id=\"0\"}}主控制装置{{color id=\"65535\"}}了！{{delay frames=\"229\"}}\n你仔细看下地图……上面应该有新出现一个\n发光的大标记……你去那里吧！{{delay frames=\"238\"}}\n不过，现在放心还太早了……{{delay frames=\"91\"}}",
      "EUde": "Oho! Du hast alle {{color id=\"0\"}}Kontrollsiegel{{color id=\"65535\"}}\ngelöst! Jetzt musst du nur noch die\n{{color id=\"0\"}}Steuerungseinheit{{color id=\"65535\"}} in Gang setzen!{{delay frames=\"194\"}}\nGuck mal auf deine Karte... Den großen,\nleuchtenden Punkt siehst du ja wohl,\noder? Da musst du hin.{{delay frames=\"177\"}}\nJetzt ist nicht die Zeit, dich auf deinen\nLorbeeren auszuruhen...{{delay frames=\"82\"}}",
      "EUen": "That was the last {{color id=\"0\"}}terminal{{color id=\"65535\"}}!\nNow you just need to start the\n{{color id=\"0\"}}main control unit{{color id=\"65535\"}}!{{delay frames=\"183\"}}\nI want you to take a good look at your\nmap. There should be a new glowing\npoint on there. Well?{{delay frames=\"233\"}}\nFlap to it!{{delay frames=\"34\"}}",
      "EUes": "¡Has activado todos los {{color id=\"0\"}}terminales{{color id=\"65535\"}}!\nAhora solo tienes que poner\nen marcha la {{color id=\"0\"}}unidad central{{color id=\"65535\"}}.{{delay frames=\"241\"}}\nÉchale un vistazo al mapa y verás\nun punto grande que brilla: dirígete\nhacia él.{{delay frames=\"244\"}}\n¡Venga, no te duermas en los laureles!{{delay frames=\"134\"}}",
      "EUfr": "Ah ! Tu as activé tous les {{color id=\"0\"}}terminaux\nde contrôle{{color id=\"65535\"}} ! Maintenant, il ne reste\nqu'à actionner l'{{color id=\"0\"}}unité principale{{color id=\"65535\"}}.{{delay frames=\"209\"}}\nRegarde un peu ta carte. Il devrait y\navoir un gros point brillant... C'est là\nque tu vas !{{delay frames=\"153\"}}\nCe n'est pas le moment de t'endormir\nsur tes lauriers !{{delay frames=\"65\"}}",
      "EUit": "Oooh! Hai attivato tutti i {{color id=\"0\"}}terminali{{color id=\"65535\"}}!\nOra non ti resta che avviare\nl'{{color id=\"0\"}}unità di controllo principale{{color id=\"65535\"}}.{{delay frames=\"272\"}}\nOsserva la mappa. Vedrai che è apparso\nun nuovo, grosso simbolo luminoso.\nQuella è la tua meta...{{delay frames=\"302\"}}\nMa è ancora presto per rilassarsi...{{delay frames=\"131\"}}",
      "EUnl": "Dat was de laatste {{color id=\"0\"}}controlezuil{{color id=\"65535\"}}. Nu moet\nje alleen nog de {{color id=\"0\"}}stuurmachine {{color id=\"65535\"}}aanzetten.{{delay frames=\"229\"}}\n\nKijk goed op je kaart.\nEr staat iets nieuws op aangegeven.{{delay frames=\"238\"}}\n\nEropaf!{{delay frames=\"91\"}}",
      "EUru": "Наконец-то! Все {{color id=\"0\"}}контрольные модули{{color id=\"65535\"}}\nвключены. Осталось запустить\n{{color id=\"0\"}}главный контроллер{{color id=\"65535\"}}.{{delay frames=\"163\"}}\nПосмотри на карту: на ней появилась\nновая отметка — отправляйся туда.\n{{delay frames=\"118\"}}\nВперед! Рано расслабляться!{{delay frames=\"60\"}}",
      "JPja": "やるね！ {{color id=\"0\"}}{{ruby charSpan=\"4\" value=\"せいぎょたんまつ\"}}制御端末{{color id=\"65535\"}}はこれで{{ruby charSpan=\"2\" value=\"ぜんぶ\"}}全部だよ！\n{{color id=\"0\"}}メイン{{ruby charSpan=\"4\" value=\"せいぎょそうち\"}}制御装置{{color id=\"65535\"}}を{{ruby charSpan=\"2\" value=\"きどう\"}}起動させられるようになった！{{delay frames=\"229\"}}\nマップを よく{{ruby charSpan=\"1\" value=\"み\"}}見てごらん… {{ruby charSpan=\"1\" value=\"あたら\"}}新しく{{ruby charSpan=\"1\" value=\"ひか\"}}光っている\n{{ruby charSpan=\"1\" value=\"おお\"}}大きな{{ruby charSpan=\"1\" value=\"しるし\"}}印があるはずだよ… そこへ{{ruby charSpan=\"1\" value=\"む\"}}向かうんだ！{{delay frames=\"238\"}}\n…でも まだ{{ruby charSpan=\"2\" value=\"あんしん\"}}安心しない{{ruby charSpan=\"1\" value=\"ほう\"}}方が{{ruby charSpan=\"1\" value=\"い\"}}良いな…{{delay frames=\"91\"}}",
      "KRko": "꽤 하는군! {{color id=\"0\"}}제어 단말{{color id=\"65535\"}}은 이걸로 끝이야!\n{{color id=\"0\"}}메인 제어 장치{{color id=\"65535\"}}를 기동시킬 수 있게 되었어!{{delay frames=\"229\"}}\n맵을 잘 봐… 새롭게 빛나고 있는\n커다란 표시가 있을 거야… 그리로 가 봐!{{delay frames=\"238\"}}\n…하지만 아직 안심하진 말라고…{{delay frames=\"91\"}}",
      "TWzh": "不錯嘛！這樣一來，全部的{{color id=\"0\"}}控制裝置{{color id=\"65535\"}}都起動了！\n接下來可以去起動{{color id=\"0\"}}主控制裝置{{color id=\"65535\"}}！{{delay frames=\"229\"}}\n你仔細看看地圖……上面應該新出現了一個\n發著光的大標示……你得往那裡去！{{delay frames=\"238\"}}\n……不過，現在放心還太早了喔……{{delay frames=\"91\"}}\n",
      "USen": "That was the last {{color id=\"0\"}}terminal{{color id=\"65535\"}}!\nNow you just need to start the\n{{color id=\"0\"}}main control unit{{color id=\"65535\"}}!{{delay frames=\"183\"}}\nI want you to take a good look at your\nmap. There should be a new glowing\npoint on there. Well?{{delay frames=\"233\"}}\nFlap to it!{{delay frames=\"34\"}}",
      "USes": "¡Esa fue la última {{color id=\"0\"}}terminal{{color id=\"65535\"}}!\nAhora solo te queda activar\nla {{color id=\"0\"}}unidad central{{color id=\"65535\"}}.{{delay frames=\"175\"}}\nMira el mapa. Ubica el punto grande\ny ve ahí.{{delay frames=\"115\"}}{{pageBreak}}¡No te duermas en tus laureles!{{delay frames=\"67\"}}",
      "USfr": "Ah! Tu as activé tous les {{color id=\"0\"}}terminaux\nde contrôle{{color id=\"65535\"}}! Maintenant, il ne reste\nqu'à actionner l'{{color id=\"0\"}}unité principale{{color id=\"65535\"}}.{{delay frames=\"209\"}}\nRegarde un peu ta carte. Il devrait y\navoir un gros point brillant... C'est là\nque tu vas!{{delay frames=\"153\"}}\nCe n'est pas le moment de t'endormir\nsur tes lauriers!{{delay frames=\"65\"}}"
    }
  },
  {
    "label": "Demo044_0_Text014",
    "attribute": "",
    "locale": {
      "CNzh": "剩余的{{color id=\"0\"}}控制终端{{color id=\"65535\"}}还有{{color id=\"0\"}}4{{color id=\"65535\"}}个！\n就是这样，兄弟！！{{delay frames=\"150\"}}",
      "EUde": "Noch {{color id=\"0\"}}4 Kontrollsiegel{{color id=\"65535\"}}!\nWeiter so, Bruder!{{delay frames=\"122\"}}",
      "EUen": "There are {{color id=\"0\"}}four terminals {{color id=\"65535\"}}remaining!\nThat's the way!{{delay frames=\"101\"}}",
      "EUes": "Te faltan {{color id=\"0\"}}4{{color id=\"65535\"}} {{color id=\"0\"}}terminales{{color id=\"65535\"}}. ¡Tú sí que sabes!{{delay frames=\"205\"}}",
      "EUfr": "Il reste plus que {{color id=\"0\"}}quatre terminaux de\ncontrôle{{color id=\"65535\"}} ! Tu tiens le bon bout !{{delay frames=\"120\"}}",
      "EUit": "Restano ancora {{color id=\"0\"}}4 terminali{{color id=\"65535\"}}!\nCosì si fa, roccia!{{delay frames=\"157\"}}",
      "EUnl": "Nog {{color id=\"0\"}}vier{{color id=\"65535\"}} {{color id=\"0\"}}controlezuilen{{color id=\"65535\"}} te gaan.\nDat gaat de goede kant op.{{delay frames=\"150\"}}",
      "EUru": "Еще {{color id=\"0\"}}четыре контрольных модуля{{color id=\"65535\"}}!\nМолодчина! Так держать, друг!{{delay frames=\"144\"}}",
      "JPja": "{{ruby charSpan=\"1\" value=\"のこ\"}}残りの{{color id=\"0\"}}{{ruby charSpan=\"4\" value=\"せいぎょたんまつ\"}}制御端末{{color id=\"65535\"}}は あと {{color id=\"0\"}}4{{color id=\"65535\"}} {{ruby charSpan=\"1\" value=\"こ\"}}個！\nその{{ruby charSpan=\"2\" value=\"ちょうし\"}}調子だ {{ruby charSpan=\"2\" value=\"あいぼう\"}}相棒！！{{delay frames=\"150\"}}",
      "KRko": "남은 {{color id=\"0\"}}제어 단말{{color id=\"65535\"}}은 앞으로 {{color id=\"0\"}}4{{color id=\"65535\"}}개!\n바로 그거야, 친구!!{{delay frames=\"150\"}}",
      "TWzh": "還剩{{color id=\"0\"}}4{{color id=\"65535\"}}個{{color id=\"0\"}}控制裝置{{color id=\"65535\"}}！\n就是這樣，兄弟！！{{delay frames=\"150\"}}",
      "USen": "There are {{color id=\"0\"}}four terminals {{color id=\"65535\"}}remaining!\nThat's the way!{{delay frames=\"101\"}}",
      "USes": "Te faltan {{color id=\"0\"}}4{{color id=\"65535\"}} {{color id=\"0\"}}terminales{{color id=\"65535\"}}.\n¡Sigue así, muchacho!{{delay frames=\"135\"}}",
      "USfr": "Il reste plus que {{color id=\"0\"}}quatre terminaux de\ncontrôle{{color id=\"65535\"}}! Tu tiens le bon bout!{{delay frames=\"120\"}}"
    }
  },
  {
    "label": "Demo044_0_Text013",
    "attribute": "",
    "locale": {
      "CNzh": "剩余的{{color id=\"0\"}}控制终端{{color id=\"65535\"}}还有{{color id=\"0\"}}3{{color id=\"65535\"}}个！\n好，我们快走吧！！{{delay frames=\"154\"}}",
      "EUde": "Es sind noch {{color id=\"0\"}}3 Kontrollsiegel{{color id=\"65535\"}} übrig!\nHalt dich ran!{{delay frames=\"120\"}}",
      "EUen": "There are {{color id=\"0\"}}three terminals{{color id=\"65535\"}} remaining!\nAll right, let's get movin'!{{delay frames=\"148\"}}",
      "EUes": "Te faltan {{color id=\"0\"}}3{{color id=\"65535\"}} {{color id=\"0\"}}terminales{{color id=\"65535\"}}. ¡Sigue así!{{delay frames=\"108\"}}",
      "EUfr": "Il reste plus que {{color id=\"0\"}}trois terminaux\nde contrôle{{color id=\"65535\"}} ! Traîne pas !{{delay frames=\"118\"}}",
      "EUit": "Restano ancora {{color id=\"0\"}}3 terminali{{color id=\"65535\"}}!\nBene, diamoci una mossa!{{delay frames=\"162\"}}",
      "EUnl": "Nog {{color id=\"0\"}}drie{{color id=\"65535\"}} {{color id=\"0\"}}controlezuilen{{color id=\"65535\"}} te gaan.\nOp naar de volgende.{{delay frames=\"154\"}}",
      "EUru": "Осталось {{color id=\"0\"}}три контрольных модуля{{color id=\"65535\"}}!\nВперед! К следующему!{{delay frames=\"142\"}}",
      "JPja": "{{ruby charSpan=\"1\" value=\"のこ\"}}残りの{{color id=\"0\"}}{{ruby charSpan=\"4\" value=\"せいぎょたんまつ\"}}制御端末{{color id=\"65535\"}}は あと {{color id=\"0\"}}3{{color id=\"65535\"}} {{ruby charSpan=\"1\" value=\"こ\"}}個！\nようし {{ruby charSpan=\"1\" value=\"いそ\"}}急ごうぜ！！{{delay frames=\"154\"}}",
      "KRko": "남은 {{color id=\"0\"}}제어 단말{{color id=\"65535\"}}은 앞으로 {{color id=\"0\"}}3{{color id=\"65535\"}}개!\n좋아, 서두르자고!!{{delay frames=\"154\"}}",
      "TWzh": "還剩{{color id=\"0\"}}3{{color id=\"65535\"}}個{{color id=\"0\"}}控制裝置{{color id=\"65535\"}}！\n好！加緊腳步吧！！{{delay frames=\"154\"}}",
      "USen": "There are {{color id=\"0\"}}three terminals{{color id=\"65535\"}} remaining!\nAll right, let's get movin'!{{delay frames=\"148\"}}",
      "USes": "¡Bien! Ahora te faltan {{color id=\"0\"}}3{{color id=\"65535\"}} {{color id=\"0\"}}terminales{{color id=\"65535\"}}.\n¡Queda poco!{{delay frames=\"130\"}}",
      "USfr": "Il reste plus que {{color id=\"0\"}}trois terminaux\nde contrôle{{color id=\"65535\"}}! Traîne pas!{{delay frames=\"118\"}}"
    }
  },
  {
    "label": "Demo044_0_Text012",
    "attribute": "",
    "locale": {
      "CNzh": "剩余的{{color id=\"0\"}}控制终端{{color id=\"65535\"}}还有{{color id=\"0\"}}2{{color id=\"65535\"}}个！\n只剩一点了！！{{delay frames=\"142\"}}",
      "EUde": "Noch {{color id=\"0\"}}2 Kontrollsiegel{{color id=\"65535\"}}!\nFehlt nur noch 'n kleines bisschen!{{delay frames=\"130\"}}",
      "EUen": "There are {{color id=\"0\"}}two terminals{{color id=\"65535\"}} remaining!\nJust a little more!{{delay frames=\"122\"}}",
      "EUes": "Te faltan {{color id=\"0\"}}2{{color id=\"65535\"}} {{color id=\"0\"}}terminales{{color id=\"65535\"}}. ¡Queda poco!{{delay frames=\"184\"}}",
      "EUfr": "Il reste plus que {{color id=\"0\"}}deux terminaux\nde contrôle{{color id=\"65535\"}} ! T'y es presque !{{delay frames=\"112\"}}",
      "EUit": "Restano solo {{color id=\"0\"}}2 terminali{{color id=\"65535\"}}!\nOrmai ci sei quasi!{{delay frames=\"169\"}}",
      "EUnl": "Nog {{color id=\"0\"}}twee{{color id=\"65535\"}} {{color id=\"0\"}}controlezuilen{{color id=\"65535\"}} te gaan.\nNog even doorbijten.{{delay frames=\"142\"}}",
      "EUru": "Осталось всего {{color id=\"0\"}}два контрольных\nмодуля{{color id=\"65535\"}}! Победа близка!{{delay frames=\"133\"}}",
      "JPja": "{{ruby charSpan=\"1\" value=\"のこ\"}}残りの{{color id=\"0\"}}{{ruby charSpan=\"4\" value=\"せいぎょたんまつ\"}}制御端末{{color id=\"65535\"}}は あと {{color id=\"0\"}}2{{color id=\"65535\"}} {{ruby charSpan=\"1\" value=\"こ\"}}個！\nもう{{ruby charSpan=\"1\" value=\"すこ\"}}少しだな！！{{delay frames=\"142\"}}",
      "KRko": "남은 {{color id=\"0\"}}제어 단말{{color id=\"65535\"}}은 앞으로 {{color id=\"0\"}}2{{color id=\"65535\"}}개!\n얼마 남지 않았어!!{{delay frames=\"142\"}}",
      "TWzh": "還剩{{color id=\"0\"}}2{{color id=\"65535\"}}個{{color id=\"0\"}}控制裝置{{color id=\"65535\"}}！\n只剩一點了！！{{delay frames=\"142\"}}",
      "USen": "There are {{color id=\"0\"}}two terminals{{color id=\"65535\"}} remaining!\nJust a little more!{{delay frames=\"122\"}}",
      "USes": "Te faltan las últimas {{color id=\"0\"}}2{{color id=\"65535\"}} {{color id=\"0\"}}terminales{{color id=\"65535\"}}.\n¡Un último esfuerzo!{{delay frames=\"132\"}}",
      "USfr": "Il reste plus que {{color id=\"0\"}}deux terminaux\nde contrôle{{color id=\"65535\"}}! T'y es presque!{{delay frames=\"112\"}}"
    }
  },
  {
    "label": "Demo044_0_Text011",
    "attribute": "",
    "locale": {
      "CNzh": "剩余的{{color id=\"0\"}}控制终端{{color id=\"65535\"}}还有{{color id=\"0\"}}1{{color id=\"65535\"}}个！\n最后{{color id=\"0\"}}1{{color id=\"65535\"}}个了！！{{delay frames=\"140\"}}",
      "EUde": "Noch {{color id=\"0\"}}1 Kontrollsiegel{{color id=\"65535\"}}!\nNur noch ein einziges, Bruder!{{delay frames=\"116\"}}",
      "EUen": "Just {{color id=\"0\"}}one terminal {{color id=\"65535\"}}remaining!\nJust {{color id=\"0\"}}one {{color id=\"65535\"}}more!{{delay frames=\"110\"}}",
      "EUes": "Solo te falta {{color id=\"0\"}}un terminal de control{{color id=\"65535\"}}.\n¡{{color id=\"0\"}}Uno{{color id=\"65535\"}} nada más!{{delay frames=\"196\"}}",
      "EUfr": "Il reste plus qu'{{color id=\"0\"}}un seul terminal de\ncontrôle{{color id=\"65535\"}} ! C'est le {{color id=\"0\"}}dernier{{color id=\"65535\"}}, p'tit gars !{{delay frames=\"126\"}}",
      "EUit": "Resta solo {{color id=\"0\"}}1 terminale{{color id=\"65535\"}}!\nDai, ti rimane solo {{color id=\"0\"}}l'ultimo{{color id=\"65535\"}}!{{delay frames=\"181\"}}",
      "EUnl": "Nog maar {{color id=\"0\"}}één{{color id=\"65535\"}} {{color id=\"0\"}}controlezuil{{color id=\"65535\"}} te gaan.\nEentje nog maar.{{delay frames=\"140\"}}",
      "EUru": "Остался {{color id=\"0\"}}один контрольный\nмодуль{{color id=\"65535\"}}! Всего {{color id=\"0\"}}один{{color id=\"65535\"}}!{{delay frames=\"129\"}}",
      "JPja": "{{ruby charSpan=\"1\" value=\"のこ\"}}残りの{{color id=\"0\"}}{{ruby charSpan=\"4\" value=\"せいぎょたんまつ\"}}制御端末{{color id=\"65535\"}}は あと {{color id=\"0\"}}1{{color id=\"65535\"}} {{ruby charSpan=\"1\" value=\"こ\"}}個！\nあと {{color id=\"0\"}}1{{color id=\"65535\"}} {{ruby charSpan=\"1\" value=\"こ\"}}個だ！！{{delay frames=\"140\"}}",
      "KRko": "남은 {{color id=\"0\"}}제어 단말{{color id=\"65535\"}}은 앞으로 {{color id=\"0\"}}1{{color id=\"65535\"}}개!\n단 {{color id=\"0\"}}1{{color id=\"65535\"}}개야!!{{delay frames=\"140\"}}",
      "TWzh": "還剩{{color id=\"0\"}}1{{color id=\"65535\"}}個{{color id=\"0\"}}控制裝置{{color id=\"65535\"}}！\n只剩{{color id=\"0\"}}1{{color id=\"65535\"}}個了！！{{delay frames=\"140\"}}",
      "USen": "Just {{color id=\"0\"}}one terminal {{color id=\"65535\"}}remaining!\nJust {{color id=\"0\"}}one {{color id=\"65535\"}}more!{{delay frames=\"110\"}}",
      "USes": "Solo te falta {{color id=\"0\"}}una terminal{{color id=\"65535\"}}.\n¡{{color id=\"0\"}}Una{{color id=\"65535\"}} nada más!{{delay frames=\"106\"}}",
      "USfr": "Il reste plus qu'{{color id=\"0\"}}un seul terminal de\ncontrôle{{color id=\"65535\"}}! C'est le {{color id=\"0\"}}dernier{{color id=\"65535\"}}, p'tit gars!{{delay frames=\"126\"}}"
    }
  },
  {
    "label": "Demo044_0_Text017",
    "attribute": "",
    "locale": {
      "CNzh": "好！这样一来，所有的{{color id=\"0\"}}控制终端{{color id=\"65535\"}}就都启动了！\n接下来可以去启动{{color id=\"0\"}}主控制装置{{color id=\"65535\"}}了！{{delay frames=\"229\"}}\n你仔细看下地图……上面应该有新出现一个\n发光的大标记……你去那里吧！{{delay frames=\"238\"}}\n……不过，你最好别掉以轻心，兄弟！{{delay frames=\"91\"}}",
      "EUde": "Sauber! Alle {{color id=\"0\"}}Kontrollsiegel{{color id=\"65535\"}} sind\ngelöst! Jetzt schmeiß noch die\n{{color id=\"0\"}}Steuerungseinheit {{color id=\"65535\"}}an!{{delay frames=\"174\"}}\nSiehst du auf deiner Karte 'nen großen,\nleuchtenden Punkt? Da musst du hin!{{delay frames=\"125\"}}{{pageBreak}}Aber bleib wachsam, Bruder...{{delay frames=\"47\"}}",
      "EUen": "Nice! That was the last {{color id=\"0\"}}terminal{{color id=\"65535\"}}!\nNow go ahead and start up the\n{{color id=\"0\"}}main control unit{{color id=\"65535\"}}!{{delay frames=\"197\"}}\nThere should be a new glowing mark on\nyour map. You're gonna need to make\nyour way over to that.{{delay frames=\"174\"}}\nStay focused, little guy!{{delay frames=\"61\"}}",
      "EUes": "¡Has activado todos los {{color id=\"0\"}}terminales{{color id=\"65535\"}}!\nAhora solo tienes que poner en\nmarcha la {{color id=\"0\"}}unidad central{{color id=\"65535\"}}, ¡y listo!{{delay frames=\"278\"}}\nÉchale un vistazo al mapa y verás\nun punto grande que brilla: dirígete\nhacia él.{{delay frames=\"280\"}}\n¡Céntrate, zagal!{{delay frames=\"156\"}}",
      "EUfr": "Haha ! T'as activé tous les {{color id=\"0\"}}terminaux\nde contrôle{{color id=\"65535\"}} ! Il te reste plus qu'à\nactionner l'{{color id=\"0\"}}unité principale {{color id=\"65535\"}}!{{delay frames=\"235\"}}\nTu vois le gros truc qui brille sur ta\ncarte ? Eh ben, c'est là !{{delay frames=\"95\"}}\n\nMais relâche pas ta garde pour autant,\np'tit gars !{{delay frames=\"67\"}}",
      "EUit": "Oooh! Hai attivato tutti i {{color id=\"0\"}}terminali{{color id=\"65535\"}}!\nOra non ti resta che avviare\nl'{{color id=\"0\"}}unità di controllo principale{{color id=\"65535\"}}.{{delay frames=\"300\"}}\nOsserva la mappa. Vedrai che è apparso\nun nuovo, grosso simbolo luminoso.\nQuella è la tua meta.{{delay frames=\"294\"}}\nMa non abbassare la guardia, roccia!{{delay frames=\"132\"}}",
      "EUnl": "Mooi, dat was de laatste {{color id=\"0\"}}controlezuil{{color id=\"65535\"}}.\nTijd om de {{color id=\"0\"}}stuurmachine{{color id=\"65535\"}} te activeren.{{delay frames=\"219\"}}{{pageBreak}}Er gloeit iets nieuws op je kaart.\nDaar moet je heen.{{delay frames=\"221\"}}{{pageBreak}}Blijf opletten, kleintje.{{delay frames=\"108\"}}",
      "EUru": "Вот, красотища! Ты молодец! Все\n{{color id=\"0\"}}контрольные модули {{color id=\"65535\"}}включены!{{delay frames=\"217\"}}\n\nМожно запускать {{color id=\"0\"}}главный контроллер{{color id=\"65535\"}}.\nОн отмечен на карте — топай туда.{{delay frames=\"214\"}}\n\nИ будь осторожен, дружище!{{delay frames=\"108\"}}",
      "JPja": "ようし！ {{color id=\"0\"}}{{ruby charSpan=\"4\" value=\"せいぎょたんまつ\"}}制御端末{{color id=\"65535\"}}はこれで{{ruby charSpan=\"2\" value=\"ぜんぶ\"}}全部だ！\n{{color id=\"0\"}}メイン{{ruby charSpan=\"4\" value=\"せいぎょそうち\"}}制御装置{{color id=\"65535\"}}を{{ruby charSpan=\"2\" value=\"きどう\"}}起動させられるようになったぜ{{delay frames=\"219\"}}\nマップを よく{{ruby charSpan=\"1\" value=\"み\"}}見な… {{ruby charSpan=\"1\" value=\"あたら\"}}新しく{{ruby charSpan=\"1\" value=\"ひか\"}}光っている\n{{ruby charSpan=\"1\" value=\"おお\"}}大きな{{ruby charSpan=\"1\" value=\"しるし\"}}印があるはずだ… そこへ{{ruby charSpan=\"1\" value=\"む\"}}向かえ！{{delay frames=\"221\"}}\n…けど {{ruby charSpan=\"1\" value=\"き\"}}気を{{ruby charSpan=\"1\" value=\"ぬ\"}}抜くなよ {{ruby charSpan=\"2\" value=\"あいぼう\"}}相棒！{{delay frames=\"108\"}}",
      "KRko": "좋아! {{color id=\"0\"}}제어 단말{{color id=\"65535\"}}은 이걸로 끝이야!\n{{color id=\"0\"}}메인 제어 장치{{color id=\"65535\"}}를 기동시킬 수 있게 됐다고{{delay frames=\"219\"}}\n맵을 잘 봐… 새롭게 빛나고 있는\n커다란 표시가 있을 거야… 그리로 가!{{delay frames=\"221\"}}\n…하지만 방심하지는 마, 친구!{{delay frames=\"108\"}}",
      "TWzh": "好啊！這樣一來，全部的{{color id=\"0\"}}控制裝置{{color id=\"65535\"}}都起動啦！\n接下來就可以去起動{{color id=\"0\"}}主控制裝置{{color id=\"65535\"}}了！{{delay frames=\"229\"}}\n你仔細看地圖……上面應該新出現了一個\n發著光的大標示……就往那裡去！{{delay frames=\"238\"}}\n……不過，可別掉以輕心啊，兄弟！{{delay frames=\"91\"}}\n",
      "USen": "Nice! That was the last {{color id=\"0\"}}terminal{{color id=\"65535\"}}!\nNow go ahead and start up the\n{{color id=\"0\"}}main control unit{{color id=\"65535\"}}!{{delay frames=\"197\"}}\nThere should be a new glowing mark on\nyour map. You're gonna need to make\nyour way over to that.{{delay frames=\"174\"}}\nStay focused, little guy!{{delay frames=\"61\"}}",
      "USes": "¡Activaste todas las {{color id=\"0\"}}terminales{{color id=\"65535\"}}!\nAhora solo tienes que poner en\nmarcha la {{color id=\"0\"}}unidad central{{color id=\"65535\"}}.{{delay frames=\"190\"}}\nFíjate bien en el mapa y verás\nun punto grande. Ahí es donde\ntienes que ir.{{delay frames=\"190\"}}{{pageBreak}}¡Ánimo, muchacho!{{delay frames=\"45\"}}",
      "USfr": "Haha! T'as activé tous les {{color id=\"0\"}}terminaux\nde contrôle{{color id=\"65535\"}}! Il te reste plus qu'à\nactionner l'{{color id=\"0\"}}unité principale{{color id=\"65535\"}}!{{delay frames=\"235\"}}\nTu vois le gros truc qui brille sur ta\ncarte? Eh ben, c'est là!{{delay frames=\"95\"}}\n\nMais relâche pas ta garde pour autant,\np'tit gars!{{delay frames=\"67\"}}"
    }
  },
  {
    "label": "Demo044_0_Text024",
    "attribute": "",
    "locale": {
      "CNzh": "剩余的{{color id=\"0\"}}控制终端{{color id=\"65535\"}}还有{{color id=\"0\"}}4{{color id=\"65535\"}}个！\n看你的了！{{delay frames=\"130\"}}",
      "EUde": "Noch {{color id=\"0\"}}4 Kontrollsiegel{{color id=\"65535\"}}!\nAuf dich ist Verlass!{{delay frames=\"105\"}}",
      "EUen": "There are {{color id=\"0\"}}four terminals{{color id=\"65535\"}} remaining!\nI'm counting on you!{{delay frames=\"101\"}}",
      "EUes": "Restan todavía {{color id=\"0\"}}4{{color id=\"65535\"}} {{color id=\"0\"}}terminales{{color id=\"65535\"}}.\n¡Sé que puedes hacerlo!{{delay frames=\"183\"}}",
      "EUfr": "Il ne reste plus que {{color id=\"0\"}}quatre terminaux de\ncontrôle{{color id=\"65535\"}} ! Je sais que tu en es capable !{{delay frames=\"131\"}}",
      "EUit": "Restano ancora {{color id=\"0\"}}4 terminali{{color id=\"65535\"}}!\nForza, conto su di te!{{delay frames=\"138\"}}",
      "EUnl": "Nog {{color id=\"0\"}}vier{{color id=\"65535\"}} {{color id=\"0\"}}controlezuilen{{color id=\"65535\"}} te gaan.\nIk reken op je.{{delay frames=\"130\"}}",
      "EUru": "Еще {{color id=\"0\"}}четыре контрольных модуля{{color id=\"65535\"}}!\nНадеюсь, ты меня не подведешь.{{delay frames=\"142\"}}",
      "JPja": "{{ruby charSpan=\"1\" value=\"のこ\"}}残りの{{color id=\"0\"}}{{ruby charSpan=\"4\" value=\"せいぎょたんまつ\"}}制御端末{{color id=\"65535\"}}は あと {{color id=\"0\"}}4{{color id=\"65535\"}} {{ruby charSpan=\"1\" value=\"こ\"}}個！\n{{ruby charSpan=\"1\" value=\"たの\"}}頼んだよ！{{delay frames=\"130\"}}",
      "KRko": "남은 {{color id=\"0\"}}제어 단말{{color id=\"65535\"}}은 앞으로 {{color id=\"0\"}}4{{color id=\"65535\"}}개!\n부탁할게!{{delay frames=\"130\"}}",
      "TWzh": "還剩{{color id=\"0\"}}4{{color id=\"65535\"}}個{{color id=\"0\"}}控制裝置{{color id=\"65535\"}}！\n看你的了！{{delay frames=\"130\"}}",
      "USen": "There are {{color id=\"0\"}}four terminals{{color id=\"65535\"}} remaining!\nI'm counting on you!{{delay frames=\"101\"}}",
      "USes": "Hay {{color id=\"0\"}}4{{color id=\"65535\"}} {{color id=\"0\"}}terminales{{color id=\"65535\"}} más.\n¡Busca la próxima!{{delay frames=\"110\"}}",
      "USfr": "Il ne reste plus que {{color id=\"0\"}}quatre terminaux de\ncontrôle{{color id=\"65535\"}}! Je sais que tu en es capable!{{delay frames=\"131\"}}"
    }
  },
  {
    "label": "Demo044_0_Text023",
    "attribute": "",
    "locale": {
      "CNzh": "剩余的{{color id=\"0\"}}控制终端{{color id=\"65535\"}}还有{{color id=\"0\"}}3{{color id=\"65535\"}}个！\n加油啊！{{delay frames=\"130\"}}",
      "EUde": "{{color id=\"0\"}}3 Kontrollsiegel{{color id=\"65535\"}} fehlen noch!\nBitte halte durch!{{delay frames=\"120\"}}",
      "EUen": "There are {{color id=\"0\"}}three terminals{{color id=\"65535\"}} remaining!\nHang in there!{{delay frames=\"91\"}}",
      "EUes": "Restan todavía {{color id=\"0\"}}3{{color id=\"65535\"}} {{color id=\"0\"}}terminales{{color id=\"65535\"}}.\n¡Aguanta un poco más!{{delay frames=\"194\"}}",
      "EUfr": "Il ne reste plus que {{color id=\"0\"}}trois terminaux de\ncontrôle{{color id=\"65535\"}} ! Accroche-toi encore un peu !{{delay frames=\"120\"}}",
      "EUit": "Restano ancora {{color id=\"0\"}}3 terminali{{color id=\"65535\"}}!\nAvanti, metticela tutta!{{delay frames=\"142\"}}",
      "EUnl": "Nog {{color id=\"0\"}}drie{{color id=\"65535\"}} {{color id=\"0\"}}controlezuilen{{color id=\"65535\"}} te gaan.\nHoud vol.{{delay frames=\"140\"}}",
      "EUru": "Осталось {{color id=\"0\"}}три контрольных модуля{{color id=\"65535\"}}!\nНе останавливайся!{{delay frames=\"131\"}}",
      "JPja": "{{ruby charSpan=\"1\" value=\"のこ\"}}残りの{{color id=\"0\"}}{{ruby charSpan=\"4\" value=\"せいぎょたんまつ\"}}制御端末{{color id=\"65535\"}}は あと {{color id=\"0\"}}3{{color id=\"65535\"}} {{ruby charSpan=\"1\" value=\"こ\"}}個！\n{{ruby charSpan=\"2\" value=\"がんば\"}}頑張っとくれ！{{delay frames=\"140\"}}",
      "KRko": "남은 {{color id=\"0\"}}제어 단말{{color id=\"65535\"}}은 앞으로 {{color id=\"0\"}}3{{color id=\"65535\"}}개!\n힘을 내 줘!{{delay frames=\"140\"}}",
      "TWzh": "還剩{{color id=\"0\"}}3{{color id=\"65535\"}}個{{color id=\"0\"}}控制裝置{{color id=\"65535\"}}！\n加油啊！{{delay frames=\"130\"}}",
      "USen": "There are {{color id=\"0\"}}three terminals{{color id=\"65535\"}} remaining!\nHang in there!{{delay frames=\"91\"}}",
      "USes": "¡No te des por vencido!\nTe faltan {{color id=\"0\"}}3{{color id=\"65535\"}} {{color id=\"0\"}}terminales{{color id=\"65535\"}}.{{delay frames=\"135\"}}",
      "USfr": "Il ne reste plus que {{color id=\"0\"}}trois terminaux de\ncontrôle{{color id=\"65535\"}}! Accroche-toi encore un peu!{{delay frames=\"120\"}}"
    }
  },
  {
    "label": "Demo044_0_Text022",
    "attribute": "",
    "locale": {
      "CNzh": "剩余的{{color id=\"0\"}}控制终端{{color id=\"65535\"}}还有{{color id=\"0\"}}2{{color id=\"65535\"}}个！\n不要急，慢慢来！{{delay frames=\"130\"}}",
      "EUde": "Jetzt hast du nur noch {{color id=\"0\"}}2 Kontrollsiegel{{color id=\"65535\"}}\nvor dir! Behalte einen kühlen Kopf!{{delay frames=\"155\"}}",
      "EUen": "There are {{color id=\"0\"}}two terminals{{color id=\"65535\"}} remaining!\nStay focused!{{delay frames=\"105\"}}",
      "EUes": "Restan todavía {{color id=\"0\"}}2{{color id=\"65535\"}} {{color id=\"0\"}}terminales{{color id=\"65535\"}}. ¡Vas bien!{{delay frames=\"174\"}}",
      "EUfr": "Il ne reste plus que {{color id=\"0\"}}deux terminaux de\ncontrôle{{color id=\"65535\"}} ! Garde la tête froide, surtout !{{delay frames=\"120\"}}",
      "EUit": "Restano solo {{color id=\"0\"}}2 terminali{{color id=\"65535\"}}!\nCalma e sangue freddo!{{delay frames=\"139\"}}",
      "EUnl": "Nog {{color id=\"0\"}}twee{{color id=\"65535\"}} {{color id=\"0\"}}controlezuilen{{color id=\"65535\"}} te gaan.\nBlijf geconcentreerd.{{delay frames=\"138\"}}",
      "EUru": "Осталось {{color id=\"0\"}}два контрольных\nмодуля{{color id=\"65535\"}}! А ты молодец!{{delay frames=\"122\"}}",
      "JPja": "{{ruby charSpan=\"1\" value=\"のこ\"}}残りの{{color id=\"0\"}}{{ruby charSpan=\"4\" value=\"せいぎょたんまつ\"}}制御端末{{color id=\"65535\"}}は あと {{color id=\"0\"}}2{{color id=\"65535\"}} {{ruby charSpan=\"1\" value=\"こ\"}}個！\n{{ruby charSpan=\"1\" value=\"あせ\"}}焦らずにね！{{delay frames=\"138\"}}",
      "KRko": "남은 {{color id=\"0\"}}제어 단말{{color id=\"65535\"}}은 앞으로 {{color id=\"0\"}}2{{color id=\"65535\"}}개!\n서두르지 말고!{{delay frames=\"138\"}}",
      "TWzh": "還剩{{color id=\"0\"}}2{{color id=\"65535\"}}個{{color id=\"0\"}}控制裝置{{color id=\"65535\"}}！\n不要急，慢慢來啊！{{delay frames=\"130\"}}",
      "USen": "There are {{color id=\"0\"}}two terminals{{color id=\"65535\"}} remaining!\nStay focused!{{delay frames=\"105\"}}",
      "USes": "Restan todavía {{color id=\"0\"}}2{{color id=\"65535\"}} {{color id=\"0\"}}terminales{{color id=\"65535\"}}.\n¡Vas bien!{{delay frames=\"115\"}}",
      "USfr": "Il ne reste plus que {{color id=\"0\"}}deux terminaux de\ncontrôle{{color id=\"65535\"}}! Garde la tête froide, surtout!{{delay frames=\"120\"}}"
    }
  },
  {
    "label": "Demo044_0_Text021",
    "attribute": "",
    "locale": {
      "CNzh": "剩余的{{color id=\"0\"}}控制终端{{color id=\"65535\"}}还有{{color id=\"0\"}}1{{color id=\"65535\"}}个！\n只剩一点了！{{delay frames=\"130\"}}",
      "EUde": "Nur noch {{color id=\"0\"}}1 Kontrollsiegel{{color id=\"65535\"}}!\nEs fehlt nicht mehr viel!{{delay frames=\"117\"}}",
      "EUen": "Just {{color id=\"0\"}}one terminal {{color id=\"65535\"}}remaining!\nYou're almost there!{{delay frames=\"109\"}}",
      "EUes": "Solo resta {{color id=\"0\"}}un terminal de control{{color id=\"65535\"}}.\nVamos, un último esfuerzo.{{delay frames=\"200\"}}",
      "EUfr": "Il ne reste plus qu'{{color id=\"0\"}}un seul terminal de\ncontrôle{{color id=\"65535\"}} ! Un dernier effort, Link !{{delay frames=\"126\"}}",
      "EUit": "Resta solo {{color id=\"0\"}}1 terminale{{color id=\"65535\"}}!\nCi siamo quasi, manca pochissimo!{{delay frames=\"144\"}}",
      "EUnl": "Nog maar {{color id=\"0\"}}één{{color id=\"65535\"}} {{color id=\"0\"}}controlezuil{{color id=\"65535\"}} te gaan.\nJe bent er bijna.{{delay frames=\"137\"}}",
      "EUru": "Остался {{color id=\"0\"}}один контрольный модуль{{color id=\"65535\"}}!\nДавай, последнее усилие!{{delay frames=\"138\"}}",
      "JPja": "{{ruby charSpan=\"1\" value=\"のこ\"}}残りの{{color id=\"0\"}}{{ruby charSpan=\"4\" value=\"せいぎょたんまつ\"}}制御端末{{color id=\"65535\"}}は あと {{color id=\"0\"}}1{{color id=\"65535\"}} {{ruby charSpan=\"1\" value=\"こ\"}}個！\nもう{{ruby charSpan=\"1\" value=\"すこ\"}}少しだよ！{{delay frames=\"137\"}}",
      "KRko": "남은 {{color id=\"0\"}}제어 단말{{color id=\"65535\"}}은 앞으로 {{color id=\"0\"}}1{{color id=\"65535\"}}개!\n거의 다 왔어!{{delay frames=\"137\"}}",
      "TWzh": "還剩{{color id=\"0\"}}1{{color id=\"65535\"}}個{{color id=\"0\"}}控制裝置{{color id=\"65535\"}}！\n只剩一點了！！{{delay frames=\"130\"}}",
      "USen": "Just {{color id=\"0\"}}one terminal {{color id=\"65535\"}}remaining!\nYou're almost there!{{delay frames=\"109\"}}",
      "USes": "Solo resta {{color id=\"0\"}}una terminal{{color id=\"65535\"}}.\nVamos, un último esfuerzo.{{delay frames=\"150\"}}",
      "USfr": "Il ne reste plus qu'{{color id=\"0\"}}un seul terminal de\ncontrôle{{color id=\"65535\"}}! Un dernier effort, Link!{{delay frames=\"126\"}}"
    }
  },
  {
    "label": "Demo044_0_Text027",
    "attribute": "",
    "locale": {
      "CNzh": "好！这样一来，所有的{{color id=\"0\"}}控制终端{{color id=\"65535\"}}就都启动了！\n接下来可以去启动{{color id=\"0\"}}主控制装置{{color id=\"65535\"}}了！{{delay frames=\"229\"}}\n你仔细看下地图……上面应该有新出现一个\n发光的大标记……你去那里吧！{{delay frames=\"238\"}}\n……不过……你可别大意啊！{{delay frames=\"91\"}}",
      "EUde": "Toll gemacht! Alle {{color id=\"0\"}}Kontrollsiegel{{color id=\"65535\"}}\nsind aktiviert! Fahre jetzt noch die\n{{color id=\"0\"}}Steuerungseinheit{{color id=\"65535\"}} wieder hoch!{{delay frames=\"183\"}}\nDer große, leuchtende Punkt auf deiner\nKarte... Da musst du jetzt hin.{{delay frames=\"115\"}}{{pageBreak}}Aber sei weiter auf der Hut, ja?{{delay frames=\"49\"}}",
      "EUen": "Well done! That was the last of the\n{{color id=\"0\"}}terminals{{color id=\"65535\"}}. Now...you'll need to\nstart up the {{color id=\"0\"}}main control unit{{color id=\"65535\"}}!{{delay frames=\"199\"}}\nTake a good look at your map. Head for\nthe glowing mark you see there.\nYou're doing well...{{delay frames=\"226\"}}\nbut overconfidence can be a\ndeadly foe.{{delay frames=\"76\"}}",
      "EUes": "¡Has activado todos los {{color id=\"0\"}}terminales{{color id=\"65535\"}}!\nAhora lo único que te falta es poner\nen marcha la {{color id=\"0\"}}unidad central{{color id=\"65535\"}}.{{delay frames=\"254\"}}\nÉchale un vistazo al mapa y verás\nun punto grande que brilla: dirígete\nhacia él.{{delay frames=\"216\"}}\nY no te confíes...{{delay frames=\"100\"}}",
      "EUfr": "Beau travail ! Tu as activé tous les\n{{color id=\"0\"}}terminaux de contrôle{{color id=\"65535\"}} ! Maintenant,\nau tour de l'{{color id=\"0\"}}unité principale {{color id=\"65535\"}}!{{delay frames=\"187\"}}\nSi tu regardes ta carte, tu verras un\ngros point brillant. C'est là que tu la\ntrouveras.{{delay frames=\"130\"}}\nMais ne prends pas la grosse tête,\nd'accord ?{{delay frames=\"74\"}}",
      "EUit": "Oooh! Hai attivato tutti i {{color id=\"0\"}}terminali{{color id=\"65535\"}}!\nOra non ti resta che avviare\nl'{{color id=\"0\"}}unità di controllo principale{{color id=\"65535\"}}.{{delay frames=\"265\"}}\nOsserva la mappa. Vedrai che è apparso\nun nuovo, grosso simbolo luminoso.\nQuella è la tua meta.{{delay frames=\"270\"}}\nStai sempre in guardia!{{delay frames=\"104\"}}",
      "EUnl": "Oké, dat was de laatste {{color id=\"0\"}}controlezuil{{color id=\"65535\"}}.\nNu moet je de {{color id=\"0\"}}stuurmachine {{color id=\"65535\"}}activeren.{{delay frames=\"216\"}}\n\nKijk naar je kaart en ga naar de nieuwe\nplek die daarop staat. Het gaat goed...{{delay frames=\"243\"}}{{pageBreak}}...maar word niet overmoedig.{{delay frames=\"110\"}}",
      "EUru": "Отлично! Все {{color id=\"0\"}}контрольные модули{{color id=\"65535\"}}\nвключены. Остался лишь {{color id=\"0\"}}главный\nконтроллер{{color id=\"65535\"}}.{{delay frames=\"140\"}}\nВзгляни на свою карту: иди туда,\nгде появилась новая отметка.{{delay frames=\"115\"}}\n\nИ не витай в облаках, понял?!{{delay frames=\"56\"}}",
      "JPja": "よし！ {{color id=\"0\"}}{{ruby charSpan=\"4\" value=\"せいぎょたんまつ\"}}制御端末{{color id=\"65535\"}}はこれで{{ruby charSpan=\"2\" value=\"ぜんぶ\"}}全部だ！\n{{color id=\"0\"}}メイン{{ruby charSpan=\"4\" value=\"せいぎょそうち\"}}制御装置{{color id=\"65535\"}}を{{ruby charSpan=\"1\" value=\"た\"}}立ち{{ruby charSpan=\"1\" value=\"あ\"}}上げられるようになったよ{{delay frames=\"216\"}}\nマップを よく{{ruby charSpan=\"1\" value=\"み\"}}見るんだ… {{ruby charSpan=\"1\" value=\"あたら\"}}新しく{{ruby charSpan=\"1\" value=\"ひか\"}}光っている\n{{ruby charSpan=\"1\" value=\"おお\"}}大きな{{ruby charSpan=\"1\" value=\"しるし\"}}印があるはずだよ… そこへ{{ruby charSpan=\"1\" value=\"む\"}}向かうんだ{{delay frames=\"243\"}}！\n…けどさ…{{ruby charSpan=\"2\" value=\"ゆだん\"}}油断すんじゃないよ？！{{delay frames=\"110\"}}",
      "KRko": "좋아! {{color id=\"0\"}}제어 단말{{color id=\"65535\"}}은 이걸로 끝이야!\n{{color id=\"0\"}}메인 제어 장치{{color id=\"65535\"}}를 기동시킬 수 있게 됐어{{delay frames=\"216\"}}\n맵을 잘 봐… 새롭게 빛나고 있는\n커다란 표시가 있을 거야… 그리로 가 봐!{{delay frames=\"243\"}}\n…하지만 …방심해선 안 돼!{{delay frames=\"110\"}}",
      "TWzh": "好！這樣一來，全部的{{color id=\"0\"}}控制裝置{{color id=\"65535\"}}都起動了！\n接下來就可以去起動{{color id=\"0\"}}主控制裝置{{color id=\"65535\"}}！{{delay frames=\"229\"}}\n你仔細看地圖……上面應該新出現了一個\n發著光的大標示……你就往那去！{{delay frames=\"238\"}}\n……不過，可千萬別大意喔！{{delay frames=\"91\"}}\n",
      "USen": "Well done! That was the last of the\n{{color id=\"0\"}}terminals{{color id=\"65535\"}}. Now...you'll need to\nstart up the {{color id=\"0\"}}main control unit{{color id=\"65535\"}}!{{delay frames=\"199\"}}\nTake a good look at your map. Head for\nthe glowing mark you see there.\nYou're doing well...{{delay frames=\"226\"}}\nbut overconfidence can be a\ndeadly foe.{{delay frames=\"76\"}}",
      "USes": "¡Activaste todas las {{color id=\"0\"}}terminales{{color id=\"65535\"}}!\nAhora lo único que debes hacer es\nencender la {{color id=\"0\"}}unidad central{{color id=\"65535\"}}.{{delay frames=\"210\"}}\nEn tu mapa hay un punto grande.\nAhí es adonde tienes que ir.{{delay frames=\"145\"}}{{pageBreak}}Vas bien... pero ¡que no se te suba\na la cabeza!{{delay frames=\"107\"}}",
      "USfr": "Beau travail! Tu as activé tous les\n{{color id=\"0\"}}terminaux de contrôle{{color id=\"65535\"}}! Maintenant,\nau tour de l'{{color id=\"0\"}}unité principale{{color id=\"65535\"}}!{{delay frames=\"187\"}}\nSi tu regardes ta carte, tu verras un\ngros point brillant. C'est là que tu la\ntrouveras.{{delay frames=\"130\"}}\nMais ne prends pas la grosse tête,\nd'accord?{{delay frames=\"74\"}}"
    }
  },
  {
    "label": "Demo044_0_Text034",
    "attribute": "",
    "locale": {
      "CNzh": "剩余的{{color id=\"0\"}}控制终端{{color id=\"65535\"}}还有{{color id=\"0\"}}4{{color id=\"65535\"}}个！\n加油……{{delay frames=\"130\"}}",
      "EUde": "{{color id=\"0\"}}4 Kontrollsiegel{{color id=\"65535\"}} musst du noch lösen!\nGib nicht auf...{{delay frames=\"171\"}}",
      "EUen": "There are {{color id=\"0\"}}four terminals{{color id=\"65535\"}} remaining.\nDon't give up!{{delay frames=\"96\"}}",
      "EUes": "Aún te quedan {{color id=\"0\"}}4{{color id=\"65535\"}} {{color id=\"0\"}}terminales{{color id=\"65535\"}}.\nNo te rindas.{{delay frames=\"159\"}}",
      "EUfr": "Il reste encore {{color id=\"0\"}}quatre terminaux\nde contrôle{{color id=\"65535\"}} à activer. Courage...{{delay frames=\"143\"}}",
      "EUit": "Restano ancora {{color id=\"0\"}}4 terminali{{color id=\"65535\"}}.\nNon ti arrendere...{{delay frames=\"137\"}}",
      "EUnl": "Nog {{color id=\"0\"}}vier{{color id=\"65535\"}} {{color id=\"0\"}}controlezuilen{{color id=\"65535\"}} te gaan.\nNiet opgeven nu.{{delay frames=\"171\"}}",
      "EUru": "Еще {{color id=\"0\"}}четыре контрольных модуля{{color id=\"65535\"}}.\nНе сдавайся, Линк!{{delay frames=\"149\"}}",
      "JPja": "{{ruby charSpan=\"1\" value=\"のこ\"}}残りの{{color id=\"0\"}}{{ruby charSpan=\"4\" value=\"せいぎょたんまつ\"}}制御端末{{color id=\"65535\"}}は あと {{color id=\"0\"}}4{{color id=\"65535\"}} {{ruby charSpan=\"1\" value=\"こ\"}}個\n{{ruby charSpan=\"2\" value=\"がんば\"}}頑張って…{{delay frames=\"171\"}}",
      "KRko": "남은 {{color id=\"0\"}}제어 단말{{color id=\"65535\"}}은 앞으로 {{color id=\"0\"}}4{{color id=\"65535\"}}개\n힘내…{{delay frames=\"171\"}}",
      "TWzh": "還剩{{color id=\"0\"}}4{{color id=\"65535\"}}個{{color id=\"0\"}}控制裝置{{color id=\"65535\"}}！\n加油……{{delay frames=\"130\"}}",
      "USen": "There are {{color id=\"0\"}}four terminals{{color id=\"65535\"}} remaining.\nDon't give up!{{delay frames=\"96\"}}",
      "USes": "Aún te quedan {{color id=\"0\"}}4{{color id=\"65535\"}} {{color id=\"0\"}}terminales{{color id=\"65535\"}}.\n¡Vas bien!{{delay frames=\"115\"}}",
      "USfr": "Il reste encore {{color id=\"0\"}}quatre terminaux\nde contrôle{{color id=\"65535\"}} à activer. Courage...{{delay frames=\"143\"}}"
    }
  },
  {
    "label": "Demo044_0_Text033",
    "attribute": "",
    "locale": {
      "CNzh": "剩余的{{color id=\"0\"}}控制终端{{color id=\"65535\"}}还有{{color id=\"0\"}}3{{color id=\"65535\"}}个！\n我知道……你一定可以的。{{delay frames=\"130\"}}",
      "EUde": "Noch {{color id=\"0\"}}3 Kontrollsiegel{{color id=\"65535\"}}!\nDu schaffst das! Ich weiß, dass du es\nschaffst!{{delay frames=\"185\"}}",
      "EUen": "There are {{color id=\"0\"}}three terminals{{color id=\"65535\"}} remaining.\nYou can do it!{{delay frames=\"95\"}}",
      "EUes": "Aún te quedan {{color id=\"0\"}}3{{color id=\"65535\"}} {{color id=\"0\"}}terminales{{color id=\"65535\"}}.\nSé que lo conseguirás.{{delay frames=\"165\"}}",
      "EUfr": "Il reste encore {{color id=\"0\"}}trois terminaux de\ncontrôle{{color id=\"65535\"}} à activer. Tu vas y arriver...\nJe le sais...{{delay frames=\"195\"}}",
      "EUit": "Restano ancora {{color id=\"0\"}}3 terminali{{color id=\"65535\"}}.\nPuoi farcela... ne sono certa.{{delay frames=\"228\"}}",
      "EUnl": "Nog {{color id=\"0\"}}drie{{color id=\"65535\"}} {{color id=\"0\"}}controlezuilen{{color id=\"65535\"}} te gaan.\nJe kunt het!{{delay frames=\"224\"}}",
      "EUru": "Осталось {{color id=\"0\"}}три контрольных модуля{{color id=\"65535\"}}.\nЯ уверена, у тебя все получится!{{delay frames=\"192\"}}",
      "JPja": "{{ruby charSpan=\"1\" value=\"のこ\"}}残りの{{color id=\"0\"}}{{ruby charSpan=\"4\" value=\"せいぎょたんまつ\"}}制御端末{{color id=\"65535\"}}は あと {{color id=\"0\"}}3{{color id=\"65535\"}} {{ruby charSpan=\"1\" value=\"こ\"}}個\n{{ruby charSpan=\"2\" value=\"あなた\"}}貴方なら…{{ruby charSpan=\"2\" value=\"でき\"}}出来る{{delay frames=\"224\"}}",
      "KRko": "남은 {{color id=\"0\"}}제어 단말{{color id=\"65535\"}}은 앞으로 {{color id=\"0\"}}3{{color id=\"65535\"}}개\n너라면… 할 수 있어{{delay frames=\"224\"}}",
      "TWzh": "還剩{{color id=\"0\"}}3{{color id=\"65535\"}}個{{color id=\"0\"}}控制裝置{{color id=\"65535\"}}！\n我知道你……一定能辦到的。{{delay frames=\"130\"}}",
      "USen": "There are {{color id=\"0\"}}three terminals{{color id=\"65535\"}} remaining.\nYou can do it!{{delay frames=\"95\"}}",
      "USes": "Te quedan {{color id=\"0\"}}3{{color id=\"65535\"}} {{color id=\"0\"}}terminales{{color id=\"65535\"}}.\nSé que lo conseguirás.{{delay frames=\"130\"}}",
      "USfr": "Il reste encore {{color id=\"0\"}}trois terminaux de\ncontrôle{{color id=\"65535\"}} à activer. Tu vas y arriver...\nJe le sais...{{delay frames=\"195\"}}"
    }
  },
  {
    "label": "Demo044_0_Text032",
    "attribute": "",
    "locale": {
      "CNzh": "剩余的{{color id=\"0\"}}控制终端{{color id=\"65535\"}}还有{{color id=\"0\"}}2{{color id=\"65535\"}}个！\n只剩一点了……只剩一点了……{{delay frames=\"130\"}}",
      "EUde": "Es sind noch {{color id=\"0\"}}2 Kontrollsiegel{{color id=\"65535\"}} übrig!\nNur noch ein bisschen...{{delay frames=\"156\"}}",
      "EUen": "There are {{color id=\"0\"}}two terminals{{color id=\"65535\"}} remaining.\nYou're nearly there...{{delay frames=\"109\"}}",
      "EUes": "Aún te quedan {{color id=\"0\"}}2{{color id=\"65535\"}} {{color id=\"0\"}}terminales{{color id=\"65535\"}}.\nSolo un empujoncito más...{{delay frames=\"167\"}}",
      "EUfr": "Il reste encore {{color id=\"0\"}}deux terminaux de\ncontrôle{{color id=\"65535\"}} à activer. Tu y es presque...\npresque...{{delay frames=\"210\"}}",
      "EUit": "Restano solo {{color id=\"0\"}}2 terminali{{color id=\"65535\"}}.\nManca poco, ormai... ci sei quasi.{{delay frames=\"204\"}}",
      "EUnl": "Nog {{color id=\"0\"}}twee{{color id=\"65535\"}} {{color id=\"0\"}}controlezuilen{{color id=\"65535\"}} te gaan.\nNog even volhouden.{{delay frames=\"234\"}}",
      "EUru": "Осталось {{color id=\"0\"}}два контрольных модуля{{color id=\"65535\"}}!\nТы почти у цели, Линк!{{delay frames=\"163\"}}",
      "JPja": "{{ruby charSpan=\"1\" value=\"のこ\"}}残りの{{color id=\"0\"}}{{ruby charSpan=\"4\" value=\"せいぎょたんまつ\"}}制御端末{{color id=\"65535\"}}は あと {{color id=\"0\"}}2{{color id=\"65535\"}} {{ruby charSpan=\"1\" value=\"こ\"}}個\n{{ruby charSpan=\"2\" value=\"あとすこ\"}}後少し…もう{{ruby charSpan=\"1\" value=\"すこ\"}}少し…{{delay frames=\"234\"}}",
      "KRko": "남은 {{color id=\"0\"}}제어 단말{{color id=\"65535\"}}은 앞으로 {{color id=\"0\"}}2{{color id=\"65535\"}}개\n조금만… 조금만 더…{{delay frames=\"234\"}}",
      "TWzh": "還剩{{color id=\"0\"}}2{{color id=\"65535\"}}個{{color id=\"0\"}}控制裝置{{color id=\"65535\"}}！\n只剩一點了……只剩一點了……{{delay frames=\"130\"}}",
      "USen": "There are {{color id=\"0\"}}two terminals{{color id=\"65535\"}} remaining.\nYou're nearly there...{{delay frames=\"109\"}}",
      "USes": "Ya solo te quedan {{color id=\"0\"}}2{{color id=\"65535\"}} {{color id=\"0\"}}terminales{{color id=\"65535\"}}.\n¡Falta poco!{{delay frames=\"123\"}}",
      "USfr": "Il reste encore {{color id=\"0\"}}deux terminaux de\ncontrôle{{color id=\"65535\"}} à activer. Tu y es presque...\npresque...{{delay frames=\"210\"}}"
    }
  },
  {
    "label": "Demo044_0_Text031",
    "attribute": "",
    "locale": {
      "CNzh": "剩余的{{color id=\"0\"}}控制终端{{color id=\"65535\"}}还有{{color id=\"0\"}}1{{color id=\"65535\"}}个！\n只剩一点点了……{{delay frames=\"130\"}}",
      "EUde": "Noch {{color id=\"0\"}}1 Kontrollsiegel{{color id=\"65535\"}}, dann\nhast du es geschafft...{{delay frames=\"119\"}}",
      "EUen": "Just {{color id=\"0\"}}one terminal {{color id=\"65535\"}}remaining!\nI have faith in you!{{delay frames=\"117\"}}",
      "EUes": "Solo te queda {{color id=\"0\"}}un terminal de control{{color id=\"65535\"}}.\n¡Ya casi está!{{delay frames=\"161\"}}",
      "EUfr": "Il ne reste plus qu'{{color id=\"0\"}}un seul terminal\nde contrôle {{color id=\"65535\"}}à activer. Encore un dernier\npetit effort...{{delay frames=\"193\"}}",
      "EUit": "Resta solo {{color id=\"0\"}}1 terminale{{color id=\"65535\"}}.\nUn ultimo sforzo...{{delay frames=\"149\"}}",
      "EUnl": "Nog maar {{color id=\"0\"}}één{{color id=\"65535\"}} {{color id=\"0\"}}controlezuil{{color id=\"65535\"}} te gaan.\nIk heb alle vertrouwen in je.{{delay frames=\"194\"}}",
      "EUru": "Остался {{color id=\"0\"}}один контрольный\nмодуль{{color id=\"65535\"}}! Я верю в тебя!{{delay frames=\"116\"}}",
      "JPja": "{{ruby charSpan=\"1\" value=\"のこ\"}}残りの{{color id=\"0\"}}{{ruby charSpan=\"4\" value=\"せいぎょたんまつ\"}}制御端末{{color id=\"65535\"}}は あと {{color id=\"0\"}}1{{color id=\"65535\"}} {{ruby charSpan=\"1\" value=\"こ\"}}個\nもうちょっと…{{delay frames=\"194\"}}",
      "KRko": "남은 {{color id=\"0\"}}제어 단말{{color id=\"65535\"}}은 앞으로 {{color id=\"0\"}}1{{color id=\"65535\"}}개\n거의 다 왔어…{{delay frames=\"194\"}}",
      "TWzh": "還剩{{color id=\"0\"}}1{{color id=\"65535\"}}個{{color id=\"0\"}}控制裝置{{color id=\"65535\"}}！\n只剩一點點了……{{delay frames=\"130\"}}",
      "USen": "Just {{color id=\"0\"}}one terminal {{color id=\"65535\"}}remaining!\nI have faith in you!{{delay frames=\"117\"}}",
      "USes": "Solo te queda {{color id=\"0\"}}una terminal{{color id=\"65535\"}}.\nYa casi está.{{delay frames=\"129\"}}",
      "USfr": "Il ne reste plus qu'{{color id=\"0\"}}un seul terminal\nde contrôle {{color id=\"65535\"}}à activer. Encore un dernier\npetit effort...{{delay frames=\"193\"}}"
    }
  },
  {
    "label": "Demo044_0_Text043",
    "attribute": "",
    "locale": {
      "CNzh": "这样一来，所有的{{color id=\"0\"}}控制终端{{color id=\"65535\"}}就都启动了！\n接下来可以去启动{{color id=\"0\"}}主控制装置{{color id=\"65535\"}}了！{{delay frames=\"229\"}}\n你仔细看下地图……上面应该有新出现一个\n发光的大标记……你去那里吧！{{delay frames=\"238\"}}\n不过，你得慎重行事……{{delay frames=\"91\"}}",
      "EUde": "Du hast alle {{color id=\"0\"}}Kontrollsiegel {{color id=\"65535\"}}gelöst.\nJetzt musst du nur noch die\n{{color id=\"0\"}}Steuerungseinheit{{color id=\"65535\"}} aktivieren.{{delay frames=\"186\"}}\nDer große leuchtende Punkt auf deiner\nKarte... Da musst du hin.{{delay frames=\"134\"}}{{pageBreak}}Aber bleib wachsam...{{delay frames=\"32\"}}",
      "EUen": "You activated all the {{color id=\"0\"}}terminals{{color id=\"65535\"}}!\nNow you can start the\n{{color id=\"0\"}}main control unit{{color id=\"65535\"}}.{{delay frames=\"149\"}}\nThere should be a new glowing mark on\nyour map. Head there!{{delay frames=\"117\"}}\n\nBe careful not to let your guard down.{{delay frames=\"57\"}}",
      "EUes": "Has activado todos los {{color id=\"0\"}}terminales{{color id=\"65535\"}}.\nAhora deberías poner en marcha\nla {{color id=\"0\"}}unidad central{{color id=\"65535\"}}.{{delay frames=\"204\"}}\nÉchale un vistazo al mapa y verás\nun punto grande que brilla: dirígete\nhacia él.{{delay frames=\"188\"}}\nSé que es fácil confiarse, pero\nno bajes la guardia.{{delay frames=\"145\"}}",
      "EUfr": "Tu as activé tous les {{color id=\"0\"}}terminaux de\ncontrôle{{color id=\"65535\"}}. Il ne te reste plus qu'à\nactionner l'{{color id=\"0\"}}unité principale{{color id=\"65535\"}}...{{delay frames=\"200\"}}\nSi tu examines ta carte, tu verras un\ngros point brillant... C'est là que tu\ndois te rendre.{{delay frames=\"180\"}}\nMais... je t'en prie, reste sur tes gardes...{{delay frames=\"110\"}}",
      "EUit": "Oooh! Hai attivato tutti i {{color id=\"0\"}}terminali{{color id=\"65535\"}}!\nOra non ti resta che avviare\nl'{{color id=\"0\"}}unità di controllo principale{{color id=\"65535\"}}.{{delay frames=\"252\"}}\nOsserva la mappa. Vedrai che è apparso\nun nuovo, grosso simbolo luminoso.\nQuella è la tua meta.{{delay frames=\"287\"}}\nTieni gli occhi ben aperti!{{delay frames=\"96\"}}",
      "EUnl": "Je hebt alle {{color id=\"0\"}}controlezuilen{{color id=\"65535\"}} geactiveerd.\nNu kun je de {{color id=\"0\"}}stuurmachine {{color id=\"65535\"}}aanzetten.{{delay frames=\"197\"}}\n\nEr zou een nieuwe gloeiende stip op je\nkaart moeten staan. Daar moet je zijn.{{delay frames=\"253\"}}\n\nBlijf op je hoede.{{delay frames=\"92\"}}",
      "EUru": "Ты включил все {{color id=\"0\"}}контрольные модули{{color id=\"65535\"}}!\nОстался только {{color id=\"0\"}}главный контроллер{{color id=\"65535\"}}.{{delay frames=\"137\"}}\n\nОн отмечен на твой карте.\nОтправляйся к нему.{{delay frames=\"105\"}}\n\nНо прошу тебя, будь осторожен!{{delay frames=\"82\"}}",
      "JPja": "{{color id=\"0\"}}{{ruby charSpan=\"4\" value=\"せいぎょたんまつ\"}}制御端末{{color id=\"65535\"}}は これで{{ruby charSpan=\"2\" value=\"ぜんぶ\"}}全部！\n{{color id=\"0\"}}メイン{{ruby charSpan=\"4\" value=\"せいぎょそうち\"}}制御装置 {{color id=\"65535\"}}を{{ruby charSpan=\"1\" value=\"た\"}}立ち{{ruby charSpan=\"1\" value=\"あ\"}}上げられるようになった{{delay frames=\"197\"}}\nマップを よく{{ruby charSpan=\"1\" value=\"み\"}}見て… {{ruby charSpan=\"1\" value=\"あたら\"}}新しく{{ruby charSpan=\"1\" value=\"ひか\"}}光っている\n{{ruby charSpan=\"1\" value=\"おお\"}}大きな{{ruby charSpan=\"1\" value=\"しるし\"}}印があるはず… そこへ{{ruby charSpan=\"1\" value=\"む\"}}向かって！{{delay frames=\"253\"}}\n…だけど {{ruby charSpan=\"1\" value=\"き\"}}気を{{ruby charSpan=\"1\" value=\"ゆる\"}}緩めずにね…{{delay frames=\"92\"}}",
      "KRko": "{{color id=\"0\"}}제어 단말{{color id=\"65535\"}}은 이게 끝이야!\n{{color id=\"0\"}}메인 제어 장치{{color id=\"65535\"}}를 기동시킬 수 있게 됐어{{delay frames=\"197\"}}\n맵을 잘 봐… 새롭게 빛나고 있는\n커다란 표시가 있을 거야… 그리로 가!{{delay frames=\"253\"}}\n…절대 방심하진 말고…{{delay frames=\"92\"}}",
      "TWzh": "全部的{{color id=\"0\"}}控制裝置{{color id=\"65535\"}}都起動了！\n接下來就可以去起動{{color id=\"0\"}}主控制裝置{{color id=\"65535\"}}。{{delay frames=\"229\"}}\n你仔細看一下地圖……上面應該新出現了一個\n發著光的大標示……就往那去吧！{{delay frames=\"238\"}}\n……不過，千萬要小心……{{delay frames=\"91\"}}",
      "USen": "You activated all the {{color id=\"0\"}}terminals{{color id=\"65535\"}}!\nNow you can start the\n{{color id=\"0\"}}main control unit{{color id=\"65535\"}}.{{delay frames=\"149\"}}\nThere should be a new glowing mark on\nyour map. Head there!{{delay frames=\"117\"}}\n\nBe careful not to let your guard down.{{delay frames=\"57\"}}",
      "USes": "¡Esa fue la última {{color id=\"0\"}}terminal{{color id=\"65535\"}}!\nAhora tienes que activar la\n{{color id=\"0\"}}unidad central{{color id=\"65535\"}}.{{delay frames=\"190\"}}{{pageBreak}}Su ubicación se indica en el mapa\ncon un punto grande. Ese es tu\npróximo destino.{{delay frames=\"190\"}}{{pageBreak}}¡No bajes la guardia!{{delay frames=\"44\"}}",
      "USfr": "Tu as activé tous les {{color id=\"0\"}}terminaux de\ncontrôle{{color id=\"65535\"}}. Il ne te reste plus qu'à\nactionner l'{{color id=\"0\"}}unité principale{{color id=\"65535\"}}...{{delay frames=\"200\"}}\nSi tu examines ta carte, tu verras un\ngros point brillant... C'est là que tu\ndois te rendre.{{delay frames=\"180\"}}\nMais... je t'en prie, reste sur tes gardes...{{delay frames=\"110\"}}"
    }
  },
  {
    "label": "Demo044_0_Text039",
    "attribute": "",
    "locale": {
      "CNzh": "{{anim2 type=\"Activate\"}}希卡之石确认完毕。",
      "EUde": "{{anim2 type=\"Activate\"}}Shiekah-Stein erkannt.",
      "EUen": "{{anim2 type=\"Activate\"}}Sheikah Slate authenticated.",
      "EUes": "{{anim2 type=\"Activate\"}}{{wordInfo gender=\"2\" defArticle=\"1\" indefArticle=\"1\" isPlural=\"0\"}}Piedra sheikah verificada.",
      "EUfr": "{{anim2 type=\"Activate\"}}La tablette sheikah a été reconnue.",
      "EUit": "{{anim2 type=\"Activate\"}}Tavoletta Sheikah riconosciuta.",
      "EUnl": "{{anim2 type=\"Activate\"}}Sheikah-steen geverifieerd.",
      "EUru": "{{anim2 type=\"Activate\"}}Камень шиика принят.",
      "JPja": "{{anim2 type=\"Activate\"}}シーカーストーンを{{ruby charSpan=\"2\" value=\"かくにん\"}}確認しました",
      "KRko": "{{anim2 type=\"Activate\"}}시커 스톤을 확인했습니다",
      "TWzh": "{{anim2 type=\"Activate\"}}希卡之石確認完畢。",
      "USen": "{{anim2 type=\"Activate\"}}Sheikah Slate authenticated.",
      "USes": "{{anim2 type=\"Activate\"}}{{wordInfo gender=\"2\" defArticle=\"1\" indefArticle=\"1\" isPlural=\"0\"}}Tableta sheikah verificada.",
      "USfr": "{{anim2 type=\"Activate\"}}La tablette Sheikah a été reconnue."
    }
  },
  {
    "label": "Demo044_0_Text037",
    "attribute": "",
    "locale": {
      "CNzh": "{{anim2 type=\"Activate\"}}主控制装置发生异常，\n无法确认希卡之石。",
      "EUde": "{{anim2 type=\"Activate\"}}Shiekah-Stein konnte nicht erkannt\nwerden. Anomalie in der\nSteuerungseinheit entdeckt.",
      "EUen": "{{anim2 type=\"Activate\"}}Main control unit abnormality detected.\nUnable to authenticate Sheikah Slate.",
      "EUes": "{{anim2 type=\"Activate\"}}Se ha producido una anomalía en\nla unidad central. No se ha podido\nverificar la {{wordInfo gender=\"2\" defArticle=\"1\" indefArticle=\"1\" isPlural=\"0\"}}piedra sheikah.",
      "EUfr": "{{anim2 type=\"Activate\"}}La tablette sheikah n'a pas pu être\nreconnue. Une anomalie a été détectée\nau niveau de l'unité principale.",
      "EUit": "{{anim2 type=\"Activate\"}}Impossibile riconoscere la tavoletta\nSheikah. Anomalia rilevata\nnell'unità di controllo principale.",
      "EUnl": "{{anim2 type=\"Activate\"}}Afwijking ontdekt in stuurmachine.\nSheikah-steen kon niet geverifieerd\nworden.",
      "EUru": "{{anim2 type=\"Activate\"}}Не удалось распознать Камень шиика:\nглавный контроллер функционирует\nв нештатном режиме.",
      "JPja": "{{anim2 type=\"Activate\"}}メイン{{ruby charSpan=\"4\" value=\"せいぎょそうち\"}}制御装置に {{ruby charSpan=\"2\" value=\"いじょう\"}}異常が{{ruby charSpan=\"2\" value=\"はっせい\"}}発生している{{ruby charSpan=\"1\" value=\"ため\"}}為\nシーカーストーンを{{ruby charSpan=\"4\" value=\"かくにんでき\"}}確認出来ません",
      "KRko": "{{anim2 type=\"Activate\"}}메인 제어 장치에 이상이 발생하여\n시커 스톤을 확인할 수 없습니다",
      "TWzh": "{{anim2 type=\"Activate\"}}主控制裝置發生異常，\n無法確認希卡之石。",
      "USen": "{{anim2 type=\"Activate\"}}Main control unit abnormality detected.\nUnable to authenticate Sheikah Slate.",
      "USes": "{{anim2 type=\"Activate\"}}Existe una anomalía en la unidad\ncentral. No se ha podido verificar\nla {{wordInfo gender=\"2\" defArticle=\"1\" indefArticle=\"1\" isPlural=\"0\"}}tableta sheikah.",
      "USfr": "{{anim2 type=\"Activate\"}}La tablette Sheikah n'a pas pu être\nreconnue. Une anomalie a été détectée\nau niveau de l'unité principale."
    }
  },
  {
    "label": "Demo044_0_Text038",
    "attribute": "",
    "locale": {
      "CNzh": "{{anim2 type=\"Activate\"}}希卡之石确认完毕。\n\n{{anim2 type=\"Activate\"}}由于某些控制终端没有启动，\n因此主控制装置未能开启。",
      "EUde": "{{anim2 type=\"Activate\"}}Shiekah-Stein erkannt.{{pageBreak}}{{anim2 type=\"Activate\"}}Steuerungseinheit kann nur nach\nLösen aller Kontrollsiegel hochgefahren\nwerden.",
      "EUen": "{{anim2 type=\"Activate\"}}Sheikah Slate authenticated.\n\n\n{{anim2 type=\"Activate\"}}Unable to activate main control unit.\nUnactivated terminals remain.",
      "EUes": "{{anim2 type=\"Activate\"}}{{wordInfo gender=\"2\" defArticle=\"1\" indefArticle=\"1\" isPlural=\"0\"}}Piedra sheikah verificada.{{pageBreak}}{{anim2 type=\"Activate\"}}No se podrá encender la unidad central\nhasta que no se activen todos los\nterminales.",
      "EUfr": "{{anim2 type=\"Activate\"}}La tablette sheikah a été reconnue.\nTous les terminaux de contrôle\nne sont pas activés.\n{{anim2 type=\"Activate\"}}Activation de l'unité principale\nimpossible.",
      "EUit": "{{anim2 type=\"Activate\"}}Tavoletta Sheikah riconosciuta.\n\n\n{{anim2 type=\"Activate\"}}Impossibile attivare\nunità di controllo principale\ncon terminali non attivi.",
      "EUnl": "{{anim2 type=\"Activate\"}}Sheikah-steen geverifieerd.{{pageBreak}}{{anim2 type=\"Activate\"}}Stuurmachine kan niet worden\ningeschakeld. Niet alle controlezuilen\nzijn geactiveerd.",
      "EUru": "{{anim2 type=\"Activate\"}}Камень шиика принят.{{pageBreak}}{{anim2 type=\"Activate\"}}Для активации главного контроллера\nвключите все контрольные модули.",
      "JPja": "{{anim2 type=\"Activate\"}}シーカーストーンを{{ruby charSpan=\"2\" value=\"かくにん\"}}確認しました\n\n{{anim2 type=\"Activate\"}}{{ruby charSpan=\"2\" value=\"きどう\"}}起動していない{{ruby charSpan=\"4\" value=\"せいぎょたんまつ\"}}制御端末があるため\nこの メイン{{ruby charSpan=\"4\" value=\"せいぎょそうち\"}}制御装置は まだ{{ruby charSpan=\"4\" value=\"きどうでき\"}}起動出来ません",
      "KRko": "{{anim2 type=\"Activate\"}}시커 스톤을 확인했습니다\n\n{{anim2 type=\"Activate\"}}기동되지 않은 제어 단말이 있으므로\n이 메인 제어 장치는 아직 기동시킬 수 없습니다",
      "TWzh": "{{anim2 type=\"Activate\"}}希卡之石確認完畢。\n\n{{anim2 type=\"Activate\"}}由於尚未起動部分控制裝置，\n故無法起動主控制裝置。",
      "USen": "{{anim2 type=\"Activate\"}}Sheikah Slate authenticated.\n\n\n{{anim2 type=\"Activate\"}}Unable to activate main control unit.\nUnactivated terminals remain.",
      "USes": "{{anim2 type=\"Activate\"}}{{wordInfo gender=\"2\" defArticle=\"1\" indefArticle=\"1\" isPlural=\"0\"}}Tableta sheikah verificada.{{pageBreak}}{{anim2 type=\"Activate\"}}No se podrá encender la unidad central\nhasta que no se activen todas las\nterminales.",
      "USfr": "{{anim2 type=\"Activate\"}}La tablette Sheikah a été reconnue.\nTous les terminaux de contrôle\nne sont pas activés.\n{{anim2 type=\"Activate\"}}Activation de l'unité principale\nimpossible."
    }
  },
  {
    "label": "Demo044_0_Text040",
    "attribute": "",
    "locale": {
      "CNzh": "{{anim2 type=\"Activate\"}}如果启动主控制装置，\n就无法返回神兽体内。\n{{anim2 type=\"Activate\"}}真的要启动吗？{{fun_0001_0004 arg=\"0x000001000101\"}}",
      "EUde": "{{anim2 type=\"Activate\"}}Wenn die Steuerungseinheit aktiviert\nwird, kannst du diesen Titanen nicht\nmehr betreten.\n{{anim2 type=\"Activate\"}}Aktivierung dennoch fortsetzen?{{fun_0001_0004 arg=\"0x000001000101\"}}",
      "EUen": "{{anim2 type=\"Activate\"}}Once you activate the main control unit,\nyou will not be able to reenter the\ninterior of this Divine Beast.\n{{anim2 type=\"Activate\"}}Do you still wish to activate it?{{fun_0001_0004 arg=\"0x000001000101\"}}",
      "EUes": "{{anim2 type=\"Activate\"}}Una vez encendida la unidad central,\nno se podrá volver a acceder al interior\nde la bestia divina.\n{{anim2 type=\"Activate\"}}¿Quieres continuar?{{fun_0001_0004 arg=\"0x000001000101\"}}",
      "EUfr": "{{anim2 type=\"Activate\"}}Une fois l'unité principale activée,\nil vous sera impossible de retourner\nà l'intérieur de la créature divine.\n{{anim2 type=\"Activate\"}}Voulez-vous l'activer maintenant ?{{fun_0001_0004 arg=\"0x000001000101\"}}",
      "EUit": "{{anim2 type=\"Activate\"}}Dopo l'attivazione dell'unità di controllo\nprincipale, non sarà più possibile\naccedere all'interno del colosso sacro. \n{{anim2 type=\"Activate\"}}Vuoi proseguire?{{fun_0001_0004 arg=\"0x000001000101\"}}",
      "EUnl": "{{anim2 type=\"Activate\"}}Zodra de stuurmachine wordt gestart,\nkun je niet meer terug naar het binnenste\nvan deze Titaan.\n{{anim2 type=\"Activate\"}}Ben je klaar hier?{{fun_0001_0004 arg=\"0x000001000101\"}}",
      "EUru": "{{anim2 type=\"Activate\"}}Внимание: при активации главного\nконтроллера вход в Чудище будет\nзаблокирован.{{pageBreak}}{{anim2 type=\"Activate\"}}Действительно активировать\nглавный контроллер?{{fun_0001_0004 arg=\"0x000001000101\"}}",
      "JPja": "{{anim2 type=\"Activate\"}}メイン{{ruby charSpan=\"4\" value=\"せいぎょそうち\"}}制御装置を{{ruby charSpan=\"2\" value=\"きどう\"}}起動すると\n{{ruby charSpan=\"4\" value=\"しんじゅうないぶ\"}}神獣内部に{{ruby charSpan=\"1\" value=\"もど\"}}戻れなくなります\n{{anim2 type=\"Activate\"}}{{ruby charSpan=\"2\" value=\"ほんとう\"}}本当に{{ruby charSpan=\"2\" value=\"きどう\"}}起動させますか？{{fun_0001_0004 arg=\"0x000001000101\"}}",
      "KRko": "{{anim2 type=\"Activate\"}}메인 제어 장치를 기동시키면\n신수 내부로 돌아올 수 없게 됩니다\n{{anim2 type=\"Activate\"}}정말 기동시키겠습니까?{{fun_0001_0004 arg=\"0x000001000101\"}}",
      "TWzh": "{{anim2 type=\"Activate\"}}一旦起動主控制裝置，\n便無法返回神獸體內。\n{{anim2 type=\"Activate\"}}是否確定起動？{{fun_0001_0004 arg=\"0x000001000101\"}}",
      "USen": "{{anim2 type=\"Activate\"}}Once you activate the main control unit,\nyou will not be able to reenter the\ninterior of this Divine Beast.\n{{anim2 type=\"Activate\"}}Do you still wish to activate it?{{fun_0001_0004 arg=\"0x000001000101\"}}",
      "USes": "{{anim2 type=\"Activate\"}}Una vez encendida la unidad central,\nno se podrá volver a acceder al interior\nde la bestia divina.\n{{anim2 type=\"Activate\"}}¿Quieres continuar?{{fun_0001_0004 arg=\"0x000001000101\"}}",
      "USfr": "{{anim2 type=\"Activate\"}}Une fois l'unité principale activée,\nil vous sera impossible de retourner\nà l'intérieur de la créature divine.\n{{anim2 type=\"Activate\"}}Voulez-vous l'activer maintenant?{{fun_0001_0004 arg=\"0x000001000101\"}}"
    }
  },
  {
    "label": "0000",
    "attribute": "",
    "locale": {
      "CNzh": "启动",
      "EUde": "Aktivieren",
      "EUen": "Yes.",
      "EUes": "Sí",
      "EUfr": "Activer",
      "EUit": "Sì.",
      "EUnl": "Ja.",
      "EUru": "Активировать",
      "JPja": "{{ruby charSpan=\"2\" value=\"きどう\"}}起動する",
      "KRko": "기동",
      "TWzh": "起動",
      "USen": "Yes.",
      "USes": "Sí",
      "USfr": "Activer"
    }
  },
  {
    "label": "0001",
    "attribute": "",
    "locale": {
      "CNzh": "取消",
      "EUde": "Abbrechen",
      "EUen": "No.",
      "EUes": "No",
      "EUfr": "Annuler",
      "EUit": "No.",
      "EUnl": "Nee.",
      "EUru": "Отмена",
      "JPja": "やめる",
      "KRko": "그만두기",
      "TWzh": "取消",
      "USen": "No.",
      "USes": "No",
      "USfr": "Annuler"
    }
  }
]