[
  {
    "label": "Demo202_1_Text000",
    "attribute": "",
    "locale": {
      "CNzh": "被剑选中之人啊。\n现在我以女神海利亚的名义给予你剑之试练。",
      "EUde": "Auserwählter des Schwertes...\nIm Namen der Göttin Hylia sollst du dich\nder Prüfung des Schwertes stellen!",
      "EUen": "To the blade's chosen hero...\nIn the name of the Goddess Hylia,\nI offer the Trial of the Sword.",
      "EUes": "Elegido por la espada... En nombre de la\nDiosa Hylia, os ofrezco la posibilidad de\nenfrentaros al santuario de la espada.",
      "EUfr": "Toi que la lame a choisi...\nAu nom de la Déesse Hylia, nous te\nsoumettons à cette épreuve de l'épée.",
      "EUit": "Tu, prescelto dalla sacra lama...\nNel nome della dea Hylia, ti propongo\nquesta prova della spada.",
      "EUnl": "Hij die door het zwaard is uitverkoren...\nUit naam van de godin Hylia geef ik je\ntoegang tot de zwaardproef.",
      "EUru": "О избранный Мечом, во имя богини\nХайлии Испытание Меча преодолей.",
      "JPja": "{{ruby charSpan=\"1\" value=\"つるぎ\"}}剣に{{ruby charSpan=\"1\" value=\"えら\"}}選ばれし{{ruby charSpan=\"1\" value=\"もの\"}}者よ\n{{ruby charSpan=\"2\" value=\"めがみ\"}}女神ハイリアの{{ruby charSpan=\"1\" value=\"な\"}}名におき {{ruby charSpan=\"1\" value=\"つるぎ\"}}剣の{{ruby charSpan=\"2\" value=\"しれん\"}}試練を{{ruby charSpan=\"1\" value=\"あた\"}}与えよう",
      "KRko": "검의 선택을 받은 자여\n여신 하일리아의 이름으로 검의 시련을 내리노라",
      "TWzh": "被劍選中之人啊。\n現在我以女神海利亞之名給予你劍之考驗。",
      "USen": "To the blade's chosen hero...\nIn the name of the Goddess Hylia,\nI offer the Trial of the Sword.",
      "USes": "Elegido por la espada... En nombre de la\nDiosa Hylia, te ofrezco la posibilidad de\nenfrentarte al santuario de la espada.",
      "USfr": "Toi que la lame a choisi...\nAu nom de la Déesse Hylia, nous te\nsoumettons à cette épreuve de l'épée."
    }
  },
  {
    "label": "Demo202_1_Text001",
    "attribute": "",
    "locale": {
      "CNzh": "以你现在的力量还不足以驾驭大师之剑，\n让它释放真正的光芒……",
      "EUde": "Deine Kraft reicht noch lange\nnicht aus, um das wahre Licht des\nMaster-Schwertes zu entfesseln.",
      "EUen": "You presently lack the power necessary\nto wield the true splendor of the\nMaster Sword...",
      "EUes": "Si deseáis llegar a conocer el auténtico\npoder de la {{wordInfo gender=\"2\" defArticle=\"1\" indefArticle=\"1\" isPlural=\"0\"}}Espada Maestra, debéis\nhaceros más fuerte.",
      "EUfr": "Tes forces ne te permettent pas de\nmanier l'épée de légende nimbée de\nson éclat véritable...",
      "EUit": "Non hai il potere necessario a brandire\nla spada suprema che brilla della propria\nautentica luce...",
      "EUnl": "Je ontbeert de kracht om het volledige\npotentieel van het Meesterzwaard te\nbenutten.",
      "EUru": "Ты недостаточно силен, чтоб Высший\nМеч носить на пике его мощи.",
      "JPja": "{{ruby charSpan=\"1\" value=\"まこと\"}}真の{{ruby charSpan=\"1\" value=\"かがや\"}}輝きを{{ruby charSpan=\"2\" value=\"かいほう\"}}解放せしマスターソードを{{ruby charSpan=\"1\" value=\"あやつ\"}}操るには\n{{ruby charSpan=\"2\" value=\"そなた\"}}其方の{{ruby charSpan=\"1\" value=\"ちから\"}}力は {{ruby charSpan=\"1\" value=\"いま\"}}未だ{{ruby charSpan=\"3\" value=\"ふじゅうぶん\"}}不十分…",
      "KRko": "진정한 빛을 해방시킨 마스터 소드를 다루기에\n그대의 힘은 아직 충분하지 않다…",
      "TWzh": "你現在的力量還不足以駕馭大師之劍，\n無法讓它釋放真正的光芒……",
      "USen": "You presently lack the power necessary\nto wield the true splendor of the\nMaster Sword...",
      "USes": "Para llegar a conocer el auténtico poder\nde la {{wordInfo gender=\"2\" defArticle=\"1\" indefArticle=\"1\" isPlural=\"0\"}}Espada Maestra, debes hacerte\nmás fuerte.",
      "USfr": "Tes forces ne te permettent pas de\nmanier l'épée de légende nimbée de\nson éclat véritable..."
    }
  },
  {
    "label": "Demo202_1_Text002",
    "attribute": "",
    "locale": {
      "CNzh": "你要扫除这片土地上出现的一切障碍，\n强化自己的肉体和精神。",
      "EUde": "Überwinde alle Fährnisse dieser\nStätte, um deinen Körper und\ndeinen Geist zu stählen.",
      "EUen": "You must fortify your mind, body,\nand soul by eradicating all obstacles\nthat appear in this realm.",
      "EUes": "Para adquirir una mayor fortaleza física\ny mental, debéis deshaceros de todos\nlos obstáculos de este lugar.",
      "EUfr": "Affûte ton corps et ton esprit en\ntriomphant de tous les obstacles que\nce monde mettra sur ton chemin.",
      "EUit": "Rafforza il tuo corpo e il tuo spirito\neliminando tutti gli ostacoli che ti si\npresentano in questo regno.",
      "EUnl": "Versterk lichaam en geest door alle\nobstakels in deze dimensie uit de weg te\nruimen.",
      "EUru": "Разум, тело и душу укрепи, уничтожив\nвсех, кто на пути твоем встанет.",
      "JPja": "この{{ruby charSpan=\"1\" value=\"ち\"}}地に{{ruby charSpan=\"1\" value=\"あらわ\"}}現る{{ruby charSpan=\"1\" value=\"すべ\"}}全ての{{ruby charSpan=\"1\" value=\"さまた\"}}妨げを{{ruby charSpan=\"1\" value=\"しりぞ\"}}退け\n{{ruby charSpan=\"2\" value=\"にくたい\"}}肉体と{{ruby charSpan=\"2\" value=\"せいしん\"}}精神の{{ruby charSpan=\"2\" value=\"こうじょう\"}}向上を{{ruby charSpan=\"2\" value=\"めざ\"}}目指すが{{ruby charSpan=\"1\" value=\"よ\"}}良い",
      "KRko": "이 땅에 나타나는 모든 방해물을 물리치고\n육체와 정신을 성장시키도록 하라",
      "TWzh": "你要掃除這片土地上出現的所有障礙，\n強化自己的身心。",
      "USen": "You must fortify your mind, body,\nand soul by eradicating all obstacles\nthat appear in this realm.",
      "USes": "Para adquirir una mayor fortaleza física\ny mental, debes deshacerte de todos\nlos obstáculos de este lugar.",
      "USfr": "Affûte ton corps et ton esprit en\ntriomphant de tous les obstacles que\nce monde mettra sur ton chemin."
    }
  },
  {
    "label": "Demo202_1_Text004",
    "attribute": "",
    "locale": {
      "CNzh": "在这个虚幻的空间里，\n一切皆有可能发生……",
      "EUde": "Dies ist ein Ort der Illusionen,\nder gewöhnlichen Welt entrückt.",
      "EUen": "In this illusory realm of sacred mystery,\nanything can happen...",
      "EUes": "Este santuario es un lugar misterioso\ne ilusorio donde todo es posible.",
      "EUfr": "C'est un monde de chimères où l'illusion\nrègne en maître. Ici, tout peut arriver...",
      "EUit": "Questo è un regno fantastico e\nmisterioso, dove tutto può accadere...",
      "EUnl": "Dit is een illusionaire, mysterieuze\ndimensie waarin van alles kan gebeuren.",
      "EUru": "Мир этот иллюзорен: произойти\nздесь может что угодно.",
      "JPja": "{{ruby charSpan=\"2\" value=\"ここ\"}}此処は {{ruby charSpan=\"1\" value=\"なに\"}}何が{{ruby charSpan=\"1\" value=\"お\"}}起きても{{ruby charSpan=\"3\" value=\"ふしぎ\"}}不思議のない\n{{ruby charSpan=\"2\" value=\"むげん\"}}夢幻の{{ruby charSpan=\"1\" value=\"ごと\"}}如き{{ruby charSpan=\"1\" value=\"い\"}}異{{ruby charSpan=\"1\" value=\"くう\"}}空なれば…",
      "KRko": "이곳은 무엇이 일어나도 이상하지 않을\n몽환과도 같은 이공간…",
      "TWzh": "在這個如夢似幻的空間裡，\n任何事情都有可能發生。",
      "USen": "In this illusory realm of sacred mystery,\nanything can happen...",
      "USes": "Este santuario es un lugar misterioso\ne ilusorio donde todo es posible.",
      "USfr": "C'est un monde de chimères où l'illusion\nrègne en maître. Ici, tout peut arriver..."
    }
  },
  {
    "label": "Demo202_1_Text005",
    "attribute": "",
    "locale": {
      "CNzh": "回到现实世界之后，\n你将会失去在这里得到的一切。",
      "EUde": "Was auch immer dir hier in die Hände\nfällt, wird sich in Luft auflösen, wenn\ndu in deine Welt zurückkehrst.",
      "EUen": "All that you obtain here will be lost upon\nyour return to the reality you know.",
      "EUes": "Cualquier posesión que adquiráis dentro\nde estos confines permanecerá aquí\ncuando retornéis a vuestro mundo.",
      "EUfr": "Mais rien de ce que tu t'approprieras\ndans ce monde n'existera plus à ton\nretour dans le tien.",
      "EUit": "Tutto quello che ottieni qui verrà perso,\nuna volta tornato nel mondo reale.",
      "EUnl": "Alles wat je hier verzamelt, zal verloren\ngaan in de echte wereld.",
      "EUru": "И все, что ты найдешь, исчезнет, как\nтолько в мир реальный возвратишься.",
      "JPja": "{{ruby charSpan=\"1\" value=\"て\"}}手に{{ruby charSpan=\"1\" value=\"い\"}}入れし{{ruby charSpan=\"1\" value=\"もの\"}}物は\n{{ruby charSpan=\"2\" value=\"うつしよ\"}}現世に{{ruby charSpan=\"1\" value=\"もど\"}}戻れば{{ruby charSpan=\"1\" value=\"うしな\"}}失われる",
      "KRko": "손에 넣은 것들은\n현세로 돌아가면 사라질 것이다",
      "TWzh": "回到現實世界後，\n你將會失去在此得到的物品。",
      "USen": "All that you obtain here will be lost upon\nyour return to the reality you know.",
      "USes": "Cualquier posesión que adquieras dentro\nde estos confines permanecerá aquí\ncuando vuelvas a tu mundo.",
      "USfr": "Rien de ce que tu t'approprieras\ndans ce monde n'existera à\nton retour dans le tien."
    }
  },
  {
    "label": "Demo202_1_Text006",
    "attribute": "",
    "locale": {
      "CNzh": "被大师之剑选中之人啊。\n通过剑之试练，让它绽放真正的光芒吧。",
      "EUde": "Auserwählter des Master-Schwertes...\nÜberwinde die Prüfung des Schwertes\nund entfessele sein wahres Licht!",
      "EUen": "Chosen hero of the Master Sword...\nOvercome the Trial of the Sword and\nclaim the blade's true splendor!",
      "EUes": "Elegido por la espada... Salid victorioso\ndel santuario de la espada y podréis\ncontemplar el auténtico brillo de su hoja.",
      "EUfr": "Élu de l'épée de légende, triomphe de\nl'épreuve de l'épée et fais tienne la\nlumière véritable de ta lame !",
      "EUit": "Prescelto dalla spada suprema, supera\nla prova della spada e fai splendere\nla sua vera luce.",
      "EUnl": "Hij die door het Meesterzwaard is\nuitverkoren, doorsta de zwaardproef en\nontketen de ware gloed van het zwaard.",
      "EUru": "Лишь Испытание Меча пройдя,\nты его истинную мощь познаешь.",
      "JPja": "マスターソードに{{ruby charSpan=\"1\" value=\"えら\"}}選ばれし{{ruby charSpan=\"1\" value=\"もの\"}}者よ\n{{ruby charSpan=\"1\" value=\"つるぎ\"}}剣の{{ruby charSpan=\"2\" value=\"しれん\"}}試練を{{ruby charSpan=\"1\" value=\"の\"}}乗り{{ruby charSpan=\"1\" value=\"こ\"}}越え {{ruby charSpan=\"1\" value=\"まこと\"}}真の{{ruby charSpan=\"1\" value=\"かがや\"}}輝きを{{ruby charSpan=\"1\" value=\"て\"}}手に{{ruby charSpan=\"1\" value=\"い\"}}入れよ",
      "KRko": "마스터 소드의 선택을 받은 자여\n검의 시련을 극복하여 진정한 빛을 획득하라",
      "TWzh": "被大師之劍選中之人啊。\n通過劍之考驗，讓它綻放真正的光芒吧。",
      "USen": "Chosen hero of the Master Sword...\nOvercome the Trial of the Sword and\nclaim the blade's true splendor!",
      "USes": "Elegido por la espada... Sal victorioso\ndel santuario de la espada y podrás \ncontemplar el auténtico brillo de su hoja.",
      "USfr": "Élu de l'épée de légende, triomphe\nde l'épreuve de l'épée et fais tienne\nla lumière véritable de ta lame!"
    }
  }
]