[
  {
    "label": "Demo008_0_Text003",
    "attribute": "",
    "locale": {
      "CNzh": "{{anim2 type=\"Activate\"}}希卡之石确认完毕。{{autoAdvance frames=\"75\"}}",
      "EUde": "{{anim2 type=\"Activate\"}}Shiekah-Stein erkannt.{{autoAdvance frames=\"75\"}}",
      "EUen": "{{anim2 type=\"Activate\"}}Sheikah Slate confirmed.{{autoAdvance frames=\"75\"}}",
      "EUes": "{{anim2 type=\"Activate\"}}Piedra sheikah verificada.{{autoAdvance frames=\"75\"}}",
      "EUfr": "{{anim2 type=\"Activate\"}}Tablette sheikah reconnue.{{autoAdvance frames=\"75\"}}",
      "EUit": "{{anim2 type=\"Activate\"}}Riconoscimento tavoletta Sheikah.{{autoAdvance frames=\"75\"}}",
      "EUnl": "{{anim2 type=\"Activate\"}}Sheikah-steen geverifieerd.{{autoAdvance frames=\"75\"}}",
      "EUru": "{{anim2 type=\"Activate\"}}Камень шиика принят.{{autoAdvance frames=\"75\"}}",
      "JPja": "{{anim2 type=\"Activate\"}}シーカーストーンを{{ruby charSpan=\"2\" value=\"かくにん\"}}確認しました{{autoAdvance frames=\"75\"}}",
      "KRko": "{{anim2 type=\"Activate\"}}시커 스톤을 확인했습니다{{autoAdvance frames=\"75\"}}",
      "TWzh": "{{anim2 type=\"Activate\"}}已確認希卡之石。{{autoAdvance frames=\"75\"}}",
      "USen": "{{anim2 type=\"Activate\"}}Sheikah Slate confirmed.{{autoAdvance frames=\"75\"}}",
      "USes": "{{anim2 type=\"Activate\"}}Se ha verificado la tableta sheikah.{{autoAdvance frames=\"75\"}}",
      "USfr": "{{anim2 type=\"Activate\"}}Tablette Sheikah reconnue.{{autoAdvance frames=\"75\"}}"
    }
  },
  {
    "label": "Demo008_0_Text004",
    "attribute": "",
    "locale": {
      "CNzh": "{{anim2 type=\"Activate\"}}将此场所作为传送点添加到地图。{{delay1}}",
      "EUde": "{{anim2 type=\"Activate\"}}Dieser Ort wird als Teleportziel\nauf der Karte eingezeichnet.{{delay1}}",
      "EUen": "{{anim2 type=\"Activate\"}}Travel Gate registered to map.",
      "EUes": "{{anim2 type=\"Activate\"}}Se va a registrar esta ubicación en\nel mapa como punto de teletransporte.",
      "EUfr": "{{anim2 type=\"Activate\"}}Activation du point de téléportation\net inscription sur la carte...{{delay1}}",
      "EUit": "{{anim2 type=\"Activate\"}}Questo luogo è stato registrato sulla\nmappa come punto di teletrasporto.{{delay1}}",
      "EUnl": "{{anim2 type=\"Activate\"}}Deze locatie wordt als teleporteerpunt\ntoegevoegd aan de kaart.{{delay1}}",
      "EUru": "{{anim2 type=\"Activate\"}}Точка перемещения\nдобавлена на карту.{{delay1}}",
      "JPja": "{{anim2 type=\"Activate\"}}ワープ{{ruby charSpan=\"2\" value=\"ちてん\"}}地点として\nこの{{ruby charSpan=\"2\" value=\"ばしょ\"}}場所をマップに{{ruby charSpan=\"2\" value=\"とうろく\"}}登録します{{delay1}}",
      "KRko": "{{anim2 type=\"Activate\"}}워프 지점으로\n이 장소를 맵에 등록합니다{{delay1}}",
      "TWzh": "{{anim2 type=\"Activate\"}}將在地圖上\n登錄此場所為傳送點。{{delay1}}",
      "USen": "{{anim2 type=\"Activate\"}}Travel Gate registered to map.",
      "USes": "{{anim2 type=\"Activate\"}}Se va a registrar esta ubicación en\nel mapa como punto de teletransporte.",
      "USfr": "{{anim2 type=\"Activate\"}}Activation du point de téléportation\net inscription sur la carte...{{delay1}}"
    }
  },
  {
    "label": "Demo008_0_Text005",
    "attribute": "",
    "locale": {
      "CNzh": "{{anim2 type=\"Activate\"}}解除通往内部的限制。{{autoAdvance frames=\"90\"}}",
      "EUde": "{{anim2 type=\"Activate\"}}Der Eingang wird nun geöffnet.{{autoAdvance frames=\"90\"}}",
      "EUen": "{{anim2 type=\"Activate\"}}Access granted.{{autoAdvance frames=\"90\"}}",
      "EUes": "{{anim2 type=\"Activate\"}}Se va a desbloquear la entrada.{{autoAdvance frames=\"90\"}}",
      "EUfr": "{{anim2 type=\"Activate\"}}Déblocage de l'entrée.{{autoAdvance frames=\"90\"}}",
      "EUit": "{{anim2 type=\"Activate\"}}Apertura della porta.{{autoAdvance frames=\"90\"}}",
      "EUnl": "{{anim2 type=\"Activate\"}}De ingang wordt geopend.{{autoAdvance frames=\"90\"}}",
      "EUru": "{{anim2 type=\"Activate\"}}Вход разблокирован.{{autoAdvance frames=\"90\"}}",
      "JPja": "{{anim2 type=\"Activate\"}}{{ruby charSpan=\"2\" value=\"ないぶ\"}}内部へのロックを{{ruby charSpan=\"2\" value=\"かいじょ\"}}解除します{{autoAdvance frames=\"90\"}}",
      "KRko": "{{anim2 type=\"Activate\"}}내부로의 잠금을 해제합니다{{autoAdvance frames=\"90\"}}",
      "TWzh": "{{anim2 type=\"Activate\"}}解除通往內部的封鎖。{{autoAdvance frames=\"90\"}}",
      "USen": "{{anim2 type=\"Activate\"}}Access granted.{{autoAdvance frames=\"90\"}}",
      "USes": "{{anim2 type=\"Activate\"}}Se va a desbloquear la entrada.{{autoAdvance frames=\"90\"}}",
      "USfr": "{{anim2 type=\"Activate\"}}Déblocage de l'entrée.{{autoAdvance frames=\"90\"}}"
    }
  }
]