[
  {
    "label": "Npc_Rito_Hero_talk000",
    "attribute": "",
    "locale": {
      "CNzh": "{{autoAdvance frames=\"323\"}}老实说，我真没想到你能做到这一步。\n这样一来，力巴尔的勇猛也更强了……",
      "EUde": "{{autoAdvance frames=\"297\"}}Ich muss zugeben, das hätte ich dir\nnicht zugetraut. Revalis Sturm wird dir\nnun noch bessere Dienste leisten.",
      "EUen": "{{autoAdvance frames=\"283\"}}I truly never imagined you would do\nso well. Regardless, Revali's Gale\nshould be more efficient than ever.",
      "EUes": "{{autoAdvance frames=\"326\"}}Sinceramente, nunca pensé que llegarías\ntan lejos. La furia de Revali será ahora\nmucho más efectiva.",
      "EUfr": "{{autoAdvance frames=\"301\"}}Pour être franc, je ne pensais pas que\ntu y arriverais. Maintenant que la Rage\nde Revali a gagné en puissance...",
      "EUit": "{{autoAdvance frames=\"320\"}}Non pensavo che saresti arrivato fin qui.\nIn ogni caso, ora il turbine di Revali sarà\nancora più efficace!",
      "EUnl": "{{autoAdvance frames=\"323\"}}Nooit gedacht dat het zo goed zou gaan.\nRevali's storm is nu efficiënter dan ooit.",
      "EUru": "{{autoAdvance frames=\"304\"}}Не ожидал я от тебя таких успехов.\nВихрь Ревали, кстати, можешь\nтеперь чаще использовать.",
      "JPja": "{{autoAdvance frames=\"323\"}}ここまでやれるとは {{ruby charSpan=\"3\" value=\"しょうじきおも\"}}正直思ってなかったよ\n{{ruby charSpan=\"7\" value=\"リーバルトルネード\"}}リーバルの猛りも さらに{{ruby charSpan=\"2\" value=\"きょうか\"}}強化されたわけで…",
      "KRko": "{{autoAdvance frames=\"323\"}}여기까지 해낼 줄은 솔직히 생각 못했어\n리발의 용맹도 더 강화되었을 거야…",
      "TWzh": "{{autoAdvance frames=\"323\"}}老實說，我從沒想過你能做得這麼好。\n力巴爾的勇猛也更加強化了……",
      "USen": "{{autoAdvance frames=\"283\"}}I truly never imagined you would do\nso well. Regardless, Revali's Gale\nshould be more efficient than ever.",
      "USes": "{{autoAdvance frames=\"323\"}}Jamás imaginé que lo lograrías,\npero no importa. Ahora la furia de\nRevali será mucho más eficiente.",
      "USfr": "{{autoAdvance frames=\"301\"}}Pour être franc, je ne pensais pas que\ntu y arriverais. Maintenant que la Rage\nde Revali a gagné en puissance..."
    }
  },
  {
    "label": "Npc_Rito_Hero_talk010",
    "attribute": "",
    "locale": {
      "CNzh": "{{autoAdvance frames=\"234\"}}现在的你应该能够完成讨伐\n盖侬这一宏图伟业了吧？",
      "EUde": "{{autoAdvance frames=\"208\"}}So langsam bist du bereit, es zu\nEnde zu bringen. Ganons letztes\nStündchen hat geschlagen.",
      "EUen": "{{autoAdvance frames=\"199\"}}As you are, I guess it's theoretically\npossible for you to best Ganon.",
      "EUes": "{{autoAdvance frames=\"233\"}}Con tu fuerza actual, me imagino\nque ya podría estar a tu alcance\nderrotar a Ganon.",
      "EUfr": "{{autoAdvance frames=\"147\"}}... tu ne devrais avoir aucun problème\nà vaincre Ganon.",
      "EUit": "{{autoAdvance frames=\"225\"}}Ormai sei abbastanza forte per portare\na termine la tua missione e sconfiggere\nGanon.",
      "EUnl": "{{autoAdvance frames=\"234\"}}Zoals je nu bent, zou je theoretisch\ngezien Ganon moeten kunnen verslaan.",
      "EUru": "{{autoAdvance frames=\"245\"}}Может, тебе и удастся уничтожить\nГанона. Если повезет.",
      "JPja": "{{autoAdvance frames=\"234\"}}{{ruby charSpan=\"1\" value=\"いま\"}}今の{{ruby charSpan=\"1\" value=\"きみ\"}}君なら{{ruby charSpan=\"2\" value=\"でき\"}}出来るだろ？\nガノン{{ruby charSpan=\"2\" value=\"とうばつ\"}}討伐っていう{{ruby charSpan=\"3\" value=\"おおしごと\"}}大仕事をね",
      "KRko": "{{autoAdvance frames=\"234\"}}지금의 너라면 이룰 수 있겠지?\n가논 토벌이라는 대업을 말이야",
      "TWzh": "{{autoAdvance frames=\"234\"}}「討伐加儂」這個重責大任，\n現在的你應該辦得到吧？",
      "USen": "{{autoAdvance frames=\"199\"}}As you are, I guess it's theoretically\npossible for you to best Ganon.",
      "USes": "{{autoAdvance frames=\"234\"}}Y tú... Supongo que ahora sí será\nposible que logres vencer a Ganon.",
      "USfr": "{{autoAdvance frames=\"147\"}}... tu ne devrais avoir aucun problème\nà vaincre Ganon."
    }
  },
  {
    "label": "Npc_Rito_Hero_talk100",
    "attribute": "",
    "locale": {
      "CNzh": "{{autoAdvance frames=\"257\"}}哎呀，你又来了啊。\n是想在讨伐灾厄盖侬前进行一下训练吗？",
      "EUde": "{{autoAdvance frames=\"247\"}}Oh, du kommst noch einmal zu Besuch?\nWillst du noch mal etwas trainieren,\nbevor du dich Ganon stellst?",
      "EUen": "{{autoAdvance frames=\"217\"}}You're back? Hmph. I suppose this is\npart of your training to defeat\nCalamity Ganon, yes?",
      "EUes": "{{autoAdvance frames=\"254\"}}¿Has vuelto? Supongo que vienes\na perfeccionar tus habilidades\nantes de luchar contra Ganon.",
      "EUfr": "{{autoAdvance frames=\"238\"}}Tiens, tu es revenu ? Tu as encore\nbesoin de t'entraîner avant d'aller\naffronter Ganon, j'imagine ?",
      "EUit": "{{autoAdvance frames=\"237\"}}Di nuovo qui? Anche questo fa parte del\ntuo allenamento per sconfiggere la\ncalamità Ganon?",
      "EUnl": "{{autoAdvance frames=\"257\"}}Ben je daar weer? Dit maakt zeker deel\nuit van je training om Ganon te verslaan?",
      "EUru": "{{autoAdvance frames=\"245\"}}Опять пришел? Ты что, оттачиваешь\nмастерство, чтобы победить Ганона?",
      "JPja": "{{autoAdvance frames=\"257\"}}おや また{{ruby charSpan=\"1\" value=\"き\"}}来たのか\n{{ruby charSpan=\"2\" value=\"やくさい\"}}厄災ガノンに{{ruby charSpan=\"1\" value=\"む\"}}向かう{{ruby charSpan=\"1\" value=\"まえ\"}}前の {{ruby charSpan=\"2\" value=\"くんれん\"}}訓練ってわけ？",
      "KRko": "{{autoAdvance frames=\"257\"}}이런, 또 왔군\n재앙 가논과 맞서기 전의 훈련인가?",
      "TWzh": "{{autoAdvance frames=\"257\"}}哦？你又來啦？\n是想在討伐災厄加儂前訓練一下嗎？",
      "USen": "{{autoAdvance frames=\"217\"}}You're back? Hmph. I suppose this is\npart of your training to defeat\nCalamity Ganon, yes?",
      "USes": "{{autoAdvance frames=\"252\"}}¿Volviste? Sigues entrenando\npara derrotar a Ganon, ¿cierto?\nMás te vale.",
      "USfr": "{{autoAdvance frames=\"238\"}}Tiens, tu es revenu? Tu as encore\nbesoin de t'entraîner avant d'aller\naffronter Ganon, j'imagine?"
    }
  },
  {
    "label": "Npc_Rito_Hero_talk110",
    "attribute": "",
    "locale": {
      "CNzh": "{{autoAdvance frames=\"217\"}}嗯，虽然我也不是不能理解\n你在讨伐盖侬时会感到紧张……",
      "EUde": "{{autoAdvance frames=\"177\"}}Ich kann schon verstehen, dass du\ndich der Verheerung noch nicht ganz\ngewachsen fühlst.",
      "EUen": "{{autoAdvance frames=\"150\"}}I can't blame you for feeling anxious\nabout facing the foul beast.",
      "EUes": "{{autoAdvance frames=\"216\"}}¿Te preocupa enfrentarte a Ganon?\nNo me extraña que no estés muy\ntranquilo.",
      "EUfr": "{{autoAdvance frames=\"213\"}}À vrai dire, je ne comprends que trop\nbien que tu ne te sentes pas à la hauteur\nde la tâche qui t'attend...",
      "EUit": "{{autoAdvance frames=\"219\"}}Non ti biasimo se sei nervoso all'idea \ndi affrontare quel bestione...",
      "EUnl": "{{autoAdvance frames=\"197\"}}Ik neem het je niet kwalijk dat je nerveus\nbent over je strijd tegen dat misbaksel.",
      "EUru": "{{autoAdvance frames=\"203\"}}Ну, у тебя есть причины нервничать\nперед битвой с Бедствием...",
      "JPja": "{{autoAdvance frames=\"197\"}}まあ{{ruby charSpan=\"1\" value=\"きみ\"}}君が ガノン{{ruby charSpan=\"2\" value=\"とうばつ\"}}討伐を{{ruby charSpan=\"2\" value=\"ふあん\"}}不安に{{ruby charSpan=\"1\" value=\"おも\"}}思うのも\nわからないじゃないけど…",
      "KRko": "{{autoAdvance frames=\"217\"}}뭐, 네가 가논 토벌에 부담을 느끼는 건\n이해하지만…",
      "TWzh": "{{autoAdvance frames=\"197\"}}你對討伐加儂一事感到不安，\n這我也不是不能理解……",
      "USen": "{{autoAdvance frames=\"150\"}}I can't blame you for feeling anxious\nabout facing the foul beast.",
      "USes": "{{autoAdvance frames=\"190\"}}Si no estás en plena forma, la batalla\nserá corta, y no te gustará el resultado.",
      "USfr": "{{autoAdvance frames=\"213\"}}À vrai dire, je ne comprends que trop\nbien que tu ne te sentes pas à la hauteur\nde la tâche qui t'attend..."
    }
  },
  {
    "label": "Npc_Rito_Hero_talk120",
    "attribute": "",
    "locale": {
      "CNzh": "{{autoAdvance frames=\"261\"}}哦？难道你是想让我用这\n天籁之音为你加油鼓劲吗？",
      "EUde": "{{autoAdvance frames=\"251\"}}Oder erwartest du nur, dass ich dir mit\nmeiner wohlklingenden Stimme Mut\nzuspreche?",
      "EUen": "{{autoAdvance frames=\"243\"}}Hm? Were you looking for words of\nencouragement in my dulcet tones?",
      "EUes": "{{autoAdvance frames=\"263\"}}Espera, ¿no me digas que\nhas venido a que te dé ánimos\ncon mi majestuosa voz?",
      "EUfr": "{{autoAdvance frames=\"203\"}}Qu'est-ce qu'il y a ? Ne me dis pas que\ntu t'attendais à des encouragements ?",
      "EUit": "{{autoAdvance frames=\"276\"}}Eh? Non mi dire che ti aspettavi\nparole di incoraggiamento dalla\nmia melodiosa voce!",
      "EUnl": "{{autoAdvance frames=\"261\"}}Wil je dat ik je bemoedigend toespreek\nmet mijn hemelse stem?",
      "EUru": "{{autoAdvance frames=\"271\"}}А может, ты хотел, чтобы я тебя\nподбодрил? Успокоил своим\nчудным голосом?",
      "JPja": "{{autoAdvance frames=\"261\"}}あれ？ ひょっとして {{ruby charSpan=\"1\" value=\"ぼく\"}}僕のこの{{ruby charSpan=\"2\" value=\"びせい\"}}美声で\n{{ruby charSpan=\"2\" value=\"げきれい\"}}激励してほしくなったとか？",
      "KRko": "{{autoAdvance frames=\"261\"}}응? 혹시 내가 격려해 주기라도 바라는 거야?",
      "TWzh": "{{autoAdvance frames=\"261\"}}咦？難不成你希望我用這副好嗓子，\n給你一點鼓勵？",
      "USen": "{{autoAdvance frames=\"243\"}}Hm? Were you looking for words of\nencouragement in my dulcet tones?",
      "USes": "{{autoAdvance frames=\"245\"}}¿Qué? ¿Acaso querías que te cantara\nhimnos de aliento y elogios?",
      "USfr": "{{autoAdvance frames=\"203\"}}Qu'est-ce qu'il y a? Ne me dis pas que\ntu t'attendais à des encouragements?"
    }
  },
  {
    "label": "Npc_Rito_Hero_talk130",
    "attribute": "",
    "locale": {
      "CNzh": "{{autoAdvance frames=\"236\"}}对于这点我也不是不能理解，\n但有我在一旁守望着你就足够了吧？",
      "EUde": "{{autoAdvance frames=\"215\"}}Auch das ist verständlich. Aber meinst\ndu nicht, es genügt, dass ich stets über\ndich wache?",
      "EUen": "{{autoAdvance frames=\"193\"}}I can understand why you would desire\nsuch a thing, but having me keep you\nin line will have to suffice.",
      "EUes": "{{autoAdvance frames=\"228\"}}Sea como sea, ya hago suficiente\nprestándote atención. Confórmate\ncon eso.",
      "EUfr": "{{autoAdvance frames=\"220\"}}N'en demande pas trop, tu veux bien ?\nJe veille déjà sur toi, ça ne te suffit pas ?",
      "EUit": "{{autoAdvance frames=\"233\"}}Beh, la cosa non mi sorprende... ma\ndovrai accontentarti di avermi come\nspirito protettore...",
      "EUnl": "{{autoAdvance frames=\"236\"}}Dat snap ik. Maar je zult het moeten\ndoen met het feit dat ik je in toom houd.",
      "EUru": "{{autoAdvance frames=\"228\"}}Понимаю тебя, но я, пожалуй, просто\nмолча понаблюдаю. По рукам?",
      "JPja": "{{autoAdvance frames=\"236\"}}それもまあ わからないでもないけど\n{{ruby charSpan=\"1\" value=\"ぼく\"}}僕が{{ruby charSpan=\"2\" value=\"みまも\"}}見守ってるってだけで {{ruby charSpan=\"2\" value=\"じゅうぶん\"}}十分だろ？",
      "KRko": "{{autoAdvance frames=\"236\"}}그 마음, 모르는 건 아니지만\n내가 지켜보고 있다는 걸로 충분하지 않아?",
      "TWzh": "{{autoAdvance frames=\"236\"}}這點我也不是不明白，\n不過有我在一旁守著你，應該就足夠了吧？",
      "USen": "{{autoAdvance frames=\"193\"}}I can understand why you would desire\nsuch a thing, but having me keep you\nin line will have to suffice.",
      "USes": "{{autoAdvance frames=\"233\"}}Por muy majestuosa que sea mi voz,\nesta vez tendrás que conformarte con\nmi generosidad.",
      "USfr": "{{autoAdvance frames=\"220\"}}N'en demande pas trop, tu veux bien?\nJe veille déjà sur toi, ça ne te suffit pas?"
    }
  },
  {
    "label": "Npc_Rito_Hero_talk200",
    "attribute": "",
    "locale": {
      "CNzh": "{{autoAdvance frames=\"97\"}}你又来了吗？",
      "EUde": "{{autoAdvance frames=\"98\"}}Du schaust schon wieder vorbei?",
      "EUen": "{{autoAdvance frames=\"60\"}}You again?",
      "EUes": "{{autoAdvance frames=\"92\"}}¿Otra vez por aquí?",
      "EUfr": "{{autoAdvance frames=\"84\"}}Encore toi ?",
      "EUit": "{{autoAdvance frames=\"95\"}}Ancora tu?",
      "EUnl": "{{autoAdvance frames=\"97\"}}Jij weer?",
      "EUru": "{{autoAdvance frames=\"56\"}}Снова ты?",
      "JPja": "{{autoAdvance frames=\"97\"}}また{{ruby charSpan=\"1\" value=\"き\"}}来たのかい？",
      "KRko": "{{autoAdvance frames=\"97\"}}또 온 거야?",
      "TWzh": "{{autoAdvance frames=\"97\"}}你又來啦？",
      "USen": "{{autoAdvance frames=\"60\"}}You again?",
      "USes": "{{autoAdvance frames=\"90\"}}¿Tú? ¿De vuelta?",
      "USfr": "{{autoAdvance frames=\"84\"}}Encore toi?"
    }
  },
  {
    "label": "Npc_Rito_Hero_talk210",
    "attribute": "",
    "locale": {
      "CNzh": "{{autoAdvance frames=\"264\"}}说起来……你去过利特村了吧？\n那里情况如何？",
      "EUde": "{{autoAdvance frames=\"252\"}}Ach ja... Warst du in letzter Zeit mal\nim Dorf der Orni? Wie läuft es denn\ndort so?",
      "EUen": "{{autoAdvance frames=\"213\"}}Well, since you're here, tell me...\nHow is Rito Village faring?",
      "EUes": "{{autoAdvance frames=\"267\"}}A propósito, ¿has ido por el poblado\norni? ¿Qué tal todo por allí?",
      "EUfr": "{{autoAdvance frames=\"244\"}}Dis-moi... Est-ce que tu es allé au village\ndes Piafs ? Tout se passe bien, là-bas ?",
      "EUit": "{{autoAdvance frames=\"254\"}}Beh allora, visto che sei qui,\ndimmi un po': come se la stanno\ncavando al borgo dei Rito?",
      "EUnl": "{{autoAdvance frames=\"264\"}}Nu je hier toch bent... Vertel me eens\nhoe het Rito-dorp ervoor staat.",
      "EUru": "{{autoAdvance frames=\"228\"}}Раз уж пришел, расскажи,\nкак там дела в деревне рито.\nТы же там был, правда?",
      "JPja": "{{autoAdvance frames=\"264\"}}ところでさ… {{ruby charSpan=\"1\" value=\"きみ\"}}君 リトの{{ruby charSpan=\"1\" value=\"むら\"}}村に{{ruby charSpan=\"1\" value=\"い\"}}行ったよね？\n{{ruby charSpan=\"2\" value=\"ようす\"}}様子はどうだった？",
      "KRko": "{{autoAdvance frames=\"264\"}}그나저나… 너, 리토의 마을에 갔었지?\n거긴 어땠어?",
      "TWzh": "{{autoAdvance frames=\"264\"}}對了……你去過利特村了吧？\n那邊的狀況如何？",
      "USen": "{{autoAdvance frames=\"213\"}}Well, since you're here, tell me...\nHow is Rito Village faring?",
      "USes": "{{autoAdvance frames=\"264\"}}Bueno, ya que estás aquí... Cuéntame,\n¿cómo está todo por la aldea orni?",
      "USfr": "{{autoAdvance frames=\"244\"}}Dis-moi... Est-ce que tu es allé au village\ndes Piafs? Tout se passe bien, là-bas?"
    }
  },
  {
    "label": "Npc_Rito_Hero_talk220",
    "attribute": "",
    "locale": {
      "CNzh": "{{autoAdvance frames=\"170\"}}从我这里看过去，\n大家干得好像都还不错……",
      "EUde": "{{autoAdvance frames=\"166\"}}Soweit ich das von hier aus beurteilen\nkann, scheinen alle ganz gut\nklarzukommen.",
      "EUen": "{{autoAdvance frames=\"133\"}}Everyone seems to be doing well,\nas far as I can tell.",
      "EUes": "{{autoAdvance frames=\"160\"}}Desde aquí no tiene pinta de que\na la tribu le vaya muy mal.",
      "EUfr": "{{autoAdvance frames=\"165\"}}De ce que j'en vois d'ici, tout le\nmonde a l'air de bien se porter...",
      "EUit": "{{autoAdvance frames=\"172\"}}Per quello che vedo da qui, mi pare\nche stia filando tutto liscio...",
      "EUnl": "{{autoAdvance frames=\"160\"}}Het lijkt goed te gaan met iedereen,\nvoor zover ik dat kan zien.",
      "EUru": "{{autoAdvance frames=\"133\"}}С моей высоты кажется,\nу всех все хорошо.",
      "JPja": "{{autoAdvance frames=\"160\"}}ここから{{ruby charSpan=\"1\" value=\"み\"}}見る{{ruby charSpan=\"1\" value=\"ぶん\"}}分には {{ruby charSpan=\"1\" value=\"みんな\"}}皆\n{{ruby charSpan=\"2\" value=\"うま\"}}上手くやってるようだけど…",
      "KRko": "{{autoAdvance frames=\"170\"}}여기에서 보기에는\n다들 잘 지내고 있는 것 같던데…",
      "TWzh": "{{autoAdvance frames=\"160\"}}從我這裡看過去的樣子，\n大家似乎都過得不錯……",
      "USen": "{{autoAdvance frames=\"133\"}}Everyone seems to be doing well,\nas far as I can tell.",
      "USes": "{{autoAdvance frames=\"150\"}}Desde lo que alcanzo a apreciar\ntodos se encuentran bien.",
      "USfr": "{{autoAdvance frames=\"165\"}}De ce que j'en vois d'ici, tout le\nmonde à l'air de bien se porter..."
    }
  },
  {
    "label": "Npc_Rito_Hero_talk230",
    "attribute": "",
    "locale": {
      "CNzh": "{{autoAdvance frames=\"235\"}}不过，在那之后也有100年了，\n应该已经没人知道我了吧。",
      "EUde": "{{autoAdvance frames=\"213\"}}Einhundert Jahre ist es jetzt her...\nEs lebt sicher niemand mehr, der\nmich noch kannte.",
      "EUen": "{{autoAdvance frames=\"206\"}}I can't fathom that it's been 100 years...\nThere's no one left who would even\nknow me.",
      "EUes": "{{autoAdvance frames=\"232\"}}Han pasado cien años. Dudo que\nquede ya nadie que me recuerde.",
      "EUfr": "{{autoAdvance frames=\"220\"}}Hmm. Évidemment, après 100 ans,\nje ne connais plus personne là-bas.",
      "EUit": "{{autoAdvance frames=\"243\"}}Sono già passati cento anni. Dubito che\nci sia ancora qualcuno che si ricordi\nil mio nome...",
      "EUnl": "{{autoAdvance frames=\"235\"}}Ongelofelijk dat het honderd jaar geleden\nis. Er is niemand meer die me nog kent.",
      "EUru": "{{autoAdvance frames=\"194\"}}Но меня, наверное, давно забыли.\nВедь уже сто лет прошло...",
      "JPja": "{{autoAdvance frames=\"235\"}}まあ あれから100{{ruby charSpan=\"1\" value=\"ねん\"}}年{{ruby charSpan=\"1\" value=\"た\"}}経っちゃってる\n{{ruby charSpan=\"1\" value=\"ぼく\"}}僕を{{ruby charSpan=\"1\" value=\"し\"}}知ってる{{ruby charSpan=\"1\" value=\"やつ\"}}奴は もういないだろ",
      "KRko": "{{autoAdvance frames=\"235\"}}뭐, 그로부터 100년이나 지났으니\n나를 알고 있는 녀석은 이제 없겠지",
      "TWzh": "{{autoAdvance frames=\"235\"}}是說，畢竟都過了100年，\n大概已經沒人知道我了吧。",
      "USen": "{{autoAdvance frames=\"206\"}}I can't fathom that it's been 100 years...\nThere's no one left who would even\nknow me.",
      "USes": "{{autoAdvance frames=\"230\"}}Pero ya han pasado 100 años...\nSupongo que nadie sabría quién soy.",
      "USfr": "{{autoAdvance frames=\"220\"}}Hmm. Évidemment, après 100 ans,\nje ne connais plus personne là-bas."
    }
  },
  {
    "label": "Npc_Rito_Hero_talk240",
    "attribute": "",
    "locale": {
      "CNzh": "{{autoAdvance frames=\"171\"}}……尽管如此，我还是很好奇。\n毕竟那是我的故乡啊……",
      "EUde": "{{autoAdvance frames=\"181\"}}Aber irgendwie liegt das Dorf mir trotz\nallem am Herzen. So ist das wohl mit\nder Heimat.",
      "EUen": "{{autoAdvance frames=\"138\"}}But even so, it will always be my home.",
      "EUes": "{{autoAdvance frames=\"171\"}}Pero no puedo evitar acordarme del que\nfue mi hogar...",
      "EUfr": "{{autoAdvance frames=\"180\"}}Mais je ne peux pas m'empêcher d'y\npenser. C'est quand même mon village\nnatal...",
      "EUit": "{{autoAdvance frames=\"187\"}}Eppure sono così curioso...\nIn fondo sarà sempre il mio nido!",
      "EUnl": "{{autoAdvance frames=\"171\"}}Maar ondanks alles blijft het natuurlijk\nmijn thuisdorp.",
      "EUru": "{{autoAdvance frames=\"132\"}}А я вот не забываю.\nРодина как-никак.",
      "JPja": "{{autoAdvance frames=\"171\"}}…でも {{ruby charSpan=\"1\" value=\"き\"}}気になるよね\n{{ruby charSpan=\"2\" value=\"ふるさと\"}}故郷だからね…",
      "KRko": "{{autoAdvance frames=\"171\"}}…그래도 신경 쓰인단 말이지\n고향이니까…",
      "TWzh": "{{autoAdvance frames=\"171\"}}……不過還是令人在意呢。\n畢竟是故鄉嘛……",
      "USen": "{{autoAdvance frames=\"138\"}}But even so, it will always be my home.",
      "USes": "{{autoAdvance frames=\"171\"}}Pero tengo curiosidad. Fue mi hogar y lo\nseguirá siendo por siempre.",
      "USfr": "{{autoAdvance frames=\"180\"}}Mais je ne peux pas m'empêcher d'y\npenser. C'est quand même mon village\nnatal..."
    }
  },
  {
    "label": "Npc_Rito_Hero_talk300",
    "attribute": "",
    "locale": {
      "CNzh": "{{autoAdvance frames=\"220\"}}你还真是很努力呢……\n啊，对了。",
      "EUde": "{{autoAdvance frames=\"206\"}}Ich sehe, du liegst nicht auf der faulen\nHaut. Eins wollte ich dir noch sagen...",
      "EUen": "{{autoAdvance frames=\"193\"}}You're working diligently. As you should.\nBy the way, a word of advice.",
      "EUes": "{{autoAdvance frames=\"220\"}}Veo que estás dando todo lo que tienes.\nPor cierto...",
      "EUfr": "{{autoAdvance frames=\"217\"}}Tu ne ménages pas tes efforts,\nà ce que je vois...\nAh, au fait...",
      "EUit": "{{autoAdvance frames=\"218\"}}Ti stai dando da fare, eh?\nAh, a proposito!",
      "EUnl": "{{autoAdvance frames=\"220\"}}Je bent druk bezig, zoals het hoort.\nIk wilde je nog iets zeggen.",
      "EUru": "{{autoAdvance frames=\"221\"}}А ты усердный малый...\nКстати, чуть не забыл!",
      "JPja": "{{autoAdvance frames=\"220\"}}{{ruby charSpan=\"1\" value=\"きみ\"}}君も{{ruby charSpan=\"2\" value=\"がんば\"}}頑張るね…\nああ そうだ",
      "KRko": "{{autoAdvance frames=\"220\"}}너도 참 열심이구나…\n아, 그렇지",
      "TWzh": "{{autoAdvance frames=\"220\"}}你也很努力呢……\n啊，對了。",
      "USen": "{{autoAdvance frames=\"193\"}}You're working diligently. As you should.\nBy the way, a word of advice.",
      "USes": "{{autoAdvance frames=\"220\"}}Veo que continúas preparándote.\nComo debes. Ah, ¡eso me recuerda algo!",
      "USfr": "{{autoAdvance frames=\"217\"}}Tu ne ménages pas tes efforts,\nà ce que je vois...\nAh, au fait..."
    }
  },
  {
    "label": "Npc_Rito_Hero_talk310",
    "attribute": "",
    "locale": {
      "CNzh": "{{autoAdvance frames=\"219\"}}救出那位公主之后……\n你可不能向她打听我的事情啊。",
      "EUde": "{{autoAdvance frames=\"210\"}}Wenn du die Prinzessin gerettet hast...\nBitte rede mit ihr nicht über mich, ja?",
      "EUen": "{{autoAdvance frames=\"193\"}}After you rescue the princess, don't go\nasking her about me. Understood?",
      "EUes": "{{autoAdvance frames=\"229\"}}Si rescatas a la princesa, que no se\nte ocurra preguntarle nada sobre mí.",
      "EUfr": "{{autoAdvance frames=\"226\"}}Quand tu seras venu en aide à la\nprincesse... Évite de lui poser trop\nde questions à mon sujet, compris ?",
      "EUit": "{{autoAdvance frames=\"217\"}}Dopo aver salvato la principessa,\nnon farle troppe domande su di me,\nmi raccomando!",
      "EUnl": "{{autoAdvance frames=\"219\"}}Nadat je de prinses hebt gered, moet je\nhaar niks over mij vragen. Begrepen?",
      "EUru": "{{autoAdvance frames=\"219\"}}Когда спасешь принцессу, не смей\nее расспрашивать обо мне, понял?",
      "JPja": "{{autoAdvance frames=\"219\"}}あの{{ruby charSpan=\"1\" value=\"ひめ\"}}姫を{{ruby charSpan=\"1\" value=\"たす\"}}助けた{{ruby charSpan=\"1\" value=\"あと\"}}後に…\nあんまり{{ruby charSpan=\"1\" value=\"ぼく\"}}僕の{{ruby charSpan=\"1\" value=\"こと\"}}事を{{ruby charSpan=\"1\" value=\"き\"}}聞き{{ruby charSpan=\"1\" value=\"だ\"}}出そうとしちゃ{{ruby charSpan=\"2\" value=\"だめ\"}}駄目だよ？",
      "KRko": "{{autoAdvance frames=\"219\"}}그 공주를 구한 뒤에…\n나에 대한 얘기를 캐묻거나 하진 말라구",
      "TWzh": "{{autoAdvance frames=\"219\"}}你救了那位公主之後……\n可不能跟她打聽我的事喔。",
      "USen": "{{autoAdvance frames=\"193\"}}After you rescue the princess, don't go\nasking her about me. Understood?",
      "USes": "{{autoAdvance frames=\"215\"}}Si logras reunirte con la princesa,\nno hables con ella sobre mí.\n¿Entendido?",
      "USfr": "{{autoAdvance frames=\"226\"}}Quand tu seras venu en aide à la\nprincesse... Évite de lui poser trop\nde questions à mon sujet, compris?"
    }
  },
  {
    "label": "Npc_Rito_Hero_talk320",
    "attribute": "",
    "locale": {
      "CNzh": "{{autoAdvance frames=\"162\"}}嗯！不管公主说了什么你都不可以打听！",
      "EUde": "{{autoAdvance frames=\"141\"}}Und wenn sie auf mich zu sprechen\nkommt, weich irgendwie aus!",
      "EUen": "{{autoAdvance frames=\"128\"}}Whatever rubbish she may say,\ndo NOT pursue that topic!",
      "EUes": "{{autoAdvance frames=\"152\"}}Además, no importa lo\nque tenga que decir.",
      "EUfr": "{{autoAdvance frames=\"151\"}}De toute façon, je ne vois pas ce qu'elle\npourrait te dire d'intéressant.",
      "EUit": "{{autoAdvance frames=\"163\"}}Anzi, se dovesse dirti qualcosa\ntu non darle retta!",
      "EUnl": "{{autoAdvance frames=\"162\"}}Wat ze ook uitkraamt, laat dat onderwerp\nvoor wat het is.",
      "EUru": "{{autoAdvance frames=\"152\"}}Если скажет что про меня, не верь!",
      "JPja": "{{autoAdvance frames=\"162\"}}いや！ {{ruby charSpan=\"1\" value=\"ひめ\"}}姫が{{ruby charSpan=\"1\" value=\"なに\"}}何を{{ruby charSpan=\"1\" value=\"い\"}}言ったとしてもだ！",
      "KRko": "{{autoAdvance frames=\"162\"}}공주가 먼저 말을 꺼내려고 해도 말이야!",
      "TWzh": "{{autoAdvance frames=\"162\"}}不！不管她說了什麼，你都別問！",
      "USen": "{{autoAdvance frames=\"128\"}}Whatever rubbish she may say,\ndo NOT pursue that topic!",
      "USes": "{{autoAdvance frames=\"145\"}}No importa lo que diga, ¡evita el tema!",
      "USfr": "{{autoAdvance frames=\"151\"}}De toute façon, je ne vois pas ce qu'elle\npourrait te dire d'intéressant."
    }
  },
  {
    "label": "Npc_Rito_Hero_talk330",
    "attribute": "",
    "locale": {
      "CNzh": "{{autoAdvance frames=\"272\"}}毕竟是100年前的事情了。\n就算公主她记性再好，应该也记不清了吧？",
      "EUde": "{{autoAdvance frames=\"252\"}}Das Ganze ist jetzt hundert Jahre her...\nIch bin sicher, sie erinnert sich ohnehin\nnicht mehr richtig an alles.",
      "EUen": "{{autoAdvance frames=\"194\"}}It's been 100 years, so I bet her royal\nmemory isn't what it used to be anyhow.",
      "EUes": "{{autoAdvance frames=\"267\"}}Han pasado cien años, así que\nsu memoria ya no será lo que era.",
      "EUfr": "{{autoAdvance frames=\"203\"}}Tout ça, ça remonte à cent ans, ses\nsouvenirs ont dû s'émousser depuis\nle temps.",
      "EUit": "{{autoAdvance frames=\"280\"}}Stiamo parlando di fatti di cento anni fa,\nanche la sua memoria comincerà a\nmancare il bersaglio!",
      "EUnl": "{{autoAdvance frames=\"272\"}}Na honderd jaar is haar koninklijke\ngeheugen sowieso niet meer zo goed.",
      "EUru": "{{autoAdvance frames=\"271\"}}Хотя сто лет прошло. Она,\nнаверное, уже все забыла.",
      "JPja": "{{autoAdvance frames=\"272\"}}もう100{{ruby charSpan=\"1\" value=\"ねん\"}}年も{{ruby charSpan=\"1\" value=\"まえ\"}}前の{{ruby charSpan=\"1\" value=\"はなし\"}}話だからねえ\nさすがに{{ruby charSpan=\"1\" value=\"ひめ\"}}姫の{{ruby charSpan=\"2\" value=\"きおく\"}}記憶も {{ruby charSpan=\"2\" value=\"あいまい\"}}曖昧なんじゃないかな？",
      "KRko": "{{autoAdvance frames=\"272\"}}벌써 100년도 더 된 이야기니까\n공주 기억도 희미해지지 않았을까?",
      "TWzh": "{{autoAdvance frames=\"272\"}}畢竟都是100年前的陳年舊事了，\n公主的記憶應該也模糊不清了吧？",
      "USen": "{{autoAdvance frames=\"194\"}}It's been 100 years, so I bet her royal\nmemory isn't what it used to be anyhow.",
      "USes": "{{autoAdvance frames=\"268\"}}De cualquier modo, dudo que\nincluso ella pueda recordar\nnimiedades de hace cien años.",
      "USfr": "{{autoAdvance frames=\"203\"}}Tout ça, ça remonte à cent ans, ses\nsouvenirs ont dû s'émousser depuis\nle temps."
    }
  },
  {
    "label": "Npc_Rito_Hero_talk400",
    "attribute": "",
    "locale": {
      "CNzh": "{{autoAdvance frames=\"126\"}}你还真是执着啊……",
      "EUde": "{{autoAdvance frames=\"113\"}}Du bist wirklich hartnäckig...",
      "EUen": "{{autoAdvance frames=\"76\"}}You're rather persistent.",
      "EUes": "{{autoAdvance frames=\"123\"}}No te cansas nunca, ¿eh?",
      "EUfr": "{{autoAdvance frames=\"100\"}}Tu es du genre collant, toi...",
      "EUit": "{{autoAdvance frames=\"116\"}}Sei proprio cocciuto...",
      "EUnl": "{{autoAdvance frames=\"126\"}}Jij bent echt een volhouder.",
      "EUru": "{{autoAdvance frames=\"120\"}}Да, ты упорный...",
      "JPja": "{{autoAdvance frames=\"126\"}}{{ruby charSpan=\"1\" value=\"きみ\"}}君もしつこいね…",
      "KRko": "{{autoAdvance frames=\"126\"}}너도 참 끈질기군…",
      "TWzh": "{{autoAdvance frames=\"126\"}}你也真纏人……",
      "USen": "{{autoAdvance frames=\"76\"}}You're rather persistent.",
      "USes": "{{autoAdvance frames=\"117\"}}Qué persistente...",
      "USfr": "{{autoAdvance frames=\"100\"}}Tu es du genre collant, toi..."
    }
  },
  {
    "label": "Npc_Rito_Hero_talk410",
    "attribute": "",
    "locale": {
      "CNzh": "{{autoAdvance frames=\"202\"}}不过，你来得正好。\n之前有件事情我忘记对你说了……",
      "EUde": "{{autoAdvance frames=\"194\"}}Aber eigentlich trifft es sich gut, denn\nich wollte dir eh noch eine Sache sagen.",
      "EUen": "{{autoAdvance frames=\"165\"}}Well, at least you have good timing.\nThere's something I wanted to tell you.",
      "EUes": "{{autoAdvance frames=\"210\"}}Al menos vienes en buen momento.\nSe me había olvidado decirte una cosa.",
      "EUfr": "{{autoAdvance frames=\"183\"}}Enfin, tu tombes bien. Il y a autre chose\nque j'avais oublié de te dire...",
      "EUit": "{{autoAdvance frames=\"198\"}}Beh, comunque capiti al momento giusto.\nC'era qualcos'altro che volevo dirti.",
      "EUnl": "{{autoAdvance frames=\"202\"}}Maar eigenlijk komt het wel goed uit,\nwant ik wilde je nog iets vertellen.",
      "EUru": "{{autoAdvance frames=\"198\"}}Наверное, пришло время\nрассказать тебе одну вещь.",
      "JPja": "{{autoAdvance frames=\"202\"}}まあ ちょうど{{ruby charSpan=\"1\" value=\"よ\"}}良かった\nもう{{ruby charSpan=\"1\" value=\"ひと\"}}一つ {{ruby charSpan=\"1\" value=\"い\"}}言い{{ruby charSpan=\"1\" value=\"わす\"}}忘れていた{{ruby charSpan=\"1\" value=\"こと\"}}事があるんだ…",
      "KRko": "{{autoAdvance frames=\"202\"}}뭐, 마침 잘됐어\n한 가지 더 얘기할 게 있는데…",
      "TWzh": "{{autoAdvance frames=\"202\"}}不過你來得正好，\n我還有件事忘了跟你說……",
      "USen": "{{autoAdvance frames=\"165\"}}Well, at least you have good timing.\nThere's something I wanted to tell you.",
      "USes": "{{autoAdvance frames=\"192\"}}Al menos llegas en el momento oportuno.\nHay algo más que quería decirte.",
      "USfr": "{{autoAdvance frames=\"183\"}}Enfin, tu tombes bien. Il y a autre chose\nque j'avais oublié de te dire..."
    }
  },
  {
    "label": "Npc_Rito_Hero_talk420",
    "attribute": "",
    "locale": {
      "CNzh": "{{autoAdvance frames=\"291\"}}如果今后你从别处得到了一本叫做\n“利特战士力巴尔的日记”这样的东西……",
      "EUde": "{{autoAdvance frames=\"239\"}}Wenn du irgendwo zufällig auf ein\nTagebuch stoßen solltest, das\nangeblich von mir stammt...",
      "EUen": "{{autoAdvance frames=\"235\"}}You may happen upon something called\n\"The Diary of Revali, the Rito Legend.\"",
      "EUes": "{{autoAdvance frames=\"282\"}}Si por casualidad encontraras por ahí\ncierto libro titulado «Diario de Revali,\nel legendario orni»...",
      "EUfr": "{{autoAdvance frames=\"202\"}}Si jamais un jour tu tombes sur le\njournal de Revali, le guerrier piaf...",
      "EUit": "{{autoAdvance frames=\"280\"}}Se per caso ti capitasse fra le mani uno\nscritto intitolato \"Diario di Revali,\nla leggenda dei Rito\"...",
      "EUnl": "{{autoAdvance frames=\"291\"}}Wellicht krijg je ooit het 'Dagboek van\nRevali, de Rito-legende' in handen.",
      "EUru": "{{autoAdvance frames=\"285\"}}Если вдруг найдешь и... прочитаешь\nдневник некоего Ревали...",
      "JPja": "{{autoAdvance frames=\"291\"}}もしもどこかで リトの{{ruby charSpan=\"2\" value=\"せんし\"}}戦士 リーバルの{{ruby charSpan=\"2\" value=\"にっき\"}}日記…\nなんてものを {{ruby charSpan=\"1\" value=\"きみ\"}}君が{{ruby charSpan=\"1\" value=\"て\"}}手に{{ruby charSpan=\"1\" value=\"い\"}}入れたとしてもだ…",
      "KRko": "{{autoAdvance frames=\"291\"}}혹시 어딘가에서 리토의 전사 리발의 일기…\n라는 걸 네가 찾게 되더라도…",
      "TWzh": "{{autoAdvance frames=\"291\"}}假如你在某處，\n找到利特族戰士，力巴爾的日記……\n",
      "USen": "{{autoAdvance frames=\"235\"}}You may happen upon something called\n\"The Diary of Revali, the Rito Legend.\"",
      "USes": "{{autoAdvance frames=\"285\"}}Escucha: si te encuentras un libro\nque dice \"Diario de Revali, el gran\nguerrero orni\"...",
      "USfr": "{{autoAdvance frames=\"202\"}}Si jamais un jour, tu tombes sur le\njournal de Revali, le guerrier Piaf..."
    }
  },
  {
    "label": "Npc_Rito_Hero_talk430",
    "attribute": "",
    "locale": {
      "CNzh": "{{autoAdvance frames=\"181\"}}你一定不要相信里面写的任何事情！\n因为那日记不是我写的。",
      "EUde": "{{autoAdvance frames=\"205\"}}Glaub kein Wort von dem, was darin\ngeschrieben steht! Das Buch ist eine\ninfame Fälschung!",
      "EUen": "{{autoAdvance frames=\"193\"}}Don't believe a word of it! I'm not the\nauthor. Misleading title, I know.",
      "EUes": "{{autoAdvance frames=\"226\"}}¡no creas nada de lo que se cuenta\nen él; es completamente falso!\n¡Jamás he escrito tal diario!",
      "EUfr": "{{autoAdvance frames=\"212\"}}Je te préviens, ce n'est qu'un tissu de\nmensonges ! Ce n'est même pas moi\nqui ai écrit ce torchon.",
      "EUit": "{{autoAdvance frames=\"222\"}}Beh, non credere a una parola di quello\nche dice! Non è opera mia, anche se il\ntitolo può trarre in inganno...",
      "EUnl": "{{autoAdvance frames=\"228\"}}Geloof er geen woord van. Ik heb er niks\nmee te maken. De titel is misleidend, ja.",
      "EUru": "{{autoAdvance frames=\"226\"}}Имей в виду, что там все неправда!\nИ писал это не я!",
      "JPja": "{{autoAdvance frames=\"228\"}}それに{{ruby charSpan=\"1\" value=\"か\"}}書かれている{{ruby charSpan=\"1\" value=\"こと\"}}事は{{ruby charSpan=\"2\" value=\"ぜんぶ\"}}全部デタラメだ！\nそいつを{{ruby charSpan=\"1\" value=\"か\"}}書いたのは{{ruby charSpan=\"1\" value=\"ぼく\"}}僕じゃないからね？",
      "KRko": "{{autoAdvance frames=\"181\"}}거기 쓰여 있는 건 전부 엉터리야!\n그걸 쓴 건 절대 내가 아니니까!",
      "TWzh": "{{autoAdvance frames=\"228\"}}上面寫的東西全都是胡說八道！\n那些內容可不是我寫的喔！",
      "USen": "{{autoAdvance frames=\"193\"}}Don't believe a word of it! I'm not the\nauthor. Misleading title, I know.",
      "USes": "{{autoAdvance frames=\"208\"}}¡No creas nada de lo que dice!\nNi siquiera sé quién lo escribió,\nporque yo no fui.",
      "USfr": "{{autoAdvance frames=\"212\"}}Je te préviens, ce n'est qu'un tissu de\nmensonges! Ce n'est même pas moi\nqui ai écrit ce torchon."
    }
  },
  {
    "label": "Npc_Rito_Hero_talk440",
    "attribute": "",
    "locale": {
      "CNzh": "{{autoAdvance frames=\"78\"}}听明白了吗！？",
      "EUde": "{{autoAdvance frames=\"83\"}}Verstanden?",
      "EUen": "{{autoAdvance frames=\"46\"}}Got it?",
      "EUes": "{{autoAdvance frames=\"71\"}}¿Vale?",
      "EUfr": "{{autoAdvance frames=\"75\"}}C'est compris ?",
      "EUit": "{{autoAdvance frames=\"80\"}}Hai capito?",
      "EUnl": "{{autoAdvance frames=\"78\"}}Begrepen?",
      "EUru": "{{autoAdvance frames=\"76\"}}Понял?! ",
      "JPja": "{{autoAdvance frames=\"78\"}}いいね？！",
      "KRko": "{{autoAdvance frames=\"78\"}}알겠지?!",
      "TWzh": "{{autoAdvance frames=\"78\"}}知道嗎！？",
      "USen": "{{autoAdvance frames=\"46\"}}Got it?",
      "USes": "{{autoAdvance frames=\"75\"}}¿Entendido?",
      "USfr": "{{autoAdvance frames=\"75\"}}C'est compris?"
    }
  },
  {
    "label": "Npc_Rito_Hero_talk500",
    "attribute": "",
    "locale": {
      "CNzh": "{{autoAdvance frames=\"295\"}}哎，事到如今，后悔也没用了……\n100年前我们就应该较量一场的。",
      "EUde": "{{autoAdvance frames=\"270\"}}Jetzt ist es etwas zu spät, um es noch\nzu bereuen, aber... Wir beide hätten\nvor hundert Jahren kämpfen sollen.",
      "EUen": "{{autoAdvance frames=\"267\"}}*sigh* It's pointless to dwell on the past.\nStill... You and I should have fought\n100 years ago.",
      "EUes": "{{autoAdvance frames=\"297\"}}Sé que los viejos tiempos no volverán,\npero ojalá nos hubiéramos enfrentado\ntú y yo alguna vez.",
      "EUfr": "{{autoAdvance frames=\"293\"}}Aaah, tu sais ce qui restera mon plus\ngrand regret ? C'est de ne pas t'avoir\naffronté, il y a cent ans.",
      "EUit": "{{autoAdvance frames=\"300\"}}Lo so che è inutile rimuginare sul\npassato, ma io e te avremmo dovuto\nrisolvere la questione cento anni fa.",
      "EUnl": "{{autoAdvance frames=\"295\"}}Niks aan te doen verder. We hadden\nhonderd jaar geleden moeten vechten.",
      "EUru": "{{autoAdvance frames=\"298\"}}После драки кулаками не машут...\nА драться мы должны были\nсто лет назад.",
      "JPja": "{{autoAdvance frames=\"295\"}}ああ {{ruby charSpan=\"2\" value=\"こうかい\"}}後悔{{ruby charSpan=\"1\" value=\"さき\"}}先に{{ruby charSpan=\"1\" value=\"た\"}}立たず…\n{{ruby charSpan=\"1\" value=\"きみ\"}}君と{{ruby charSpan=\"1\" value=\"ぼく\"}}僕とは 100{{ruby charSpan=\"2\" value=\"ねんまえ\"}}年前に{{ruby charSpan=\"1\" value=\"たたか\"}}戦っておくべきだったよ",
      "KRko": "{{autoAdvance frames=\"295\"}}아아, 후회해 봐야 소용없지만…\n너와 나는 100년 전에 싸워 봤어야 하는데",
      "TWzh": "{{autoAdvance frames=\"295\"}}啊……真是後悔莫及，\n我應該在100年前就跟你切磋一場啊。",
      "USen": "{{autoAdvance frames=\"267\"}}*sigh* It's pointless to dwell on the past.\nStill... You and I should have fought\n100 years ago.",
      "USes": "{{autoAdvance frames=\"295\"}}Ah, de nada sirve pensar en el pasado.\nPero tú y yo debimos habernos medido\nen combate hace cien años.",
      "USfr": "{{autoAdvance frames=\"293\"}}Aaah, tu sais ce qui restera mon plus\ngrand regret? C'est de ne pas t'avoir\naffronté, il y a cent ans."
    }
  },
  {
    "label": "Npc_Rito_Hero_talk510",
    "attribute": "",
    "locale": {
      "CNzh": "{{autoAdvance frames=\"252\"}}出现在利特村的你和我一对一！\n换句话说，这就是……",
      "EUde": "{{autoAdvance frames=\"233\"}}Damals, als du das erste Mal ins Dorf\nder Orni gekommen bist, hätten wir es\ndirekt entscheiden sollen...",
      "EUen": "{{autoAdvance frames=\"213\"}}A duel against the one who came to\nRito Village to challenge my authority.\nJust imagine...",
      "EUes": "{{autoAdvance frames=\"252\"}}Un duelo entre el gran Revali y aquel\nque llegó al poblado orni desafiando\nsu autoridad.",
      "EUfr": "{{autoAdvance frames=\"234\"}}Tu serais arrivé au village des Piafs et je\nt'aurais défié en duel ! Je vois ça d'ici...",
      "EUit": "{{autoAdvance frames=\"253\"}}Uno scontro tra me e il losco figuro che\nsi presentò all'improvviso al borgo dei\nRito a sfidare la mia autorità...",
      "EUnl": "{{autoAdvance frames=\"232\"}}Een gevecht tegen degene die mij in het\nRito-dorp kwam uitdagen. Stel je voor.",
      "EUru": "{{autoAdvance frames=\"247\"}}Битва один на один в деревне рито.\nЯ против дерзкого чужака.",
      "JPja": "{{autoAdvance frames=\"232\"}}リトの{{ruby charSpan=\"1\" value=\"むら\"}}村に{{ruby charSpan=\"1\" value=\"あらわ\"}}現れた{{ruby charSpan=\"1\" value=\"きみ\"}}君と この{{ruby charSpan=\"1\" value=\"ぼく\"}}僕との{{ruby charSpan=\"2\" value=\"いっき\"}}一騎{{ruby charSpan=\"1\" value=\"う\"}}打ち！\nそれは つまり…",
      "KRko": "{{autoAdvance frames=\"252\"}}리토의 마을에 나타난 너와 나의 정면 승부!\n그것은 한마디로…",
      "TWzh": "{{autoAdvance frames=\"232\"}}出現在利特村的你，跟我來場單挑！\n那肯定……",
      "USen": "{{autoAdvance frames=\"213\"}}A duel against the one who came to\nRito Village to challenge my authority.\nJust imagine...",
      "USes": "{{autoAdvance frames=\"232\"}}Un duelo entre yo y aquel que llegó a\nla aldea orni para poner en duda mi\nautoridad. En otras palabras...",
      "USfr": "{{autoAdvance frames=\"234\"}}Tu serais arrivé au village des Piafs et je\nt'aurais défié en duel! Je vois ça d'ici..."
    }
  },
  {
    "label": "Npc_Rito_Hero_talk520",
    "attribute": "",
    "locale": {
      "CNzh": "{{autoAdvance frames=\"278\"}}海拉鲁最强的骑士和利特族第一的战士\n之间的世纪大对决！",
      "EUde": "{{autoAdvance frames=\"258\"}}Ein grandioses Duell zwischen dem\nstärksten Krieger der Orni und dem\nbesten Ritter von Hyrule!",
      "EUen": "{{autoAdvance frames=\"234\"}}The hero of the Rito against Hyrule's\nmightiest knight! A battle for the ages!",
      "EUes": "{{autoAdvance frames=\"277\"}}¡El insigne héroe orni frente al más\nformidable caballero hyliano! Sería\nun combate para la posteridad.",
      "EUfr": "{{autoAdvance frames=\"270\"}}Le plus grand chevalier d'Hyrule contre\nle meilleur guerrier piaf ! Ça aurait été\nle combat du siècle !",
      "EUit": "{{autoAdvance frames=\"272\"}}Il duello del secolo! Il guerriero più forte\ndei Rito contro lo spadaccino più abile\ndi Hyrule!",
      "EUnl": "{{autoAdvance frames=\"278\"}}De held van de Rito's tegen de sterkste\nridder van Hyrule. Wat een gevecht!",
      "EUru": "{{autoAdvance frames=\"271\"}}Лучший рыцарь Хайрула против\nвеличайшего воина рито.\nБитва на все времена!",
      "JPja": "{{autoAdvance frames=\"278\"}}ハイラル{{ruby charSpan=\"2\" value=\"さいきょう\"}}最強の{{ruby charSpan=\"2\" value=\"きし\"}}騎士と リト{{ruby charSpan=\"3\" value=\"ぞくいちばん\"}}族一番の{{ruby charSpan=\"2\" value=\"せんし\"}}戦士による\n{{ruby charSpan=\"2\" value=\"せいき\"}}世紀の{{ruby charSpan=\"3\" value=\"おおいちばん\"}}大一番！ って{{ruby charSpan=\"1\" value=\"こと\"}}事になるんだぜ？",
      "KRko": "{{autoAdvance frames=\"278\"}}하이랄 최강 기사와 리토족 제일의 전사가 벌이는\n세기의 대결! 아니겠어?",
      "TWzh": "{{autoAdvance frames=\"278\"}}會成為海拉魯最強騎士，\n對上利特族最強戰士的世紀之戰！",
      "USen": "{{autoAdvance frames=\"234\"}}The hero of the Rito against Hyrule's\nmightiest knight! A battle for the ages!",
      "USes": "{{autoAdvance frames=\"278\"}}El héroe de los orni en contra del más\nformidable caballero de Hyrule.\n¡Una batalla para la posteridad!",
      "USfr": "{{autoAdvance frames=\"270\"}}Le plus grand chevalier d'Hyrule contre\nle meilleur guerrier Piaf! Ça aurait été\nle combat du siècle!"
    }
  },
  {
    "label": "Npc_Rito_Hero_talk530",
    "attribute": "",
    "locale": {
      "CNzh": "{{autoAdvance frames=\"191\"}}不管谁输谁赢……\n我都好想和你一决高下啊……",
      "EUde": "{{autoAdvance frames=\"191\"}}Egal, wer gewonnen hätte...\nDamit wäre endgültig geklärt\ngewesen, wer der Stärkere ist.",
      "EUen": "{{autoAdvance frames=\"165\"}}Win or lose, I would have liked a chance\nto settle the score with you...",
      "EUes": "{{autoAdvance frames=\"197\"}}Ganase o perdiese, me habría gustado\nmedir mis fuerzas contra ti...",
      "EUfr": "{{autoAdvance frames=\"193\"}}Peu importe l'issue... J'aurais\nvraiment voulu me mesurer à toi...",
      "EUit": "{{autoAdvance frames=\"203\"}}Non so chi avrebbe avuto la meglio,\nma mi sarebbe piaciuto mettermi alla\nprova contro di te...",
      "EUnl": "{{autoAdvance frames=\"191\"}}Ik had graag de kans gehad om te laten\nzien wie van ons de sterkste is.",
      "EUru": "{{autoAdvance frames=\"194\"}}На кону честь. Эх, как бы я хотел\nсразиться с тобой.",
      "JPja": "{{autoAdvance frames=\"191\"}}{{ruby charSpan=\"1\" value=\"か\"}}勝っても{{ruby charSpan=\"1\" value=\"ま\"}}負けても…\n{{ruby charSpan=\"1\" value=\"きみ\"}}君とは{{ruby charSpan=\"2\" value=\"けっちゃく\"}}決着を{{ruby charSpan=\"1\" value=\"つ\"}}付けたかったよ…",
      "KRko": "{{autoAdvance frames=\"191\"}}이기든 지든…\n너와는 결판을 짓고 싶었는데…",
      "TWzh": "{{autoAdvance frames=\"191\"}}不管贏也好，輸也好，\n真想跟你一較高下啊……",
      "USen": "{{autoAdvance frames=\"165\"}}Win or lose, I would have liked a chance\nto settle the score with you...",
      "USes": "{{autoAdvance frames=\"186\"}}Sin importar el resultado, me habría\ngustado poder saldar cuentas contigo...",
      "USfr": "{{autoAdvance frames=\"193\"}}Peu importe l'issue... J'aurais\nvraiment voulu me mesurer à toi..."
    }
  }
]