[
  {
    "label": "0004",
    "attribute": "",
    "locale": {
      "CNzh": "打开袋子",
      "EUde": "Tasche öffnen",
      "EUen": "Inventory",
      "EUes": "Abrir la alforja",
      "EUfr": "Sacoche",
      "EUit": "Apri la borsa",
      "EUnl": "Bekijken",
      "EUru": "Открыть сумку",
      "JPja": "ポーチをひらく",
      "KRko": "주머니 열기",
      "TWzh": "打開袋子",
      "USen": "Inventory",
      "USes": "Abrir la alforja",
      "USfr": "Sacoche"
    }
  },
  {
    "label": "Pa_Gear_00-Pa_Param_06-T_MaxText_00",
    "attribute": "",
    "locale": {
      "CNzh": "完全回复",
      "EUde": "Volle Heilung",
      "EUen": "Full recovery",
      "EUes": "Al máximo",
      "EUfr": "Récup. totale",
      "EUit": "Pieno recupero",
      "EUnl": "Totaal genezen",
      "EUru": "Исцеление",
      "JPja": "完全回復",
      "KRko": "완전 회복",
      "TWzh": "完全恢復",
      "USen": "Full recovery",
      "USes": "Al máximo",
      "USfr": "Récup. totale"
    }
  },
  {
    "label": "Pa_Gear_01-Pa_Param_06-T_MaxText_00",
    "attribute": "",
    "locale": {
      "CNzh": "完全回复",
      "EUde": "Volle Heilung",
      "EUen": "Full recovery",
      "EUes": "Al máximo",
      "EUfr": "Récup. totale",
      "EUit": "Pieno recupero",
      "EUnl": "Totaal genezen",
      "EUru": "Исцеление",
      "JPja": "完全回復",
      "KRko": "완전 회복",
      "TWzh": "完全恢復",
      "USen": "Full recovery",
      "USes": "Al máximo",
      "USfr": "Récup. totale"
    }
  },
  {
    "label": "0000",
    "attribute": "",
    "locale": {
      "CNzh": "可对抗灾厄的传说中的驱魔之剑。\n随着林克经历剑之试练后不断成长，\n其剑身的光辉比以往更加地耀眼。",
      "EUde": "Dieses legendäre Schwert besitzt die heilige\nKraft, das Böse zu bannen und die Verhee-\nrung zu bekämpfen. Nach der Prüfung des\nSchwertes ist sein Licht stärker geworden.",
      "EUen": "The legendary sword that seals the\ndarkness, a blade whose sacred glow can\ncombat the Calamity. Link's conquests in the\nTrial of the Sword have amplified its splendor.",
      "EUes": "La legendaria espada destructora del Mal.\nSu hoja brilla con un aura sagrada capaz de\nhacer frente al cataclismo. Has incrementado\nsu poder en el santuario de la espada.",
      "EUfr": "La lame purificatrice légendaire abrite en son\nsein un pouvoir sacré permettant d'affronter\nle Fléau. Elle brille plus fort depuis que Link\ns'est attelé aux épreuves de l'épée.",
      "EUit": "La spada che esorcizza il male, leggendaria\narma destinata a combattere la calamità.\nI progressi di Link nella prova della spada\nne hanno fatto aumentare il fulgore.",
      "EUnl": "Het legendarische zwaard dat het onheil\nverdrijft. Link heeft de kracht van het zwaard\nvergroot door de zwaardproef te ondergaan.",
      "EUru": "Легендарный меч Сокрушитель Зла,\nпредназначенный для боя с Ганоном.\nЕго сияние усилилось, когда Линк стал\nсильнее благодаря Испытанию Меча.",
      "JPja": "厄災に対抗しうる 伝説の退魔の剣\n剣の試練を経たリンクの成長に伴い\nその刀身は 以前よりも輝きを増している",
      "KRko": "재앙에 대항할 수 있는 전설 속 퇴마의 검\n검의 시련을 거친 링크의 성장과 함께\n그 칼날은 전보다 더욱 빛을 발하고 있다",
      "TWzh": "傳說中能對抗災厄的驅魔之劍。\n隨著林克的成長，在他通過劍之考驗後，\n劍身和以前比起來更增添幾分光輝。",
      "USen": "The legendary sword that seals the\ndarkness, a blade whose sacred glow can\ncombat the Calamity. Link's conquests in the\nTrial of the Sword have amplified its splendor.",
      "USes": "La legendaria espada que doblega a la\noscuridad. Su hoja brilla con un aura capaz\nde enfrentar al cataclismo. Has incrementado\nsu poder en el santuario de la espada.",
      "USfr": "La lame purificatrice légendaire abrite en son\nsein un pouvoir sacré permettant d'affronter\nle Fléau. Elle brille plus fort depuis que Link\ns'est attelé aux épreuves de l'épée."
    }
  },
  {
    "label": "0001",
    "attribute": "",
    "locale": {
      "CNzh": "可对抗灾厄的传说中的驱魔之剑。\n随着林克经历剑之试练后不断成长，\n剑身散发出其真正的光芒。",
      "EUde": "Dieses legendäre Schwert besitzt die\nheilige Kraft, das Böse zu bannen und die\nVerheerung zu bekämpfen. Die Prüfung des\nSchwertes hat sein wahres Licht entfesselt.",
      "EUen": "The legendary sword that seals the\ndarkness, a blade that can combat the\nCalamity. Link's triumph over the Trial of\nthe Sword has awakened its true splendor.",
      "EUes": "La legendaria espada destructora del Mal.\nSu hoja brilla con un aura sagrada capaz de\nhacer frente al cataclismo. Su poder real\nha despertado en el santuario de la espada.",
      "EUfr": "La lame purificatrice légendaire abrite en son\nsein un pouvoir sacré permettant d'affronter\nle Fléau. Depuis que Link a triomphé des\népreuves de l'épée, elle brille de mille feux.",
      "EUit": "La spada che esorcizza il male, leggendaria\narma destinata a combattere la calamità.\nSuperando la prova della spada, Link l'ha\nresa in grado di liberare tutto il suo fulgore.",
      "EUnl": "Het legendarische zwaard dat het onheil\nverdrijft. Link heeft de volledige kracht van\nhet zwaard ontketend door de zwaardproef\nte voltooien.",
      "EUru": "Легендарный меч Сокрушитель Зла,\nпредназначенный для боя с Ганоном.\nОбрел свою истинную мощь, когда\nЛинк завершил Испытание Меча.",
      "JPja": "厄災に対抗しうる 伝説の退魔の剣\n全ての剣の試練を経たリンクの成長に伴い\nその刀身は 真の輝きを放っている",
      "KRko": "재앙에 대항할 수 있는 전설 속 퇴마의 검\n모든 검의 시련을 거친 링크의 성장과 함께\n그 칼날은 진정한 빛을 발하고 있다",
      "TWzh": "傳說中能對抗災厄的驅魔之劍。\n隨著林克的成長，在他通過所有劍之考驗後，\n劍身散發出其真正的光芒。",
      "USen": "The legendary sword that seals the\ndarkness, a blade that can combat the\nCalamity. Link's triumph over the Trial of\nthe Sword has awakened its true splendor.",
      "USes": "La legendaria espada que doblega a la\noscuridad. Su hoja brilla con un aura capaz\nde enfrentar al cataclismo. El santuario de la\nespada activó su auténtico poder.",
      "USfr": "La lame purificatrice légendaire abrite en son\nsein un pouvoir sacré permettant d'affronter\nle Fléau. Depuis que Link a triomphé des\népreuves de l'épée, elle brille de mille feux."
    }
  }
]