[
  {
    "label": "TBox_Field_Iron_Name",
    "attribute": "",
    "locale": {
      "CNzh": "宝箱",
      "EUde": "Schatztruhe",
      "EUen": "Treasure Chest",
      "EUes": "{{wordInfo gender=\"1\" defArticle=\"0\" indefArticle=\"0\" isPlural=\"0\"}}Cofre del tesoro",
      "EUfr": "Coffre",
      "EUit": "{{wordInfo gender=\"1\" defArticle=\"1\" indefArticle=\"1\" isPlural=\"0\"}}Scrigno",
      "EUnl": "Schatkist",
      "EUru": "Сундук",
      "JPja": "{{ruby charSpan=\"2\" value=\"たからばこ\"}}宝箱",
      "KRko": "보물 상자",
      "TWzh": "寶箱",
      "USen": "Treasure Chest",
      "USes": "{{wordInfo gender=\"1\" defArticle=\"0\" indefArticle=\"0\" isPlural=\"0\"}}Cofre de tesoro",
      "USfr": "Coffre"
    }
  },
  {
    "label": "TBox_Field_Iron_PictureBook",
    "attribute": "",
    "locale": {
      "CNzh": "收纳装备和贵重品的箱子。\n多见于神庙里和敌人的据点。\n有时也会埋在地下。",
      "EUde": "Eine Truhe mit Ausrüstung oder Wert-\ngegenständen. Man findet sie oft in Schreinen\noder gegnerischen Lagern. Manchmal sind\nsie sogar im Boden vergraben.",
      "EUen": "Fortunes untold (potentially) await the lucky\nadventurer who finds one of these. Chests\ncan often be found within shrines or at enemy\ncamps, but there may be some crafty folks\nwho think they're safer underground.",
      "EUes": "Una caja que contiene equipación u otro\ntipo de objetos valiosos. Suele ser un\nelemento común en el interior de santuarios\ny en campamentos enemigos, aunque\ntambién puede encontrarse enterrado\nbajo tierra.",
      "EUfr": "Un coffre renfermant des pièces d'équipement\nou des objets précieux. On en trouve souvent\ndans les sanctuaires ou les repaires des\nennemis, mais il arrive aussi qu'ils soient\nenfouis sous terre.",
      "EUit": "Contiene equipaggiamento o oggetti di valore.\nSe ne trovano spesso nei sacrari e negli\naccampamenti nemici. A volte, invece, sono\nsepolti nel terreno.",
      "EUnl": "Een kist die uitrusting of waardevolle spullen\nbevat. Vaak te vinden in tempels en\nmonsterkampen. Soms zijn ze begraven.",
      "EUru": "Обычно в сундуках хранят снаряжение\nи ценные вещи. Их часто можно найти\nв святилищах и лагерях монстров и даже\nвыкопать из-под земли.",
      "JPja": "{{ruby charSpan=\"3\" value=\"そうびひん\"}}装備品や{{ruby charSpan=\"3\" value=\"きちょうひん\"}}貴重品が{{ruby charSpan=\"1\" value=\"おさ\"}}収められた{{ruby charSpan=\"1\" value=\"はこ\"}}箱\n{{ruby charSpan=\"1\" value=\"ほこら\"}}祠の{{ruby charSpan=\"1\" value=\"なか\"}}中や{{ruby charSpan=\"1\" value=\"てき\"}}敵の{{ruby charSpan=\"2\" value=\"きょてん\"}}拠点で{{ruby charSpan=\"1\" value=\"み\"}}見つかる{{ruby charSpan=\"1\" value=\"こと\"}}事が{{ruby charSpan=\"1\" value=\"おお\"}}多い\n{{ruby charSpan=\"2\" value=\"じめん\"}}地面に{{ruby charSpan=\"1\" value=\"う\"}}埋まっている{{ruby charSpan=\"1\" value=\"こと\"}}事もある",
      "KRko": "장비품이나 귀중품이 들어 있는 상자\n사당 안이나 적의 거점에서 발견되는 경우가 많다\n땅속에 묻혀 있는 경우도 있다",
      "TWzh": "裝有裝備或貴重品的箱子。\n常見於神廟裡或敵人的據點。\n有時也會埋在地下。",
      "USen": "Fortunes untold (potentially) await the lucky\nadventurer who finds one of these. Chests\ncan often be found within shrines or at enemy\ncamps, but there may be some crafty folks\nwho think they're safer underground.",
      "USes": "Una caja que contiene elementos equipables\nu otro tipo de objetos valiosos. Suele ser un\nelemento común en el interior de santuarios\ny en campamentos enemigos, aunque\ntambién puede encontrarse enterrado\nbajo tierra.",
      "USfr": "Un coffre renfermant des pièces d'équipement\nou des objets précieux. On en trouve souvent\ndans les sanctuaires ou les repaires des\nennemis, mais il arrive aussi qu'ils soient\nenfouis sous terre."
    }
  }
]