[
  {
    "label": "1501011",
    "attribute": "",
    "locale": {
      "CNzh": "ディスクを入れてください｡",
      "EUde": "Bitte schiebe die Disc ein.",
      "EUen": "Insert the disc.",
      "EUes": "Introduce el disco.",
      "EUfr": "Insérez le disque.",
      "EUit": "Inserisci il disco.",
      "EUnl": "Voer de disk in.",
      "EUru": "Вставьте диск.",
      "JPja": "ディスクを入れてください｡",
      "KRko": "ディスクを入れてください｡",
      "TWzh": "ディスクを入れてください｡",
      "USen": "Please insert a disc.",
      "USes": "Introduce un disco.",
      "USfr": "Insérez le disque."
    }
  },
  {
    "label": "1501013",
    "attribute": "",
    "locale": {
      "CNzh": "本体のUSB端子に\nUSB記録メディアを接続してください｡",
      "EUde": "Bitte schließe das USB-Speichergerät\nan einen USB-Anschluss an.",
      "EUen": "Connect the USB storage device\nto a USB port.",
      "EUes": "Conecta el dispositivo USB de\nalmacenamiento a un puerto USB.",
      "EUfr": "Connectez un support de\nsauvegarde USB dans un\ndes ports USB de la console.",
      "EUit": "Collega il dispositivo di archiviazione\nUSB a una porta USB.",
      "EUnl": "Sluit een USB-opslagmedium aan\nop een van de USB-poorten.",
      "EUru": "Подключите запоминающее\nустройство USB к USB-порту.",
      "JPja": "本体のUSB端子に\nUSB記録メディアを接続してください｡",
      "KRko": "本体のUSB端子に\nUSB記録メディアを接続してください｡",
      "TWzh": "本体のUSB端子に\nUSB記録メディアを接続してください｡",
      "USen": "Connect a USB storage device to one of\nthe USB ports.",
      "USes": "Conecta el dispositivo USB de \nalmacenamiento a un puerto USB.",
      "USfr": "Connectez un support de\nsauvegarde USB dans un\ndes ports USB de la console."
    }
  },
  {
    "label": "1501014",
    "attribute": "",
    "locale": {
      "CNzh": "本体のSDカードスロットに\nSDカードを差し込んでください｡",
      "EUde": "Bitte stecke eine SD Card in den\nSD Card-Steckplatz ein.",
      "EUen": "Insert the SD Card into\nthe SD Card slot.",
      "EUes": "Introduce la tarjeta SD en la ranura\npara tarjetas SD.",
      "EUfr": "Insérez la carte SD dans le\nport carte SD de la console.",
      "EUit": "Inserisci la scheda SD\nnello slot scheda SD.",
      "EUnl": "Steek een SD-kaart in\nde SD-kaartopening.",
      "EUru": "Вставьте карту SD в слот для карт SD.",
      "JPja": "本体のSDカードスロットに\nSDカードを差し込んでください｡",
      "KRko": "本体のSDカードスロットに\nSDカードを差し込んでください｡",
      "TWzh": "本体のSDカードスロットに\nSDカードを差し込んでください｡",
      "USen": "Insert an SD card into the SD card slot.",
      "USes": "Introduce una tarjeta SD en la ranura\npara tarjetas SD.",
      "USfr": "Insérez la carte SD dans le\nport carte SD de la console."
    }
  },
  {
    "label": "1501021",
    "attribute": "",
    "locale": {
      "CNzh": "ディスクを読み取れませんでした｡\n\nディスクイジェクトボタンを押して\nディスクを取り出し､\nレーベル面の向きが正しいか､\nディスクにWii UまたはWiiのマークが\n表示されているかを確認してください｡",
      "EUde": "Die Disc konnte nicht gelesen werden.\n\nBetätige den Disc-Ausgabeknopf,\nentnimm die Disc und überprüfe, ob\ndie bedruckte Seite in die vorgesehene\nRichtung weist und ob sie mit einem\nWii U- oder Wii-Logo versehen ist.",
      "EUen": "The disc could not be read.\n\nPress the EJECT Button, remove\nthe disc and check that the label side\nis facing the proper direction and\ndisplays either the Wii U or Wii logo.",
      "EUes": "No se puede leer el disco.\n\nPulsa el botón Eject, extrae el disco\ny comprueba que la parte de la etiqueta\n(la que muestra el logotipo de Wii U\no de Wii) esté orientada correctamente.",
      "EUfr": "La lecture du disque a échoué.\n\nAppuyez sur le bouton EJECT\net retirez le disque. Vérifiez que\nvous l'avez inséré dans le bon\nsens et que le logo Wii U ou Wii\nest présent sur l'étiquette.",
      "EUit": "Impossibile leggere il disco.\n\nPremi il pulsante EJECT ed estrai\nil disco. Verifica che la parte stampata\nsia rivolta nella direzione giusta e che\nsia presente il logo del Wii U o del Wii.",
      "EUnl": "De disk kan niet worden gelezen.\n\nDruk op de EJECT-knop, verwijder\nde disk en controleer of de bedrukte\nzijde naar de juiste kant wijst en\nvoorzien is van een Wii U- of Wii-logo.",
      "EUru": "Не удалось считать диск.\n\nНажмите кнопку EJECT, извлеките\nдиск и убедитесь, что сторона\nс названием обращена в нужном\nнаправлении и на ней имеется\nлоготип Wii U или Wii.",
      "JPja": "ディスクを読み取れませんでした｡\n\nディスクイジェクトボタンを押して\nディスクを取り出し､\nレーベル面の向きが正しいか､\nディスクにWii UまたはWiiのマークが\n表示されているかを確認してください｡",
      "KRko": "ディスクを読み取れませんでした｡\n\nディスクイジェクトボタンを押して\nディスクを取り出し､\nレーベル面の向きが正しいか､\nディスクにWii UまたはWiiのマークが\n表示されているかを確認してください｡",
      "TWzh": "ディスクを読み取れませんでした｡\n\nディスクイジェクトボタンを押して\nディスクを取り出し､\nレーベル面の向きが正しいか､\nディスクにWii UまたはWiiのマークが\n表示されているかを確認してください｡",
      "USen": "The disc could not be read.\n\nPress the EJECT Button, remove\nthe disc, and check that the label side\nis facing the proper direction and\ndisplays either the Wii U or Wii logo.",
      "USes": "No se puede leer el disco.\n\nOprime el botón Eject, extrae el disco\ny comprueba que la etiqueta esté\norientada correctamente (debe mostrar\nel logotipo de Wii U o de Wii).",
      "USfr": "La lecture du disque a échoué.\n\nAppuyez sur le bouton EJECT\net retirez le disque. Vérifiez que\nvous l'avez inséré dans le bon\nsens et que le logo Wii U ou Wii\nest présent sur l'étiquette."
    }
  },
  {
    "label": "1501023",
    "attribute": "",
    "locale": {
      "CNzh": "このUSB記録メディアは使用できません｡\n\n使用できるUSB記録メディアについては\n任天堂ホームページのサポート情報を\nご覧ください｡",
      "EUde": "Dieses USB-Speichergerät kann\nnicht verwendet werden.\n\nWeitere Informationen zu unterstützten\nUSB-Speichergeräten findest du unter\nsupport.nintendo.com.",
      "EUen": "This USB storage device\ncannot be used.\n\nFor details of supported USB\nstorage devices, please visit\nsupport.nintendo.com.",
      "EUes": "Este dispositivo USB de\nalmacenamiento no se puede usar.\n\nPara obtener información acerca\nde los dispositivos USB compatibles,\nvisita support.nintendo.com.",
      "EUfr": "Ce support de sauvegarde USB\nne peut pas être utilisé.\n\nPour plus d'informations sur\nles supports de sauvegarde USB\ncompatibles, consultez le\nsite support.nintendo.com.",
      "EUit": "Questo dispositivo di archiviazione USB\nnon può essere utilizzato.\n\nPer informazioni sui dispositivi di \narchiviazione USB compatibili,\nconsulta il sito Internet\nsupport.nintendo.com",
      "EUnl": "Dit USB-opslagmedium kan\nniet worden gebruikt.\n\nKijk op support.nintendo.com\nom te zien welke opslagmedia\nworden ondersteund.",
      "EUru": "Невозможно использовать\nэто запоминающее устройство USB.\n\nПодробную информацию\nо поддерживаемых запоминающих\nустройствах USB см. на веб-сайте\nsupport.nintendo.com.",
      "JPja": "このUSB記録メディアは使用できません｡\n\n使用できるUSB記録メディアについては\n任天堂ホームページのサポート情報を\nご覧ください｡",
      "KRko": "このUSB記録メディアは使用できません｡\n\n使用できるUSB記録メディアについては\n任天堂ホームページのサポート情報を\nご覧ください｡",
      "TWzh": "このUSB記録メディアは使用できません｡\n\n使用できるUSB記録メディアについては\n任天堂ホームページのサポート情報を\nご覧ください｡",
      "USen": "This USB storage device cannot\nbe used.\n\nFor a list of supported USB\nstorage devices, please visit\nsupport.nintendo.com.",
      "USes": "Este dispositivo USB de\nalmacenamiento es incompatible.\n\nPara ver una lista de los dispositivos\nUSB de almacenamiento compatibles,\nvisita support.nintendo.com.",
      "USfr": "Ce support de sauvegarde USB\nne peut pas être utilisé.\n\nPour plus d'informations sur\nles supports de sauvegarde USB\ncompatibles, consultez le\nsite support.nintendo.com."
    }
  },
  {
    "label": "1501024",
    "attribute": "",
    "locale": {
      "CNzh": "このSDカードは使用できません｡\n\n使用できるSDカードについては\nWii U電子説明書「SDカードを使う」を\nご覧ください｡",
      "EUde": "Diese SD Card kann nicht\nverwendet werden.\n\nWeitere Informationen zu unterstützten\nSD Cards findest du im Abschnitt\n„SD Cards verwenden“ in der elektro-\nnischen Wii U-Bedienungsanleitung.",
      "EUen": "This SD Card cannot be used.\n\nFor details of supported SD Cards,\nplease see the Wii U Electronic\nManual, \"Using SD Cards\".",
      "EUes": "Esta tarjeta SD no se puede usar.\n\nPara obtener información acerca\nde las tarjetas SD compatibles,\nconsulta el capítulo «Uso de tarjetas\nSD» del manual electrónico de Wii U.",
      "EUfr": "Cette carte SD ne peut pas être utilisée.\n\nPour plus d'informations sur les\ncartes SD compatibles, consultez\nla section Cartes SD du mode\nd'emploi électronique Wii U.",
      "EUit": "Questa scheda SD non può essere\nutilizzata.\n\nPer informazioni sulle schede SD\ncompatibili, vedi la sezione \"Usare\nle schede SD\" del manuale elettronico\ndella console Wii U.",
      "EUnl": "Deze SD-kaart kan niet worden\ngebruikt.\n\nLees het hoofdstuk \"SD-kaarten\ngebruiken\" in de elektronische\nWii U-handleiding om te zien welke\nSD-kaarten worden ondersteund.",
      "EUru": "Невозможно использовать\nэту карту SD.\n\nПодробную информацию\nо поддерживаемых картах SD\nсм. в разделе Использование\nкарт SD в электронном руководстве\nк Wii U.",
      "JPja": "このSDカードは使用できません｡\n\n使用できるSDカードについては\nWii U電子説明書「SDカードを使う」を\nご覧ください｡",
      "KRko": "このSDカードは使用できません｡\n\n使用できるSDカードについては\nWii U電子説明書「SDカードを使う」を\nご覧ください｡",
      "TWzh": "このSDカードは使用できません｡\n\n使用できるSDカードについては\nWii U電子説明書「SDカードを使う」を\nご覧ください｡",
      "USen": "This SD card cannot be used.\n\nFor information on supported SD cards,\nplease visit support.nintendo.com.",
      "USes": "Esta tarjeta SD es incompatible.\n\nPara obtener información acerca\nde las tarjetas SD compatibles,\nvisita support.nintendo.com.",
      "USfr": "Cette carte SD ne peut pas être utilisée.\n\nPour plus d'informations sur les\ncartes SD compatibles, consultez\nla section Cartes SD du mode\nd'emploi électronique Wii U."
    }
  },
  {
    "label": "1501031",
    "attribute": "",
    "locale": {
      "CNzh": "ディスクを読み取れませんでした｡\nディスクが汚れている可能性があります｡\n\nディスクイジェクトボタンを押して\nディスクを取り出し、柔らかい布で\n中心から外側に向かって\n軽く拭いてください｡\n\n以上の操作で解決しない場合は\nWii U取扱説明書(冊子)をご覧になり､\n任天堂サービスセンターに\nエラーコードをお伝えください｡",
      "EUde": "Die Disc konnte nicht gelesen werden.\nMöglicherweise ist sie verschmutzt.\n\nBetätige den Disc-Ausgabeknopf,\nentnimm die Disc und reinige sie\nvorsichtig mit einem weichen Tuch,\nindem du von der Mitte der Disc nach\naußen wischst.\n\nWenn das Problem bestehen bleibt,\nwende dich bitte an die entsprechende\nKonsumentenberatung. Halte bitte den\nFehler-Code bereit. Die Kontaktdaten\nfindest du in der Wii U-Broschüre\n„Wichtige Informationen“ oder unter\nsupport.nintendo.com.",
      "EUen": "The disc could not be read.\nIt may be dirty.\n\nPress the EJECT Button, remove\nthe disc, and clean it gently,\nusing a soft cloth to wipe\noutwards from the centre.\n\nIf the problem persists, please contact\nyour local customer support centre,\nquoting the error code.\nFor contact details, check the Wii U\nImportant Information booklet\nor visit support.nintendo.com.",
      "EUes": "No se puede leer el disco.\nEs posible que esté sucio.\n\nPulsa el botón Eject, extrae el disco\ny límpialo con un paño suave desde\nel centro hacia el borde.\n\nSi el problema no se soluciona, ponte\nen contacto con el servicio de atención\nal cliente de tu zona e indica el código\nde error. Para obtener información\nde contacto, consulta el folleto de\ninformación importante o visita\nsupport.nintendo.com.",
      "EUfr": "La lecture du disque a échoué.\nIl se peut que le disque soit sale.\n\nAppuyez sur le bouton EJECT, retirez\nle disque, et essuyez-le délicatement\ndu centre vers le bord avec un chiffon\ndoux.\n\nSi le problème persiste,\ncommuniquez le code d'erreur au\nservice consommateurs Nintendo, dont\nvous trouverez les coordonnées dans\nle livret d'informations importantes ou\nsur le site support.nintendo.com.",
      "EUit": "Impossibile leggere il disco.\nPotrebbe essere sporco.\n\nPremi il pulsante EJECT ed estrai\nil disco. Puliscilo delicatamente con\nun panno morbido passandolo \ndall'interno verso l'esterno.\n\nSe il problema persiste, contatta\nil servizio clienti e comunica\nil codice di errore. Puoi trovare\nl'indirizzo e il numero di telefono\nnel libretto Informazioni importanti\ndella console Wii U o nel sito Internet\nsupport.nintendo.com",
      "EUnl": "De disk kan niet worden gelezen.\nMisschien is de disk vuil.\n\nDruk op de EJECT-knop, verwijder\nde disk en gebruik een zachte doek\nom hem vanuit het midden naar de\nrand voorzichtig schoon te vegen.\n\nNeem contact op met de klantenservice\nals dit probleem zich blijft voordoen,\nen vermeld hierbij de foutcode.\nKijk in het Wii U-boekje met belangrijke\ninformatie of op support.nintendo.com\nvoor de juiste contactgegevens.",
      "EUru": "Не удалось считать диск.\nВозможно, он загрязнен.\n\nНажмите кнопку EJECT, извлеките\nдиск и осторожно очистите его,\nпротерев мягкой тканью по\nнаправлению от центра к краям.\n\nЕсли проблема сохраняется,\nобратитесь в местный центр\nтехнической поддержки клиентов\nи сообщите код ошибки.\nКонтактная информация\nв буклете к Wii U Важная информация\nили на веб-сайте\nsupport.nintendo.com.",
      "JPja": "ディスクを読み取れませんでした｡\nディスクが汚れている可能性があります｡\n\nディスクイジェクトボタンを押して\nディスクを取り出し、柔らかい布で\n中心から外側に向かって\n軽く拭いてください｡\n\n以上の操作で解決しない場合は\nWii U取扱説明書(冊子)をご覧になり､\n任天堂サービスセンターに\nエラーコードをお伝えください｡",
      "KRko": "ディスクを読み取れませんでした｡\nディスクが汚れている可能性があります｡\n\nディスクイジェクトボタンを押して\nディスクを取り出し、柔らかい布で\n中心から外側に向かって\n軽く拭いてください｡\n\n以上の操作で解決しない場合は\nWii U取扱説明書(冊子)をご覧になり､\n任天堂サービスセンターに\nエラーコードをお伝えください｡",
      "TWzh": "ディスクを読み取れませんでした｡\nディスクが汚れている可能性があります｡\n\nディスクイジェクトボタンを押して\nディスクを取り出し、柔らかい布で\n中心から外側に向かって\n軽く拭いてください｡\n\n以上の操作で解決しない場合は\nWii U取扱説明書(冊子)をご覧になり､\n任天堂サービスセンターに\nエラーコードをお伝えください｡",
      "USen": "The disc could not be read. It might\nbe dirty.\n\nPress the EJECT Button, remove\nthe disc, and clean it gently, using\na soft cloth to wipe outward from\nthe center.\n\nIf that does not resolve the issue,\nmake a note of the error code and\nvisit support.nintendo.com.",
      "USes": "No se puede leer el disco.\nEs posible que esté sucio.\n\nOprime el botón Eject, extrae el disco\ny límpialo con un paño suave desde\nel centro hacia el borde.\n\nSi se vuelve a producir el problema,\nanota el código de error y visita\nsupport.nintendo.com.",
      "USfr": "La lecture du disque a échoué.\nIl se peut que le disque soit sale.\n\nAppuyez sur le bouton EJECT, retirez\nle disque, et essuyez-le délicatement\ndu centre vers le bord avec un chiffon\ndoux.\n\nSi le problème persiste,\nnotez le code d'erreur et visitez\nle site support.nintendo.com."
    }
  },
  {
    "label": "1501044",
    "attribute": "",
    "locale": {
      "CNzh": "SDカードのエラーが発生しました｡\nSDカードを取り出してください｡",
      "EUde": "Im Zusammenhang mit der SD Card\nist ein Fehler aufgetreten.\nBitte entferne die SD Card.",
      "EUen": "An SD Card error has occurred.\nPlease remove the SD Card.",
      "EUes": "Se ha producido un error\nen la tarjeta SD.\n\nExtrae la tarjeta.",
      "EUfr": "Une erreur est survenue sur la\ncarte SD. Retirez la carte SD.",
      "EUit": "Si è verificato un errore\nnella scheda SD.\nEstrai la scheda SD.",
      "EUnl": "Er is een fout opgetreden\nmet de SD-kaart.\n\nVerwijder de SD-kaart.",
      "EUru": "Произошла ошибка карты SD.\nИзвлеките карту SD.",
      "JPja": "SDカードのエラーが発生しました｡\nSDカードを取り出してください｡",
      "KRko": "SDカードのエラーが発生しました｡\nSDカードを取り出してください｡",
      "TWzh": "SDカードのエラーが発生しました｡\nSDカードを取り出してください｡",
      "USen": "An error relating to the SD card has\noccurred.\n\nPlease make a note of the error code,\nremove the SD card, and then visit\nsupport.nintendo.com.",
      "USes": "Se ha producido un error\nen la tarjeta SD.\n\nAnota el código de error,\nextrae la tarjeta SD y visita\nsupport.nintendo.com.",
      "USfr": "Une erreur est survenue sur la\ncarte SD. Retirez la carte SD."
    }
  },
  {
    "label": "1501063",
    "attribute": "",
    "locale": {
      "CNzh": "USB記録メディアが\n書き込み禁止になっています｡\n\nお使いのUSB記録メディアの\n取扱説明書をご覧になり､\n書き込み禁止状態を解除してください｡",
      "EUde": "Das USB-Speichergerät ist\nschreibgeschützt.\n\nBitte lies die Bedienungsanleitung\ndes USB-Speichergeräts und hebe\nden Schreibschutz auf.",
      "EUen": "The USB storage device\nis write-protected.\n\nPlease refer to the manual for the\ndevice and disable write-protection.",
      "EUes": "El dispositivo USB de almacenamiento\nestá protegido contra escritura.\n\nConsulta la documentación\ndel dispositivo y desprotégelo.",
      "EUfr": "Le support de sauvegarde USB\nest protégé en écriture.\n\nDésactivez la protection du\nsupport de sauvegarde USB.\nPour plus d'informations,\nconsultez son mode d'emploi.",
      "EUit": "Il dispositivo di archiviazione USB\nè protetto da scrittura.\n\nConsulta il manuale di istruzioni\ndel dispositivo e disattiva la protezione.",
      "EUnl": "Het USB-opslagmedium is\ntegen schrijven beveiligd.\n\nLees de handleiding van\nhet opslagmedium en zet\nde schrijfbeveiliging uit.",
      "EUru": "Запоминающее устройство USB\nзащищено от записи.\n\nСм. руководство к устройству USB\nи снимите с него защиту от записи.",
      "JPja": "USB記録メディアが\n書き込み禁止になっています｡\n\nお使いのUSB記録メディアの\n取扱説明書をご覧になり､\n書き込み禁止状態を解除してください｡",
      "KRko": "USB記録メディアが\n書き込み禁止になっています｡\n\nお使いのUSB記録メディアの\n取扱説明書をご覧になり､\n書き込み禁止状態を解除してください｡",
      "TWzh": "USB記録メディアが\n書き込み禁止になっています｡\n\nお使いのUSB記録メディアの\n取扱説明書をご覧になり､\n書き込み禁止状態を解除してください｡",
      "USen": "The USB storage device is\nwrite-protected.\n\nPlease refer to the manual for the\ndevice and disable write-protection.",
      "USes": "El dispositivo USB de almacenamiento\nestá protegido contra escritura.\n\nConsulta la documentación\ndel dispositivo y desprotégelo.",
      "USfr": "Le support de sauvegarde USB\nest protégé en écriture.\n\nDésactivez la protection du\nsupport de sauvegarde USB.\nPour plus d'informations,\nconsultez son mode d'emploi."
    }
  },
  {
    "label": "1501064",
    "attribute": "",
    "locale": {
      "CNzh": "SDカードが書き込み禁止になっています｡\n\nSDカードの書き込み禁止スイッチを\n解除してください｡",
      "EUde": "Die SD Card ist schreibgeschützt.\n\nBitte bewege den Schreibschutz-\nSchieber an der SD Card, um den\nSchreibschutz aufzuheben.",
      "EUen": "This SD Card is write-protected.\n\nPlease move the write-protection\nswitch on the SD Card to the\nunlocked position.",
      "EUes": "La tarjeta SD está protegida\ncontra escritura.\n\nSi quieres copiar o transferir\ndatos, desprotégela.",
      "EUfr": "La carte SD est protégée en écriture.\n\nRetirez la protection de la carte SD.",
      "EUit": "La scheda SD è protetta da scrittura.\n\nSposta la levetta di protezione\nda scrittura verso l'alto.",
      "EUnl": "De SD-kaart is tegen\nschrijven beveiligd.\n\nZet de schrijfbeveiliging\nop de SD-kaart uit.",
      "EUru": "Карта SD защищена от записи.\n\nСнимите защиту от записи\nс карты SD.",
      "JPja": "SDカードが書き込み禁止になっています｡\n\nSDカードの書き込み禁止スイッチを\n解除してください｡",
      "KRko": "SDカードが書き込み禁止になっています｡\n\nSDカードの書き込み禁止スイッチを\n解除してください｡",
      "TWzh": "SDカードが書き込み禁止になっています｡\n\nSDカードの書き込み禁止スイッチを\n解除してください｡",
      "USen": "This SD card is write-protected.\n\nPlease move the write-protection\nswitch on the SD card to the\nunlocked position.",
      "USes": "La tarjeta SD está protegida\ncontra escritura.\n\nSi quieres copiar o transferir\ndatos, desprotégela.",
      "USfr": "La carte SD est protégée en écriture.\n\nRetirez la protection de la carte SD."
    }
  },
  {
    "label": "1501071",
    "attribute": "",
    "locale": {
      "CNzh": "ほかのゲームのディスクが入っています｡\n\nディスクを入れ替えてください｡",
      "EUde": "Die in die Konsole eingeschobene Disc\ngehört zu einem anderen Softwaretitel.\n\nBitte tausche die Disc aus.",
      "EUen": "The disc inserted into the console\nis for a different software title.\n\nPlease change the disc.",
      "EUes": "El disco introducido corresponde\na otro programa.\n\nIntroduce el disco correcto.",
      "EUfr": "Le disque d'un autre logiciel est inséré.\n\nInsérez le bon disque.",
      "EUit": "Il disco che hai inserito è per\nun altro software.\n\nInserisci un altro disco.",
      "EUnl": "De ingevoerde disk is voor\neen andere softwaretitel.\n\nVoer de juiste disk in.",
      "EUru": "Вставленный в консоль диск является\nдиском другой программы.\n\nВставьте правильный диск.",
      "JPja": "ほかのゲームのディスクが入っています｡\n\nディスクを入れ替えてください｡",
      "KRko": "ほかのゲームのディスクが入っています｡\n\nディスクを入れ替えてください｡",
      "TWzh": "ほかのゲームのディスクが入っています｡\n\nディスクを入れ替えてください｡",
      "USen": "The disc currently in the console\nis for a different game.\n\nPlease insert the correct disc.",
      "USes": "El disco introducido corresponde\na otro programa.\n\nIntroduce el disco correcto.",
      "USfr": "Le disque d'un autre logiciel est inséré.\n\nInsérez le bon disque."
    }
  },
  {
    "label": "1501090",
    "attribute": "",
    "locale": {
      "CNzh": "エラーが発生しました｡\n\n本体にディスクが入っている場合は､\nディスクイジェクトボタンを押して\nディスクを取り出してください｡\n\n本体の電源をOFFにして\nコンセントからACアダプターを抜いたあと､\nWii U取扱説明書(冊子)をご覧になり､\n任天堂サービスセンターに\nエラーコードをお伝えください｡",
      "EUde": "Ein Fehler ist aufgetreten.\n\nSollte sich eine Disc in der Konsole\nbefinden, betätige den Disc-Ausgabe-\nknopf und entnimm die Disc.\n\nSchalte anschließend die Wii U-Konsole\naus, entferne das Netzteil von der\nSteckdose und wende dich an die\nentsprechende Konsumentenberatung.\nHalte bitte den Fehler-Code bereit. Die\nKontaktdaten findest du in der Wii U-\nBroschüre „Wichtige Informationen“ \noder unter support.nintendo.com.",
      "EUen": "An error has occurred.\n\nIf there is a disc in your console, press\nthe EJECT Button and remove the disc.\n\nTurn off the Wii U console, then unplug\nthe AC adapter from the socket and\ncontact your local customer support\ncentre, quoting the error code.\nFor contact details, check the Wii U\nImportant Information booklet\nor visit support.nintendo.com.",
      "EUes": "Se ha producido un error.\n\nSi has introducido un disco en la\nconsola, pulsa el botón Eject y extráelo.\n\nApaga la consola Wii U, desenchufa\nel adaptador de corriente de la toma,\nponte en contacto con el servicio\nde atención al cliente de tu zona\ne indica el código de error.\nPara obtener información de\ncontacto, consulta el folleto\nde información importante o\nvisita support.nintendo.com.",
      "EUfr": "Une erreur est survenue.\n\nSi un disque est inséré dans\nla console, appuyez sur le\nbouton EJECT et retirez le disque.\n\nÉteignez la console, débranchez\nle bloc d'alimentation, puis\ncommuniquez le code d'erreur au\nservice consommateurs Nintendo, dont\nvous trouverez les coordonnées dans\nle livret d'informations importantes\nou sur le site support.nintendo.com.",
      "EUit": "Si è verificato un errore.\n\nSe hai inserito un disco nella console,\npremi il pulsante EJECT ed estrailo.\n\nSpegni la console Wii U e stacca\nil blocco alimentatore dalla presa, poi\ncontatta il servizio clienti e comunica\nil codice di errore. Puoi trovare\nl'indirizzo e il numero di telefono\nnel libretto Informazioni importanti\ndella console Wii U o nel sito Internet\nsupport.nintendo.com",
      "EUnl": "Er is een fout opgetreden.\n\nAls er zich een disk in je systeem\nbevindt, druk dan op de EJECT-knop\nen verwijder de disk.\n\nZet het Wii U-systeem uit en trek\nde voeding uit het stopcontact.\nNeem contact op met de klantenservice\nen vermeld hierbij de foutcode.\nKijk in het Wii U-boekje met belangrijke\ninformatie of op support.nintendo.com\nvoor de juiste contactgegevens.",
      "EUru": "Произошла ошибка.\n\nЕсли в консоль вставлен диск,\nнажмите кнопку EJECT\nи извлеките его.\n\nВыключите консоль Wii U, затем\nвыньте вилку блока питания из\nрозетки, обратитесь в местный центр\nтехнической поддержки клиентов\nи сообщите код ошибки.\nКонтактная информация\nв буклете к Wii U Важная информация\nили на веб-сайте\nsupport.nintendo.com.",
      "JPja": "エラーが発生しました｡\n\n本体にディスクが入っている場合は､\nディスクイジェクトボタンを押して\nディスクを取り出してください｡\n\n本体の電源をOFFにして\nコンセントからACアダプターを抜いたあと､\nWii U取扱説明書(冊子)をご覧になり､\n任天堂サービスセンターに\nエラーコードをお伝えください｡",
      "KRko": "エラーが発生しました｡\n\n本体にディスクが入っている場合は､\nディスクイジェクトボタンを押して\nディスクを取り出してください｡\n\n本体の電源をOFFにして\nコンセントからACアダプターを抜いたあと､\nWii U取扱説明書(冊子)をご覧になり､\n任天堂サービスセンターに\nエラーコードをお伝えください｡",
      "TWzh": "エラーが発生しました｡\n\n本体にディスクが入っている場合は､\nディスクイジェクトボタンを押して\nディスクを取り出してください｡\n\n本体の電源をOFFにして\nコンセントからACアダプターを抜いたあと､\nWii U取扱説明書(冊子)をご覧になり､\n任天堂サービスセンターに\nエラーコードをお伝えください｡",
      "USen": "An error has occurred.\n\nIf there is a disc in your console, press\nthe EJECT Button and remove the disc.\n\nMake a note of the error code and\nturn the Wii U console power off, and\nthen unplug the AC adapter from the\noutlet and visit support.nintendo.com.",
      "USes": "Se ha producido un error.\n\nSi has introducido un disco en la\nconsola, oprime el botón Eject\ny extráelo.\n\nAnota el código de error y\napaga la consola Wii U, luego\ndesenchufa el adaptador de\ncorriente de la toma de corriente\ny visita support.nintendo.com.",
      "USfr": "Une erreur est survenue.\n\nSi un disque est inséré dans\nla console, appuyez sur le\nbouton EJECT et retirez le disque.\n\nNotez le code d'erreur, éteignez\nla console, débranchez le bloc\nd'alimentation, puis visitez\nle site support.nintendo.com."
    }
  },
  {
    "label": "1510101",
    "attribute": "",
    "locale": {
      "CNzh": "コントローラーとの通信が切断されました｡\n\n電源ボタン以外のボタンを押してください｡\n反応がない場合は、乾電池を交換または\nバッテリーパックを充電してから\nもう一度ボタンを押してください｡",
      "EUde": "Die Verbindung zum Controller\nwurde unterbrochen.\nDrücke einen beliebigen Knopf oder\neine beliebige Taste außer dem\nPOWER-Schalter.\nReagiert der Controller immer noch\nnicht, tausche die Batterien aus oder\nlade sie auf und versuche es erneut.",
      "EUen": "Communications with the controller\nhave been interrupted.\n\nPlease press any button except the\nPOWER Button. If there is no response,\nreplace or recharge the batteries as\nappropriate and try again.",
      "EUes": "Se ha interrumpido la comunicación\ncon el mando.\n\nPulsa cualquier botón excepto\nel botón Power. Si el mando\nno responde, recarga la batería o\nsustituye las pilas e inténtalo de nuevo.",
      "EUfr": "La connexion avec la manette\na été interrompue.\n\nAppuyez sur un bouton (sauf le\nbouton POWER). Si le problème\npersiste, changez les piles ou\nrechargez la batterie, puis réessayez.",
      "EUit": "Il collegamento con il controller\nsi è interrotto.\n\nPremi qualsiasi pulsante tranne POWER.\nSe il controller non risponde, sostituisci\no carica le batterie e riprova.",
      "EUnl": "De verbinding met de controller\nis verbroken.\n\nDruk op een willekeurige knop,\nbehalve de POWER-knop.\nAls de controller niet reageert,\nvervang dan de batterijen of laad\nze op, en probeer het opnieuw.",
      "EUru": "Связь с контроллером прервана.\n\nНажмите любую кнопку, кроме кнопки\nPOWER. При отсутствии реакции\nзамените или подзарядите батареи\nнадлежащим образом и повторите\nпопытку.",
      "JPja": "コントローラーとの通信が切断されました｡\n\n電源ボタン以外のボタンを押してください｡\n反応がない場合は、乾電池を交換または\nバッテリーパックを充電してから\nもう一度ボタンを押してください｡",
      "KRko": "コントローラーとの通信が切断されました｡\n\n電源ボタン以外のボタンを押してください｡\n反応がない場合は、乾電池を交換または\nバッテリーパックを充電してから\nもう一度ボタンを押してください｡",
      "TWzh": "コントローラーとの通信が切断されました｡\n\n電源ボタン以外のボタンを押してください｡\n反応がない場合は、乾電池を交換または\nバッテリーパックを充電してから\nもう一度ボタンを押してください｡",
      "USen": "Communications with the controller\nhave been interrupted.\nPlease press any button other than the\nPOWER Button. If there is no response,\nreplace or recharge the batteries as\nappropriate and try again.",
      "USes": "Se ha interrumpido la comunicación\ncon el control.\n\nOprime cualquier botón excepto\nel botón Power. Si el control\nno responde, recarga la batería\no sustituye las pilas e inténtalo\nde nuevo.",
      "USfr": "La connexion avec la manette\na été interrompue.\n\nAppuyez sur un bouton (sauf le\nbouton POWER). Si le problème\npersiste, changez les piles ou\nrechargez la batterie, puis réessayez."
    }
  },
  {
    "label": "1550100",
    "attribute": "",
    "locale": {
      "CNzh": "セーブデータを作るための\n空き容量が足りません｡\n\n本体設定の「データ管理」で\nデータを整理してください｡",
      "EUde": "Es ist nicht genügend Speicherplatz\nvorhanden, um Speicherdaten zu\nerstellen.\n\nWähle „Datenverwaltung“ in den\nSystemeinstellungen, um Speicherplatz\nzu schaffen.",
      "EUen": "There is not enough free space\nto create save data.\n\nPlease go to Data Management in\nSystem Settings to make space.",
      "EUes": "No hay espacio libre suficiente\npara crear datos de guardado.\n\nSelecciona «Gestión de datos»\nen la configuración de la consola\ny libera espacio.",
      "EUfr": "Il n'y a pas suffisamment d'espace libre\npour créer les données de sauvegarde.\n\nLibérez de l'espace via la gestion\ndes données dans les paramètres\nde la console.",
      "EUit": "Non c'è abbastanza spazio libero\nper creare i dati di salvataggio.\n\nPer liberare spazio, vai alla Gestione\ndati nelle Impostazioni della console.",
      "EUnl": "Er is niet genoeg vrije ruimte\nom gegevens op te slaan.\n\nGa naar GEHEUGENBEHEER\nin de systeeminstellingen om\nruimte vrij te maken.",
      "EUru": "Для создания данных сохранения\nнедостаточно свободного места.\n\nЧтобы освободить место, перейдите\nв раздел Управление данными\nв системных настройках.",
      "JPja": "セーブデータを作るための\n空き容量が足りません｡\n\n本体設定の「データ管理」で\nデータを整理してください｡",
      "KRko": "セーブデータを作るための\n空き容量が足りません｡\n\n本体設定の「データ管理」で\nデータを整理してください｡",
      "TWzh": "セーブデータを作るための\n空き容量が足りません｡\n\n本体設定の「データ管理」で\nデータを整理してください｡",
      "USen": "There is not enough free space to\ncreate save data.\n\nPlease go to Data Management in\nSystem Settings to make space.",
      "USes": "No hay espacio libre suficiente\npara crear datos de guardado.\n\nSelecciona \"Gestión de datos\"\nen la configuración de la consola\ny libera espacio.",
      "USfr": "Il n'y a pas suffisamment d'espace libre\npour créer les données de sauvegarde.\n\nLibérez de l'espace via la gestion\ndes données dans les paramètres\nde la console."
    }
  },
  {
    "label": "1550205",
    "attribute": "",
    "locale": {
      "CNzh": "ディスクを入れてください｡",
      "EUde": "Bitte schiebe die Disc ein.",
      "EUen": "Insert the disc.",
      "EUes": "Introduce el disco.",
      "EUfr": "Insérez le disque.",
      "EUit": "Inserisci il disco.",
      "EUnl": "Voer de disk in.",
      "EUru": "Вставьте диск.",
      "JPja": "ディスクを入れてください｡",
      "KRko": "ディスクを入れてください｡",
      "TWzh": "ディスクを入れてください｡",
      "USen": "Insert the disc.",
      "USes": "Introduce el disco.",
      "USfr": "Insérez le disque."
    }
  },
  {
    "label": "1550213",
    "attribute": "",
    "locale": {
      "CNzh": "USB記録メディアが\n書き込み禁止になっています｡\n\nお使いのUSB記録メディアの\n取扱説明書をご覧になり､\n書き込み禁止状態を解除してください｡",
      "EUde": "Das USB-Speichergerät ist\nschreibgeschützt.\n\nBitte lies die Bedienungsanleitung\ndes USB-Speichergeräts und hebe\nden Schreibschutz auf.",
      "EUen": "The USB storage device\nis write-protected.\n\nPlease refer to the manual for the\ndevice and disable write-protection.",
      "EUes": "El dispositivo USB de almacenamiento\nestá protegido contra escritura.\n\nConsulta la documentación\ndel dispositivo y desprotégelo.",
      "EUfr": "Le support de sauvegarde USB\nest protégé en écriture.\n\nDésactivez la protection du\nsupport de sauvegarde USB.\nPour plus d'informations,\nconsultez son mode d'emploi.",
      "EUit": "Il dispositivo di archiviazione USB\nè protetto da scrittura.\n\nConsulta il manuale di istruzioni\ndel dispositivo e disattiva la protezione.",
      "EUnl": "Het USB-opslagmedium is\ntegen schrijven beveiligd.\n\nLees de handleiding van\nhet opslagmedium en zet\nde schrijfbeveiliging uit.",
      "EUru": "Запоминающее устройство USB\nзащищено от записи.\n\nСм. руководство к устройству USB\nи снимите с него защиту от записи.",
      "JPja": "USB記録メディアが\n書き込み禁止になっています｡\n\nお使いのUSB記録メディアの\n取扱説明書をご覧になり､\n書き込み禁止状態を解除してください｡",
      "KRko": "USB記録メディアが\n書き込み禁止になっています｡\n\nお使いのUSB記録メディアの\n取扱説明書をご覧になり､\n書き込み禁止状態を解除してください｡",
      "TWzh": "USB記録メディアが\n書き込み禁止になっています｡\n\nお使いのUSB記録メディアの\n取扱説明書をご覧になり､\n書き込み禁止状態を解除してください｡",
      "USen": "The USB storage device is\nwrite-protected.\n\nPlease refer to the manual for the\ndevice and disable write-protection.",
      "USes": "El dispositivo USB de almacenamiento\nestá protegido contra escritura.\n\nConsulta la documentación\ndel dispositivo y desprotégelo.",
      "USfr": "Le support de sauvegarde USB\nest protégé en écriture.\n\nDésactivez la protection du\nsupport de sauvegarde USB.\nPour plus d'informations,\nconsultez son mode d'emploi."
    }
  },
  {
    "label": "1559000",
    "attribute": "",
    "locale": {
      "CNzh": "セーブデータの作成に失敗しました｡\n\n本体の電源をOFFにして\nコンセントからACアダプタを抜いたあと､\nWii U取扱説明書(冊子)をご覧になり､\n任天堂サービスセンターに\nエラーコードをお伝えください｡",
      "EUde": "Es konnten keine Speicherdaten\nerstellt werden.\n\nSchalte die Wii U-Konsole aus, entferne\ndas Netzteil von der Steckdose und\nwende dich an die entsprechende\nKonsumentenberatung. Halte bitte\nden Fehler-Code bereit. Die Kontakt-\ndaten findest du in der Wii U-Broschüre\n„Wichtige Informationen“ oder unter\nsupport.nintendo.com.",
      "EUen": "Could not create save data.\n\nTurn off the Wii U console, then unplug\nthe AC adapter from the socket and\ncontact your local customer support\ncentre, quoting the error code.\nFor contact details, check the Wii U\nImportant Information booklet\nor visit support.nintendo.com.",
      "EUes": "No se han podido crear\nlos datos de guardado.\n\nApaga la consola Wii U, desenchufa\nel adaptador de corriente de la toma,\nponte en contacto con el servicio\nde atención al cliente de tu zona\ne indica el código de error.\nPara obtener información de\ncontacto, consulta el folleto\nde información importante o\nvisita support.nintendo.com.",
      "EUfr": "La création des données de\nsauvegarde a échoué.\n\nÉteignez la console, débranchez\nle bloc d'alimentation, puis\ncommuniquez le code d'erreur au\nservice consommateurs Nintendo, dont\nvous trouverez les coordonnées dans\nle livret d'informations importantes\nou sur le site support.nintendo.com.",
      "EUit": "Impossibile creare i dati di salvataggio.\n\nSpegni la console Wii U e stacca\nil blocco alimentatore dalla presa, poi\ncontatta il servizio clienti e comunica\nil codice di errore. Puoi trovare\nl'indirizzo e il numero di telefono\nnel libretto Informazioni importanti\ndella console Wii U o nel sito Internet\nsupport.nintendo.com",
      "EUnl": "Er kunnen geen opgeslagen\ngegevens worden gecreëerd.\n\nZet het Wii U-systeem uit en trek\nde voeding uit het stopcontact.\nNeem daarna contact op met\nde klantenservice en vermeld\nhierbij de foutcode.\nKijk in het Wii U-boekje met belangrijke\ninformatie of op support.nintendo.com\nvoor de juiste contactgegevens.",
      "EUru": "Не удалось создать данные\nсохранения.\n\nВыключите консоль Wii U, затем\nвыньте вилку блока питания из\nрозетки, обратитесь в местный центр\nтехнической поддержки клиентов\nи сообщите код ошибки.\nКонтактная информация\nв буклете к Wii U Важная информация\nили на веб-сайте\nsupport.nintendo.com.",
      "JPja": "セーブデータの作成に失敗しました｡\n\n本体の電源をOFFにして\nコンセントからACアダプタを抜いたあと､\nWii U取扱説明書(冊子)をご覧になり､\n任天堂サービスセンターに\nエラーコードをお伝えください｡",
      "KRko": "セーブデータの作成に失敗しました｡\n\n本体の電源をOFFにして\nコンセントからACアダプタを抜いたあと､\nWii U取扱説明書(冊子)をご覧になり､\n任天堂サービスセンターに\nエラーコードをお伝えください｡",
      "TWzh": "セーブデータの作成に失敗しました｡\n\n本体の電源をOFFにして\nコンセントからACアダプタを抜いたあと､\nWii U取扱説明書(冊子)をご覧になり､\n任天堂サービスセンターに\nエラーコードをお伝えください｡",
      "USen": "Save data could not be created.\n\nPlease make note of the error code,\nand then turn off the console's power,\nunplug the Wii U console's AC adapter\nfrom the outlet, and visit\nsupport.nintendo.com.",
      "USes": "No se han podido crear\nlos datos de guardado.\n\nAnota el código de error, vuelve a\napagar la consola Wii U, desenchufa\nsu adaptador de corriente y visita\nsupport.nintendo.com.",
      "USfr": "La création des données de\nsauvegarde a échoué.\n\nNotez le code d'erreur, éteignez\nla console, débranchez le bloc\nd'alimentation, puis visitez\nle site support.nintendo.com."
    }
  },
  {
    "label": "1650101",
    "attribute": "",
    "locale": {
      "CNzh": "Wii U GamePadと通信できませんでした｡\nGamePadの画面をご覧ください｡\n\nGamePadのバッテリー残量が\nなくなっている場合は、充電してください｡",
      "EUde": "Die Kommunikation mit dem Wii U\nGamePad ist fehlgeschlagen.\nBitte sieh auf den Bildschirm des\nGamePads.\nSollte die Batterieladung des GamePads\nnachlassen, lade es bitte wieder auf.",
      "EUen": "Unable to communicate with\nthe Wii U GamePad.\nPlease check the GamePad screen.\n\nIf the GamePad battery has run low,\nplease recharge it.",
      "EUes": "No se ha podido establecer la\ncomunicación con el Wii U GamePad.\nMira la pantalla del GamePad.\n\nSi la batería se está agotando,\nponla a cargar.",
      "EUfr": "La connexion avec le\nWii U GamePad a échoué.\nRegardez l'écran du Wii U GamePad.\n\nSi la batterie du Wii U GamePad\nest faible, rechargez-la.",
      "EUit": "Impossibile comunicare con\nil Wii U GamePad. Controllane\nlo schermo.\n\nSe la batteria del Wii U GamePad\nè quasi scarica, ricaricala.",
      "EUnl": "Er is geen communicatie mogelijk\nmet de Wii U GamePad.\nKijk op het scherm van de GamePad.\n\nLaad indien nodig de batterij\nvan de GamePad op.",
      "EUru": "Нет связи с Wii U GamePad.\nПроверьте экран GamePad.\n\nЕсли батарея GamePad разрядилась,\nподзарядите ее.",
      "JPja": "Wii U GamePadと通信できませんでした｡\nGamePadの画面をご覧ください｡\n\nGamePadのバッテリー残量が\nなくなっている場合は、充電してください｡",
      "KRko": "Wii U GamePadと通信できませんでした｡\nGamePadの画面をご覧ください｡\n\nGamePadのバッテリー残量が\nなくなっている場合は、充電してください｡",
      "TWzh": "Wii U GamePadと通信できませんでした｡\nGamePadの画面をご覧ください｡\n\nGamePadのバッテリー残量が\nなくなっている場合は、充電してください｡",
      "USen": "Unable to communicate with the\nWii U GamePad. Please check\nthe Wii U GamePad screen.\n\nIf the Wii U GamePad battery has\nrun low, please recharge it.",
      "USes": "No se ha podido establecer la\ncomunicación con el Wii U GamePad.\nMira la pantalla del Wii U GamePad.\n\nSi la batería del Wii U GamePad\nse está agotando, ponla a cargar.",
      "USfr": "La connexion avec le\nWii U GamePad a échoué.\nRegardez l'écran du Wii U GamePad.\n\nSi la batterie du Wii U GamePad\nest faible, rechargez-la."
    }
  },
  {
    "label": "1681999",
    "attribute": "",
    "locale": {
      "CNzh": "amiiboのデータ書き込み/\n読み込み中にエラーが発生しました｡\nもう一度お試しください｡",
      "EUde": "Beim Zugriff auf das amiibo\nist ein Fehler aufgetreten.\nBitte versuche es erneut.",
      "EUen": "An error occurred while trying to\naccess the amiibo. Please try again.",
      "EUes": "Se ha producido un error\nal intentar acceder a los datos\ndel amiibo. Inténtalo de nuevo.",
      "EUfr": "Une erreur est survenue lors de\nl'accès à l'amiibo. Réessayez.",
      "EUit": "Si è verificato un errore durante\nla lettura dei dati dell'amiibo. Riprova.",
      "EUnl": "De amiibo is niet toegankelijk.\nProbeer het opnieuw.",
      "EUru": "Произошла ошибка во время\nполучения доступа к фигурке amiibo.\nПовторите попытку.",
      "JPja": "amiiboのデータ書き込み/\n読み込み中にエラーが発生しました｡\nもう一度お試しください｡",
      "KRko": "amiiboのデータ書き込み/\n読み込み中にエラーが発生しました｡\nもう一度お試しください｡",
      "TWzh": "amiiboのデータ書き込み/\n読み込み中にエラーが発生しました｡\nもう一度お試しください｡",
      "USen": "An error occurred while trying to write\nor read amiibo data. Please try again.",
      "USes": "Se ha producido un error\nal intentar acceder a los datos\ndel amiibo. Inténtalo de nuevo.",
      "USfr": "Une erreur est survenue lors de\nl'accès à l'amiibo. Réessayez."
    }
  },
  {
    "label": "1689999",
    "attribute": "",
    "locale": {
      "CNzh": "amiiboのデータ書き込み/\n読み込み中にエラーが発生しました｡\n本体の電源をOFFにして\nやり直してください｡\n\nこのエラーが何度も発生する場合は\nWii U取扱説明書(冊子)に記載されている\n任天堂サービスセンターに\nお問い合わせください｡",
      "EUde": "Beim Zugriff auf das amiibo ist ein\nFehler aufgetreten. Bitte schalte die\nWii U-Konsole aus und versuche es\nanschließend erneut.\nWenn das Problem bestehen bleibt,\nwende dich an die entsprechende\nKonsumentenberatung. Die Kontakt-\ndaten findest du in der Wii U-Broschüre\n„Wichtige Informationen“ oder unter\nsupport.nintendo.com.",
      "EUen": "An error occurred while trying to\naccess the amiibo. Please turn off\nyour Wii U console and try again.\n\nIf the problem persists, please contact\nyour local customer support centre.\nFor contact details, check the Wii U\nImportant Information booklet or\nvisit support.nintendo.com.",
      "EUes": "Se ha producido un error\nal intentar acceder a los datos\ndel amiibo. Reinicia la consola\ne inténtalo de nuevo.\n\nSi el problema no se soluciona,\nponte en contacto con el servicio\nde atención al cliente de tu zona.\nPara obtener información de\ncontacto, consulta el folleto\nde información importante o\nvisita support.nintendo.com.",
      "EUfr": "Une erreur est survenue lors de\nl'accès à l'amiibo. Éteignez la\nconsole, puis réessayez.\n\nSi le problème persiste, contactez\nle service consommateurs Nintendo,\ndont vous trouverez les coordonnées\ndans le livret d'informations importantes\net sur le site support.nintendo.com.",
      "EUit": "Si è verificato un errore durante\nla lettura dei dati dell'amiibo. Spegni\nla console Wii U e riprova.\n\nSe il problema persiste, contatta\nil servizio clienti. Puoi trovare\nl'indirizzo e il numero di telefono\nnel libretto Informazioni importanti\ndella console Wii U o nel sito Internet\nsupport.nintendo.com",
      "EUnl": "De amiibo is niet toegankelijk.\nZet het Wii U-systeem uit en\nprobeer het opnieuw.\n\nNeem contact op met de klantenservice\nals dit probleem zich blijft voordoen.\nKijk in het Wii U-boekje met belangrijke\ninformatie of op support.nintendo.com\nvoor de juiste contactgegevens.",
      "EUru": "Произошла ошибка во время\nполучения доступа к фигурке amiibo.\nПовторите попытку. Выключите\nконсоль Wii U и повторите попытку.\n\nЕсли проблема сохраняется,\nобратитесь в местный центр\nтехнической поддержки клиентов.\nКонтактная информация в буклете\nк Wii U Важная информация или\nна веб-сайте support.nintendo.com.",
      "JPja": "amiiboのデータ書き込み/\n読み込み中にエラーが発生しました｡\n本体の電源をOFFにして\nやり直してください｡\n\nこのエラーが何度も発生する場合は\nWii U取扱説明書(冊子)に記載されている\n任天堂サービスセンターに\nお問い合わせください｡",
      "KRko": "amiiboのデータ書き込み/\n読み込み中にエラーが発生しました｡\n本体の電源をOFFにして\nやり直してください｡\n\nこのエラーが何度も発生する場合は\nWii U取扱説明書(冊子)に記載されている\n任天堂サービスセンターに\nお問い合わせください｡",
      "TWzh": "amiiboのデータ書き込み/\n読み込み中にエラーが発生しました｡\n本体の電源をOFFにして\nやり直してください｡\n\nこのエラーが何度も発生する場合は\nWii U取扱説明書(冊子)に記載されている\n任天堂サービスセンターに\nお問い合わせください｡",
      "USen": "An error occurred while trying to write\nor read amiibo data. Please turn off\nthe Wii U console and try again.\n\nIf the problem persists, please visit\nsupport.nintendo.com.",
      "USes": "Se ha producido un error\nal intentar acceder a los datos\ndel amiibo. Apaga la consola Wii U\ne inténtalo de nuevo.\n\nSi el problema continúa, visita\nsupport.nintendo.com.",
      "USfr": "Une erreur est survenue lors de\nl'accès à l'amiibo. Éteignez la\nconsole, puis réessayez.\n\nSi le problème persiste, visitez\nle site support.nintendo.com."
    }
  },
  {
    "label": "1680300",
    "attribute": "",
    "locale": {
      "CNzh": "amiiboのデータ書き込み/\n読み込み中にエラーが発生しました｡\nもう一度お試しください｡",
      "EUde": "Beim Zugriff auf das amiibo\nist ein Fehler aufgetreten.\nBitte versuche es erneut.",
      "EUen": "An error occurred while trying to\naccess the amiibo. Please try again.",
      "EUes": "Se ha producido un error\nal intentar acceder a los datos\ndel amiibo. Inténtalo de nuevo.",
      "EUfr": "Une erreur est survenue lors de\nl'accès à l'amiibo. Réessayez.",
      "EUit": "Si è verificato un errore durante\nla lettura dei dati dell'amiibo. Riprova.",
      "EUnl": "De amiibo is niet toegankelijk.\nProbeer het opnieuw.",
      "EUru": "Произошла ошибка во время\nполучения доступа к фигурке amiibo.\nПовторите попытку.",
      "JPja": "amiiboのデータ書き込み/\n読み込み中にエラーが発生しました｡\nもう一度お試しください｡",
      "KRko": "amiiboのデータ書き込み/\n読み込み中にエラーが発生しました｡\nもう一度お試しください｡",
      "TWzh": "amiiboのデータ書き込み/\n読み込み中にエラーが発生しました｡\nもう一度お試しください｡",
      "USen": "An error occurred while trying to write\nor read amiibo data. Please try again.",
      "USes": "Se ha producido un error\nal intentar acceder a los datos\ndel amiibo. Inténtalo de nuevo.",
      "USfr": "Une erreur est survenue lors de\nl'accès à l'amiibo. Réessayez."
    }
  },
  {
    "label": "1680400",
    "attribute": "",
    "locale": {
      "CNzh": "amiiboではありません｡",
      "EUde": "Dies ist kein amiibo.",
      "EUen": "This is not an amiibo.",
      "EUes": "Este objeto no es un amiibo.",
      "EUfr": "Ceci n'est pas un amiibo.",
      "EUit": "Questo non è un amiibo.",
      "EUnl": "Dit is geen amiibo.",
      "EUru": "Это не фигурка amiibo.",
      "JPja": "amiiboではありません｡",
      "KRko": "amiiboではありません｡",
      "TWzh": "amiiboではありません｡",
      "USen": "The device you used is\nnot an amiibo figure.",
      "USes": "Este objeto no es un amiibo.",
      "USfr": "Ceci n'est pas un amiibo."
    }
  },
  {
    "label": "1680409",
    "attribute": "",
    "locale": {
      "CNzh": "正常なamiiboではありません｡\n\nこのエラーが何度も発生する場合は\nWii U取扱説明書(冊子)に記載されている\n任天堂サービスセンターに\nお問い合わせください｡",
      "EUde": "Dies ist kein gültiges amiibo.\n\nWenn das Problem bestehen bleibt,\nwende dich an die entsprechende\nKonsumentenberatung. Die Kontakt-\ndaten findest du in der Wii U-Broschüre\n„Wichtige Informationen“ oder unter\nsupport.nintendo.com.",
      "EUen": "This is an invalid amiibo.\n\nIf the problem persists, please contact\nyour local customer support centre.\nFor contact details, check the Wii U\nImportant Information booklet or visit\nsupport.nintendo.com.",
      "EUes": "Este amiibo no es válido.\n\nSi el problema no se soluciona,\nponte en contacto con el servicio\nde atención al cliente de tu zona.\nPara obtener información de\ncontacto, consulta el folleto\nde información importante o\nvisita support.nintendo.com.",
      "EUfr": "Cet amiibo n'est pas conforme.\n\nSi le problème persiste, contactez\nle service consommateurs Nintendo,\ndont vous trouverez les coordonnées\ndans le livret d'informations importantes\net sur le site support.nintendo.com.",
      "EUit": "Questo amiibo non è valido.\n\nSe il problema persiste, contatta\nil servizio clienti. Puoi trovare\nl'indirizzo e il numero di telefono\nnel libretto Informazioni importanti\ndella console Wii U o nel sito Internet\nsupport.nintendo.com",
      "EUnl": "Deze amiibo is ongeldig.\n\nNeem contact op met de klantenservice\nals dit probleem zich blijft voordoen.\nKijk in het Wii U-boekje met belangrijke\ninformatie of op support.nintendo.com\nvoor de juiste contactgegevens.",
      "EUru": "Это недействительная фигурка\namiibo.\nЕсли проблема сохраняется,\nобратитесь в местный центр\nтехнической поддержки клиентов.\nКонтактная информация в буклете\nк Wii U Важная информация или\nна веб-сайте support.nintendo.com.",
      "JPja": "正常なamiiboではありません｡\n\nこのエラーが何度も発生する場合は\nWii U取扱説明書(冊子)に記載されている\n任天堂サービスセンターに\nお問い合わせください｡",
      "KRko": "正常なamiiboではありません｡\n\nこのエラーが何度も発生する場合は\nWii U取扱説明書(冊子)に記載されている\n任天堂サービスセンターに\nお問い合わせください｡",
      "TWzh": "正常なamiiboではありません｡\n\nこのエラーが何度も発生する場合は\nWii U取扱説明書(冊子)に記載されている\n任天堂サービスセンターに\nお問い合わせください｡",
      "USen": "This is an invalid amiibo.\n\nIf the problem persists, please\nvisit support.nintendo.com.",
      "USes": "Este amiibo no es válido.\n\nSi el problema continúa, visita\nsupport.nintendo.com.",
      "USfr": "Cet amiibo n'est pas conforme.\n\nSi le problème persiste, visitez\nle site support.nintendo.com."
    }
  },
  {
    "label": "1680500",
    "attribute": "",
    "locale": {
      "CNzh": "amiiboのデータが壊れています｡\n\nこのWii U本体に保存されている\nデータで復旧しますか?",
      "EUde": "Die amiibo-Daten sind fehlerhaft.\n\nMöchtest du sie mit den auf\ndieser Konsole gespeicherten\nDaten wiederherstellen?",
      "EUen": "The amiibo data is corrupted.\n\nWould you like to restore it with\ndata saved on this console?",
      "EUes": "Los datos del amiibo están dañados.\n\n¿Quieres restaurarlos utilizando\nlos datos guardados en la consola?",
      "EUfr": "Les données de l'amiibo sont\ncorrompues.\n\nLes restaurer à partir des données\nsauvegardées sur cette console Wii U ?",
      "EUit": "I dati dell'amiibo sono danneggiati.\n\nVuoi recuperarli usando\ni dati salvati su questa console?",
      "EUnl": "De amiibo-gegevens zijn beschadigd.\n\nWil je ze herstellen met behulp van\ngegevens die op dit systeem zijn\nopgeslagen?",
      "EUru": "Данные amiibo повреждены.\n\nВосстановить их с помощью данных,\nсохраненных на этой консоли?",
      "JPja": "amiiboのデータが壊れています｡\n\nこのWii U本体に保存されている\nデータで復旧しますか?",
      "KRko": "amiiboのデータが壊れています｡\n\nこのWii U本体に保存されている\nデータで復旧しますか?",
      "TWzh": "amiiboのデータが壊れています｡\n\nこのWii U本体に保存されている\nデータで復旧しますか?",
      "USen": "The amiibo data is corrupted.\n\nWould you like to restore it with\ndata saved on this console?",
      "USes": "Los datos del amiibo están dañados.\n\n¿Quieres restaurarlos utilizando\nlos datos guardados en la consola?",
      "USfr": "Les données de l'amiibo sont\ncorrompues.\n\nLes restaurer à partir des données\nsauvegardées sur cette console Wii U?"
    }
  },
  {
    "label": "1680500_NX",
    "attribute": "",
    "locale": {
      "CNzh": "The amiibo data is corrupted.\n\nWould you like to restore the amiibo\nwith data saved on this system?",
      "EUde": "Die amiibo-Daten sind fehlerhaft.\n\nMöchtest du das amiibo mit den auf\ndiesem System gespeicherten Daten\nwiederherstellen?",
      "EUen": "The amiibo data is corrupted.\n\nWould you like to restore the amiibo\nwith data saved on this system?",
      "EUes": "Los datos del amiibo están dañados.\n\n¿Quieres restaurar el amiibo utilizando\nlos datos guardados en la consola?",
      "EUfr": "Les données de l'amiibo sont\ncorrompues. \n\nLes restaurer à partir des données\nsauvegardées sur cette console ?",
      "EUit": "I dati dell'amiibo sono danneggiati.\n\nVuoi recuperarli usando i dati salvati\nsu questa console?",
      "EUnl": "De amiibo-gegevens zijn beschadigd.\n\nWil je de gegevens herstellen met\nbehulp van gegevens die op dit systeem\nzijn opgeslagen?",
      "EUru": "Данные amiibo повреждены.\n\nВосстановить данные amiibo\nс помощью данных, сохраненных\nна этой консоли?",
      "JPja": "amiiboのデータが壊れています。\n\nこの本体に保存されているデータで\n復旧しますか？",
      "KRko": "The amiibo data is corrupted.\n\nWould you like to restore the amiibo\nwith data saved on this system?",
      "TWzh": "The amiibo data is corrupted.\n\nWould you like to restore the amiibo\nwith data saved on this system?",
      "USen": "The amiibo data is corrupted.\n\nWould you like to restore the amiibo\nwith data saved on this system?",
      "USes": "Los datos del amiibo están dañados.\n\n¿Quieres restaurar el amiibo utilizando\nlos datos guardados en la consola?",
      "USfr": "Les données de l'amiibo sont\ncorrompues.\n\nLes restaurer à partir des données\nsauvegardées sur cette console?"
    }
  },
  {
    "label": "1680510",
    "attribute": "",
    "locale": {
      "CNzh": "amiiboのデータが壊れています｡\nこのamiiboを使ったことのある\nゲーム機本体であれば復旧できます｡\nもしくは、本体設定の「amiibo設定」で\n初期化を行ってください｡",
      "EUde": "Die amiibo-Daten sind fehlerhaft.\nDu kannst die Daten mithilfe eines\nNintendo-Geräts, mit dem du zuvor auf\ndieses amiibo zugegriffen hast, wieder-\nherstellen. Funktioniert dies nicht,\nsetze das amiibo unter Systemeinstel-\nlungen ⇒ amiibo-Einstellungen zurück.",
      "EUen": "The amiibo data is corrupted.\nYou can restore the data if you have\na Nintendo device that has accessed\nthis amiibo before.\n\nIf not, please reset the amiibo via\nSystem Settings ⇒ amiibo Settings.",
      "EUes": "Los datos del amiibo están dañados.\nPodrás restaurarlos si dispones de\nun dispositivo de Nintendo que haya\naccedido previamente al amiibo.\nDe lo contrario, selecciona\n«Ajustes de amiibo» en la configuración\nde la consola y formatea el amiibo.",
      "EUfr": "Les données de l'amiibo sont\ncorrompues.\nVous pouvez les restaurer si\nvous disposez d'une console avec\nlaquelle cet amiibo a été utilisé. Sinon,\nréinitialisez l'amiibo via Paramètres de\nla console ⇒ Paramètres amiibo.",
      "EUit": "I dati dell'amiibo sono danneggiati.\nPuoi recuperarli con una console\nusata in precedenza per accedere\nai dati di questo amiibo.\nAltrimenti, ripristina l'amiibo da\nImpostazioni della console ⇒\nImpostazioni amiibo.",
      "EUnl": "De amiibo-gegevens zijn beschadigd.\nAls je een Nintendo-systeem hebt\nwaarop de amiibo eerder is gebruikt,\ndan kun je de gegevens herstellen.\nZo niet, formatteer de amiibo dan\nvia de amiibo-instellingen in\nde systeeminstellingen.",
      "EUru": "Данные amiibo повреждены.\nВы сможете восстановить данные,\nесли у вас есть устройство Nintendo,\nс помощью которого вы ранее\nиспользовали эту фигурку amiibo.\n\nЕсли нет, сбросьте данные amiibo,\nвыбрав Настройки amiibo в системных\nнастройках.",
      "JPja": "amiiboのデータが壊れています｡\nこのamiiboを使ったことのある\nゲーム機本体であれば復旧できます｡\nもしくは、本体設定の「amiibo設定」で\n初期化を行ってください｡",
      "KRko": "amiiboのデータが壊れています｡\nこのamiiboを使ったことのある\nゲーム機本体であれば復旧できます｡\nもしくは、本体設定の「amiibo設定」で\n初期化を行ってください｡",
      "TWzh": "amiiboのデータが壊れています｡\nこのamiiboを使ったことのある\nゲーム機本体であれば復旧できます｡\nもしくは、本体設定の「amiibo設定」で\n初期化を行ってください｡",
      "USen": "The amiibo data is corrupted.\n\nIf you have used this amiibo on a\nNintendo device before, then you can\nuse that device to restore the data.\nIf not, please reset the amiibo via\nSystem Settings ⇒ amiibo Settings.",
      "USes": "Los datos del amiibo están dañados.\nSi ya has utilizado este amiibo\ncon un dispositivo de Nintendo,\npuedes usarlo para restaurar los datos.\nDe lo contrario, selecciona\n\"Ajustes de amiibo\" en la configuración\nde la consola y formatea el amiibo.",
      "USfr": "Les données de l'amiibo sont\ncorrompues.\nVous pouvez les restaurer si\nvous disposez d'une console avec\nlaquelle cet amiibo a été utilisé. Sinon,\nréinitialisez l'amiibo via Paramètres de\nla console ⇒ Paramètres amiibo."
    }
  },
  {
    "label": "1680510_NX",
    "attribute": "",
    "locale": {
      "CNzh": "The amiibo data is corrupted.\nYou can restore the data if you have a\nNintendo device that has accessed this\namiibo before. You can also reset the\namiibo by returning to the HOME Menu\nand selecting {{font id=\"2\"}}{{font id=\"65535\"}} (System Settings)\n⇒ amiibo.",
      "EUde": "Die amiibo-Daten sind fehlerhaft.\n\nDu kannst die Daten mithilfe eines\nNintendo-Geräts, mit dem du zuvor auf\ndieses amiibo zugegriffen hast,\nwiederherstellen. Funktioniert dies\nnicht, setze das amiibo unter\n{{font id=\"2\"}}{{font id=\"65535\"}} (Systemeinstellungen) ⇒ amiibo\nim HOME-Menü zurück.",
      "EUen": "The amiibo data is corrupted.\n\nYou can restore the data if you have a\nNintendo device that has accessed this\namiibo before.\nYou can also reset the amiibo by\nselecting {{font id=\"2\"}}{{font id=\"65535\"}} (System Settings) ⇒ amiibo\non the HOME Menu.",
      "EUes": "Los datos del amiibo están dañados.\n\nPodrás restaurarlos si dispones de\nun dispositivo de Nintendo con el\nque se hayan leído previamente.\nDe lo contrario, abre el menú HOME,\naccede a la configuración de la\nconsola ({{font id=\"2\"}}{{font id=\"65535\"}}) y selecciona \"amiibo\"\npara formatear el amiibo.",
      "EUfr": "Les données de l'amiibo sont\ncorrompues.\n\nVous pouvez les restaurer si vous\ndisposez d'une console avec laquelle\ncet amiibo a été utilisé. Sinon,\ndans le menu HOME, sélectionnez\n{{font id=\"2\"}}{{font id=\"65535\"}} (paramètres de la console), puis\namiibo, et réinitialisez l'amiibo.",
      "EUit": "I dati dell'amiibo sono danneggiati.\nPuoi recuperarli con il dispositivo\nNintendo usato in precedenza per\naccedere ai dati di questo amiibo.\nPuoi anche ripristinare l'amiibo\nselezionando Impostazioni di\nsistema ({{font id=\"2\"}}{{font id=\"65535\"}}) ⇒ amiibo dal menu HOME.",
      "EUnl": "De amiibo-gegevens zijn beschadigd.\nAls je een Nintendo-systeem hebt\nwaarop de amiibo eerder is gebruikt,\ndan kun je de gegevens herstellen.\nZo niet, formatteer de amiibo dan\nvia {{font id=\"2\"}}{{font id=\"65535\"}} (systeeminstellingen) ⇒ amiibo\nin het HOME-menu.",
      "EUru": "Данные amiibo повреждены.\n\nМожно восстановить данные, если\nу вас есть устройство Nintendo, на\nкотором использовался этот amiibo.\nВы можете также сбросить данные\namiibo, выбрав в меню HOME\n{{font id=\"2\"}}{{font id=\"65535\"}} (Системные настройки) ⇒ amiibo.",
      "JPja": "amiiboのデータが壊れています｡\n\nこのamiiboを使ったことのあるゲーム機本体\nで復旧をためすか、またはHOMEメニューの\n{{font id=\"2\"}}{{font id=\"65535\"}}（設定）→「amiibo」から\namiiboを初期化してください｡",
      "KRko": "The amiibo data is corrupted.\nYou can restore the data if you have a\nNintendo device that has accessed this\namiibo before. You can also reset the\namiibo by returning to the HOME Menu\nand selecting {{font id=\"2\"}}{{font id=\"65535\"}} (System Settings)\n⇒ amiibo.",
      "TWzh": "The amiibo data is corrupted.\nYou can restore the data if you have a\nNintendo device that has accessed this\namiibo before. You can also reset the\namiibo by returning to the HOME Menu\nand selecting {{font id=\"2\"}}{{font id=\"65535\"}} (System Settings)\n⇒ amiibo.",
      "USen": "The amiibo data is corrupted.\nYou can restore the data if you have a\nNintendo device that has accessed this\namiibo before. You can also reset the\namiibo by returning to the HOME Menu\nand selecting {{font id=\"2\"}}{{font id=\"65535\"}} (System Settings)\n⇒ amiibo.",
      "USes": "Los datos del amiibo están dañados.\n\nPodrás restaurarlos si dispones de\nun dispositivo de Nintendo que haya\naccedido previamente al amiibo.\nDe lo contrario, formatea el amiibo.\nPara ello, accede a la configuración\nde la consola ({{font id=\"2\"}}{{font id=\"65535\"}}) desde el menú HOME\ny selecciona \"amiibo\".",
      "USfr": "Les données de l'amiibo sont\ncorrompues.\n\nVous pouvez les restaurer si vous\ndisposez d'une console avec laquelle\ncet amiibo a été utilisé. Sinon,\ndans le menu HOME, sélectionnez\n{{font id=\"2\"}}{{font id=\"65535\"}} (Paramètres de la console), puis\namiibo, et réinitialisez l'amiibo."
    }
  },
  {
    "label": "1680530",
    "attribute": "",
    "locale": {
      "CNzh": "amiiboへオーナーとニックネームを\n登録してください｡",
      "EUde": "Bitte registriere einen Besitzer und\nSpitznamen für dieses amiibo.",
      "EUen": "Please register an owner and\nnickname for this amiibo.",
      "EUes": "Registra un apodo y a\nun propietario para el amiibo.",
      "EUfr": "Choisissez un propriétaire et\nun surnom pour cet amiibo.",
      "EUit": "Salva un proprietario e un nickname\nper questo amiibo.",
      "EUnl": "Stel een eigenaar en een\nnaam in voor deze amiibo.",
      "EUru": "Зарегистрируйте владельца\nи ник для этой фигурки amiibo.",
      "JPja": "amiiboへオーナーとニックネームを\n登録してください｡",
      "KRko": "amiiboへオーナーとニックネームを\n登録してください｡",
      "TWzh": "amiiboへオーナーとニックネームを\n登録してください｡",
      "USen": "Please register an owner and\nnickname for the amiibo.",
      "USes": "Registra un apodo y a\nun propietario para el amiibo.",
      "USfr": "Choisissez un propriétaire et\nun surnom pour cet amiibo."
    }
  },
  {
    "label": "1680550",
    "attribute": "",
    "locale": {
      "CNzh": "他のゲームのデータが\n書き込まれているため\n使用できません｡\n\namiiboのデータを消去して\n書き込めるようにしますか?",
      "EUde": "Auf dem amiibo sind bereits Daten eines\nanderen Softwaretitels vorhanden.\n\nMöchtest du die Daten löschen, um die\nSoftwaredaten dieses Titels auf dem\namiibo zu speichern?",
      "EUen": "This amiibo already has data from\nanother software title written to it.\n\nDo you want to delete that data\nso that this software can write to it?",
      "EUes": "Este amiibo ya contiene\ndatos de otro programa.\n\n¿Quieres borrar esos datos\npara que se puedan escribir\nlos de este programa?",
      "EUfr": "Les données d'un autre jeu sont\nsauvegardées sur cet amiibo,\nrendant son utilisation impossible.\n\nEffacer les données de l'amiibo pour\npermettre la sauvegarde de nouvelles\ndonnées ?",
      "EUit": "Questo amiibo contiene già dei dati\nprovenienti da un altro software.\n\nVuoi cancellare i dati esistenti\nin modo che questo software\npossa scriverne degli altri?",
      "EUnl": "Deze amiibo bevat al gegevens\nvan een andere softwaretitel.\n\nWil je de gegevens wissen,\nzodat deze software gegevens\nop de amiibo kan schrijven?",
      "EUru": "На этой фигурке amiibo уже записаны\nданные другой программы.\n\nУдалить их, чтобы записать\nданные этой программы?",
      "JPja": "他のゲームのデータが\n書き込まれているため\n使用できません｡\n\namiiboのデータを消去して\n書き込めるようにしますか?",
      "KRko": "他のゲームのデータが\n書き込まれているため\n使用できません｡\n\namiiboのデータを消去して\n書き込めるようにしますか?",
      "TWzh": "他のゲームのデータが\n書き込まれているため\n使用できません｡\n\namiiboのデータを消去して\n書き込めるようにしますか?",
      "USen": "This amiibo already has data from\nanother software title written to it.\n\nDo you want to delete that data so\nthat this software can write to it?",
      "USes": "Este amiibo ya contiene\ndatos de otro programa.\n\n¿Quieres borrar esos datos\npara que se puedan escribir\nlos de este programa?",
      "USfr": "Les données d'un autre jeu sont\nsauvegardées sur cet amiibo,\nrendant son utilisation impossible.\n\nEffacer les données de l'amiibo pour\npermettre la sauvegarde de nouvelles\ndonnées?"
    }
  },
  {
    "label": "1680570",
    "attribute": "",
    "locale": {
      "CNzh": "別のamiiboがタッチされました｡",
      "EUde": "Dies ist nicht dasselbe amiibo.",
      "EUen": "This is not the same amiibo.",
      "EUes": "Este no es el mismo amiibo.",
      "EUfr": "Il s'agit d'un autre amiibo.",
      "EUit": "Questo non è lo stesso amiibo.",
      "EUnl": "Dit is niet dezelfde amiibo.",
      "EUru": "Это не та фигурка amiibo.",
      "JPja": "別のamiiboがタッチされました｡",
      "KRko": "別のamiiboがタッチされました｡",
      "TWzh": "別のamiiboがタッチされました｡",
      "USen": "This is not the same amiibo.",
      "USes": "Este no es el mismo amiibo.",
      "USfr": "Il s'agit d'un autre amiibo."
    }
  },
  {
    "label": "1680590",
    "attribute": "",
    "locale": {
      "CNzh": "対応していないamiiboです｡",
      "EUde": "Dieses amiibo wird nicht unterstützt.",
      "EUen": "This amiibo is not supported.",
      "EUes": "Este amiibo no es compatible.",
      "EUfr": "Cet amiibo n'est pas compatible.",
      "EUit": "Questo amiibo non è compatibile.",
      "EUnl": "Deze amiibo wordt niet ondersteund.",
      "EUru": "Эта фигурка amiibo\nне поддерживается.",
      "JPja": "対応していないamiiboです｡",
      "KRko": "対応していないamiiboです｡",
      "TWzh": "対応していないamiiboです｡",
      "USen": "This amiibo is not supported.",
      "USes": "Este amiibo no es compatible.",
      "USfr": "Cet amiibo n'est pas compatible."
    }
  },
  {
    "label": "1681800",
    "attribute": "",
    "locale": {
      "CNzh": "本体保存メモリーに異常があります｡\n本体の電源をOFFにして\nやり直してください｡\n\nこのエラーが何度も発生する場合は\nWii U取扱説明書(冊子)に記載されている\n任天堂サービスセンターに\nお問い合わせください｡",
      "EUde": "Im Zusammenhang mit dem Speicher\nder Wii U-Konsole ist ein Fehler\naufgetreten. Bitte schalte die\nWii U-Konsole aus und versuche\nes anschließend erneut.\n\nWenn das Problem bestehen bleibt,\nwende dich an die entsprechende\nKonsumentenberatung. Die Kontakt-\ndaten findest du in der Wii U-Broschüre\n„Wichtige Informationen“ oder unter\nsupport.nintendo.com.",
      "EUen": "The system memory is corrupted.\nPlease turn off the Wii U console\nand try again.\n\nIf the problem persists, please contact\nyour local customer support centre.\nFor contact details, check the Wii U\nImportant Information booklet or visit\nsupport.nintendo.com.",
      "EUes": "Hay un problema con la memoria\nde la consola. Reinicia la consola\ne inténtalo de nuevo.\n\nSi el problema no se soluciona,\nponte en contacto con el servicio\nde atención al cliente de tu zona.\nPara obtener información de\ncontacto, consulta el folleto\nde información importante o\nvisita support.nintendo.com.",
      "EUfr": "Il y a un problème avec la mémoire de\nla console. Éteignez la console, puis\nréessayez.\n\nSi le problème persiste, contactez\nle service consommateurs Nintendo,\ndont vous trouverez les coordonnées\ndans le livret d'informations importantes\net sur le site support.nintendo.com.",
      "EUit": "La memoria della console è\ndanneggiata. Spegni la console\nWii U e riprova.\n\nSe il problema persiste, contatta\nil servizio clienti. Puoi trovare l'indirizzo\ne il numero di telefono nel libretto\nInformazioni importanti della console\nWii U o nel sito Internet\nsupport.nintendo.com",
      "EUnl": "Het systeemgeheugen is beschadigd.\nZet het Wii U-systeem uit en\nprobeer het opnieuw.\n\nNeem contact op met de klantenservice\nals dit probleem zich blijft voordoen.\nKijk in het Wii U-boekje met belangrijke\ninformatie of op support.nintendo.com\nvoor de juiste contactgegevens.",
      "EUru": "Память системы повреждена.\nВыключите консоль Wii U\nи повторите попытку.\n\nЕсли проблема сохраняется,\nобратитесь в местный центр\nтехнической поддержки клиентов.\nКонтактная информация в буклете\nк Wii U Важная информация или\nна веб-сайте support.nintendo.com.",
      "JPja": "本体保存メモリーに異常があります｡\n本体の電源をOFFにして\nやり直してください｡\n\nこのエラーが何度も発生する場合は\nWii U取扱説明書(冊子)に記載されている\n任天堂サービスセンターに\nお問い合わせください｡",
      "KRko": "本体保存メモリーに異常があります｡\n本体の電源をOFFにして\nやり直してください｡\n\nこのエラーが何度も発生する場合は\nWii U取扱説明書(冊子)に記載されている\n任天堂サービスセンターに\nお問い合わせください｡",
      "TWzh": "本体保存メモリーに異常があります｡\n本体の電源をOFFにして\nやり直してください｡\n\nこのエラーが何度も発生する場合は\nWii U取扱説明書(冊子)に記載されている\n任天堂サービスセンターに\nお問い合わせください｡",
      "USen": "The system memory is corrupted.\n\nPlease turn off the Wii U console\nand try again.\n\nIf the problem persists, please\nmake a note of the error code and\nvisit support.nintendo.com.",
      "USes": "Hay un problema con\nla memoria de la consola.\n\nApaga la consola Wii U e inténtalo\nde nuevo.\n\nSi se vuelve a producir el problema,\nanota el código de error y visita\nsupport.nintendo.com.",
      "USfr": "Il y a un problème avec la mémoire de\nla console. Éteignez la console, puis\nréessayez.\n\nSi le problème persiste, notez\nle code d'erreur et visitez\nle site support.nintendo.com."
    }
  },
  {
    "label": "1682001",
    "attribute": "",
    "locale": {
      "CNzh": "エラーが発生しました｡\nもう一度お試しください｡\n\n書き込み中のエラーの場合は\namiiboのデータが破損した\n可能性があります｡",
      "EUde": "Ein Fehler ist aufgetreten.\nBitte versuche es erneut.\n\nBitte beachte, dass, wenn der Fehler\nbeim Speichern von Daten aufgetreten\nist, möglicherweise amiibo-Daten\nverloren gegangen sind.",
      "EUen": "An error has occurred.\nPlease try again later.\n\nPlease note, if this error occurred\nwhile data was being written,\namiibo data may have been lost.",
      "EUes": "Se ha producido un error.\nInténtalo de nuevo más tarde.\n\nSi el error ha sucedido mientras\nse estaban escribiendo datos,\nes posible que se hayan perdido\nlos datos del amiibo.",
      "EUfr": "Une erreur est survenue.\nRéessayez.\n\nSi cette erreur est survenue en cours\nde sauvegarde, il se peut que certaines\ndonnées de l'amiibo aient été perdues.",
      "EUit": "Si è verificato un errore.\nRiprova più tardi.\n\nSe l'errore è avvenuto durante la fase\ndi scrittura, alcuni dati dell'amiibo\npotrebbero essere andati perduti.",
      "EUnl": "Er is een fout opgetreden.\nProbeer het later nog eens.\n\nLet op: als deze fout is\nopgetreden terwijl er gegevens\nwerden geschreven, zijn er mogelijk\namiibo-gegevens verloren gegaan.",
      "EUru": "Произошла ошибка.\nПовторите попытку позже.\n\nОбратите внимание, если эта ошибка\nпроизошла во время записи данных,\nвозможно, данные amiibo были\nпотеряны.",
      "JPja": "エラーが発生しました｡\nもう一度お試しください｡\n\n書き込み中のエラーの場合は\namiiboのデータが破損した\n可能性があります｡",
      "KRko": "エラーが発生しました｡\nもう一度お試しください｡\n\n書き込み中のエラーの場合は\namiiboのデータが破損した\n可能性があります｡",
      "TWzh": "エラーが発生しました｡\nもう一度お試しください｡\n\n書き込み中のエラーの場合は\namiiboのデータが破損した\n可能性があります｡",
      "USen": "An error has occurred.\n\nPlease try again later.\n\nPlease note, if this error occurred\nwhile data was being written,\namiibo data may have been lost.",
      "USes": "Se ha producido un error.\n\nInténtalo de nuevo más tarde.\n\nSi el error se ha producido mientras\nse estaban escribiendo datos,\nes posible que se hayan perdido\nlos datos del amiibo.",
      "USfr": "Une erreur est survenue.\nRéessayez.\n\nSi cette erreur est survenue en cours\nde sauvegarde, il se peut que certaines\ndonnées de l'amiibo aient été perdues."
    }
  },
  {
    "label": "1999999",
    "attribute": "",
    "locale": {
      "CNzh": "エラーが発生しました｡\n\n本体の電源をOFFにして\nやり直してください｡\n\nやり直しても同じエラーが発生する場合は\nWii U取扱説明書(冊子)に記載されている\n任天堂サービスセンターへ\nお問い合わせください｡",
      "EUde": "Ein Fehler ist aufgetreten.\n\nBitte schalte die Wii U-Konsole aus\nund versuche es anschließend erneut.\n\nWenn das Problem bestehen bleibt,\nwende dich bitte an die entsprechende\nKonsumentenberatung. Die Kontakt-\ndaten findest du in der Wii U-Broschüre\n„Wichtige Informationen“ oder unter\nsupport.nintendo.com.",
      "EUen": "An error has occurred.\n\nPlease turn the power off\nand try again.\n\nIf the problem persists, please contact\nyour local customer support centre.\nFor contact details, check the Wii U\nImportant Information booklet or\nvisit support.nintendo.com.",
      "EUes": "Se ha producido un error.\n\nApaga la consola e inténtalo de nuevo.\n\nSi el problema no se soluciona,\nponte en contacto con el servicio\nde atención al cliente de tu zona.\nPara obtener información de\ncontacto, consulta el folleto\nde información importante o\nvisita support.nintendo.com.",
      "EUfr": "Une erreur est survenue.\n\nÉteignez, puis rallumez la\nconsole Wii U et réessayez.\n\nSi le problème persiste, contactez\nle service consommateurs Nintendo,\ndont vous trouverez les coordonnées\ndans le livret d'informations importantes\net sur le site support.nintendo.com.",
      "EUit": "Si è verificato un errore.\n\nSpegni la console e riprova.\n\nSe il problema persiste, contatta\nil servizio clienti. Puoi trovare\nl'indirizzo e il numero di telefono\nnel libretto Informazioni importanti\ndella console Wii U o nel sito Internet\nsupport.nintendo.com",
      "EUnl": "Er is een fout opgetreden.\n\nZet het Wii U-systeem uit\nen probeer het opnieuw.\n\nNeem contact op met de klantenservice\nals dit probleem zich blijft voordoen.\nKijk in het Wii U-boekje met belangrijke\ninformatie of op support.nintendo.com\nvoor de juiste contactgegevens.",
      "EUru": "Произошла ошибка.\n\nОтключите питание и повторите\nпопытку.\n\nЕсли проблема сохраняется,\nобратитесь в местный центр\nтехнической поддержки клиентов.\nКонтактная информация\nв буклете к Wii U Важная информация\nили на веб-сайте\nsupport.nintendo.com.",
      "JPja": "エラーが発生しました｡\n\n本体の電源をOFFにして\nやり直してください｡\n\nやり直しても同じエラーが発生する場合は\nWii U取扱説明書(冊子)に記載されている\n任天堂サービスセンターへ\nお問い合わせください｡",
      "KRko": "エラーが発生しました｡\n\n本体の電源をOFFにして\nやり直してください｡\n\nやり直しても同じエラーが発生する場合は\nWii U取扱説明書(冊子)に記載されている\n任天堂サービスセンターへ\nお問い合わせください｡",
      "TWzh": "エラーが発生しました｡\n\n本体の電源をOFFにして\nやり直してください｡\n\nやり直しても同じエラーが発生する場合は\nWii U取扱説明書(冊子)に記載されている\n任天堂サービスセンターへ\nお問い合わせください｡",
      "USen": "An error has occurred.\n\nPlease turn off the Wii U console\nand try again.\n\nIf the problem persists, please\nvisit support.nintendo.com.",
      "USes": "Se ha producido un error.\n\nApaga la consola e inténtalo de nuevo.\n\nSi se vuelve a producir el problema,\nvisita support.nintendo.com.",
      "USfr": "Une erreur est survenue.\n\nÉteignez, puis rallumez la\nconsole Wii U et réessayez.\n\nSi le problème persiste, visitez\nle site support.nintendo.com."
    }
  },
  {
    "label": "5000000",
    "attribute": "",
    "locale": {
      "CNzh": "ゼルダの伝説　ブレス オブ ザ ワイルドは\nソフトの更新をしないと\nゲームを始める事はできません。\n\nWii Uメニューに戻ります。",
      "EUde": "The Legend of Zelda: Breath of the Wild\nmuss aktualisiert werden, bevor du das\nSpiel starten kannst.\n\nDu kehrst nun zum Wii U-Menü zurück.",
      "EUen": "You must perform a system update\nto play The Legend of Zelda:\nBreath of the Wild.\n\nReturning to Wii U menu.",
      "EUes": "Es necesario actualizar la consola\npara utilizar The Legend of Zelda:\nBreath of the Wild.\n\nVas a regresar al menú de Wii U.",
      "EUfr": "Vous devez mettre à jour la console\npour pouvoir utiliser The Legend of\nZelda: Breath of the Wild.\n\nVous allez retourner au menu Wii U.",
      "EUit": "Per avviare The Legend of Zelda:\nBreath of the Wild, è necessario\nun aggiornamento del software.\n\nTornerai al menu Wii U.",
      "EUnl": "Je moet een systeemupdate uitvoeren\nom The Legend of Zelda: Breath of the\nWild te kunnen spelen.\n\nJe keert nu terug naar het Wii U-menu.",
      "EUru": "Для запуска\nThe Legend of Zelda: Breath of the Wild\nнеобходимо выполнить обновление\nсистемы.\n\nВозврат в меню Wii U.",
      "JPja": "ゼルダの伝説　ブレス オブ ザ ワイルドは\nソフトの更新をしないと\nゲームを始める事はできません。\n\nWii Uメニューに戻ります。",
      "KRko": "ゼルダの伝説　ブレス オブ ザ ワイルドは\nソフトの更新をしないと\nゲームを始める事はできません。\n\nWii Uメニューに戻ります。",
      "TWzh": "ゼルダの伝説　ブレス オブ ザ ワイルドは\nソフトの更新をしないと\nゲームを始める事はできません。\n\nWii Uメニューに戻ります。",
      "USen": "You must perform a system update\nto play The Legend of Zelda:\nBreath of the Wild.\n\nReturning to Wii U menu.",
      "USes": "Es necesario actualizar la consola\npara utilizar The Legend of Zelda:\nBreath of the Wild.\n\nVas a regresar al menú de Wii U.",
      "USfr": "Vous devez mettre à jour la console\npour pouvoir utiliser The Legend of\nZelda: Breath of the Wild.\n\nVous allez retourner au menu Wii U."
    }
  },
  {
    "label": "Btn101",
    "attribute": "",
    "locale": {
      "CNzh": "OK",
      "EUde": "O.K.",
      "EUen": "OK",
      "EUes": "Aceptar",
      "EUfr": "OK",
      "EUit": "OK",
      "EUnl": "Oké",
      "EUru": "OK",
      "JPja": "OK",
      "KRko": "OK",
      "TWzh": "OK",
      "USen": "OK",
      "USes": "Aceptar",
      "USfr": "OK"
    }
  },
  {
    "label": "Btn150",
    "attribute": "",
    "locale": {
      "CNzh": "Close",
      "EUde": "Beenden",
      "EUen": "Close",
      "EUes": "Cerrar",
      "EUfr": "Quitter",
      "EUit": "Chiudi",
      "EUnl": "Sluiten",
      "EUru": "Закрыть",
      "JPja": "終了する",
      "KRko": "Close",
      "TWzh": "Close",
      "USen": "Close",
      "USes": "Cerrar",
      "USfr": "Quitter"
    }
  },
  {
    "label": "Btn206_L",
    "attribute": "",
    "locale": {
      "CNzh": "Cancel",
      "EUde": "Abbrechen",
      "EUen": "Cancel",
      "EUes": "Cancelar",
      "EUfr": "Annuler",
      "EUit": "Annulla",
      "EUnl": "Nee",
      "EUru": "Отмена",
      "JPja": "やめる",
      "KRko": "Cancel",
      "TWzh": "Cancel",
      "USen": "Cancel",
      "USes": "Cancelar",
      "USfr": "Annuler"
    }
  },
  {
    "label": "Btn206_R",
    "attribute": "",
    "locale": {
      "CNzh": "Restore",
      "EUde": "Wiederherstellen",
      "EUen": "Restore",
      "EUes": "Restaurar",
      "EUfr": "Restaurer",
      "EUit": "Ripristina",
      "EUnl": "Ja",
      "EUru": "Восстановить",
      "JPja": "復旧する",
      "KRko": "Restore",
      "TWzh": "Restore",
      "USen": "Restore",
      "USes": "Restaurar",
      "USfr": "Restaurer"
    }
  },
  {
    "label": "Btn207_L",
    "attribute": "",
    "locale": {
      "CNzh": "Cancel",
      "EUde": "Abbrechen",
      "EUen": "Cancel",
      "EUes": "Cancelar",
      "EUfr": "Annuler",
      "EUit": "Annulla",
      "EUnl": "Annuleren",
      "EUru": "Отмена",
      "JPja": "やめる",
      "KRko": "Cancel",
      "TWzh": "Cancel",
      "USen": "Cancel",
      "USes": "Cancelar",
      "USfr": "Annuler"
    }
  },
  {
    "label": "Btn207_R",
    "attribute": "",
    "locale": {
      "CNzh": "Register",
      "EUde": "Registrieren",
      "EUen": "Register",
      "EUes": "Registrar",
      "EUfr": "Enregistrer",
      "EUit": "Registra",
      "EUnl": "Instellen",
      "EUru": "Зарегистрировать",
      "JPja": "登録する",
      "KRko": "Register",
      "TWzh": "Register",
      "USen": "Register",
      "USes": "Registrar",
      "USfr": "Enregistrer"
    }
  },
  {
    "label": "Btn208_L",
    "attribute": "",
    "locale": {
      "CNzh": "Cancel",
      "EUde": "Abbrechen",
      "EUen": "Cancel",
      "EUes": "Cancelar",
      "EUfr": "Annuler",
      "EUit": "Annulla",
      "EUnl": "Annuleren",
      "EUru": "Отмена",
      "JPja": "やめる",
      "KRko": "Cancel",
      "TWzh": "Cancel",
      "USen": "Cancel",
      "USes": "Cancelar",
      "USfr": "Annuler"
    }
  },
  {
    "label": "Btn208_R",
    "attribute": "",
    "locale": {
      "CNzh": "Delete",
      "EUde": "Löschen",
      "EUen": "Delete",
      "EUes": "Borrar",
      "EUfr": "Effacer",
      "EUit": "Cancella",
      "EUnl": "Wissen",
      "EUru": "Удалить",
      "JPja": "消去する",
      "KRko": "Delete",
      "TWzh": "Delete",
      "USen": "Delete",
      "USes": "Borrar",
      "USfr": "Effacer"
    }
  },
  {
    "label": "Title",
    "attribute": "",
    "locale": {
      "CNzh": "エラーコード：",
      "EUde": "Fehler-Code: ",
      "EUen": "Error Code: ",
      "EUes": "Código de error: ",
      "EUfr": "Code d'erreur : ",
      "EUit": "Codice di errore: ",
      "EUnl": "Foutcode: ",
      "EUru": "Код ошибки: ",
      "JPja": "エラーコード：",
      "KRko": "에러 코드:",
      "TWzh": "エラーコード：",
      "USen": "Error Code:",
      "USes": "Código de error: ",
      "USfr": "Code d'erreur : "
    }
  }
]