[
  {
    "label": "Npc_Kakariko001_Talk000",
    "attribute": "0x0C000000",
    "locale": {
      "CNzh": "{{fun_0003_0001 arg=\"0x0000\"}}这是我们一族代代守护至今的{{color id=\"2\"}}宝珠{{color id=\"65535\"}}……\n就算是你，也不能随便碰触。",
      "EUde": "{{fun_0003_0001 arg=\"0x0000\"}}Dieses {{color id=\"2\"}}Juwel {{color id=\"65535\"}}bewahrt unser Stamm\nseit Generationen...{{delay1}} Nicht einmal du\ndarfst es so einfach berühren.",
      "EUen": "{{fun_0003_0001 arg=\"0x0000\"}}That {{color id=\"2\"}}Sheikah heirloom {{color id=\"65535\"}}has been guarded\nby our tribe for generations. I must\nrequest that you not touch it...\nEven for an esteemed guest such as\nyourself, there are certain rules that\nmust be respected.",
      "EUes": "{{fun_0003_0001 arg=\"0x0000\"}}Nuestra tribu ha velado por esa {{color id=\"2\"}}reliquia{{color id=\"65535\"}}\ndurante generaciones.{{pageBreak}}Aunque seas quien eres, no puedo\npermitir que la toques.",
      "EUfr": "{{fun_0003_0001 arg=\"0x0000\"}}Cet {{color id=\"2\"}}orbe{{color id=\"65535\"}} est sous la protection de notre\npeuple depuis des générations. Je suis\ndésolée, mais tu ne peux pas le toucher.",
      "EUit": "{{fun_0003_0001 arg=\"0x0000\"}}Quella {{color id=\"2\"}}sfera {{color id=\"65535\"}}è sotto la nostra\nprotezione da generazioni. Nessuno può\npermettersi di toccarla. Nemmeno tu.",
      "EUnl": "{{fun_0003_0001 arg=\"0x0000\"}}Die {{color id=\"2\"}}steen {{color id=\"65535\"}}wordt al generaties door ons\nvolk bewaakt. Zelfs een geëerde gast\nmag er niet zomaar aanzitten.",
      "EUru": "{{fun_0003_0001 arg=\"0x0000\"}}Наш народ уже много веков хранит\n{{color id=\"2\"}}древнюю сферу{{color id=\"65535\"}}.{{delay1}} Даже ты не должен\nк ней прикасаться.",
      "JPja": "{{fun_0003_0001 arg=\"0x0000\"}}それは {{ruby charSpan=\"1\" value=\"わ\"}}我が{{ruby charSpan=\"2\" value=\"いちぞく\"}}一族が {{ruby charSpan=\"3\" value=\"だいだいまも\"}}代々守ってきた{{color id=\"2\"}}{{ruby charSpan=\"2\" value=\"ほうじゅ\"}}宝珠{{color id=\"65535\"}}…\nいくら{{ruby charSpan=\"2\" value=\"そなた\"}}其方でも {{ruby charSpan=\"2\" value=\"きやす\"}}気安く{{ruby charSpan=\"1\" value=\"ふ\"}}触れることは{{ruby charSpan=\"1\" value=\"ゆる\"}}許されぬぞ",
      "KRko": "{{fun_0003_0001 arg=\"0x0000\"}}그건 우리 일족이 대대로 지켜 온 {{color id=\"2\"}}보주{{color id=\"65535\"}}…\n아무리 그대라 해도 섣불리 건드려서는 안 돼",
      "TWzh": "{{fun_0003_0001 arg=\"0x0000\"}}這是我們一族代代守護至今的{{color id=\"2\"}}寶珠{{color id=\"65535\"}}……\n就算是你，也不能隨便碰觸。",
      "USen": "{{fun_0003_0001 arg=\"0x0000\"}}That {{color id=\"2\"}}Sheikah heirloom {{color id=\"65535\"}}has been guarded\nby our tribe for generations. I must\nrequest that you not touch it...\nEven for an esteemed guest such as\nyourself, there are certain rules that\nmust be respected.",
      "USes": "{{fun_0003_0001 arg=\"0x0000\"}}Nuestra tribu ha velado por esa {{color id=\"2\"}}reliquia{{color id=\"65535\"}}\ndurante generaciones.{{pageBreak}}Aunque seas quien eres, no puedo\npermitir que la toques.",
      "USfr": "{{fun_0003_0001 arg=\"0x0000\"}}Cet {{color id=\"2\"}}orbe{{color id=\"65535\"}} est sous la protection de notre\npeuple depuis des générations. Je suis\ndésolée, mais tu ne peux pas le toucher."
    }
  }
]