[
  {
    "label": "talk00",
    "attribute": "0x7C000000",
    "locale": {
      "CNzh": "{{fun_0003_0001 arg=\"0x0102\"}}嗨！{{delay2}}\n在这种地方居然能碰到人，真是难得。\n我们正在进行\n野生动物的生态调查。\n听说这个地方有别处见不到的\n{{color id=\"0\"}}巨大马匹{{color id=\"65535\"}}栖息。\n为了作调查，我们才来到这里。{{fun_0001_000A arg=\"0x020001CD\"}}",
      "EUde": "{{fun_0003_0001 arg=\"0x0102\"}}Sei gegrüßt!{{delay2}} Hier kommt nicht alle\nTage jemand vorbei!{{pageBreak}}Deswegen bietet sich diese Gegend \nauch an, um ungestört Tiere zu\nerforschen.{{pageBreak}}Außerdem soll es hier {{color id=\"0\"}}riesige Pferde{{color id=\"65535\"}}\ngeben, die sonst nirgends vorkommen.{{pageBreak}}Und dieser Sache gehn wir natürlich\nnach!{{fun_0001_000A arg=\"0x020001CD\"}}",
      "EUen": "{{fun_0003_0001 arg=\"0x0102\"}}Hey there!{{delay2}} It's not every day that I see\nsomeone all the way out here!\n\nWe're doing an ecological study on the\nwild animals in the area.\n\nWe'd heard that there was a {{color id=\"0\"}}giant horse{{color id=\"65535\"}}\nliving in this region.{{delay2}} Apparently it\ncan't be found anywhere else...\nThat was all we needed to hear!\nWe headed this way to investigate\nright away!{{fun_0001_000A arg=\"0x020001CD\"}}",
      "EUes": "{{fun_0003_0001 arg=\"0x0102\"}}¡Vaya, hola!{{delay2}} No suelen venir muchos\nviajeros por aquí. ¿Estás de paso?{{pageBreak}}Mi compañero y yo estamos realizando\nun estudio sobre la fauna de esta zona.{{pageBreak}}Especialmente sobre un {{color id=\"0\"}}caballo gigante{{color id=\"65535\"}}\nque ha sido visto por aquí.{{fun_0001_000A arg=\"0x020001CD\"}}",
      "EUfr": "{{fun_0003_0001 arg=\"0x0102\"}}Tiens donc, salut !{{delay2}} C'est plutôt rare\nde croiser quelqu'un, par ici... Tu te\npromènes ?\nNous menons une étude écologique sur\nles animaux sauvages de la région.\n\nEt plus particulièrement, sur le {{color id=\"0\"}}cheval\ngéant{{color id=\"65535\"}} qui vivrait quelque part dans cette\nzone... On en a jamais vu ailleurs !\nNous devons absolument documenter\nson existence.{{fun_0001_000A arg=\"0x020001CD\"}}",
      "EUit": "{{fun_0003_0001 arg=\"0x0102\"}}Salve!{{delay2}} Non si vedono quasi mai facce\nnuove da queste parti.\n\nIo sono qui per una ricerca zoologica\nsulla fauna selvatica.\n\nHo sentito dire che in questa zona\nvive un {{color id=\"0\"}}cavallo gigante{{color id=\"65535\"}}, un esemplare\nstraordinario, introvabile altrove.\nE così sono venuto qui per indagare.{{fun_0001_000A arg=\"0x020001CD\"}}",
      "EUnl": "{{fun_0003_0001 arg=\"0x0102\"}}Hallo!{{delay2}} Wat leuk om jou te zien, hier\nkomen niet zo vaak mensen voorbij!{{pageBreak}}Daarom is dit de ideale omgeving voor\nons onderzoek naar wilde dieren.{{pageBreak}}Om precies te zijn hebben we gehoord\ndat er hier een {{color id=\"0\"}}reuzenpaard{{color id=\"65535\"}} leeft, dat\nalleen hier kan worden gevonden.\nDat willen we natuurlijk onderzoeken!{{fun_0001_000A arg=\"0x020001CD\"}}",
      "EUru": "{{fun_0003_0001 arg=\"0x0102\"}}Приветствую!{{delay2}} Редко в этих\nкраях кого-нибудь встретишь!{{pageBreak}}Поэтому у нас есть возможность\nспокойно изучать местную фауну.{{pageBreak}}По слухам, здесь обитают {{color id=\"0\"}}огромные\nлошади{{color id=\"65535\"}}, каких больше нигде нет.{{pageBreak}}По этой причине и приехали.{{fun_0001_000A arg=\"0x020001CD\"}}",
      "JPja": "{{fun_0003_0001 arg=\"0x0102\"}}やあやあ！{{delay2}}\nこんなところで {{ruby charSpan=\"1\" value=\"ひと\"}}人に{{ruby charSpan=\"1\" value=\"あ\"}}会うなんて {{ruby charSpan=\"1\" value=\"めずら\"}}珍しいな\n{{ruby charSpan=\"1\" value=\"ぼく\"}}僕たちは\n{{ruby charSpan=\"4\" value=\"やせいどうぶつ\"}}野生動物の {{ruby charSpan=\"4\" value=\"せいたいちょうさ\"}}生態調査をしているものでね\nこの{{ruby charSpan=\"2\" value=\"ちほう\"}}地方には {{ruby charSpan=\"1\" value=\"ほか\"}}他では{{ruby charSpan=\"1\" value=\"み\"}}見られない\n{{color id=\"0\"}}{{ruby charSpan=\"2\" value=\"きょだい\"}}巨大な{{ruby charSpan=\"1\" value=\"うま\"}}馬{{color id=\"65535\"}}が {{ruby charSpan=\"2\" value=\"せいそく\"}}生息しているって{{ruby charSpan=\"1\" value=\"はなし\"}}話を{{ruby charSpan=\"1\" value=\"き\"}}聞いて\nその{{ruby charSpan=\"2\" value=\"ちょうさ\"}}調査のために ここまで{{ruby charSpan=\"1\" value=\"き\"}}来たのさ{{fun_0001_000A arg=\"0x020001CD\"}}",
      "KRko": "{{fun_0003_0001 arg=\"0x0102\"}}안녕!{{delay2}}\n이런 곳에서 사람을 다 만나네\n우리는\n야생동물 생태조사를 하고 있어\n이 지방에는 다른 곳에서 볼 수 없는\n{{color id=\"0\"}}거대한 말{{color id=\"65535\"}}이 서식한다는 소문을 듣고\n그 말을 조사하기 위해 여기까지 왔지{{fun_0001_000A arg=\"0x020001CD\"}}",
      "TWzh": "{{fun_0003_0001 arg=\"0x0102\"}}嗨！{{delay2}}\n在這種地方居然能碰到人，真難得啊。\n我們正在進行\n野生動物的生態調查。\n聽說這個地方有別處見不到的\n{{color id=\"0\"}}巨大馬匹{{color id=\"65535\"}}棲息，\n為了進行調查，我們才來到這裡。{{fun_0001_000A arg=\"0x020001CD\"}}",
      "USen": "{{fun_0003_0001 arg=\"0x0102\"}}Hey there!{{delay2}} It's not every day that I see\nsomeone all the way out here!\n\nWe're doing an ecological study on the\nwild animals in the area.\n\nWe'd heard that there was a {{color id=\"0\"}}giant horse{{color id=\"65535\"}}\nliving in this region.{{delay2}} Apparently it\ncan't be found anywhere else...\nThat was all we needed to hear!\nWe headed this way to investigate\nright away!{{fun_0001_000A arg=\"0x020001CD\"}}",
      "USes": "{{fun_0003_0001 arg=\"0x0102\"}}¡Vaya, hola!{{delay2}} No suelen venir muchos\nviajeros por aquí. ¿Vienes de paso?{{pageBreak}}Me encuentro realizando un estudio\nsobre la fauna de esta zona.{{pageBreak}}Especialmente sobre el {{color id=\"0\"}}caballo gigante{{color id=\"65535\"}}\nque habita por aquí. Es un ejemplar\núnico en el mundo.{{fun_0001_000A arg=\"0x020001CD\"}}",
      "USfr": "{{fun_0003_0001 arg=\"0x0102\"}}Tiens donc, salut!{{delay2}} C'est plutôt rare\nde croiser quelqu'un, par ici...\nTu te promènes?\nNous menons une étude écologique sur\nles animaux sauvages de la région.\n\nEt plus particulièrement, sur le {{color id=\"0\"}}cheval\ngéant{{color id=\"65535\"}} qui vivrait quelque part dans les\nparages... On n'en a jamais vu ailleurs!\nNous devons absolument documenter\nson existence.{{fun_0001_000A arg=\"0x020001CD\"}}"
    }
  },
  {
    "label": "talk04",
    "attribute": "0xA0000000",
    "locale": {
      "CNzh": "{{fun_0003_0001 arg=\"0x0004\"}}就是身子巨大的马啦。{{delay1}}\n很有可能是其他地方没有的特有品种。\n但前方多有怪物出没……{{delay2}}\n调查迟迟没有进展，我正为此头痛不已。{{fun_0001_000A arg=\"0x030001CD\"}}",
      "EUde": "{{fun_0003_0001 arg=\"0x0004\"}}Hier sollen riesige Pferde gesichtet\nworden sein...{{delay1}} Gut möglich, dass es\ndiese Spezies nur in diesem Gebiet gibt.{{pageBreak}}Allerdings wimmelt es hier auch von\nMonstern... {{delay2}}Und wir kommen einfach\nnicht weiter mit unseren Forschungen.{{fun_0001_000A arg=\"0x030001CD\"}}",
      "EUen": "{{fun_0003_0001 arg=\"0x0004\"}}The really big horse in this region is\nlikely part of a rare, local species.\n\nHowever, with all the monsters roaming\naround, {{delay1}}we simply can't go any farther.{{delay2}}\nTo be so close to discovery...{{fun_0001_000A arg=\"0x030001CD\"}}",
      "EUes": "{{fun_0003_0001 arg=\"0x0004\"}}Dicen que es enorme.{{delay1}} Creemos que se\ntrata de una especie muy poco común\nque solo se encuentra en esta región.\nPor desgracia, no podemos seguir con\nnuestro estudio porque la zona está\nplagada de monstruos.{{fun_0001_000A arg=\"0x030001CD\"}}",
      "EUfr": "{{fun_0003_0001 arg=\"0x0004\"}}Tout ce que l'on sait, c'est qu'il a une\ntaille impressionnante, et qu'il n'a été\nvu que dans cette région.\nMalheureusement, la poursuite de notre\nétude va s'avérer difficile avec tous les\nmonstres qui vivent ici...{{fun_0001_000A arg=\"0x030001CD\"}}",
      "EUit": "{{fun_0003_0001 arg=\"0x0004\"}}Sì, dovrebbe essere un cavallo di\ntaglia molto più grande del normale.{{delay1}}\nCredo sia una specie autoctona.\nEh, purtroppo però più avanti la zona è\ninfestata dai mostri...{{delay2}} e così per me è\nimpossibile proseguire con la ricerca.{{fun_0001_000A arg=\"0x030001CD\"}}",
      "EUnl": "{{fun_0003_0001 arg=\"0x0004\"}}Het schijnt een enorm paard te zijn.{{delay1}} Het\nlijkt om een inheemse soort te gaan die\nenkel in deze regio te vinden is.\nMaar er zijn hier ook veel monsters...{{delay2}} Wij\nkunnen daardoor niet doorgaan met ons\nonderzoek en dat is bijzonder irritant.{{fun_0001_000A arg=\"0x030001CD\"}}",
      "EUru": "{{fun_0003_0001 arg=\"0x0004\"}}Говорят, лошади очень большие.{{delay1}}\nСкорее всего, это местный вид,\nи больше таких нигде не найти.{{pageBreak}}Правда, монстров здесь много...{{delay2}} Из-за\nних мы не можем продолжать поиски.{{fun_0001_000A arg=\"0x030001CD\"}}",
      "JPja": "{{fun_0003_0001 arg=\"0x0004\"}}それはもう {{ruby charSpan=\"1\" value=\"おお\"}}大きな{{ruby charSpan=\"1\" value=\"うま\"}}馬だって{{ruby charSpan=\"1\" value=\"はなし\"}}話だ{{delay1}}\n{{ruby charSpan=\"1\" value=\"ほか\"}}他の{{ruby charSpan=\"2\" value=\"ちほう\"}}地方にはいない {{ruby charSpan=\"3\" value=\"こゆうしゅ\"}}固有種の{{ruby charSpan=\"3\" value=\"かのうせい\"}}可能性が{{ruby charSpan=\"1\" value=\"たか\"}}高い\nしかし この{{ruby charSpan=\"1\" value=\"さき\"}}先は {{ruby charSpan=\"2\" value=\"まもの\"}}魔物が{{ruby charSpan=\"1\" value=\"おお\"}}多くてね…{{delay2}}\nなかなか {{ruby charSpan=\"2\" value=\"ちょうさ\"}}調査が{{ruby charSpan=\"1\" value=\"すす\"}}進まずに {{ruby charSpan=\"1\" value=\"こま\"}}困っているのさ{{fun_0001_000A arg=\"0x030001CD\"}}",
      "KRko": "{{fun_0003_0001 arg=\"0x0004\"}}그야말로 엄청나게 큰 말이래{{delay1}}\n다른 지방에는 없는 고유종일 가능성이 커\n그런데 이 앞에 몬스터가 너무 많더라고…{{delay2}}\n좀처럼 조사 진행이 안 돼서 곤란하네{{fun_0001_000A arg=\"0x030001CD\"}}",
      "TWzh": "{{fun_0003_0001 arg=\"0x0004\"}}就是身子巨大的馬啦。{{delay1}}\n這種馬很可能是其他地方看不到的特殊品種，\n但前方有很多怪物出沒……{{delay2}}\n因此調查遲遲沒有進展，我正頭痛著呢。{{fun_0001_000A arg=\"0x030001CD\"}}",
      "USen": "{{fun_0003_0001 arg=\"0x0004\"}}The really big horse in this region is\nlikely part of a rare, local species.\n\nHowever, with all the monsters roaming\naround, {{delay1}}we simply can't go any farther.{{delay2}}\nTo be so close to discovery...{{fun_0001_000A arg=\"0x030001CD\"}}",
      "USes": "{{fun_0003_0001 arg=\"0x0004\"}}Dicen que es enorme.{{delay1}} Creemos que se\ntrata de una especie muy poco común\nque solo se encuentra en esta región.\nPor desgracia, no podemos seguir con\nnuestro estudio porque la zona está\nplagada de monstruos.{{fun_0001_000A arg=\"0x030001CD\"}}",
      "USfr": "{{fun_0003_0001 arg=\"0x0004\"}}Tout ce que l'on sait, c'est qu'il a une\ntaille impressionnante, et qu'il n'a été\nvu que dans cette région.\nMalheureusement, la poursuite de notre\nétude va s'avérer difficile avec tous les\nmonstres qui vivent ici...{{fun_0001_000A arg=\"0x030001CD\"}}"
    }
  },
  {
    "label": "talk13",
    "attribute": "0xC4000000",
    "locale": {
      "CNzh": "{{fun_0003_0001 arg=\"0x0B10\"}}没错……{{delay1}}\n尤其还有长得像马的妖怪……{{delay1}}\n一开始还以为那就是我们在找的巨大马匹，\n靠近后却吃足了苦头。\n{{fun_0003_0001 arg=\"0x0000\"}}看来你似乎是冒险者吧？{{delay1}}\n而且好像挺厉害的。\n怎么样？要不要帮我们\n捕捉{{color id=\"0\"}}巨大马匹{{color id=\"65535\"}}呢？{{fun_0001_0004 arg=\"0x000001000001\"}}",
      "EUde": "{{fun_0003_0001 arg=\"0x0B10\"}}Oh ja...{{delay1}} Da war sogar ein Monster, das\nwie ein Pferd ausgesehen hat...{{pageBreak}}Ich habe es erst für eines der riesigen\nPferde gehalten, die wir suchen, und\nmich ihm genähert.{{pageBreak}}Den Anblick werde ich wahrscheinlich\nniemals vergessen...{{pageBreak}}{{fun_0003_0001 arg=\"0x0000\"}}Apropos Anblick, du bist ein Abenteurer,\noder?{{delay1}} Du siehst recht kampferprobt aus.{{pageBreak}}Könntest du vielleicht eines dieser\n{{color id=\"0\"}}riesigen Pferde{{color id=\"65535\"}} für uns fangen?{{fun_0001_0004 arg=\"0x000001000001\"}}",
      "EUen": "{{fun_0003_0001 arg=\"0x0B10\"}}That's right...{{delay1}} There was even a monster\nthat looked quite a lot like a horse...\n\nI approached it, thinking at first that it\nwas the {{color id=\"0\"}}giant horse{{color id=\"65535\"}} we've been looking\nfor,{{delay2}} but... {{delay1}}Oh, it was terrible...\n{{fun_0003_0001 arg=\"0x0000\"}}Just from looking at you, I'd guess that\nyou're an adventurer, right?\nYou certainly look strong.\nHrm...{{delay2}} Hey, how would you like to go and\ncatch a {{color id=\"0\"}}giant horse{{color id=\"65535\"}} for us?{{fun_0001_0004 arg=\"0x000001000001\"}}",
      "EUes": "{{fun_0003_0001 arg=\"0x0B10\"}}Ya lo creo...{{delay1}} Hay uno en concreto con\naspecto de caballo que es muy violento.{{pageBreak}}La primera vez que lo vi, me acerqué\npensando que era un caballo gigante...{{delay1}}\n¡Qué mal rato pasé! Casi ni lo cuento.\n{{fun_0003_0001 arg=\"0x0000\"}}Es demasiado peligroso para nosotros\nseguir adelante.{{delay1}} Tú en cambio pareces\nun chico fuerte y enérgico...{{delay1}} Hum...\nSi te pidiera que atraparas un {{color id=\"0\"}}caballo\ngigante{{color id=\"65535\"}} por nosotros, ¿lo harías?{{fun_0001_0004 arg=\"0x000001000001\"}}",
      "EUfr": "{{fun_0003_0001 arg=\"0x0B10\"}}Pour sûr !{{delay1}} Un, en particulier, qui\nressemble assez à un cheval...{{delay1}}\n\nJe me suis approché sciemment, croyant\ntenir là notre spécimen... Bien mal m'en\na pris.\n{{fun_0003_0001 arg=\"0x0000\"}}Mais dis-moi, tu as tout à fait la fière\nallure d'un aventurier sans peur, je me\ntrompe ?\nQue dirais-tu d'essayer d'attraper\nce {{color id=\"0\"}}cheval géant{{color id=\"65535\"}} à notre place ?{{fun_0001_0004 arg=\"0x000001000001\"}}",
      "EUit": "{{fun_0003_0001 arg=\"0x0B10\"}}Ecco vedi,{{delay1}} c'è un mostro in particolare\nche assomiglia proprio a un cavallo...{{delay1}}\n\nLa prima volta che ne ho incontrato uno,\npensavo fosse un cavallo gigante, ma\nè stata un'esperienza terribile.\n{{fun_0003_0001 arg=\"0x0000\"}}Hai l'aria di essere un avventuriero,\no mi sbaglio?{{delay1}} Sembri uno che sa\ndifendersi bene.\nSenti, ti interesserebbe andare a\ncatturare un {{color id=\"0\"}}cavallo gigante{{color id=\"65535\"}} al posto\nmio?{{fun_0001_0004 arg=\"0x000001000001\"}}",
      "EUnl": "{{fun_0003_0001 arg=\"0x0B10\"}}Dat klopt.{{delay1}} Er is zelfs een monster dat op\neen paard lijkt!{{pageBreak}}Ik dacht eerst dat het een reuzenpaard\nwas en probeerde het te benaderen.\nMaar wat ik toen zag, vergeet ik nooit...\n{{fun_0003_0001 arg=\"0x0000\"}}Maar jij lijkt me een avonturier.{{delay1}} En je ziet\ner ook best sterk uit. Zou jij het\n{{color id=\"0\"}}reuzenpaard{{color id=\"65535\"}} voor ons willen vangen?{{fun_0001_0004 arg=\"0x000001000001\"}}",
      "EUru": "{{fun_0003_0001 arg=\"0x0B10\"}}Да-да.{{delay1}} Мы видели даже одного\nмонстра, похожего на лошадь.{{pageBreak}}Я подумал, что он и есть лошадь,\nкоторую мы ищем, подошел и...{{delay1}}\nТот момент я никогда не забуду.{{pageBreak}}{{fun_0003_0001 arg=\"0x0000\"}}Ты, видимо, путешественник?{{delay1}}\nКажешься довольно опытным.{{pageBreak}}Слушай, может, ты поймаешь\nдля нас {{color id=\"0\"}}огромную лошадь{{color id=\"65535\"}}?{{fun_0001_0004 arg=\"0x000001000001\"}}",
      "JPja": "{{fun_0003_0001 arg=\"0x0B10\"}}そう…{{delay1}}\n{{ruby charSpan=\"1\" value=\"とく\"}}特に {{ruby charSpan=\"1\" value=\"うま\"}}馬の{{ruby charSpan=\"1\" value=\"ば\"}}化け{{ruby charSpan=\"1\" value=\"もの\"}}物みたいなのが いてね…{{delay1}}\n{{ruby charSpan=\"2\" value=\"さいしょ\"}}最初は そいつが {{ruby charSpan=\"1\" value=\"さが\"}}探している{{ruby charSpan=\"3\" value=\"きょだいば\"}}巨大馬だと{{ruby charSpan=\"1\" value=\"おも\"}}思って\n{{ruby charSpan=\"1\" value=\"ちか\"}}近づいたら ひどい{{ruby charSpan=\"1\" value=\"め\"}}目にあったよ\n{{fun_0003_0001 arg=\"0x0000\"}}{{ruby charSpan=\"1\" value=\"み\"}}見たところ {{ruby charSpan=\"1\" value=\"きみ\"}}君は {{ruby charSpan=\"3\" value=\"ぼうけんしゃ\"}}冒険者だろう？{{delay1}}\nなかなか {{ruby charSpan=\"1\" value=\"つよ\"}}強そうだ\nどうだろう {{ruby charSpan=\"1\" value=\"ぼく\"}}僕たちの{{ruby charSpan=\"1\" value=\"か\"}}代わりに\n{{color id=\"0\"}}{{ruby charSpan=\"3\" value=\"きょだいば\"}}巨大馬{{color id=\"65535\"}}を {{ruby charSpan=\"1\" value=\"つか\"}}捕まえてきてくれないかな？{{fun_0001_0004 arg=\"0x000001000001\"}}",
      "KRko": "{{fun_0003_0001 arg=\"0x0B10\"}}맞아…{{delay1}}\n특히 괴물 말 같은 녀석이 있는데…{{delay1}}\n처음에는 그 녀석이 우리가 찾던 거대마인 줄 알고\n가까이 갔다가 험한 꼴을 당했지\n{{fun_0003_0001 arg=\"0x0000\"}}보아하니 너는 모험가 같은데{{delay1}}\n꽤나 강할 것 같군\n어때? 우리 대신\n{{color id=\"0\"}}거대마{{color id=\"65535\"}}를 잡아와 주지 않을래?{{fun_0001_0004 arg=\"0x000001000001\"}}",
      "TWzh": "{{fun_0003_0001 arg=\"0x0B10\"}}沒錯……{{delay1}}\n尤其還有長得像馬的怪物……{{delay1}}\n一開始還以為那就是我們在找的巨大馬匹，\n靠近後卻吃足了苦頭。\n{{fun_0003_0001 arg=\"0x0000\"}}看來你似乎是冒險者吧？{{delay1}}\n而且好像挺厲害的。\n怎麼樣？要不要幫我們\n捕捉{{color id=\"0\"}}巨大馬匹{{color id=\"65535\"}}呢？{{fun_0001_0004 arg=\"0x000001000001\"}}",
      "USen": "{{fun_0003_0001 arg=\"0x0B10\"}}That's right...{{delay1}} There was even a monster\nthat looked quite a lot like a horse...\n\nI approached it, thinking at first that it\nwas the {{color id=\"0\"}}giant horse{{color id=\"65535\"}} we've been looking\nfor,{{delay2}} but... {{delay1}}Oh, it was terrible...\n{{fun_0003_0001 arg=\"0x0000\"}}Just from looking at you, I'd guess that\nyou're an adventurer, right?\nYou certainly look strong.\nHrm...{{delay2}} Hey, how would you like to go and\ncatch a {{color id=\"0\"}}giant horse{{color id=\"65535\"}} for us?{{fun_0001_0004 arg=\"0x000001000001\"}}",
      "USes": "{{fun_0003_0001 arg=\"0x0B10\"}}Muchísimos...{{delay1}} Hay uno en concreto con\naspecto de caballo que es muy violento.{{pageBreak}}La primera vez que lo vi, me acerqué\npensando que era el caballo gigante...{{delay1}}\n¡Qué mal rato pasé! Casi ni lo cuento.\n{{fun_0003_0001 arg=\"0x0000\"}}Es demasiado peligroso para nosotros\nseguir adelante.{{delay1}} Tú en cambio pareces\nun chico fuerte y enérgico...{{delay1}} Hum...\nSi te pidiera que atraparas al {{color id=\"0\"}}caballo\ngigante{{color id=\"65535\"}} por nosotros, ¿lo harías?{{fun_0001_0004 arg=\"0x000001000001\"}}",
      "USfr": "{{fun_0003_0001 arg=\"0x0B10\"}}En plein ça!{{delay1}} Un, en particulier, qui\nressemble assez à un cheval...{{delay1}}\n\nJe me suis approché sciemment, croyant\ntenir là notre spécimen... Bien mal m'en\na pris.\n{{fun_0003_0001 arg=\"0x0000\"}}Mais dis-moi, tu as tout à fait la fière\nallure d'un aventurier sans peur, je me\ntrompe?\nQue dirais-tu d'essayer d'attraper\nce {{color id=\"0\"}}cheval géant{{color id=\"65535\"}} à notre place?{{fun_0001_0004 arg=\"0x000001000001\"}}"
    }
  },
  {
    "label": "talk02",
    "attribute": "0xE8000000",
    "locale": {
      "CNzh": "{{fun_0003_0001 arg=\"0x0606\"}}怎么样？要不要协助我们\n进行{{color id=\"0\"}}巨大马匹{{color id=\"65535\"}}的调查？{{delay3}}{{fun_0001_0004 arg=\"0x000001000001\"}}",
      "EUde": "{{fun_0003_0001 arg=\"0x0606\"}}Nun? Hilfst du uns, die {{color id=\"0\"}}riesigen Pferde{{color id=\"65535\"}}\nzu erforschen?{{delay3}}{{fun_0001_0004 arg=\"0x000001000001\"}}",
      "EUen": "{{fun_0003_0001 arg=\"0x0606\"}}Well? What do you say?{{delay1}} Are you willing\nto help us investigate these stories of a\n{{color id=\"0\"}}giant horse{{color id=\"65535\"}}?{{fun_0001_0004 arg=\"0x000001000001\"}}",
      "EUes": "{{fun_0003_0001 arg=\"0x0606\"}}De verdad que necesitamos ayuda.\n¿No podrías echarnos una mano\ny atrapar un {{color id=\"0\"}}caballo gigante{{color id=\"65535\"}}?{{fun_0001_0004 arg=\"0x000001000001\"}}",
      "EUfr": "{{fun_0003_0001 arg=\"0x0606\"}}Alors ? Acceptes-tu de nous aider\nà trouver ce {{color id=\"0\"}}cheval géant{{color id=\"65535\"}} ?{{delay3}}{{fun_0001_0004 arg=\"0x000001000001\"}}",
      "EUit": "{{fun_0003_0001 arg=\"0x0606\"}}Allora?{{delay3}} Mi aiuti con la mia ricerca\nsul {{color id=\"0\"}}cavallo gigante{{color id=\"65535\"}}?{{delay3}}{{fun_0001_0004 arg=\"0x000001000001\"}}",
      "EUnl": "{{fun_0003_0001 arg=\"0x0606\"}}En? Help je ons bij ons onderzoek naar\nde {{color id=\"0\"}}reuzenpaarden{{color id=\"65535\"}}?{{fun_0001_0004 arg=\"0x000001000001\"}}",
      "EUru": "{{fun_0003_0001 arg=\"0x0606\"}}Ну что, ты поможешь нам\nнайти {{color id=\"0\"}}огромную лошадь{{color id=\"65535\"}}?{{fun_0001_0004 arg=\"0x000001000001\"}}",
      "JPja": "{{fun_0003_0001 arg=\"0x0606\"}}どうだい？ {{color id=\"0\"}}{{ruby charSpan=\"3\" value=\"きょだいば\"}}巨大馬{{color id=\"65535\"}}の{{ruby charSpan=\"2\" value=\"ちょうさ\"}}調査\n{{ruby charSpan=\"2\" value=\"きょうりょく\"}}協力してくれる{{ruby charSpan=\"1\" value=\"き\"}}気になったかい？{{delay3}}{{fun_0001_0004 arg=\"0x000001000001\"}}",
      "KRko": "{{fun_0003_0001 arg=\"0x0606\"}}어때? {{color id=\"0\"}}거대마{{color id=\"65535\"}} 조사에\n협력해 줄 마음이 생겼어?{{delay3}}{{fun_0001_0004 arg=\"0x000001000001\"}}",
      "TWzh": "{{fun_0003_0001 arg=\"0x0606\"}}怎麼樣？要不要協助我們\n進行{{color id=\"0\"}}巨大馬匹{{color id=\"65535\"}}的調查呢？{{delay3}}{{fun_0001_0004 arg=\"0x000001000001\"}}",
      "USen": "{{fun_0003_0001 arg=\"0x0606\"}}Well? What do you say?{{delay1}} Are you willing\nto help us investigate these stories of a\n{{color id=\"0\"}}giant horse{{color id=\"65535\"}}?{{fun_0001_0004 arg=\"0x000001000001\"}}",
      "USes": "{{fun_0003_0001 arg=\"0x0606\"}}De verdad que necesito ayuda.\n¿No podrías ayudarme a conseguir\nun {{color id=\"0\"}}caballo gigante{{color id=\"65535\"}}?{{fun_0001_0004 arg=\"0x000001000001\"}}",
      "USfr": "{{fun_0003_0001 arg=\"0x0606\"}}Alors? Acceptes-tu de nous aider\nà trouver ce {{color id=\"0\"}}cheval géant{{color id=\"65535\"}}?{{delay3}}{{fun_0001_0004 arg=\"0x000001000001\"}}"
    }
  },
  {
    "label": "talk06",
    "attribute": "0x0C010000",
    "locale": {
      "CNzh": "{{fun_0003_0001 arg=\"0x0700\"}}帮大忙了！",
      "EUde": "{{fun_0003_0001 arg=\"0x0700\"}}Du bist unsere Rettung!",
      "EUen": "{{fun_0003_0001 arg=\"0x0700\"}}Ah, you're a lifesaver!",
      "EUes": "{{fun_0003_0001 arg=\"0x0700\"}}¿De verdad? ¡Muchas gracias!",
      "EUfr": "{{fun_0003_0001 arg=\"0x0700\"}}C'est vrai ? Tu nous sauves la vie !",
      "EUit": "{{fun_0003_0001 arg=\"0x0700\"}}Che fortuna averti incontrato!",
      "EUnl": "{{fun_0003_0001 arg=\"0x0700\"}}Onze redder in nood!",
      "EUru": "{{fun_0003_0001 arg=\"0x0700\"}}Спасибо тебе за помощь!",
      "JPja": "{{fun_0003_0001 arg=\"0x0700\"}}{{ruby charSpan=\"1\" value=\"たす\"}}助かるよ！",
      "KRko": "{{fun_0003_0001 arg=\"0x0700\"}}정말 고마워!",
      "TWzh": "{{fun_0003_0001 arg=\"0x0700\"}}幫大忙了！",
      "USen": "{{fun_0003_0001 arg=\"0x0700\"}}Ah, you're a lifesaver!",
      "USes": "{{fun_0003_0001 arg=\"0x0700\"}}¿De verdad? ¡Muchas gracias!",
      "USfr": "{{fun_0003_0001 arg=\"0x0700\"}}C'est vrai? Tu nous sauves la vie!"
    }
  },
  {
    "label": "talk07",
    "attribute": "0x30010000",
    "locale": {
      "CNzh": "{{fun_0003_0001 arg=\"0x030C\"}}是吗，那就没办法了……{{delay2}}\n\n如果你改变心意的话，记得跟我说一声！",
      "EUde": "{{fun_0003_0001 arg=\"0x030C\"}}Nun gut, zu schade.{{pageBreak}}Falls du uns doch noch bei unseren\nForschungen unterstützen möchtest,\nlass es mich bitte wissen.",
      "EUen": "{{fun_0003_0001 arg=\"0x030C\"}}I see. Well... Oh, well, then...{{delay2}}\n\n\nIf you change your mind, come back and\ntalk to me again!",
      "EUes": "{{fun_0003_0001 arg=\"0x030C\"}}Vaya...{{delay2}} Yo pensaba que ver un caballo\ngigante sería muy emocionante para\ncualquiera, pero en fin...\nAvísame si cambias de idea, por favor.\nNo podemos abandonar nuestro estudio\nahora.",
      "EUfr": "{{fun_0003_0001 arg=\"0x030C\"}}Oh, je vois. Eh bien, tant pis.{{delay2}}\n\n\nSi jamais tu changes d'avis, n'hésite\npas à revenir me voir, surtout !",
      "EUit": "{{fun_0003_0001 arg=\"0x030C\"}}Ma va', non importa...{{delay2}}\n\n\nPerò se dovessi cambiare idea, torna\ne ne riparliamo.",
      "EUnl": "{{fun_0003_0001 arg=\"0x030C\"}}Ik begrijp het. Jammer...{{pageBreak}}Laat het mij alsjeblieft weten als je van\ngedachten verandert.",
      "EUru": "{{fun_0003_0001 arg=\"0x030C\"}}Ну ладно. Жаль, конечно...{{pageBreak}}Если все-таки захочешь помочь,\nдай мне, пожалуйста, знать.",
      "JPja": "{{fun_0003_0001 arg=\"0x030C\"}}そうか {{ruby charSpan=\"2\" value=\"しかた\"}}仕方ないな…{{delay2}}\n\nまあ {{ruby charSpan=\"1\" value=\"き\"}}気が{{ruby charSpan=\"1\" value=\"む\"}}向いたら\nまた {{ruby charSpan=\"1\" value=\"こえ\"}}声をかけてくれよ！",
      "KRko": "{{fun_0003_0001 arg=\"0x030C\"}}그래, 어쩔 수 없지…{{delay2}}\n\n마음이 바뀌면\n언제든 말 걸어 줘!",
      "TWzh": "{{fun_0003_0001 arg=\"0x030C\"}}是嗎，那就沒辦法了……{{delay2}}\n\n如果你改變心意的話，\n記得跟我說一聲！",
      "USen": "{{fun_0003_0001 arg=\"0x030C\"}}I see. Well... Oh, well, then...{{delay2}}\n\n\nIf you change your mind, come back and\ntalk to me again!",
      "USes": "{{fun_0003_0001 arg=\"0x030C\"}}Vaya...{{delay2}} Yo pensaba que ver un caballo\ngigante sería muy emocionante para\ncualquiera, pero en fin...\nAvísame si cambias de parecer, por favor.\nNo puedo abandonar este estudio ahora.",
      "USfr": "{{fun_0003_0001 arg=\"0x030C\"}}Oh, je vois. Eh bien, tant pis.{{delay2}}\n\n\nSi jamais tu changes d'avis, n'hésite\npas à revenir me voir, surtout!"
    }
  },
  {
    "label": "talk01",
    "attribute": "0x54010000",
    "locale": {
      "CNzh": "{{fun_0003_0001 arg=\"0x0A00\"}}这匹马……{{delay1}}还真大啊……{{delay1}}\n\n我从来没见过这么大的马！\n这确实是特有品种没错。",
      "EUde": "{{fun_0003_0001 arg=\"0x0A00\"}}Dieses Pferd ist...{{delay1}} riesig!{{pageBreak}}Ich habe noch nie ein so großes Pferd\ngesehen! Eindeutig eine Spezies, die\nes nur hier gibt!",
      "EUen": "{{fun_0003_0001 arg=\"0x0A00\"}}That horse...{{delay1}} It's huge...{{delay1}}\n\n\nI've never seen one that big! That is\ndefinitely an endemic species!",
      "EUes": "{{fun_0003_0001 arg=\"0x0A00\"}}Este caballo...{{delay1}} ¡es gigantesco!{{delay1}}\n¡Los rumores no mentían!{{pageBreak}}Nunca había visto un caballo tan grande.\n¡Debe de ser una especie autóctona\nde esta región!",
      "EUfr": "{{fun_0003_0001 arg=\"0x0A00\"}}Ça alors...{{delay1}} Quelle bête extraordinaire !{{delay1}}\n\n\nJe n'avais jamais vu un cheval aussi\ngrand ! C'est une nouvelle espèce,\naucun doute là-dessus !",
      "EUit": "{{fun_0003_0001 arg=\"0x0A00\"}}Quel cavallo è...{{delay1}} enorme!{{delay1}}\n\n\nNon ne ho mai visto uno così prima\nd'ora! Sì, dev'essere sicuramente una\nspecie autoctona.",
      "EUnl": "{{fun_0003_0001 arg=\"0x0A00\"}}Dat paard...{{delay1}} is gigantisch...{{pageBreak}}Ik heb nog nooit zo'n groot paard\ngezien! Het is beslist een inheemse\nsoort!",
      "EUru": "{{fun_0003_0001 arg=\"0x0A00\"}}Какая она...{{delay1}} огромная!{{pageBreak}}Я еще никогда не видел такой\nгромадины! Это точно местный вид!",
      "JPja": "{{fun_0003_0001 arg=\"0x0A00\"}}その{{ruby charSpan=\"1\" value=\"うま\"}}馬は…{{delay1}} でかいな…{{delay1}}\n\n{{ruby charSpan=\"1\" value=\"み\"}}見たことのない{{ruby charSpan=\"1\" value=\"おお\"}}大きさだよ！\nこれは {{ruby charSpan=\"2\" value=\"かんぜん\"}}完全に{{ruby charSpan=\"3\" value=\"こゆうしゅ\"}}固有種だね",
      "KRko": "{{fun_0003_0001 arg=\"0x0A00\"}}그 말…{{delay1}} 진짜 크다…{{delay1}}\n\n본 적 없는 크기야!\n이건 완전 고유종이네",
      "TWzh": "{{fun_0003_0001 arg=\"0x0A00\"}}這匹馬……{{delay1}}還真大啊……{{delay1}}\n\n我從來沒見過這麼大的馬！\n這確實是特殊品種沒錯。",
      "USen": "{{fun_0003_0001 arg=\"0x0A00\"}}That horse...{{delay1}} It's huge...{{delay1}}\n\n\nI've never seen one that big! That is\ndefinitely an endemic species!",
      "USes": "{{fun_0003_0001 arg=\"0x0A00\"}}Este caballo...{{delay1}} ¡es gigantesco!{{delay1}}\n¡Los rumores no mentían!{{pageBreak}}Nunca había visto un caballo tan grande.\n¡Debe de ser una especie nativa de esta\nregión!",
      "USfr": "{{fun_0003_0001 arg=\"0x0A00\"}}Ça alors...{{delay1}} Quelle bête extraordinaire!{{delay1}}\n\n\nJe n'avais jamais vu un cheval aussi\ngrand! C'est une nouvelle espèce,\naucun doute là-dessus!"
    }
  },
  {
    "label": "talk15",
    "attribute": "0x78010000",
    "locale": {
      "CNzh": "{{fun_0003_0001 arg=\"0x0000\"}}不好意思，这匹马\n可以让我仔细调查一番吗？{{fun_0001_000A arg=\"0x040001CD\"}}",
      "EUde": "{{fun_0003_0001 arg=\"0x0000\"}}Verzeihung, aber darf ich mal einen Blick\nauf dieses Pferd werfen?{{fun_0001_000A arg=\"0x040001CD\"}}",
      "EUen": "{{fun_0003_0001 arg=\"0x0000\"}}Sorry, but can I take a good look\nat that horse?{{fun_0001_000A arg=\"0x040001CD\"}}",
      "EUes": "{{fun_0003_0001 arg=\"0x0000\"}}¿Podría examinarlo más de cerca?{{fun_0001_000A arg=\"0x040001CD\"}}",
      "EUfr": "{{fun_0003_0001 arg=\"0x0000\"}}Excuse-moi, tu veux bien que je\nl'examine d'un peu plus près ?{{fun_0001_000A arg=\"0x040001CD\"}}",
      "EUit": "{{fun_0003_0001 arg=\"0x0000\"}}Posso dare un'occhiata al cavallo?{{fun_0001_000A arg=\"0x040001CD\"}}",
      "EUnl": "{{fun_0003_0001 arg=\"0x0000\"}}Zou ik even een blik mogen werpen op\ndat paard?{{fun_0001_000A arg=\"0x040001CD\"}}",
      "EUru": "{{fun_0003_0001 arg=\"0x0000\"}}Можно я на нее поближе взгляну?{{fun_0001_000A arg=\"0x040001CD\"}}",
      "JPja": "{{fun_0003_0001 arg=\"0x0000\"}}すまないが その{{ruby charSpan=\"1\" value=\"うま\"}}馬を\nじっくり{{ruby charSpan=\"1\" value=\"しら\"}}調べさせてくれないか？{{fun_0001_000A arg=\"0x040001CD\"}}",
      "KRko": "{{fun_0003_0001 arg=\"0x0000\"}}미안하지만 그 말\n천천히 조사 좀 해도 될까?{{fun_0001_000A arg=\"0x040001CD\"}}",
      "TWzh": "{{fun_0003_0001 arg=\"0x0000\"}}不好意思，這匹馬\n可以讓我仔細調查一番嗎？{{fun_0001_000A arg=\"0x040001CD\"}}",
      "USen": "{{fun_0003_0001 arg=\"0x0000\"}}Sorry, but can I take a good look\nat that horse?{{fun_0001_000A arg=\"0x040001CD\"}}",
      "USes": "{{fun_0003_0001 arg=\"0x0000\"}}¿Podría examinarlo más de cerca?{{fun_0001_000A arg=\"0x040001CD\"}}",
      "USfr": "{{fun_0003_0001 arg=\"0x0000\"}}Excuse-moi, tu veux bien que je\nl'examine d'un peu plus près?{{fun_0001_000A arg=\"0x040001CD\"}}"
    }
  },
  {
    "label": "talk16",
    "attribute": "0x9C010000",
    "locale": {
      "CNzh": "{{fun_0003_0001 arg=\"0x0000\"}}那我就不客气了。",
      "EUde": "{{fun_0003_0001 arg=\"0x0000\"}}Dann wollen wir mal...",
      "EUen": "{{fun_0003_0001 arg=\"0x0000\"}}Thanks, I'll be right back.",
      "EUes": "{{fun_0003_0001 arg=\"0x0000\"}}Con permiso.",
      "EUfr": "{{fun_0003_0001 arg=\"0x0000\"}}Bien, alors allons-y...",
      "EUit": "{{fun_0003_0001 arg=\"0x0000\"}}Con permesso.",
      "EUnl": "{{fun_0003_0001 arg=\"0x0000\"}}Eens kijken...",
      "EUru": "{{fun_0003_0001 arg=\"0x0000\"}}Спасибо, я мигом!",
      "JPja": "{{fun_0003_0001 arg=\"0x0000\"}}じゃあ {{ruby charSpan=\"2\" value=\"しつれい\"}}失礼するよ",
      "KRko": "{{fun_0003_0001 arg=\"0x0000\"}}그럼 실례할게",
      "TWzh": "{{fun_0003_0001 arg=\"0x0000\"}}那我就不客氣了。",
      "USen": "{{fun_0003_0001 arg=\"0x0000\"}}Thanks, I'll be right back.",
      "USes": "{{fun_0003_0001 arg=\"0x0000\"}}Con permiso.",
      "USfr": "{{fun_0003_0001 arg=\"0x0000\"}}Bien, alors allons-y..."
    }
  },
  {
    "label": "talk17",
    "attribute": "0xC0010000",
    "locale": {
      "CNzh": "{{fun_0003_0001 arg=\"0x0006\"}}嗯嗯，{{delay3}}这可真不得了。{{autoAdvance frames=\"60\"}}",
      "EUde": "{{fun_0003_0001 arg=\"0x0006\"}}Mhm, mhm...{{delay3}} Beeindruckend.{{autoAdvance frames=\"60\"}}",
      "EUen": "{{fun_0003_0001 arg=\"0x0006\"}}Hrmmm.{{delay3}} This is impressive.{{autoAdvance frames=\"60\"}}",
      "EUes": "{{fun_0003_0001 arg=\"0x0006\"}}Hum... Ajá...{{delay3}} Es impresionante.{{autoAdvance frames=\"60\"}}",
      "EUfr": "{{fun_0003_0001 arg=\"0x0006\"}}Hmm...{{delay3}} Impressionnant !{{autoAdvance frames=\"60\"}}",
      "EUit": "{{fun_0003_0001 arg=\"0x0006\"}}Uhm...{{delay3}} fantastico...{{autoAdvance frames=\"60\"}}",
      "EUnl": "{{fun_0003_0001 arg=\"0x0006\"}}Aha.{{delay3}} Indrukwekkend.{{autoAdvance frames=\"60\"}}",
      "EUru": "{{fun_0003_0001 arg=\"0x0006\"}}Ничего себе...{{autoAdvance frames=\"60\"}}",
      "JPja": "{{fun_0003_0001 arg=\"0x0006\"}}ふむふむ{{delay3}} これはすごい{{autoAdvance frames=\"60\"}}",
      "KRko": "{{fun_0003_0001 arg=\"0x0006\"}}흠흠,{{delay3}} 이거 굉장한걸{{autoAdvance frames=\"60\"}}",
      "TWzh": "{{fun_0003_0001 arg=\"0x0006\"}}嗯嗯，{{delay3}}這可真不得了。{{autoAdvance frames=\"60\"}}",
      "USen": "{{fun_0003_0001 arg=\"0x0006\"}}Hrmmm.{{delay3}} This is impressive.{{autoAdvance frames=\"60\"}}",
      "USes": "{{fun_0003_0001 arg=\"0x0006\"}}Hum... Ajá...{{delay3}} Es impresionante.{{autoAdvance frames=\"60\"}}",
      "USfr": "{{fun_0003_0001 arg=\"0x0006\"}}Hmm...{{delay3}} Impressionnant!{{autoAdvance frames=\"60\"}}"
    }
  },
  {
    "label": "talk19",
    "attribute": "0xE4010000",
    "locale": {
      "CNzh": "{{fun_0003_0001 arg=\"0x000B\"}}哦哦～真是有趣啊。{{autoAdvance frames=\"90\"}}",
      "EUde": "{{fun_0003_0001 arg=\"0x000B\"}}Wie außerordentlich interessant!{{autoAdvance frames=\"90\"}}",
      "EUen": "{{fun_0003_0001 arg=\"0x000B\"}}Ah, hmm.{{delay3}} Quite interesting.{{autoAdvance frames=\"90\"}}",
      "EUes": "{{fun_0003_0001 arg=\"0x000B\"}}Hum... Oh... Qué interesante.{{autoAdvance frames=\"90\"}}",
      "EUfr": "{{fun_0003_0001 arg=\"0x000B\"}}C'est tout à fait fascinant !{{autoAdvance frames=\"90\"}}",
      "EUit": "{{fun_0003_0001 arg=\"0x000B\"}}Oooh... molto interessante...{{autoAdvance frames=\"90\"}}",
      "EUnl": "{{fun_0003_0001 arg=\"0x000B\"}}Hmm. Interessant.{{autoAdvance frames=\"90\"}}",
      "EUru": "{{fun_0003_0001 arg=\"0x000B\"}}Хм, очень интересно!{{autoAdvance frames=\"90\"}}",
      "JPja": "{{fun_0003_0001 arg=\"0x000B\"}}ほほ～ {{ruby charSpan=\"1\" value=\"じつ\"}}実に{{ruby charSpan=\"3\" value=\"きょうみぶか\"}}興味深い{{autoAdvance frames=\"90\"}}",
      "KRko": "{{fun_0003_0001 arg=\"0x000B\"}}호오~ 실로 흥미롭군{{autoAdvance frames=\"90\"}}",
      "TWzh": "{{fun_0003_0001 arg=\"0x000B\"}}哦哦～真是有趣啊。{{autoAdvance frames=\"90\"}}",
      "USen": "{{fun_0003_0001 arg=\"0x000B\"}}Ah, hmm.{{delay3}} Quite interesting.{{autoAdvance frames=\"90\"}}",
      "USes": "{{fun_0003_0001 arg=\"0x000B\"}}Hum... Oh... Qué interesante.{{autoAdvance frames=\"90\"}}",
      "USfr": "{{fun_0003_0001 arg=\"0x000B\"}}C'est tout à fait fascinant!{{autoAdvance frames=\"90\"}}"
    }
  },
  {
    "label": "talk18",
    "attribute": "0x08020000",
    "locale": {
      "CNzh": "{{fun_0003_0001 arg=\"0x0100\"}}哎呀～调查这么多应该够了，\n我也获得了必要的信息。\n果然能亲眼确认就是不一样。\n这都多亏你的帮忙！",
      "EUde": "{{fun_0003_0001 arg=\"0x0100\"}}Ich bin wirklich mehr als zufrieden.{{delay1}} So\nviele Informationen!{{pageBreak}}Es ist doch was ganz anderes, etwas mit\neigenen Augen zu sehen!{{delay1}} Danke, dass du\nmir das ermöglicht hast!",
      "EUen": "{{fun_0003_0001 arg=\"0x0100\"}}Wow. With this much info, I can feel my\nspirit for discovery murmuring in\ncontentment.\nIt's definitely different, seeing something\nwith your own eyes rather than just\nreading about it. Thank you!",
      "EUes": "{{fun_0003_0001 arg=\"0x0100\"}}Creo que ya tenemos los datos que\nnecesitábamos para terminar nuestra\ninvestigación.\nEs todo un privilegio poder trabajar\ncon un ejemplar delante. ¡Así da gusto!",
      "EUfr": "{{fun_0003_0001 arg=\"0x0100\"}}C'est merveilleux ! J'ai pu récolter des\ndonnées très précieuses grâce à toi !\n\nRien ne vaut l'examen direct du\nspécimen, c'est évident. Tu m'as\nrendu un grand service !",
      "EUit": "{{fun_0003_0001 arg=\"0x0100\"}}Benissimo, le informazioni che ho\nraccolto dovrebbero bastare.\n\nPoter controllare con i propri occhi\nè un'altra cosa... e tutto grazie a te!",
      "EUnl": "{{fun_0003_0001 arg=\"0x0100\"}}Ik ben tevreden met de informatie die ik\nheb kunnen verzamelen.{{pageBreak}}Dankzij jou heb ik het eindelijk eens met\neigen ogen kunnen zien.",
      "EUru": "{{fun_0003_0001 arg=\"0x0100\"}}Все, я доволен!{{delay1}} Одно дело — читать\nо чем-то в книгах, другое — увидеть\nсобственными глазами!",
      "JPja": "{{fun_0003_0001 arg=\"0x0100\"}}いやあ これだけ{{ruby charSpan=\"1\" value=\"しら\"}}調べられれば{{ruby charSpan=\"2\" value=\"じゅうぶん\"}}十分だ\n{{ruby charSpan=\"2\" value=\"ひつよう\"}}必要な{{ruby charSpan=\"2\" value=\"じょうほう\"}}情報は しっかり{{ruby charSpan=\"1\" value=\"と\"}}取れた\nやはり {{ruby charSpan=\"2\" value=\"ちょくせつ\"}}直接この{{ruby charSpan=\"1\" value=\"め\"}}目で{{ruby charSpan=\"2\" value=\"かくにん\"}}確認できると{{ruby charSpan=\"1\" value=\"ちが\"}}違うね\n{{ruby charSpan=\"1\" value=\"すべ\"}}全て{{ruby charSpan=\"1\" value=\"きみ\"}}君のおかげだよ！",
      "KRko": "{{fun_0003_0001 arg=\"0x0100\"}}이 정도 조사했으면 충분해\n필요한 정보는 다 얻었으니까\n역시 직접 눈으로 확인하니 다르네\n다 네 덕분이야!",
      "TWzh": "{{fun_0003_0001 arg=\"0x0100\"}}哎呀～調查這麼多應該夠了，\n必要資訊都確實掌握住囉。\n果然能親眼確認就是不一樣。\n這都多虧你的幫忙！",
      "USen": "{{fun_0003_0001 arg=\"0x0100\"}}Wow. With this much info, I can feel my\nspirit for discovery murmuring in\ncontentment.\nIt's definitely different, seeing something\nwith your own eyes rather than just\nreading about it. Thank you!",
      "USes": "{{fun_0003_0001 arg=\"0x0100\"}}Creo que ya tengo los datos que\nnecesitaba para terminar esta\ninvestigación.\nEs todo un privilegio poder trabajar\ncon un ejemplar presente. ¡Así da gusto!",
      "USfr": "{{fun_0003_0001 arg=\"0x0100\"}}C'est merveilleux! J'ai pu récolter des\ndonnées très précieuses grâce à toi!\n\nRien ne vaut l'examen direct du\nspécimen, c'est évident. Tu m'as\nrendu un grand service!"
    }
  },
  {
    "label": "talk14",
    "attribute": "0x2C020000",
    "locale": {
      "CNzh": "{{fun_0003_0001 arg=\"0x0004\"}}哎呀～{{delay1}}我们正在\n进行野生动物的生态调查。\n我们是为了调查巨大马匹，\n才专程来到这里的。\n{{fun_0003_0001 arg=\"0x0100\"}}但还好你帮了大忙！{{delay2}}\n让我们不费吹灰之力就见到了巨大马匹。",
      "EUde": "{{fun_0003_0001 arg=\"0x0004\"}}Wir erforschen die Tierwelt hier.{{pageBreak}}Ganz besonders interessieren wir uns\nfür die riesigen Pferde, von denen wir\ngehört haben.{{pageBreak}}{{fun_0003_0001 arg=\"0x0100\"}}Und dank dir haben wir eines zu Gesicht\nbekommen, ohne groß danach suchen\nzu müssen!",
      "EUen": "{{fun_0003_0001 arg=\"0x0004\"}}Hey,{{delay1}} we're out here doing an\necological study on the wildlife of\nthis area.\nSpecifically, we're here to look into\nreports of a giant horse.\n\n{{fun_0003_0001 arg=\"0x0100\"}}And you brought it right to us!{{delay2}} Thanks\nto you, we were able to meet the giant\nhorse without having to search!",
      "EUes": "{{fun_0003_0001 arg=\"0x0004\"}}Mis compañeros y yo estamos realizando\nun estudio sobre la fauna de esta zona.{{pageBreak}}Especialmente sobre un caballo gigante\nque ha sido visto por aquí.{{pageBreak}}{{fun_0003_0001 arg=\"0x0100\"}}¡Y resulta que tú nos lo has traído\nhasta aquí!{{delay1}} Es un ejemplar espléndido.\n¡Menuda suerte!",
      "EUfr": "{{fun_0003_0001 arg=\"0x0004\"}}Eh bien, nous menons une étude\nécologique sur les animaux sauvages\nde la région.\nEt plus particulièrement, sur le cheval\ngéant qui vit dans cette zone, bien sûr !\n\n{{fun_0003_0001 arg=\"0x0100\"}}Ton concours a été primordial, bravo !\nGrâce à toi, nous avons pu observer le\ncheval géant sans lever le petit doigt !",
      "EUit": "{{fun_0003_0001 arg=\"0x0004\"}}Dunque,{{delay1}} la nostra è una ricerca\nzoologica sulla fauna selvatica\ndi questa zona.\nCome avrai capito, l'oggetto della nostra\nindagine sono i cavalli giganti.\n\n{{fun_0003_0001 arg=\"0x0100\"}}E tu ci sei stato di grande aiuto! Grazie\na te abbiamo trovato un esemplare di\ncavallo gigante senza troppa fatica!",
      "EUnl": "{{fun_0003_0001 arg=\"0x0004\"}}Nou,{{delay1}} we doen onderzoek naar de wilde\ndieren hier. De reuzenpaarden mogen\ndaarbij natuurlijk niet ontbreken.\n{{fun_0003_0001 arg=\"0x0100\"}}Je hebt ons echt enorm geholpen!{{delay2}}\nDankzij jou werd het kinderspel om een\nreuzenpaard nader te bestuderen.",
      "EUru": "{{fun_0003_0001 arg=\"0x0004\"}}Мы изучаем местную фауну и пришли\nсюда как раз ради огромной лошади.{{pageBreak}}{{fun_0003_0001 arg=\"0x0100\"}}Благодаря тебе нам даже искать\nее не пришлось!{{delay1}} Ты нас здорово\nвыручил.",
      "JPja": "{{fun_0003_0001 arg=\"0x0004\"}}いやあ{{delay1}} {{ruby charSpan=\"1\" value=\"ぼく\"}}僕たちは\n{{ruby charSpan=\"2\" value=\"やせい\"}}野生{{ruby charSpan=\"2\" value=\"どうぶつ\"}}動物の {{ruby charSpan=\"2\" value=\"せいたい\"}}生態{{ruby charSpan=\"2\" value=\"ちょうさ\"}}調査をしているものでね\nまさに この{{ruby charSpan=\"2\" value=\"きょだい\"}}巨大{{ruby charSpan=\"1\" value=\"ば\"}}馬の{{ruby charSpan=\"2\" value=\"ちょうさ\"}}調査のために\nここまで{{ruby charSpan=\"1\" value=\"き\"}}来たのさ\n{{fun_0003_0001 arg=\"0x0100\"}}しかし {{ruby charSpan=\"1\" value=\"たす\"}}助かったよ！{{delay2}}\n{{ruby charSpan=\"1\" value=\"きみ\"}}君のおかげで {{ruby charSpan=\"2\" value=\"くろう\"}}苦労せず {{ruby charSpan=\"2\" value=\"きょだい\"}}巨大{{ruby charSpan=\"1\" value=\"ば\"}}馬に{{ruby charSpan=\"1\" value=\"あ\"}}会えた",
      "KRko": "{{fun_0003_0001 arg=\"0x0004\"}}아니,{{delay1}} 우리는\n야생동물의 생태를 조사하고 있는데\n바로 이 거대마 조사를 위해\n여기까지 온 거야\n{{fun_0003_0001 arg=\"0x0100\"}}도움이 많이 됐어!{{delay2}}\n네 덕분에 쉽게 거대마를 만났으니까",
      "TWzh": "{{fun_0003_0001 arg=\"0x0004\"}}哎呀～{{delay1}}我們正在\n進行野生動物的生態調查。\n我們是為了調查巨大馬匹，\n才專程來到這裡的。\n{{fun_0003_0001 arg=\"0x0100\"}}但還好你幫了大忙！{{delay2}}\n讓我們不費吹灰之力就能見到巨大馬匹。",
      "USen": "{{fun_0003_0001 arg=\"0x0004\"}}Hey,{{delay1}} we're out here doing an\necological study on the wildlife of\nthis area.\nSpecifically, we're here to look into\nreports of a giant horse.\n\n{{fun_0003_0001 arg=\"0x0100\"}}And you brought it right to us!{{delay2}} Thanks\nto you, we were able to meet the giant\nhorse without having to search!",
      "USes": "{{fun_0003_0001 arg=\"0x0004\"}}Me encuentro realizando un estudio\nsobre la fauna de esta zona.{{pageBreak}}Especialmente sobre un caballo gigante\nque ha sido visto por aquí.{{pageBreak}}{{fun_0003_0001 arg=\"0x0100\"}}¡Y resulta que tú lo has traído hasta aquí!{{delay1}}\nEs un ejemplar espléndido y majestuoso.\n¡Qué suerte la mía!",
      "USfr": "{{fun_0003_0001 arg=\"0x0004\"}}Eh bien, nous menons une étude\nécologique sur les animaux sauvages\nde la région.\nEt plus particulièrement, sur le cheval\ngéant qui vit dans cette zone, bien sûr!\n\n{{fun_0003_0001 arg=\"0x0100\"}}Ton concours a été primordial, bravo!\nGrâce à toi, nous avons pu observer le\ncheval géant sans lever le petit doigt!"
    }
  },
  {
    "label": "talk03",
    "attribute": "0x50020000",
    "locale": {
      "CNzh": "{{fun_0003_0001 arg=\"0x0004\"}}这是感谢你协助调查的谢礼！",
      "EUde": "{{fun_0003_0001 arg=\"0x0004\"}}Danke für deine Hilfe bei unseren\nForschungen!",
      "EUen": "{{fun_0003_0001 arg=\"0x0004\"}}This is to thank you for helping with our\ninvestigation!",
      "EUes": "{{fun_0003_0001 arg=\"0x0004\"}}Acepta esto como muestra de nuestra\ngratitud. ¡Y además te mencionaremos\nen nuestro estudio por tu labor!",
      "EUfr": "{{fun_0003_0001 arg=\"0x0004\"}}Voilà pour toi, en te remerciant de ta\ncollaboration !",
      "EUit": "{{fun_0003_0001 arg=\"0x0004\"}}Prendi, è un piccolo pensiero per\nringraziarti del tuo aiuto.",
      "EUnl": "{{fun_0003_0001 arg=\"0x0004\"}}Alsjeblieft, dit is om je te bedanken voor\nje hulp bij ons onderzoek!",
      "EUru": "{{fun_0003_0001 arg=\"0x0004\"}}Спасибо за помощь!{{delay1}}\nВозьми, пожалуйста!",
      "JPja": "{{fun_0003_0001 arg=\"0x0004\"}}これは {{ruby charSpan=\"2\" value=\"ちょうさ\"}}調査に{{ruby charSpan=\"2\" value=\"きょうりょく\"}}協力してくれたお{{ruby charSpan=\"1\" value=\"れい\"}}礼だ！",
      "KRko": "{{fun_0003_0001 arg=\"0x0004\"}}이건 조사를 도와준 보답이야!",
      "TWzh": "{{fun_0003_0001 arg=\"0x0004\"}}這是感謝你協助調查的謝禮！",
      "USen": "{{fun_0003_0001 arg=\"0x0004\"}}This is to thank you for helping with our\ninvestigation!",
      "USes": "{{fun_0003_0001 arg=\"0x0004\"}}Acepta esto como muestra de mi\ngratitud. ¡Y además te mencionaré\nen mi estudio por tu labor!",
      "USfr": "{{fun_0003_0001 arg=\"0x0004\"}}Voilà pour toi, en te remerciant\nde ta collaboration!"
    }
  },
  {
    "label": "talk05",
    "attribute": "0x74020000",
    "locale": {
      "CNzh": "{{fun_0003_0001 arg=\"0x0400\"}}没想到居然有这么大的马，\n太惊人了！",
      "EUde": "{{fun_0003_0001 arg=\"0x0400\"}}Dass es so riesige Pferde gibt...{{delay1}}\nIch kann es immer noch nicht glauben!",
      "EUen": "{{fun_0003_0001 arg=\"0x0400\"}}To think that there is actually a horse\nthis big out there. How surprising!",
      "EUes": "{{fun_0003_0001 arg=\"0x0400\"}}Es increíble que exista un caballo como\nese. La naturaleza es maravillosa.",
      "EUfr": "{{fun_0003_0001 arg=\"0x0400\"}}La nature est extraordinaire, tout de\nmême ! Un cheval de cette taille...\nC'est inimaginable !",
      "EUit": "{{fun_0003_0001 arg=\"0x0400\"}}Chi avrebbe mai pensato che in natura\nesistessero cavalli di tale stazza!",
      "EUnl": "{{fun_0003_0001 arg=\"0x0400\"}}Ik kan maar nauwelijks geloven dat er\necht zo'n groot paard in deze regio leeft!",
      "EUru": "{{fun_0003_0001 arg=\"0x0400\"}}Надо же!{{delay1}} Огромные лошади\nдействительно существуют!{{delay1}}\nМне до сих пор не верится...",
      "JPja": "{{fun_0003_0001 arg=\"0x0400\"}}こんなに {{ruby charSpan=\"1\" value=\"おお\"}}大きな{{ruby charSpan=\"1\" value=\"うま\"}}馬がいるとはね\n{{ruby charSpan=\"1\" value=\"おどろ\"}}驚きだよ！",
      "KRko": "{{fun_0003_0001 arg=\"0x0400\"}}이렇게 큰 말이 있다니\n놀랍군!",
      "TWzh": "{{fun_0003_0001 arg=\"0x0400\"}}沒想到居然有這麼大的馬，\n太驚人了！",
      "USen": "{{fun_0003_0001 arg=\"0x0400\"}}To think that there is actually a horse\nthis big out there. How surprising!",
      "USes": "{{fun_0003_0001 arg=\"0x0400\"}}Es increíble que exista un caballo como\nese. La naturaleza es maravillosa.",
      "USfr": "{{fun_0003_0001 arg=\"0x0400\"}}La nature est extraordinaire, tout de\nmême! Un cheval de cette taille...\nC'est inimaginable!"
    }
  },
  {
    "label": "talk08",
    "attribute": "0x98020000",
    "locale": {
      "CNzh": "{{fun_0003_0001 arg=\"0x0000\"}}怎么样？{{delay1}}\n{{color id=\"0\"}}巨大马匹{{color id=\"65535\"}}的调查有进展吗？",
      "EUde": "{{fun_0003_0001 arg=\"0x0000\"}}Wie geht es dir?{{delay1}} Kommt deine Suche\nnach den {{color id=\"0\"}}riesigen Pferden{{color id=\"65535\"}} voran?",
      "EUen": "{{fun_0003_0001 arg=\"0x0000\"}}How's it going?{{delay1}} Have you made progress\nin studying the {{color id=\"0\"}}giant horse{{color id=\"65535\"}}?",
      "EUes": "{{fun_0003_0001 arg=\"0x0000\"}}¿Qué tal?{{delay1}} ¿Has encontrado alguna\npista sobre el paradero del {{color id=\"0\"}}caballo\ngigante{{color id=\"65535\"}}?",
      "EUfr": "{{fun_0003_0001 arg=\"0x0000\"}}Tout se passe bien ?{{delay1}} Est-ce que tu\navances sur la question du {{color id=\"0\"}}cheval\ngéant{{color id=\"65535\"}} ?",
      "EUit": "{{fun_0003_0001 arg=\"0x0000\"}}Come procede?{{delay1}}\nHai trovato qualche {{color id=\"0\"}}cavallo gigante{{color id=\"65535\"}}?",
      "EUnl": "{{fun_0003_0001 arg=\"0x0000\"}}Hoe gaat het?{{delay1}} En hoe verloopt je\nonderzoek naar het {{color id=\"0\"}}reuzenpaard{{color id=\"65535\"}}?",
      "EUru": "{{fun_0003_0001 arg=\"0x0000\"}}Как дела?{{delay1}} Еще не нашел\n{{color id=\"0\"}}огромную лошадь{{color id=\"65535\"}}?",
      "JPja": "{{fun_0003_0001 arg=\"0x0000\"}}どうだい？{{delay1}}\n{{color id=\"0\"}}{{ruby charSpan=\"3\" value=\"きょだいば\"}}巨大馬{{color id=\"65535\"}}の{{ruby charSpan=\"2\" value=\"ちょうさ\"}}調査は {{ruby charSpan=\"1\" value=\"すす\"}}進んでいるかい？",
      "KRko": "{{fun_0003_0001 arg=\"0x0000\"}}어때?{{delay1}}\n{{color id=\"0\"}}거대마{{color id=\"65535\"}} 조사는 좀 진척이 있어?",
      "TWzh": "{{fun_0003_0001 arg=\"0x0000\"}}怎麼樣？{{delay1}}\n{{color id=\"0\"}}巨大馬匹{{color id=\"65535\"}}的調查有進展嗎？",
      "USen": "{{fun_0003_0001 arg=\"0x0000\"}}How's it going?{{delay1}} Have you made progress\nin studying the {{color id=\"0\"}}giant horse{{color id=\"65535\"}}?",
      "USes": "{{fun_0003_0001 arg=\"0x0000\"}}¿Qué tal?{{delay1}} ¿Has encontrado alguna\npista sobre el paradero del {{color id=\"0\"}}caballo\ngigante{{color id=\"65535\"}}?",
      "USfr": "{{fun_0003_0001 arg=\"0x0000\"}}Tout se passe bien?{{delay1}} Est-ce que tu\navances sur la question du {{color id=\"0\"}}cheval\ngéant{{color id=\"65535\"}}?"
    }
  },
  {
    "label": "talk09",
    "attribute": "0xBC020000",
    "locale": {
      "CNzh": "{{fun_0003_0001 arg=\"0x0000\"}}由此地向西走到深处，就是{{color id=\"2\"}}奥布巴巴草地{{color id=\"65535\"}}。\n据说{{color id=\"0\"}}巨大马匹{{color id=\"65535\"}}就栖息在那一带。",
      "EUde": "{{fun_0003_0001 arg=\"0x0000\"}}Die {{color id=\"0\"}}riesigen Pferde{{color id=\"65535\"}} sollen im\n{{color id=\"2\"}}Taobab-Grasland{{color id=\"65535\"}} westlich von hier\nzu finden sein.",
      "EUen": "{{fun_0003_0001 arg=\"0x0000\"}}They say that the {{color id=\"0\"}}giant horse{{color id=\"65535\"}} lives\naround the {{color id=\"2\"}}Taobab Grassland{{color id=\"65535\"}}... That'd\nbe northwest of here.",
      "EUes": "{{fun_0003_0001 arg=\"0x0000\"}}Nosotros solo sabemos que han\navistado uno en la {{color id=\"2\"}}pradera de Taobab{{color id=\"65535\"}},\nal noroeste de aquí.",
      "EUfr": "{{fun_0003_0001 arg=\"0x0000\"}}D'après ce qu'on a entendu, le {{color id=\"0\"}}cheval\ngéant {{color id=\"65535\"}}aurait été vu s'ébattant dans la\n{{color id=\"2\"}}prairie d'Obbaba{{color id=\"65535\"}}, au nord-ouest d'ici.",
      "EUit": "{{fun_0003_0001 arg=\"0x0000\"}}L'ultimo avvistamento di un {{color id=\"0\"}}cavallo\ngigante{{color id=\"65535\"}} è avvenuto nella {{color id=\"2\"}}prateria Aobab{{color id=\"65535\"}},\na nord-ovest di qua.",
      "EUnl": "{{fun_0003_0001 arg=\"0x0000\"}}Ze zeggen dat het {{color id=\"0\"}}reuzenpaard{{color id=\"65535\"}} in de\n{{color id=\"2\"}}Taobab-vallei{{color id=\"65535\"}} leeft, die ten noordwesten\nvan hier ligt.",
      "EUru": "{{fun_0003_0001 arg=\"0x0000\"}}Говорят, их видели на {{color id=\"2\"}}Таобабовом\nлугу{{color id=\"65535\"}} к западу отсюда.",
      "JPja": "{{fun_0003_0001 arg=\"0x0000\"}}{{color id=\"0\"}}{{ruby charSpan=\"3\" value=\"きょだいば\"}}巨大馬{{color id=\"65535\"}}は ここから{{ruby charSpan=\"1\" value=\"にし\"}}西に{{ruby charSpan=\"1\" value=\"む\"}}向かって {{ruby charSpan=\"1\" value=\"おく\"}}奥に{{ruby charSpan=\"1\" value=\"い\"}}行った\n{{color id=\"2\"}}オブババ{{ruby charSpan=\"2\" value=\"そうち\"}}草地{{color id=\"65535\"}} あたりに{{ruby charSpan=\"2\" value=\"せいそく\"}}生息しているって{{ruby charSpan=\"1\" value=\"はなし\"}}話だ",
      "KRko": "{{fun_0003_0001 arg=\"0x0000\"}}{{color id=\"0\"}}거대마{{color id=\"65535\"}}는 여기서 서쪽 깊숙한 곳에 있는\n{{color id=\"2\"}}밥오바 초지{{color id=\"65535\"}} 근처에 서식하고 있대",
      "TWzh": "{{fun_0003_0001 arg=\"0x0000\"}}由此地向西走到深處，就是{{color id=\"2\"}}奧布巴巴草地{{color id=\"65535\"}}\n據說{{color id=\"0\"}}巨大馬匹{{color id=\"65535\"}}就棲息在那一帶。",
      "USen": "{{fun_0003_0001 arg=\"0x0000\"}}They say that the {{color id=\"0\"}}giant horse{{color id=\"65535\"}} lives\naround the {{color id=\"2\"}}Taobab Grassland{{color id=\"65535\"}}... That'd\nbe northwest of here.",
      "USes": "{{fun_0003_0001 arg=\"0x0000\"}}Solo sé que algunos viajeros han\nvisto uno en la {{color id=\"2\"}}pradera de Taobab{{color id=\"65535\"}},\nal noroeste de aquí.",
      "USfr": "{{fun_0003_0001 arg=\"0x0000\"}}D'après ce qu'on a entendu, le {{color id=\"0\"}}cheval\ngéant {{color id=\"65535\"}}aurait été vu s'ébattant dans la\n{{color id=\"2\"}}prairie d'Obbaba{{color id=\"65535\"}}, au nord-ouest d'ici."
    }
  },
  {
    "label": "talk10",
    "attribute": "0xE0020000",
    "locale": {
      "CNzh": "{{fun_0003_0001 arg=\"0x0000\"}}那可以请你捉到后带来这里吗？{{delay1}}\n千万别勉强！",
      "EUde": "{{fun_0003_0001 arg=\"0x0000\"}}Könntest du eines fangen und zu uns\nbringen?{{delay1}} Aber bring dich nicht in Gefahr!",
      "EUen": "{{fun_0003_0001 arg=\"0x0000\"}}Do you think you could catch it and\nbring it back here?{{delay1}} Don't stress out\nover the request, though!",
      "EUes": "{{fun_0003_0001 arg=\"0x0000\"}}Yo empezaría a buscar por allí.\n¡Mucha suerte!",
      "EUfr": "{{fun_0003_0001 arg=\"0x0000\"}}Si tu pouvais l'attraper et l'amener ici...\n{{delay1}}Sans vouloir te commander, bien sûr !",
      "EUit": "{{fun_0003_0001 arg=\"0x0000\"}}Riesci a catturarne uno e a portamelo\nqui?{{delay1}} Mi raccomando, non ucciderlo!",
      "EUnl": "{{fun_0003_0001 arg=\"0x0000\"}}Kun je er eentje vangen en het hier\nbrengen?{{delay1}} Maar wees voorzichtig!",
      "EUru": "{{fun_0003_0001 arg=\"0x0000\"}}Поймай одну и приведи\nсюда, пожалуйста!{{delay1}} Только\nбудь осторожен.",
      "JPja": "{{fun_0003_0001 arg=\"0x0000\"}}じゃあ {{ruby charSpan=\"1\" value=\"つか\"}}捕まえて ここに{{ruby charSpan=\"1\" value=\"つ\"}}連れてきてくれるか{{delay1}}\n{{ruby charSpan=\"2\" value=\"むり\"}}無理はせずにな！",
      "KRko": "{{fun_0003_0001 arg=\"0x0000\"}}그럼 잡아서 여기로 데리고 와 줘{{delay1}}\n무리는 하지 말고!",
      "TWzh": "{{fun_0003_0001 arg=\"0x0000\"}}那可以請你捉到牠後帶來這裡嗎？{{delay1}}\n千萬別勉強喔！",
      "USen": "{{fun_0003_0001 arg=\"0x0000\"}}Do you think you could catch it and\nbring it back here?{{delay1}} Don't stress out\nover the request, though!",
      "USes": "{{fun_0003_0001 arg=\"0x0000\"}}Yo empezaría a buscar por allí.\n¡Mucha suerte!",
      "USfr": "{{fun_0003_0001 arg=\"0x0000\"}}Si tu pouvais l'attraper et l'amener ici...\n{{delay1}}Sans vouloir te commander, bien sûr!"
    }
  },
  {
    "label": "talk11",
    "attribute": "0x04030000",
    "locale": {
      "CNzh": "{{fun_0003_0001 arg=\"0x0510\"}}什么事啊，大半夜的……{{delay2}}",
      "EUde": "{{fun_0003_0001 arg=\"0x0510\"}}Was gibt es denn zu so später Stunde...{{delay2}}",
      "EUen": "{{fun_0003_0001 arg=\"0x0510\"}}What do you want at this hour?",
      "EUes": "{{fun_0003_0001 arg=\"0x0510\"}}¿No sabes qué hora es?{{delay2}} Los científicos\nnecesitamos dormir para descansar\nel cerebro.",
      "EUfr": "{{fun_0003_0001 arg=\"0x0510\"}}Tu as vu l'heure qu'il est ?{{delay2}} J'exerce une\nprofession très éprouvante pour les\nneurones, tu sais.",
      "EUit": "{{fun_0003_0001 arg=\"0x0510\"}}Oh, com'è tardi!{{delay2}} Hai trovato qualcosa?",
      "EUnl": "{{fun_0003_0001 arg=\"0x0510\"}}Weet je wel hoe laat het is? Wat wil je?",
      "EUru": "{{fun_0003_0001 arg=\"0x0510\"}}Ну что еще, в такое-то время?",
      "JPja": "{{fun_0003_0001 arg=\"0x0510\"}}なんだ こんな{{ruby charSpan=\"2\" value=\"よなか\"}}夜中に…{{delay2}}",
      "KRko": "{{fun_0003_0001 arg=\"0x0510\"}}뭐야, 이런 밤중에…{{delay2}}",
      "TWzh": "{{fun_0003_0001 arg=\"0x0510\"}}什麼事啊，大半夜的……{{delay2}}",
      "USen": "{{fun_0003_0001 arg=\"0x0510\"}}What do you want at this hour?",
      "USes": "{{fun_0003_0001 arg=\"0x0510\"}}¿No sabes qué hora es?{{delay2}}\nLos investigadores necesitamos\ndormir para descansar la mente.",
      "USfr": "{{fun_0003_0001 arg=\"0x0510\"}}Tu as vu l'heure qu'il est?{{delay2}} J'exerce une\nprofession très éprouvante pour les\nneurones, tu sais."
    }
  },
  {
    "label": "talk12",
    "attribute": "0x28030000",
    "locale": {
      "CNzh": "{{fun_0003_0001 arg=\"0x0000\"}}时间已经很晚了，{{delay1}}\n今天要不要在这休息一晚？",
      "EUde": "{{fun_0003_0001 arg=\"0x0000\"}}Es ist schon spät.{{delay1}} Ruh dich lieber aus.",
      "EUen": "{{fun_0003_0001 arg=\"0x0000\"}}It's gotten really late.{{delay1}} Why not rest for\nthe night, hmm?",
      "EUes": "{{fun_0003_0001 arg=\"0x0000\"}}Ya es muy tarde para trabajar.{{delay1}}\n¿Por qué no duermes un poco?",
      "EUfr": "{{fun_0003_0001 arg=\"0x0000\"}}Il est déjà bien tard.{{delay1}} Tu ne veux pas\nte reposer un peu ?",
      "EUit": "{{fun_0003_0001 arg=\"0x0000\"}}Si è fatto molto tardi.{{delay1}}\nDi notte i cavalli non si vedono, meglio\nriposarsi un po'.",
      "EUnl": "{{fun_0003_0001 arg=\"0x0000\"}}Het is al behoorlijk laat.{{delay1}} Probeer liever\nwat uit te rusten.",
      "EUru": "{{fun_0003_0001 arg=\"0x0000\"}}Поздно ведь уже.{{delay1}} Поспи.",
      "JPja": "{{fun_0003_0001 arg=\"0x0000\"}}{{ruby charSpan=\"2\" value=\"きょう\"}}今日は もう{{ruby charSpan=\"1\" value=\"おそ\"}}遅い{{delay1}}\n{{ruby charSpan=\"2\" value=\"こんばん\"}}今晩は ここで{{ruby charSpan=\"1\" value=\"やす\"}}休んでいったら どうだい？",
      "KRko": "{{fun_0003_0001 arg=\"0x0000\"}}이미 늦은 시간이야{{delay1}}\n오늘 밤은 여기서 자고 가는 게 어때?",
      "TWzh": "{{fun_0003_0001 arg=\"0x0000\"}}時間已經很晚了，{{delay1}}\n今天要不要在這休息一晚啊？",
      "USen": "{{fun_0003_0001 arg=\"0x0000\"}}It's gotten really late.{{delay1}} Why not rest for\nthe night, hmm?",
      "USes": "{{fun_0003_0001 arg=\"0x0000\"}}Ya es muy tarde para trabajar.{{delay1}}\n¿Por qué no duermes un poco?",
      "USfr": "{{fun_0003_0001 arg=\"0x0000\"}}Il est déjà bien tard.{{delay1}} Tu ne veux pas\nte reposer un peu?"
    }
  },
  {
    "label": "Near00",
    "attribute": "0x4C030000",
    "locale": {
      "CNzh": "巨大的……",
      "EUde": "Einfach nur riesig...",
      "EUen": "So...big...",
      "EUes": "Qué grande...",
      "EUfr": "Gigantesque...",
      "EUit": "È enorme...",
      "EUnl": "Het is gigantisch...",
      "EUru": "Увидеть бы хоть одну...",
      "JPja": "{{ruby charSpan=\"2\" value=\"きょだい\"}}巨大な…",
      "KRko": "거대한…",
      "TWzh": "巨大的……",
      "USen": "So...big...",
      "USes": "Qué grande...",
      "USfr": "Gigantesque..."
    }
  },
  {
    "label": "Near01",
    "attribute": "0x70030000",
    "locale": {
      "CNzh": "昏昏欲睡……",
      "EUde": "Zzz...",
      "EUen": "Zzz...",
      "EUes": "Zzz...",
      "EUfr": "Zzz...",
      "EUit": "Zzz...",
      "EUnl": "Zzz...",
      "EUru": "Хр-р-р...",
      "JPja": "うとうと",
      "KRko": "꾸벅꾸벅",
      "TWzh": "昏昏欲睡……",
      "USen": "Zzz...",
      "USes": "Zzzz...",
      "USfr": "Zzz..."
    }
  },
  {
    "label": "Near02",
    "attribute": "0x94030000",
    "locale": {
      "CNzh": "哦哦～",
      "EUde": "Oooh...",
      "EUen": "Ohhh...",
      "EUes": "Ooooh...",
      "EUfr": "Oooh...",
      "EUit": "Oooh...",
      "EUnl": "O...",
      "EUru": "О-о-о...",
      "JPja": "おおぉ",
      "KRko": "오오오",
      "TWzh": "哦哦～",
      "USen": "Ohhh...",
      "USes": "Ooooh...",
      "USfr": "Oooh..."
    }
  },
  {
    "label": "Near03",
    "attribute": "0xB8030000",
    "locale": {
      "CNzh": "嗨。",
      "EUde": "Hallo!",
      "EUen": "Hey there!",
      "EUes": "¡Buenas!",
      "EUfr": "Salutations !",
      "EUit": "Ehilà!",
      "EUnl": "Hallo!",
      "EUru": "Привет!",
      "JPja": "やあやあ",
      "KRko": "안녕",
      "TWzh": "嗨。",
      "USen": "Hey there!",
      "USes": "¡Hola!",
      "USfr": "Salutations!"
    }
  },
  {
    "label": "0000",
    "attribute": "0xDC030000",
    "locale": {
      "CNzh": "交给我吧",
      "EUde": "Wird gemacht!",
      "EUen": "Leave it to me.",
      "EUes": "¡Claro!",
      "EUfr": "Je m'en occupe.",
      "EUit": "Ci penso io.",
      "EUnl": "Dat doe ik wel!",
      "EUru": "Конечно!",
      "JPja": "まかせて",
      "KRko": "맡겨만 둬",
      "TWzh": "交給我吧",
      "USen": "Leave it to me.",
      "USes": "¡Claro!",
      "USfr": "Je m'en occupe."
    }
  },
  {
    "label": "0001",
    "attribute": "0xDE030000",
    "locale": {
      "CNzh": "没兴趣",
      "EUde": "Kein Interesse.",
      "EUen": "I'm not interested.",
      "EUes": "No me interesa",
      "EUfr": "Ça m'intéresse pas.",
      "EUit": "Non mi interessa.",
      "EUnl": "Nee, liever niet...",
      "EUru": "Нет, не хочу",
      "JPja": "{{ruby charSpan=\"2\" value=\"きょうみ\"}}興味ない",
      "KRko": "관심 없어",
      "TWzh": "沒興趣",
      "USen": "I'm not interested.",
      "USes": "No me interesa",
      "USfr": "Ça m'intéresse pas."
    }
  },
  {
    "label": "0002",
    "attribute": "0xE0030000",
    "locale": {
      "CNzh": "巨大马匹？",
      "EUde": "Riesige Pferde?",
      "EUen": "Giant horse?",
      "EUes": "¿Un caballo gigante?",
      "EUfr": "Un cheval géant ?",
      "EUit": "Cavallo gigante?",
      "EUnl": "Reuzenpaard?",
      "EUru": "Огромные лошади?",
      "JPja": "{{ruby charSpan=\"2\" value=\"きょだい\"}}巨大な{{ruby charSpan=\"1\" value=\"うま\"}}馬？",
      "KRko": "거대한 말?",
      "TWzh": "巨大馬匹？",
      "USen": "Giant horse?",
      "USes": "¿Un caballo gigante?",
      "USfr": "Un cheval géant?"
    }
  },
  {
    "label": "0003",
    "attribute": "0xE2030000",
    "locale": {
      "CNzh": "怪物？",
      "EUde": "Monster?",
      "EUen": "Monsters?",
      "EUes": "¿Muchos?",
      "EUfr": "Des monstres ?",
      "EUit": "Che mostri?",
      "EUnl": "Monsters?",
      "EUru": "Монстры?",
      "JPja": "{{ruby charSpan=\"2\" value=\"まもの\"}}魔物？",
      "KRko": "몬스터?",
      "TWzh": "怪物？",
      "USen": "Monsters?",
      "USes": "¿Muchos?",
      "USfr": "Des monstres?"
    }
  },
  {
    "label": "0004",
    "attribute": "0xE4030000",
    "locale": {
      "CNzh": "请吧",
      "EUde": "Nur zu.",
      "EUen": "Go ahead.",
      "EUes": "Por supuesto",
      "EUfr": "Je t'en prie !",
      "EUit": "Prego.",
      "EUnl": "Ga je gang.",
      "EUru": "Конечно",
      "JPja": "どうぞ",
      "KRko": "여기 있어",
      "TWzh": "請吧",
      "USen": "Go ahead.",
      "USes": "Por supuesto",
      "USfr": "Je t'en prie!"
    }
  }
]