[
  {
    "label": "talk00",
    "attribute": "0x60000000",
    "locale": {
      "CNzh": "{{fun_0003_0001 arg=\"0x0900\"}}啊～讨厌讨厌，{{delay1}}\n这间驿站时常遇上{{color id=\"0\"}}落雷{{color id=\"65535\"}}。\n每天下起雷阵雨时都很害怕……{{delay frames=\"15\"}}\n为什么每次都落在这里呢？{{delay frames=\"15\"}}\n{{fun_0003_0001 arg=\"0x0601\"}}如果方便的话，\n可以请你帮忙查明落雷的原因吗？{{fun_0001_0004 arg=\"0x000001000001\"}}",
      "EUde": "{{fun_0003_0001 arg=\"0x0900\"}}Ach...{{delay1}} Dieser Stall wurde schon so oft\nvom {{color id=\"0\"}}Blitz{{color id=\"65535\"}} getroffen, dass ich mich schon\nfürchte, wenn es abends wieder regnet.{{delay frames=\"15\"}}{{pageBreak}}Es heißt doch, dass ein Blitz nie zweimal\nan derselben Stelle einschlägt!{{delay1}}\nWarum also dann immer wieder hier?{{delay frames=\"15\"}}{{pageBreak}}{{fun_0003_0001 arg=\"0x0601\"}}Sag mal, könntest du der Sache vielleicht\nauf den Grund gehen?{{fun_0001_0004 arg=\"0x000001000001\"}}",
      "EUen": "{{fun_0003_0001 arg=\"0x0900\"}}Oh dear, oh dear...{{delay1}} {{color id=\"0\"}}Lightning{{color id=\"65535\"}} strikes this\nstable so often, I get nervous whenever\nit rains even a little.\nI just don't understand why it strikes so\noften...{{delay frames=\"15\"}} {{fun_0003_0001 arg=\"0x0601\"}}Hey, it's a long shot, but if you\nhave some time, could you find out why?{{fun_0001_0004 arg=\"0x000001000001\"}}",
      "EUes": "{{fun_0003_0001 arg=\"0x0900\"}}Ay, ay, ay.{{delay1}} En esta posta caen {{color id=\"0\"}}rayos{{color id=\"65535\"}}\ntan a menudo que, en cuanto empieza\na llover, me echo a temblar.\n¿Por qué ocurre solo aquí?{{pageBreak}}{{fun_0003_0001 arg=\"0x0601\"}}Oye, si no tienes mucho que hacer\nahora mismo, ¿podrías intentar\naveriguar por qué pasa?{{fun_0001_0004 arg=\"0x000001000001\"}}",
      "EUfr": "{{fun_0003_0001 arg=\"0x0900\"}}Hiii...{{delay1}} C'est terrible, c'est terrible...\nLa {{color id=\"0\"}}foudre{{color id=\"65535\"}} ne cesse de tomber sur\nce relais...\nTous les soirs, je tremble comme une\nfeuille dès que la pluie arrive...{{delay frames=\"15\"}}\n\n{{fun_0003_0001 arg=\"0x0601\"}}Dis-moi, pourrais-tu trouver la cause\nde ce phénomène ?{{fun_0001_0004 arg=\"0x000001000001\"}}",
      "EUit": "{{fun_0003_0001 arg=\"0x0900\"}}Oh, come si fa?!{{delay1}} Come si fa?!\nI {{color id=\"0\"}}fulmini{{color id=\"65535\"}} colpiscono sempre\nlo stallaggio!\nQuando piove ho paura, soprattutto\nse piove di sera...{{delay frames=\"15\"}} Ma perché cadono\ntutti qui?{{delay frames=\"15\"}}\n{{fun_0003_0001 arg=\"0x0601\"}}Senti, mi potresti aiutare a capire\nla causa di questo strano fenomeno?{{fun_0001_0004 arg=\"0x000001000001\"}}",
      "EUnl": "{{fun_0003_0001 arg=\"0x0900\"}}Oei, oei, oei.{{delay1}} Deze stal wordt vaak door\nde {{color id=\"0\"}}bliksem {{color id=\"65535\"}}getroffen, dus ben ik best\nbang wanneer het 's avonds regent...{{delay frames=\"15\"}}\nMaar waarom slaat de bliksem alleen hier\nin?{{delay frames=\"15\"}}{{pageBreak}}{{fun_0003_0001 arg=\"0x0601\"}}Zeg, zou jij dat misschien voor me\nkunnen uitzoeken?{{fun_0001_0004 arg=\"0x000001000001\"}}",
      "EUru": "{{fun_0003_0001 arg=\"0x0900\"}}Ну и дела! В эту конюшню так часто\nпопадают {{color id=\"0\"}}молнии{{color id=\"65535\"}}, что я уже обычных\nвечерних дождей боюсь...{{pageBreak}}{{fun_0003_0001 arg=\"0x0601\"}}Что же с нашей конюшней не так?{{delay1}}\nМожет, ты выяснишь, в чем дело?{{fun_0001_0004 arg=\"0x000001000001\"}}",
      "JPja": "{{fun_0003_0001 arg=\"0x0900\"}}はぁ～ いやいや{{delay1}}\nこの{{ruby charSpan=\"2\" value=\"うまやど\"}}馬宿ね よく{{color id=\"0\"}}{{ruby charSpan=\"1\" value=\"かみなり\"}}雷{{color id=\"65535\"}}が{{ruby charSpan=\"1\" value=\"お\"}}落ちるのよ\n{{ruby charSpan=\"2\" value=\"まいにち\"}}毎日 {{ruby charSpan=\"2\" value=\"ゆうだち\"}}夕立がくるのが {{ruby charSpan=\"1\" value=\"こわ\"}}怖くて… {{delay frames=\"15\"}}\nなんで ここばっかり{{delay frames=\"15\"}}\n{{fun_0003_0001 arg=\"0x0601\"}}あなた もしよかったら\n{{ruby charSpan=\"2\" value=\"げんいん\"}}原因を{{ruby charSpan=\"1\" value=\"しら\"}}調べてもらえないかしら？{{fun_0001_0004 arg=\"0x000001000001\"}}",
      "KRko": "{{fun_0003_0001 arg=\"0x0900\"}}하아~ 아니~{{delay1}}\n이 마구간 말야 자꾸 {{color id=\"0\"}}번개{{color id=\"65535\"}}를 맞는단 말야 \n매일 소나기 내릴 때마다 무서워…{{delay frames=\"15\"}}\n왜 여기만 자꾸 맞을까{{delay frames=\"15\"}}\n{{fun_0003_0001 arg=\"0x0601\"}}혹시 괜찮다면 네가\n원인을 조사해 주지 않을래?{{fun_0001_0004 arg=\"0x000001000001\"}}",
      "TWzh": "{{fun_0003_0001 arg=\"0x0900\"}}啊～真是的，{{delay1}}\n這間驛站時常遇上{{color id=\"0\"}}落雷{{color id=\"65535\"}}。\n所以每天下起雷陣雨時都很害怕……{{delay frames=\"15\"}}\n為什麼每次都落在這裡呢？{{delay frames=\"15\"}}\n{{fun_0003_0001 arg=\"0x0601\"}}方便的話，\n你可以幫忙查明落雷的原因嗎？{{fun_0001_0004 arg=\"0x000001000001\"}}",
      "USen": "{{fun_0003_0001 arg=\"0x0900\"}}Oh dear, oh dear...{{delay1}} {{color id=\"0\"}}Lightning{{color id=\"65535\"}} strikes this\nstable so often, I get nervous whenever\nit rains even a little.\nI just don't understand why it strikes so\noften...{{delay frames=\"15\"}} {{fun_0003_0001 arg=\"0x0601\"}}Hey, it's a long shot, but if you\nhave some time, could you find out why?{{fun_0001_0004 arg=\"0x000001000001\"}}",
      "USes": "{{fun_0003_0001 arg=\"0x0900\"}}Ay, ay, ay.{{delay1}} En este rancho caen {{color id=\"0\"}}rayos{{color id=\"65535\"}}\ntan a menudo que, en cuanto empieza\na llover, me pongo a temblar.\n¿Por qué ocurre solo aquí?{{pageBreak}}Oye, si no tienes mucho que hacer\nahora mismo, ¿podrías intentar\naveriguar por qué pasa eso?{{fun_0001_0004 arg=\"0x000001000001\"}}",
      "USfr": "{{fun_0003_0001 arg=\"0x0900\"}}Hiii...{{delay1}} C'est terrible, c'est terrible...\nLa {{color id=\"0\"}}foudre{{color id=\"65535\"}} ne cesse de tomber sur\nce relais...\nTous les soirs, je tremble comme une\nfeuille dès que la pluie arrive...{{delay frames=\"15\"}}\n\n{{fun_0003_0001 arg=\"0x0601\"}}Dis-moi, pourrais-tu trouver\nla cause de ce phénomène?{{fun_0001_0004 arg=\"0x000001000001\"}}"
    }
  },
  {
    "label": "talk08",
    "attribute": "0x8C000000",
    "locale": {
      "CNzh": "{{fun_0003_0001 arg=\"0x031F\"}}呀──！我受够了……{{delay1}}\n好可怕……{{delay frames=\"15\"}}\n不知为何，这间驿站时常遇上{{color id=\"0\"}}落雷{{color id=\"65535\"}}。\n所以每天下起雷阵雨时都很害怕……{{delay frames=\"15\"}}\n拜托你了！{{delay1}}\n可以请你帮忙查明落雷的原因吗？{{fun_0001_0004 arg=\"0x000001000001\"}}",
      "EUde": "{{fun_0003_0001 arg=\"0x031F\"}}Ich halt das nicht mehr aus!{{delay1}}\nIch bin mit den Nerven am Ende...{{delay frames=\"15\"}}{{pageBreak}}Ständig wird dieser Stall vom {{color id=\"0\"}}Blitz{{color id=\"65535\"}}\ngetroffen, ich kriege schon Zustände,\nwenn es abends wieder regnet...{{delay frames=\"15\"}}{{pageBreak}}Kannst du nicht versuchen, der Sache\nauf den Grund zu gehen?{{delay1}} Ich flehe dich\nan!{{fun_0001_0004 arg=\"0x000001000001\"}}",
      "EUen": "{{fun_0003_0001 arg=\"0x031F\"}}Eeeeyah! I've had it...{{delay1}} I can't handle this\nconstant fear.{{delay frames=\"15\"}}\n\n{{color id=\"0\"}}Lightning{{color id=\"65535\"}} strikes this stable really often, \nso I get scared whenever it starts to\nrain...{{delay frames=\"15\"}}\nPlease... Could you go try and find out\nwhy this keeps happening?{{fun_0001_0004 arg=\"0x000001000001\"}}",
      "EUes": "{{fun_0003_0001 arg=\"0x031F\"}}¡Aaah! {{delay1}}Ya estoy harta.\nEsto es un sinvivir...{{pageBreak}}En esta posta caen {{color id=\"0\"}}rayos{{color id=\"65535\"}} tan a menudo\nque me echo a temblar en cuanto\nveo cuatro gotas...\n¡Ayúdanos! Averigua qué ocurre.{{fun_0001_0004 arg=\"0x000001000001\"}}",
      "EUfr": "{{fun_0003_0001 arg=\"0x031F\"}}Hiii... Je n'en peux plus... !{{delay1}} J'ai si peur,\nsi peur !{{delay frames=\"15\"}}\n\nJe ne comprends pas pourquoi la {{color id=\"0\"}}foudre{{color id=\"65535\"}}\npersiste à tomber ici...{{delay frames=\"15\"}} Je tremble dès\nque je sens un orage arriver !\nJe t'en prie, pourrais-tu trouver la cause\nde ce phénomène ?{{fun_0001_0004 arg=\"0x000001000001\"}}",
      "EUit": "{{fun_0003_0001 arg=\"0x031F\"}}AAARGH!{{delay1}} Non ce la faccio più!\nChe paura!{{delay frames=\"15\"}}\n\nI {{color id=\"0\"}}fulmini{{color id=\"65535\"}} colpiscono costantemente\nlo stallaggio! Quando piove di sera\nmuoio dalla paura... {{delay frames=\"15\"}}\nTi prego! {{delay1}}\nPotresti cercare di capire come\nmai succede?{{fun_0001_0004 arg=\"0x000001000001\"}}",
      "EUnl": "{{fun_0003_0001 arg=\"0x031F\"}}Ik heb het helemaal gehad!{{delay1}} Ik ben zo\nbang...{{delay frames=\"15\"}}{{pageBreak}}Deze stal wordt vaak door de {{color id=\"0\"}}bliksem{{color id=\"65535\"}}\ngetroffen, dus ben ik best bang wanneer\nhet 's avonds regent...{{delay frames=\"15\"}}\nAlsjeblieft!{{delay1}} Zou jij erachter kunnen\nkomen waarom de bliksem altijd hier\ninslaat?{{fun_0001_0004 arg=\"0x000001000001\"}}",
      "EUru": "{{fun_0003_0001 arg=\"0x031F\"}}А-а-а! Мне страшно!{{delay1}} Я больше не могу!{{pageBreak}}В эту конюшню так часто попадают\n{{color id=\"0\"}}молнии{{color id=\"65535\"}}, что я уже обычных вечерних\nдождей боюсь!{{pageBreak}}Прошу тебя, выясни, что\nне так с нашей конюшней!{{fun_0001_0004 arg=\"0x000001000001\"}}",
      "JPja": "{{fun_0003_0001 arg=\"0x031F\"}}キャーッ もう いや…{{delay1}}\n{{ruby charSpan=\"1\" value=\"こわ\"}}怖い…{{delay frames=\"15\"}}\nこの{{ruby charSpan=\"2\" value=\"うまやど\"}}馬宿 なぜか よく{{color id=\"0\"}}{{ruby charSpan=\"1\" value=\"かみなり\"}}雷{{color id=\"65535\"}}が{{ruby charSpan=\"1\" value=\"お\"}}落ちるの\n{{ruby charSpan=\"2\" value=\"まいにち\"}}毎日 {{ruby charSpan=\"2\" value=\"ゆうだち\"}}夕立がくるのが {{ruby charSpan=\"1\" value=\"こわ\"}}怖くて…{{delay frames=\"15\"}}\nねえ お{{ruby charSpan=\"1\" value=\"ねが\"}}願い！{{delay1}}\nあなた {{ruby charSpan=\"2\" value=\"げんいん\"}}原因を{{ruby charSpan=\"1\" value=\"しら\"}}調べてもらえないかしら？{{fun_0001_0004 arg=\"0x000001000001\"}}",
      "KRko": "{{fun_0003_0001 arg=\"0x031F\"}}꺅~ 이제 그만…{{delay1}}\n무서워…{{delay frames=\"15\"}}\n어째서인지 이 마구간만 자꾸 {{color id=\"0\"}}번개{{color id=\"65535\"}}를 맞는단 말야\n매일 소나기 내리는 게 무서워…{{delay frames=\"15\"}}\n부탁이야!{{delay1}}\n네가 원인을 좀 조사해 줄래?{{fun_0001_0004 arg=\"0x000001000001\"}}",
      "TWzh": "{{fun_0003_0001 arg=\"0x031F\"}}呀──！我受夠了……{{delay1}}\n好可怕……{{delay frames=\"15\"}}\n不知為何，這間驛站時常遇上{{color id=\"0\"}}落雷{{color id=\"65535\"}}。\n所以每天下起雷陣雨時都很害怕……{{delay frames=\"15\"}}\n拜託你了！{{delay1}}\n你可以幫忙查明落雷的原因嗎？{{fun_0001_0004 arg=\"0x000001000001\"}}",
      "USen": "{{fun_0003_0001 arg=\"0x031F\"}}Eeeeyah! I've had it...{{delay1}} I can't handle this\nconstant fear.{{delay frames=\"15\"}}\n\n{{color id=\"0\"}}Lightning{{color id=\"65535\"}} strikes this stable really often, \nso I get scared whenever it starts to\nrain...{{delay frames=\"15\"}}\nPlease... Could you go try and find out\nwhy this keeps happening?{{fun_0001_0004 arg=\"0x000001000001\"}}",
      "USes": "{{fun_0003_0001 arg=\"0x0900\"}}¡Aaah! {{delay1}}Ya estoy harta.\nEsto no es vida...{{pageBreak}}En este rancho caen {{color id=\"0\"}}rayos{{color id=\"65535\"}} tan a menudo\nque me pongo a temblar en cuanto\nveo caer gotas...\n¡Ayúdanos! Averigua qué ocurre.{{fun_0001_0004 arg=\"0x000001000001\"}}",
      "USfr": "{{fun_0003_0001 arg=\"0x031F\"}}Hiii... Je n'en peux plus...!{{delay1}}\nJ'ai si peur, si peur!{{delay frames=\"15\"}}\n\nJe ne comprends pas pourquoi la {{color id=\"0\"}}foudre{{color id=\"65535\"}}\npersiste à tomber ici...{{delay frames=\"15\"}} Je tremble dès\nque je sens un orage du soir arriver!\nJe t'en prie, pourrais-tu trouver quelle\nest la cause de ce phénomène?{{fun_0001_0004 arg=\"0x000001000001\"}}"
    }
  },
  {
    "label": "talk01",
    "attribute": "0xB8000000",
    "locale": {
      "CNzh": "{{fun_0003_0001 arg=\"0x0900\"}}唉～哎呀，是你。{{delay1}}\n难道你是来倾听我的烦恼吗？\n请找出这间驿站{{color id=\"0\"}}落雷{{color id=\"65535\"}}的原因！{{delay1}}\n拜托你了！{{fun_0001_0004 arg=\"0x000001000001\"}}",
      "EUde": "{{fun_0003_0001 arg=\"0x0900\"}}Wirst du mir helfen und herausfinden,\nwarum dieser Stall immer wieder vom\n{{color id=\"0\"}}Blitz{{color id=\"65535\"}} getroffen wird?{{delay1}} Bitte!{{fun_0001_0004 arg=\"0x000001000001\"}}",
      "EUen": "{{fun_0003_0001 arg=\"0x0900\"}}Have you...{{delay1}}have you decided to\nhelp me? Please figure out why {{color id=\"0\"}}lightning{{color id=\"65535\"}}\nkeeps hitting this stable!{{delay1}} Please!{{fun_0001_0004 arg=\"0x000001000001\"}}",
      "EUes": "{{fun_0003_0001 arg=\"0x0900\"}}Ay... {{delay1}}¿Te has animado a ayudarme?{{pageBreak}}Debes averiguar por qué caen tantos\n{{color id=\"0\"}}rayos{{color id=\"65535\"}} en esta posta. {{delay1}}¡Te lo suplico!{{fun_0001_0004 arg=\"0x000001000001\"}}",
      "EUfr": "{{fun_0003_0001 arg=\"0x0900\"}}Ah, c'est toi...{{delay1}} Voudrais-tu me venir\nen aide ?\n\nPourrais-tu trouver pourquoi la {{color id=\"0\"}}foudre{{color id=\"65535\"}}\ntombe sans arrêt sur ce relais ?{{delay1}} Je t'en\nprie !{{fun_0001_0004 arg=\"0x000001000001\"}}",
      "EUit": "{{fun_0003_0001 arg=\"0x0900\"}}Allora...{{delay1}} mi aiuterai?\n\n\nPer favore, cerca di capire come mai\ni {{color id=\"0\"}}fulmini{{color id=\"65535\"}} colpiscono di continuo\nlo stallaggio!{{delay1}} Ti prego!{{fun_0001_0004 arg=\"0x000001000001\"}}",
      "EUnl": "{{fun_0003_0001 arg=\"0x0900\"}}Ach...{{delay1}} Heb je al besloten of je me wilt\nhelpen?{{pageBreak}}Ga alsjeblieft op onderzoek om erachter\nte komen waarom deze stal zo vaak door\nde {{color id=\"0\"}}bliksem {{color id=\"65535\"}}wordt getroffen!{{fun_0001_0004 arg=\"0x000001000001\"}}",
      "EUru": "{{fun_0003_0001 arg=\"0x0900\"}}Ох...{{delay1}} Ты решил мне помочь?{{pageBreak}}Прошу тебя, выясни, почему в нашу\nконюшню так часто бьют {{color id=\"0\"}}молнии{{color id=\"65535\"}}!{{fun_0001_0004 arg=\"0x000001000001\"}}",
      "JPja": "{{fun_0003_0001 arg=\"0x0900\"}}はぁ～ あら あなた{{delay1}}\nもしかして お{{ruby charSpan=\"1\" value=\"ねが\"}}願い{{ruby charSpan=\"1\" value=\"き\"}}聞きにきてくれたの？\nこの{{ruby charSpan=\"2\" value=\"うまやど\"}}馬宿に {{color id=\"0\"}}{{ruby charSpan=\"1\" value=\"かみなり\"}}雷{{color id=\"65535\"}}が{{ruby charSpan=\"1\" value=\"お\"}}落ちる{{ruby charSpan=\"2\" value=\"げんいん\"}}原因を{{ruby charSpan=\"1\" value=\"つ\"}}突き{{ruby charSpan=\"1\" value=\"と\"}}止めて！{{delay1}}\nお{{ruby charSpan=\"1\" value=\"ねが\"}}願い！{{fun_0001_0004 arg=\"0x000001000001\"}}",
      "KRko": "{{fun_0003_0001 arg=\"0x0900\"}}하아~ 어머, 너구나{{delay1}}\n혹시 내 부탁 들어주러 온 거니?\n이 마구간에 {{color id=\"0\"}}번개{{color id=\"65535\"}}가 치는 원인을 찾아 줘!{{delay1}}\n부탁이야!{{fun_0001_0004 arg=\"0x000001000001\"}}",
      "TWzh": "{{fun_0003_0001 arg=\"0x0900\"}}唉～哎呀，是你。{{delay1}}\n難道你是來傾聽我的煩惱嗎？\n請找出這間驛站{{color id=\"0\"}}落雷{{color id=\"65535\"}}的原因！{{delay1}}\n拜託你了！{{fun_0001_0004 arg=\"0x000001000001\"}}",
      "USen": "{{fun_0003_0001 arg=\"0x0900\"}}Have you...{{delay1}}have you decided to\nhelp me? Please figure out why {{color id=\"0\"}}lightning{{color id=\"65535\"}}\nkeeps hitting this stable!{{delay1}} Please!{{fun_0001_0004 arg=\"0x000001000001\"}}",
      "USes": "{{fun_0003_0001 arg=\"0x0900\"}}Ay... {{delay1}}¿Te animaste a ayudarme?{{pageBreak}}Debes averiguar por qué caen tantos\n{{color id=\"0\"}}rayos{{color id=\"65535\"}} en este rancho. {{delay1}}¡Te lo suplico!{{fun_0001_0004 arg=\"0x000001000001\"}}",
      "USfr": "{{fun_0003_0001 arg=\"0x0900\"}}Ah, c'est toi...{{delay1}} Voudrais-tu me venir\nen aide?\n\nPourrais-tu trouver pourquoi la {{color id=\"0\"}}foudre{{color id=\"65535\"}}\ntombe sans arrêt sur ce relais?{{delay1}} Je t'en\nprie!{{fun_0001_0004 arg=\"0x000001000001\"}}"
    }
  },
  {
    "label": "talk06",
    "attribute": "0xE4000000",
    "locale": {
      "CNzh": "{{fun_0003_0001 arg=\"0x092A\"}}拜托你了！{{delay1}}\n请阻止{{color id=\"0\"}}落雷{{color id=\"65535\"}}！\n还有查明这间驿站落雷的原因！{{fun_0001_0004 arg=\"0x000001000001\"}}",
      "EUde": "{{fun_0003_0001 arg=\"0x092A\"}}Bitte sorge irgendwie dafür, dass der\n{{color id=\"0\"}}Blitz{{color id=\"65535\"}} hier nicht mehr einschlägt!{{delay1}} Es muss\ndoch einen Grund dafür geben!{{fun_0001_0004 arg=\"0x000001000001\"}}",
      "EUen": "{{fun_0003_0001 arg=\"0x092A\"}}Please... Help!{{delay1}} Stop the{{color id=\"0\"}} lightning{{color id=\"65535\"}}!\nPlease find out why it keeps striking\nthis stable!{{fun_0001_0004 arg=\"0x000001000001\"}}",
      "EUes": "{{fun_0003_0001 arg=\"0x092A\"}}¡Te lo suplico!{{delay1}} Tengo que encontrar\nla forma de acabar con los {{color id=\"0\"}}rayos{{color id=\"65535\"}}.\n¿Por qué caen todos en esta posta?{{fun_0001_0004 arg=\"0x000001000001\"}}",
      "EUfr": "{{fun_0003_0001 arg=\"0x092A\"}}Oh, je t'en prie !{{delay1}} Empêche la {{color id=\"0\"}}foudre{{color id=\"65535\"}}\nde tomber sur ce relais !\n\nTrouve pourquoi elle tombe toujours ici !\nSnif...{{fun_0001_0004 arg=\"0x000001000001\"}}",
      "EUit": "{{fun_0003_0001 arg=\"0x092A\"}}Dai aiutami!{{delay1}}\nFerma questi{{color id=\"0\"}} fulmini{{color id=\"65535\"}}!\n\nCerca di capire come mai colpiscono\nsempre lo stallaggio!{{fun_0001_0004 arg=\"0x000001000001\"}}",
      "EUnl": "{{fun_0003_0001 arg=\"0x092A\"}}Help me, alsjeblieft!{{delay1}} Zorg ervoor dat\nde{{color id=\"0\"}} bliksem{{color id=\"65535\"}} stopt! Er moet toch een reden\nzijn dat hij zo vaak inslaat op deze stal!{{fun_0001_0004 arg=\"0x000001000001\"}}",
      "EUru": "{{fun_0003_0001 arg=\"0x092A\"}}Пожалуйста!{{delay1}} Я хочу, чтобы\nэтот ужас прекратился!{{pageBreak}}Прошу тебя, выясни, почему в нашу\nконюшню так часто бьют {{color id=\"0\"}}молнии{{color id=\"65535\"}}!{{fun_0001_0004 arg=\"0x000001000001\"}}",
      "JPja": "{{fun_0003_0001 arg=\"0x092A\"}}あなた お{{ruby charSpan=\"1\" value=\"ねが\"}}願い！{{delay1}}\nこの{{color id=\"0\"}}{{ruby charSpan=\"1\" value=\"かみなり\"}}雷{{color id=\"65535\"}}を{{ruby charSpan=\"1\" value=\"と\"}}止めて！\nこの{{ruby charSpan=\"2\" value=\"うまやど\"}}馬宿に {{ruby charSpan=\"1\" value=\"お\"}}落ちる{{ruby charSpan=\"2\" value=\"げんいん\"}}原因を{{ruby charSpan=\"1\" value=\"しら\"}}調べて！{{fun_0001_0004 arg=\"0x000001000001\"}}",
      "KRko": "{{fun_0003_0001 arg=\"0x092A\"}}부탁이야!{{delay1}}\n이 {{color id=\"0\"}}번개{{color id=\"65535\"}}를 멈춰 줘!\n마구간에 떨어지는 원인을 조사해 줘!{{fun_0001_0004 arg=\"0x000001000001\"}}",
      "TWzh": "{{fun_0003_0001 arg=\"0x092A\"}}拜託你了！{{delay1}}\n請阻止{{color id=\"0\"}}落雷{{color id=\"65535\"}}！\n還有查明這間驛站落雷的原因！{{fun_0001_0004 arg=\"0x000001000001\"}}",
      "USen": "{{fun_0003_0001 arg=\"0x092A\"}}Please... Help!{{delay1}} Stop the{{color id=\"0\"}} lightning{{color id=\"65535\"}}!\nPlease find out why it keeps striking\nthis stable!{{fun_0001_0004 arg=\"0x000001000001\"}}",
      "USes": "{{fun_0003_0001 arg=\"0x0900\"}}¡Te lo suplico!{{delay1}} Tengo que encontrar\nla forma de acabar con los {{color id=\"0\"}}rayos{{color id=\"65535\"}}.\n¿Por qué caen todos en este rancho?{{fun_0001_0004 arg=\"0x000001000001\"}}",
      "USfr": "{{fun_0003_0001 arg=\"0x092A\"}}Oh, je t'en prie!{{delay1}} Empêche la {{color id=\"0\"}}foudre{{color id=\"65535\"}}\nde tomber sur ce relais!\n\nTrouve pourquoi elle tombe toujours ici!\nSnif...{{fun_0001_0004 arg=\"0x000001000001\"}}"
    }
  },
  {
    "label": "talk09",
    "attribute": "0x10010000",
    "locale": {
      "CNzh": "{{fun_0003_0001 arg=\"0x010B\"}}真的吗？太好了！\n那就拜托啦。",
      "EUde": "{{fun_0003_0001 arg=\"0x010B\"}}Wirklich?{{delay1}} Das machst du!{{delay1}} Ich bin so froh!",
      "EUen": "{{fun_0003_0001 arg=\"0x010B\"}}You will?! Really? I'm so happy!\nI'm counting on you.",
      "EUes": "{{fun_0003_0001 arg=\"0x010B\"}}¿En serio? ¿Te vas a encargar?\n¡Qué alegría!{{pageBreak}}Cuento contigo.",
      "EUfr": "{{fun_0003_0001 arg=\"0x010B\"}}Vraiment ? Oh, merci, merci, merci !",
      "EUit": "{{fun_0003_0001 arg=\"0x010B\"}}Davvero? Che bello!\nConto su di te.",
      "EUnl": "{{fun_0003_0001 arg=\"0x010B\"}}Echt? Dat is fijn om te horen. Ik reken op\nje!",
      "EUru": "{{fun_0003_0001 arg=\"0x010B\"}}Ты правда поможешь?{{delay1}} Я так рада!",
      "JPja": "{{fun_0003_0001 arg=\"0x010B\"}}ほんとう！ うれしい！\nお{{ruby charSpan=\"1\" value=\"ねが\"}}願いね",
      "KRko": "{{fun_0003_0001 arg=\"0x010B\"}}정말?! 고마워!\n잘 부탁해",
      "TWzh": "{{fun_0003_0001 arg=\"0x010B\"}}真的嗎？太好了！\n那就拜託囉。",
      "USen": "{{fun_0003_0001 arg=\"0x010B\"}}You will?! Really? I'm so happy!\nI'm counting on you.",
      "USes": "{{fun_0003_0001 arg=\"0x0700\"}}¿En serio? ¿Te vas a encargar?\n¡Qué alegría!{{pageBreak}}Cuento contigo.",
      "USfr": "{{fun_0003_0001 arg=\"0x010B\"}}Vraiment? Oh, merci, merci, merci!"
    }
  },
  {
    "label": "talk10",
    "attribute": "0x3C010000",
    "locale": {
      "CNzh": "{{fun_0003_0001 arg=\"0x0900\"}}是吗……{{delay1}}这也没办法，{{delay1}}\n唉～",
      "EUde": "{{fun_0003_0001 arg=\"0x0900\"}}Oh, wie schade...",
      "EUen": "{{fun_0003_0001 arg=\"0x0900\"}}I see...{{delay1}} Well, I guess it can't be helped.{{delay1}}\n*sigh*",
      "EUes": "{{fun_0003_0001 arg=\"0x0900\"}}Ah, vale.{{delay1}} Supongo que tendré que\nseguir viviendo así.{{delay1}} Buf...",
      "EUfr": "{{fun_0003_0001 arg=\"0x0900\"}}Oh...{{delay1}} Tant pis, je ne veux pas te forcer\nla main.{{delay1}} Snif...",
      "EUit": "{{fun_0003_0001 arg=\"0x0900\"}}Uffa...{{delay1}} mi sa che non c'è soluzione.{{delay1}}\nSob.",
      "EUnl": "{{fun_0003_0001 arg=\"0x0900\"}}O...{{delay1}} Dat is jammer.",
      "EUru": "{{fun_0003_0001 arg=\"0x0900\"}}Понятно...{{delay1}} Очень жаль.",
      "JPja": "{{fun_0003_0001 arg=\"0x0900\"}}そうなの…{{delay1}} {{ruby charSpan=\"2\" value=\"しかた\"}}仕方ないわね{{delay1}}\nはぁ～",
      "KRko": "{{fun_0003_0001 arg=\"0x0900\"}}그래…{{delay1}} 어쩔 수 없지{{delay1}}\n하아~",
      "TWzh": "{{fun_0003_0001 arg=\"0x0900\"}}是嗎……{{delay1}}這也沒辦法，{{delay1}}\n唉～",
      "USen": "{{fun_0003_0001 arg=\"0x0900\"}}I see...{{delay1}} Well, I guess it can't be helped.{{delay1}}\n*sigh*",
      "USes": "{{fun_0003_0001 arg=\"0x0900\"}}Ah, lo comprendo.{{delay1}} Supongo que tendré\nque seguir viviendo así.{{delay1}} Buf...",
      "USfr": "{{fun_0003_0001 arg=\"0x0900\"}}Oh...{{delay1}} Tant pis, je ne veux pas\nte forcer la main.{{delay1}} Snif..."
    }
  },
  {
    "label": "talk02",
    "attribute": "0x68010000",
    "locale": {
      "CNzh": "{{fun_0003_0001 arg=\"0x0900\"}}唉～{{delay1}}每到傍晚就觉得好怕……{{delay1}}\n为什么{{color id=\"0\"}}落雷{{color id=\"65535\"}}老是打在这里呢？",
      "EUde": "{{fun_0003_0001 arg=\"0x0900\"}}Wenn es auf Abend zugeht, bekomme ich\nAngst...{{delay1}} Ich frage mich wirklich, warum\nder {{color id=\"0\"}}Blitz{{color id=\"65535\"}} nur hier einschlägt.",
      "EUen": "{{fun_0003_0001 arg=\"0x0900\"}}*sigh*{{delay1}} I get scared in the evening...{{delay1}} \nI wonder why the {{color id=\"0\"}}lightning {{color id=\"65535\"}}seems to\nhave it out for this place.",
      "EUes": "{{fun_0003_0001 arg=\"0x0900\"}}Ay...{{delay1}} En cuanto se acerca la noche,\nempiezo a temblar.{{delay1}} Me pregunto por\nqué caen {{color id=\"0\"}}rayos{{color id=\"65535\"}} solo en este lugar.",
      "EUfr": "{{fun_0003_0001 arg=\"0x0900\"}}Hiii...{{delay1}} Dès que la pluie arrive, je sens\nl'angoisse m'envahir...{{delay1}} Mais pourquoi\nla {{color id=\"0\"}}foudre{{color id=\"65535\"}} ne tombe-t-elle qu'ici... ?",
      "EUit": "{{fun_0003_0001 arg=\"0x0900\"}}Uff...{{delay1}} Verso il tramonto già inizio ad avere\npaura.{{delay1}} Ma perché i {{color id=\"0\"}}fulmini{{color id=\"65535\"}} cadono\nsolo qui?!",
      "EUnl": "{{fun_0003_0001 arg=\"0x0900\"}}Ik ben elke avond bang...{{delay1}} Ik vraag me af\nwaarom de {{color id=\"0\"}}bliksem {{color id=\"65535\"}}alleen hier inslaat.",
      "EUru": "{{fun_0003_0001 arg=\"0x0900\"}}Каждый раз я с ужасом жду\nвечера...{{delay1}} Почему же {{color id=\"0\"}}молнии{{color id=\"65535\"}}\nбьют только сюда?",
      "JPja": "{{fun_0003_0001 arg=\"0x0900\"}}はぁ～{{delay1}} {{ruby charSpan=\"2\" value=\"ゆうがた\"}}夕方になるのが{{ruby charSpan=\"1\" value=\"こわ\"}}怖い…{{delay1}}\nなんで ここにばかり {{color id=\"0\"}}{{ruby charSpan=\"1\" value=\"かみなり\"}}雷{{color id=\"65535\"}}が{{ruby charSpan=\"1\" value=\"お\"}}落ちるのかしら",
      "KRko": "{{fun_0003_0001 arg=\"0x0900\"}}하아~{{delay1}} 저녁이 되는 게 무서워…{{delay1}}\n왜 여기에만 {{color id=\"0\"}}번개{{color id=\"65535\"}}가 내려칠까",
      "TWzh": "{{fun_0003_0001 arg=\"0x0900\"}}唉～{{delay1}}每到傍晚就覺得好怕……{{delay1}}\n為什麼{{color id=\"0\"}}落雷{{color id=\"65535\"}}老是打在這裡呢？",
      "USen": "{{fun_0003_0001 arg=\"0x0900\"}}*sigh*{{delay1}} I get scared in the evening...{{delay1}} \nI wonder why the {{color id=\"0\"}}lightning {{color id=\"65535\"}}seems to\nhave it out for this place.",
      "USes": "{{fun_0003_0001 arg=\"0x0900\"}}Ay...{{delay1}} En cuanto se acerca la noche,\nempiezo a temblar.{{delay1}} Me pregunto por\nqué caen {{color id=\"0\"}}rayos{{color id=\"65535\"}} solo en este lugar.",
      "USfr": "{{fun_0003_0001 arg=\"0x0900\"}}Hiii...{{delay1}} Dès que la pluie arrive, je sens\nl'angoisse m'envahir...{{delay1}} Mais pourquoi\nla {{color id=\"0\"}}foudre{{color id=\"65535\"}} ne tombe-t-elle qu'ici...?"
    }
  },
  {
    "label": "talk07",
    "attribute": "0x94010000",
    "locale": {
      "CNzh": "{{fun_0003_0001 arg=\"0x031F\"}}呀──！我受够了……{{delay frames=\"15\"}}\n好可怕……{{delay frames=\"15\"}}\n拜托你，快点找出原因……",
      "EUde": "{{fun_0003_0001 arg=\"0x031F\"}}Ich hab solche Angst!{{delay frames=\"15\"}}\nBitte mach, dass es aufhört!",
      "EUen": "{{fun_0003_0001 arg=\"0x031F\"}}Aiiiiieeee! I just...can't...{{delay frames=\"15\"}}\nI'm so scared...{{delay frames=\"15\"}}\nPlease find out why this is happening!",
      "EUes": "{{fun_0003_0001 arg=\"0x031F\"}}¡AAAH! Esto es un horror...{{delay frames=\"15\"}}\nVivo con el corazón en un puño.{{delay frames=\"15\"}}\n¡Averigua lo que puedas, rápido!",
      "EUfr": "{{fun_0003_0001 arg=\"0x031F\"}}Hiii... ! Au secours !{{delay frames=\"15\"}} J'ai peur...{{delay frames=\"15\"}} Je t'en\nprie, trouve vite la raison de ce\nphénomène !",
      "EUit": "{{fun_0003_0001 arg=\"0x031F\"}}Aaargh! Non ce la faccio!{{delay frames=\"15\"}}\nChe paura!{{delay frames=\"15\"}}\n\nTi prego, trova la causa. Presto!",
      "EUnl": "{{fun_0003_0001 arg=\"0x031F\"}}Ik... ik ben zo bang! {{delay frames=\"15\"}}Alsjeblieft, zorg\nervoor dat de bliksem hier niet meer\ninslaat!",
      "EUru": "{{fun_0003_0001 arg=\"0x031F\"}}А-а-а! Мне страшно!{{delay1}} Я больше не могу!{{pageBreak}}Прошу тебя, выясни, что\nне так с нашей конюшней!",
      "JPja": "{{fun_0003_0001 arg=\"0x031F\"}}キャーッ もう いや…{{delay frames=\"15\"}}\n{{ruby charSpan=\"1\" value=\"こわ\"}}怖い…{{delay frames=\"15\"}}\n{{ruby charSpan=\"1\" value=\"はや\"}}早く {{ruby charSpan=\"2\" value=\"げんいん\"}}原因を{{ruby charSpan=\"1\" value=\"つ\"}}突き{{ruby charSpan=\"1\" value=\"と\"}}止めて お{{ruby charSpan=\"1\" value=\"ねが\"}}願い…",
      "KRko": "{{fun_0003_0001 arg=\"0x031F\"}}꺅~ 이제 그만…{{delay frames=\"15\"}}\n무서워…{{delay frames=\"15\"}}\n빨리 원인을 찾아 줘 부탁이야…",
      "TWzh": "{{fun_0003_0001 arg=\"0x031F\"}}呀──！我受夠了……{{delay frames=\"15\"}}\n好可怕……{{delay frames=\"15\"}}\n拜託你，快點找出原因……",
      "USen": "{{fun_0003_0001 arg=\"0x031F\"}}Aiiiiieeee! I just...can't...{{delay frames=\"15\"}}\nI'm so scared...{{delay frames=\"15\"}}\nPlease find out why this is happening!",
      "USes": "{{fun_0003_0001 arg=\"0x0900\"}}¡AAAH! Esto es un horror...{{delay frames=\"15\"}}\nVivo con el corazón en la mano.{{delay frames=\"15\"}}\n¡Averigua lo que puedas, rápido!",
      "USfr": "{{fun_0003_0001 arg=\"0x031F\"}}Hiii...! Au secours!{{delay frames=\"15\"}} J'ai peur...{{delay frames=\"15\"}} Je t'en\nprie, trouve vite la raison de ce\nphénomène!"
    }
  },
  {
    "label": "talk12",
    "attribute": "0xC0010000",
    "locale": {
      "CNzh": "{{fun_0003_0001 arg=\"0x0700\"}}咦！？{{delay2}}\n你找出{{color id=\"0\"}}落雷{{color id=\"65535\"}}的原因了？{{fun_0001_000A arg=\"0x020001CD\"}}",
      "EUde": "{{fun_0003_0001 arg=\"0x0700\"}}Du hast herausgefunden, was die {{color id=\"0\"}}Blitze{{color id=\"65535\"}}\nangezogen hat?{{fun_0001_000A arg=\"0x020001CD\"}}",
      "EUen": "{{fun_0003_0001 arg=\"0x0700\"}}What?{{delay2}} You found out what was drawing\nthe {{color id=\"0\"}}lightning {{color id=\"65535\"}}here?{{fun_0001_000A arg=\"0x020001CD\"}}",
      "EUes": "{{fun_0003_0001 arg=\"0x0700\"}}¿Cómo dices?{{delay2}} ¿Ya has averiguado\npor qué caían tantos {{color id=\"0\"}}rayos{{color id=\"65535\"}}?{{fun_0001_000A arg=\"0x020001CD\"}}",
      "EUfr": "{{fun_0003_0001 arg=\"0x0700\"}}Hein ?{{delay2}} Vraiment ?! Tu as trouvé ce qui\nattire la {{color id=\"0\"}}foudre {{color id=\"65535\"}}ici ?{{fun_0001_000A arg=\"0x020001CD\"}}",
      "EUit": "{{fun_0003_0001 arg=\"0x0700\"}}Davvero?{{delay2}}\nHai trovato la causa di tutti quei {{color id=\"0\"}}fulmini{{color id=\"65535\"}}?{{fun_0001_000A arg=\"0x020001CD\"}}",
      "EUnl": "{{fun_0003_0001 arg=\"0x0700\"}}Wat?{{delay2}} Je bent achter de oorzaak van de\n{{color id=\"0\"}}bliksem{{color id=\"65535\"}} gekomen?{{fun_0001_000A arg=\"0x020001CD\"}}",
      "EUru": "{{fun_0003_0001 arg=\"0x0700\"}}Ты узнал, почему в конюшню\nвсе время били {{color id=\"0\"}}молнии{{color id=\"65535\"}}, да?{{fun_0001_000A arg=\"0x020001CD\"}}",
      "JPja": "{{fun_0003_0001 arg=\"0x0700\"}}えっ{{delay2}}\n{{color id=\"0\"}}{{ruby charSpan=\"1\" value=\"かみなり\"}}雷{{color id=\"65535\"}}が{{ruby charSpan=\"1\" value=\"お\"}}落ちる{{ruby charSpan=\"2\" value=\"げんいん\"}}原因 {{ruby charSpan=\"1\" value=\"つ\"}}突き{{ruby charSpan=\"1\" value=\"と\"}}止めてくれたの？{{fun_0001_000A arg=\"0x020001CD\"}}",
      "KRko": "{{fun_0003_0001 arg=\"0x0700\"}}앗{{delay2}}\n{{color id=\"0\"}}번개{{color id=\"65535\"}}가 치는 원인 알아냈어?{{fun_0001_000A arg=\"0x020001CD\"}}",
      "TWzh": "{{fun_0003_0001 arg=\"0x0700\"}}咦！？{{delay2}}\n你找出{{color id=\"0\"}}落雷{{color id=\"65535\"}}的原因了嗎？{{fun_0001_000A arg=\"0x020001CD\"}}",
      "USen": "{{fun_0003_0001 arg=\"0x0700\"}}What?{{delay2}} You found out what was drawing\nthe {{color id=\"0\"}}lightning {{color id=\"65535\"}}here?{{fun_0001_000A arg=\"0x020001CD\"}}",
      "USes": "{{fun_0003_0001 arg=\"0x0700\"}}¿Cómo dices?{{delay2}} ¿Ya averiguaste\npor qué caían tantos {{color id=\"0\"}}rayos{{color id=\"65535\"}}?{{fun_0001_000A arg=\"0x020001CD\"}}",
      "USfr": "{{fun_0003_0001 arg=\"0x0700\"}}Hein?{{delay2}} Vraiment?! Tu as trouvé ce qui\nattire la {{color id=\"0\"}}foudre {{color id=\"65535\"}}ici?{{fun_0001_000A arg=\"0x020001CD\"}}"
    }
  },
  {
    "label": "talk13",
    "attribute": "0xEC010000",
    "locale": {
      "CNzh": "{{fun_0003_0001 arg=\"0x0400\"}}原来是这样！{{delay1}}\n所以落雷才会打在这里。\n到底是谁把斧头插在那么高的地方呢？\n真是不可思议……",
      "EUde": "{{fun_0003_0001 arg=\"0x0400\"}}Ach so!{{delay1}} Deswegen haben die Blitze\nhier eingeschlagen!{{pageBreak}}Ich frage mich nur, wo sie herkamen?{{delay1}}\nHat sie jemand von oben geworfen?{{delay1}}\nSehr seltsam...",
      "EUen": "{{fun_0003_0001 arg=\"0x0400\"}}Aha! {{delay1}}Yeah, that's as good as a lightning\nrod, isn't it?\n\nI wonder if someone put it up there on\npurpose. How strange...",
      "EUes": "{{fun_0003_0001 arg=\"0x0400\"}}¡Ah, ya entiendo!{{delay1}} Así que los rayos\ncaían justo aquí, ¿eh?{{pageBreak}}Me pregunto si habrá alguien ahí\narriba que nos los esté mandando...\nEs todo muy sospechoso.",
      "EUfr": "{{fun_0003_0001 arg=\"0x0400\"}}Je vois !{{delay1}} C'est donc sur cet objet\nen métal que la foudre tombait ?\n\nComment a-t-il bien pu atterrir là-haut ?",
      "EUit": "{{fun_0003_0001 arg=\"0x0400\"}}Ah, ecco!{{delay1}} Quindi i fulmini erano attirati\nlà, eh?\n\nChissà se qualcuno l'ha lanciata apposta,\nda un qualche punto più elevato.\nChe mistero...",
      "EUnl": "{{fun_0003_0001 arg=\"0x0400\"}}Aha!{{delay1}} Dus de bliksem sloeg daar in?{{pageBreak}}Ik vraag me af of iemand op een hoge\nplek de bliksem veroorzaakte. Wat een\nmysterie...",
      "EUru": "{{fun_0003_0001 arg=\"0x0400\"}}Вот оно что!{{delay1}} Значит, именно\nтопор притягивал молнии!{{pageBreak}}Теперь меня волнует другой вопрос:\nоткуда на крыше взялся топор?..",
      "JPja": "{{fun_0003_0001 arg=\"0x0400\"}}そうだったの！{{delay1}}\nそこに {{ruby charSpan=\"1\" value=\"かみなり\"}}雷が{{ruby charSpan=\"1\" value=\"お\"}}落ちていたのね\nあんな{{ruby charSpan=\"1\" value=\"たか\"}}高いところに {{ruby charSpan=\"1\" value=\"だれ\"}}誰が{{ruby charSpan=\"1\" value=\"さ\"}}刺したのかしら\n{{ruby charSpan=\"3\" value=\"ふしぎ\"}}不思議ね…",
      "KRko": "{{fun_0003_0001 arg=\"0x0400\"}}그랬구나!{{delay1}}\n거기에 번개가 내려쳤던 거구나\n저렇게 높은 곳에 누가 꽂아 놓은 거지\n이상하네…",
      "TWzh": "{{fun_0003_0001 arg=\"0x0400\"}}原來是這樣啊！{{delay1}}\n所以落雷才會打在這裡。\n到底是誰把斧頭插在那麼高的地方呢？\n真是不可思議……",
      "USen": "{{fun_0003_0001 arg=\"0x0400\"}}Aha! {{delay1}}Yeah, that's as good as a lightning\nrod, isn't it?\n\nI wonder if someone put it up there on\npurpose. How strange...",
      "USes": "{{fun_0003_0001 arg=\"0x0400\"}}¡Ah, ya entiendo!{{delay1}} El metal atraía los\nrayos, ¿no?{{pageBreak}}¿Será que alguien lo puso ahí a\npropósito? Es todo muy sospechoso...",
      "USfr": "{{fun_0003_0001 arg=\"0x0400\"}}Je vois!{{delay1}} C'est donc sur cet objet\nen métal que la foudre tombait?\n\nComment a-t-il bien pu atterrir là-haut?"
    }
  },
  {
    "label": "talk14",
    "attribute": "0x18020000",
    "locale": {
      "CNzh": "{{fun_0003_0001 arg=\"0x0100\"}}谢谢你查明原因！{{delay1}}\n这是我的一点心意。",
      "EUde": "{{fun_0003_0001 arg=\"0x0100\"}}Danke, dass du der Sache auf den Grund\ngegangen bist!{{delay1}} Hier, nimm das zum Dank!",
      "EUen": "{{fun_0003_0001 arg=\"0x0100\"}}Thanks for looking into it for me!{{delay1}}\nHere's something for your trouble.",
      "EUes": "{{fun_0003_0001 arg=\"0x0100\"}}Ha sido todo un detalle por tu parte\ninvestigar semejante misterio.{{pageBreak}}Sé que no es gran cosa,{{delay1}} pero quiero\nque te quedes esto como muestra\nde mi agradecimiento.",
      "EUfr": "{{fun_0003_0001 arg=\"0x0100\"}}Merci d'avoir mené l'enquête !{{delay1}} Tiens,\nprends ce petit quelque chose pour ta\npeine.",
      "EUit": "{{fun_0003_0001 arg=\"0x0100\"}}Grazie per aver indagato!{{delay1}} Ecco, tieni:\nnon è molto, ma accettalo come mio\nringraziamento.",
      "EUnl": "{{fun_0003_0001 arg=\"0x0100\"}}Ik stel je hulp erg op prijs!{{delay1}} Hier is een\nkleinigheidje om je te bedanken.",
      "EUru": "{{fun_0003_0001 arg=\"0x0100\"}}Ладно, спасибо, что во всем\nразобрался!{{delay1}} Вот, это тебе!",
      "JPja": "{{fun_0003_0001 arg=\"0x0100\"}}{{ruby charSpan=\"1\" value=\"しら\"}}調べてくれて ありがとう！{{delay1}}\nこれは わたしから せめてものお{{ruby charSpan=\"1\" value=\"れい\"}}礼よ",
      "KRko": "{{fun_0003_0001 arg=\"0x0100\"}}조사해 줘서 고마워!{{delay1}}\n이건 내가 주는 답례품이야",
      "TWzh": "{{fun_0003_0001 arg=\"0x0100\"}}謝謝你查明原因！{{delay1}}\n這是我的一點心意。",
      "USen": "{{fun_0003_0001 arg=\"0x0100\"}}Thanks for looking into it for me!{{delay1}}\nHere's something for your trouble.",
      "USes": "{{fun_0003_0001 arg=\"0x0100\"}}Te agradezco mucho que te hayas\nmolestado en resolver el misterio.{{pageBreak}}Sé que no es gran cosa,{{delay1}} pero quiero\nque te quedes esto como muestra\nde mi agradecimiento.",
      "USfr": "{{fun_0003_0001 arg=\"0x0100\"}}Merci d'avoir mené l'enquête!{{delay1}}\nTiens, prends ce petit quelque chose\npour ta peine."
    }
  },
  {
    "label": "talk04",
    "attribute": "0x44020000",
    "locale": {
      "CNzh": "{{fun_0003_0001 arg=\"0x0700\"}}这样就能安心\n生活了呢！",
      "EUde": "{{fun_0003_0001 arg=\"0x0700\"}}Jetzt kann ich endlich in Frieden leben!",
      "EUen": "{{fun_0003_0001 arg=\"0x0700\"}}I can finally relax!",
      "EUes": "{{fun_0003_0001 arg=\"0x0700\"}}¡Al fin podré vivir tranquila!",
      "EUfr": "{{fun_0003_0001 arg=\"0x0700\"}}Je suis tellement soulagée !",
      "EUit": "{{fun_0003_0001 arg=\"0x0700\"}}Adesso posso vivere in pace!",
      "EUnl": "{{fun_0003_0001 arg=\"0x0700\"}}Nu kan ik me eindelijk ontspannen!",
      "EUru": "{{fun_0003_0001 arg=\"0x0700\"}}Наконец-то я могу спать спокойно!",
      "JPja": "{{fun_0003_0001 arg=\"0x0700\"}}これで {{ruby charSpan=\"2\" value=\"あんしん\"}}安心して\n{{ruby charSpan=\"1\" value=\"く\"}}暮らせるわ！",
      "KRko": "{{fun_0003_0001 arg=\"0x0700\"}}이제 안심하고\n지낼 수 있겠네!",
      "TWzh": "{{fun_0003_0001 arg=\"0x0700\"}}這樣就能安心\n生活了呢！",
      "USen": "{{fun_0003_0001 arg=\"0x0700\"}}I can finally relax!",
      "USes": "{{fun_0003_0001 arg=\"0x0700\"}}¡Al fin podré vivir tranquila!",
      "USfr": "{{fun_0003_0001 arg=\"0x0700\"}}Je suis tellement soulagée!"
    }
  },
  {
    "label": "talk05",
    "attribute": "0x70020000",
    "locale": {
      "CNzh": "{{fun_0003_0001 arg=\"0x0310\"}}呜～好可怕……",
      "EUde": "{{fun_0003_0001 arg=\"0x0310\"}}Ich habe solche Angst...",
      "EUen": "{{fun_0003_0001 arg=\"0x0310\"}}Urrrm...run away...",
      "EUes": "{{fun_0003_0001 arg=\"0x0310\"}}Ay, qué miedo...",
      "EUfr": "{{fun_0003_0001 arg=\"0x0310\"}}Au secours... J'ai peur...",
      "EUit": "{{fun_0003_0001 arg=\"0x0310\"}}Uuuh... che paura...",
      "EUnl": "{{fun_0003_0001 arg=\"0x0310\"}}Ik ben bang...",
      "EUru": "{{fun_0003_0001 arg=\"0x0310\"}}Мне страшно...",
      "JPja": "{{fun_0003_0001 arg=\"0x0310\"}}うぅーん {{ruby charSpan=\"1\" value=\"こわ\"}}怖い…",
      "KRko": "{{fun_0003_0001 arg=\"0x0310\"}}으으, 무서워…",
      "TWzh": "{{fun_0003_0001 arg=\"0x0310\"}}嗚～好可怕……",
      "USen": "{{fun_0003_0001 arg=\"0x0310\"}}Urrrm...run away...",
      "USes": "Ay, qué miedo...",
      "USfr": "{{fun_0003_0001 arg=\"0x0310\"}}Au secours... J'ai peur..."
    }
  },
  {
    "label": "Near00",
    "attribute": "0x9C020000",
    "locale": {
      "CNzh": "唉～",
      "EUde": "Ach...",
      "EUen": "*sigh*",
      "EUes": "Jo...",
      "EUfr": "Haa...",
      "EUit": "Sob...",
      "EUnl": "Ach...",
      "EUru": "Ох...",
      "JPja": "はぁ～",
      "KRko": "하아~",
      "TWzh": "唉～",
      "USen": "*sigh*",
      "USes": "Bah...",
      "USfr": "Haa..."
    }
  },
  {
    "label": "Near01",
    "attribute": "0xC8020000",
    "locale": {
      "CNzh": "抖抖抖……",
      "EUde": "Oje...",
      "EUen": "*shudder*",
      "EUes": "Qué miedo.",
      "EUfr": "Hiii...",
      "EUit": "B-B-Brrr...",
      "EUnl": "Brrr...",
      "EUru": "Бр-р-р...",
      "JPja": "ぶるぶる…",
      "KRko": "부들부들…",
      "TWzh": "抖抖抖……",
      "USen": "*shudder*",
      "USes": "Qué miedo.",
      "USfr": "Hiii..."
    }
  },
  {
    "label": "Near02",
    "attribute": "0xF4020000",
    "locale": {
      "CNzh": "呜～",
      "EUde": "Hnnnf...",
      "EUen": "Urrrmm...",
      "EUes": "Hum...",
      "EUfr": "Snif...",
      "EUit": "Aaahhh!",
      "EUnl": "Ehm...",
      "EUru": "М-м-н-н...",
      "JPja": "うぅーん",
      "KRko": "으~음",
      "TWzh": "嗚～",
      "USen": "Urrrmm...",
      "USes": "Hum...",
      "USfr": "Snif..."
    }
  },
  {
    "label": "Near03",
    "attribute": "0x20030000",
    "locale": {
      "CNzh": "呼噜呼噜～",
      "EUde": "Zzz...",
      "EUen": "Zzzz...",
      "EUes": "Zzz...",
      "EUfr": "Zzz...",
      "EUit": "Zzz...",
      "EUnl": "Zzz...",
      "EUru": "Хс-с-с...",
      "JPja": "すやすや",
      "KRko": "쿨쿨",
      "TWzh": "呼嚕呼嚕～",
      "USen": "Zzzz...",
      "USes": "Zzz...",
      "USfr": "Zzz..."
    }
  },
  {
    "label": "Near05",
    "attribute": "0x4C030000",
    "locale": {
      "CNzh": "开始下雨了呢～",
      "EUde": "Sieht nach Regen aus.",
      "EUen": "Looks like rain...",
      "EUes": "Parece que va a llover.",
      "EUfr": "Quelle pluie !",
      "EUit": "Sembra pioggia.",
      "EUnl": "Het gaat vast regenen.",
      "EUru": "О нет, снова дождь!",
      "JPja": "{{ruby charSpan=\"1\" value=\"ふ\"}}降ってきたわね～",
      "KRko": "비가 오네~",
      "TWzh": "開始下雨了呢～",
      "USen": "Looks like rain...",
      "USes": "Parece que va a llover.",
      "USfr": "Quelle pluie!"
    }
  },
  {
    "label": "Near06",
    "attribute": "0x78030000",
    "locale": {
      "CNzh": "呼啊～",
      "EUde": "Waaaah...",
      "EUen": "*yaaawn*",
      "EUes": "¡Uaaah!",
      "EUfr": "Haa...",
      "EUit": "Yaaawn...",
      "EUnl": "Waaaah...",
      "EUru": "Уо-а-а",
      "JPja": "ふぁ～",
      "KRko": "흐아암~",
      "TWzh": "呼啊～",
      "USen": "*yaaawn*",
      "USes": "¡Uaaah!",
      "USfr": "Haa..."
    }
  },
  {
    "label": "0000",
    "attribute": "0xA4030000",
    "locale": {
      "CNzh": "交给我吧",
      "EUde": "Ich kümmer mich drum.",
      "EUen": "Leave it to me!",
      "EUes": "¡Lo investigaré!",
      "EUfr": "Compte sur moi !",
      "EUit": "Lascia fare a me.",
      "EUnl": "Ik doe het!",
      "EUru": "Хорошо",
      "JPja": "まかせろ",
      "KRko": "맡겨 둬",
      "TWzh": "交給我吧",
      "USen": "Leave it to me!",
      "USes": "¡Lo investigaré!",
      "USfr": "Compte sur moi!"
    }
  },
  {
    "label": "0001",
    "attribute": "0xA6030000",
    "locale": {
      "CNzh": "我很忙",
      "EUde": "Hab gerade zu tun.",
      "EUen": "I'm a bit busy...",
      "EUes": "Estoy muy ocupado",
      "EUfr": "Pas que ça à faire.",
      "EUit": "Ho da fare.",
      "EUnl": "Ik heb het te druk...",
      "EUru": "Мне некогда",
      "JPja": "{{ruby charSpan=\"1\" value=\"いそが\"}}忙しい",
      "KRko": "난 바빠",
      "TWzh": "我很忙",
      "USen": "I'm a bit busy...",
      "USes": "Estoy muy ocupado",
      "USfr": "Pas que ça à faire."
    }
  },
  {
    "label": "0002",
    "attribute": "0xA8030000",
    "locale": {
      "CNzh": "有把金属制斧头",
      "EUde": "War eine Metallaxt...",
      "EUen": "It was a metal axe.",
      "EUes": "Era por un hacha",
      "EUfr": "C'était une hache...",
      "EUit": "Era un'ascia di metallo.",
      "EUnl": "Een metalen bijl.",
      "EUru": "На крыше был топор",
      "JPja": "{{ruby charSpan=\"3\" value=\"きんぞくせい\"}}金属製のオノが",
      "KRko": "금속으로 된 도끼가",
      "TWzh": "有把金屬製斧頭",
      "USen": "It was a metal axe.",
      "USes": "Era por un hacha",
      "USfr": "C'était une hache..."
    }
  }
]