[
  {
    "label": "Talk00",
    "attribute": "0x70000000",
    "locale": {
      "CNzh": "{{fun_0003_0001 arg=\"0x0800\"}}{{size value=\"125\"}}住手！那是吾国至宝{{color id=\"2\"}}雷鸣头盔{{color id=\"65535\"}}！{{size value=\"100\"}}\n\n就算是你，也不得随意碰触……",
      "EUde": "{{fun_0003_0001 arg=\"0x0800\"}}{{size value=\"125\"}}He!{{delay1}} Das ist der {{color id=\"2\"}}{{wordInfo gender=\"1\" defArticle=\"0\" indefArticle=\"0\" isPlural=\"0\"}}Donnerhelm{{color id=\"65535\"}}!{{pageBreak}}{{size value=\"100\"}}Nicht einmal du darfst den Schatz\nunseres Stammes so einfach anrühren...",
      "EUen": "{{fun_0003_0001 arg=\"0x0800\"}}{{size value=\"125\"}}Halt! That is the treasure of the\nGerudo, the {{color id=\"2\"}}Thunder Helm{{color id=\"65535\"}}!{{size value=\"100\"}}{{delay3}}\n\nYou may be held in high esteem, but this\ndoes not give you the freedom to lay\nyour hands on the pride of our people.",
      "EUes": "{{fun_0003_0001 arg=\"0x0800\"}}{{size value=\"125\"}}¡Eh! ¡Eso no se toca!{{size value=\"100\"}}{{pageBreak}}El {{color id=\"2\"}}{{wordInfo gender=\"1\" defArticle=\"0\" indefArticle=\"0\" isPlural=\"0\"}}casco del trueno{{color id=\"65535\"}} es un tesoro de\nnuestra tribu.{{pageBreak}}Aunque seas alguien importante,\neso no te da derecho a tocarlo.",
      "EUfr": "{{fun_0003_0001 arg=\"0x0800\"}}{{size value=\"125\"}}Minute !{{pageBreak}}C'est le trésor de notre peuple...{{pageBreak}}... le {{color id=\"2\"}}{{wordInfo gender=\"1\" defArticle=\"0\" indefArticle=\"0\" isPlural=\"0\"}}masque du tonnerre{{color id=\"65535\"}} !{{pageBreak}}{{size value=\"100\"}}Personne n'est autorisé à le toucher,\npas même toi !",
      "EUit": "{{fun_0003_0001 arg=\"0x0800\"}}{{size value=\"125\"}}Giù le mani dall'{{color id=\"2\"}}{{wordInfo gender=\"1\" defArticle=\"3\" indefArticle=\"0\" isPlural=\"0\"}}elmo del tuono{{color id=\"65535\"}}!{{size value=\"100\"}}\n\n\nAnche se sei tu, non posso lasciarti\ntoccare liberamente il nostro tesoro.",
      "EUnl": "{{fun_0003_0001 arg=\"0x0800\"}}Hé! Dat is onze schat, de {{color id=\"2\"}}Bliksemhelm{{color id=\"65535\"}}!{{pageBreak}}Je kunt dan wel een belangrijk persoon\nzijn, maar dat betekent niet dat je hem\nzomaar kunt aanraken!",
      "EUru": "{{fun_0003_0001 arg=\"0x0800\"}}{{size value=\"125\"}}Эй! Не трогай!{{size value=\"100\"}}{{pageBreak}}{{color id=\"2\"}}Шлем Грома{{color id=\"65535\"}} — реликвия нашего\nнарода!{{delay1}} Он достался нам от\nгоспожи Урбозы!",
      "JPja": "{{fun_0003_0001 arg=\"0x0800\"}}{{size value=\"125\"}}{{ruby charSpan=\"1\" value=\"ま\"}}待て！ それは{{ruby charSpan=\"1\" value=\"わ\"}}我が{{ruby charSpan=\"1\" value=\"くに\"}}国の{{ruby charSpan=\"1\" value=\"たから\"}}宝{{color id=\"2\"}}{{ruby charSpan=\"2\" value=\"らいめい\"}}雷鳴の{{ruby charSpan=\"1\" value=\"かぶと\"}}兜{{color id=\"65535\"}}！{{size value=\"100\"}}\n\nいくらお{{ruby charSpan=\"1\" value=\"まえ\"}}前と{{ruby charSpan=\"1\" value=\"い\"}}言えども\n{{ruby charSpan=\"2\" value=\"きやす\"}}気安く{{ruby charSpan=\"1\" value=\"ふ\"}}触れることは…",
      "KRko": "{{fun_0003_0001 arg=\"0x0800\"}}{{size value=\"125\"}}기다려라!\n그건 우리의 보물인 {{color id=\"2\"}}뇌명의 투구{{color id=\"65535\"}}!{{size value=\"100\"}}\n아무리 너라고 해도\n가벼이 손대서는…",
      "TWzh": "{{fun_0003_0001 arg=\"0x0800\"}}{{size value=\"125\"}}住手！那是我國至寶{{color id=\"2\"}}雷鳴頭盔{{color id=\"65535\"}}！{{size value=\"100\"}}\n\n就算是你\n也不得隨意碰觸……",
      "USen": "{{fun_0003_0001 arg=\"0x0800\"}}{{size value=\"125\"}}Halt! That is the treasure of the\nGerudo, the {{color id=\"2\"}}Thunder Helm{{color id=\"65535\"}}!{{size value=\"100\"}}{{delay3}}\n\nYou may be held in high esteem, but this\ndoes not give you the freedom to lay\nyour hands on the pride of our people.",
      "USes": "{{fun_0003_0001 arg=\"0x0800\"}}{{size value=\"125\"}}¡Eh! ¡Eso no se toca!{{size value=\"100\"}}{{pageBreak}}El {{color id=\"2\"}}{{wordInfo gender=\"1\" defArticle=\"0\" indefArticle=\"0\" isPlural=\"0\"}}casco del trueno{{color id=\"65535\"}} es un tesoro de\nnuestra tribu.{{pageBreak}}Aunque seas alguien importante,\neso no te da derecho a tocarlo.",
      "USfr": "{{fun_0003_0001 arg=\"0x0800\"}}{{size value=\"125\"}}Minute! C'est le trésor\nde notre peuple...\n\n... le {{color id=\"2\"}}{{wordInfo gender=\"1\" defArticle=\"0\" indefArticle=\"0\" isPlural=\"0\"}}masque du tonnerre{{color id=\"65535\"}}!{{size value=\"100\"}}\n\n\nPersonne n'est autorisé à le toucher,\npas même toi!"
    }
  },
  {
    "label": "Talk01",
    "attribute": "0x8A000000",
    "locale": {
      "CNzh": "{{fun_0003_0001 arg=\"0x0000\"}}好了，冷静点，碧优拉。{{delay3}}",
      "EUde": "{{fun_0003_0001 arg=\"0x0000\"}}Beruhige dich, Bylla.{{delay3}}",
      "EUen": "{{fun_0003_0001 arg=\"0x0000\"}}Becalm yourself, Buliara.{{delay3}}",
      "EUes": "{{fun_0003_0001 arg=\"0x0000\"}}Tranquila, Adine.",
      "EUfr": "{{fun_0003_0001 arg=\"0x0000\"}}Allons, du calme, Beterah.{{delay3}}",
      "EUit": "{{fun_0003_0001 arg=\"0x0000\"}}Calmati, Biulla.{{delay3}}",
      "EUnl": "{{fun_0003_0001 arg=\"0x0000\"}}Rustig maar, Buliara.",
      "EUru": "{{fun_0003_0001 arg=\"0x0000\"}}Успокойся, Белла.",
      "JPja": "{{fun_0003_0001 arg=\"0x0000\"}}まあ {{ruby charSpan=\"1\" value=\"お\"}}落ち{{ruby charSpan=\"1\" value=\"つ\"}}着けビューラ{{delay3}}",
      "KRko": "{{fun_0003_0001 arg=\"0x0000\"}}자, 진정해라 뷰러{{delay3}}",
      "TWzh": "{{fun_0003_0001 arg=\"0x0000\"}}好了，冷靜點，碧優拉。{{delay3}}",
      "USen": "{{fun_0003_0001 arg=\"0x0000\"}}Becalm yourself, Buliara.{{delay3}}",
      "USes": "{{fun_0003_0001 arg=\"0x0000\"}}Tranquila, Adine.",
      "USfr": "{{fun_0003_0001 arg=\"0x0000\"}}Allons, du calme, Beterah.{{delay3}}"
    }
  },
  {
    "label": "Talk10",
    "attribute": "0xA4000000",
    "locale": {
      "CNzh": "{{fun_0003_0001 arg=\"0x0000\"}}你……想要这顶头盔吗？{{fun_0001_0004 arg=\"0x020003000001\"}}",
      "EUde": "{{fun_0003_0001 arg=\"0x0000\"}}Dieser Helm...{{delay1}} Möchtest du ihn haben?{{fun_0001_0004 arg=\"0x020003000001\"}}",
      "EUen": "{{fun_0003_0001 arg=\"0x0000\"}}You...desire this helm?{{fun_0001_0004 arg=\"0x020003000001\"}}",
      "EUes": "{{fun_0003_0001 arg=\"0x0000\"}}¿Lo quieres para ti?{{fun_0001_0004 arg=\"0x020003000001\"}}",
      "EUfr": "{{fun_0003_0001 arg=\"0x0000\"}}Dis-moi... Tu veux ce masque ?{{fun_0001_0004 arg=\"0x020003000001\"}}",
      "EUit": "{{fun_0003_0001 arg=\"0x0000\"}}Tu, vuoi questo elmo?{{fun_0001_0004 arg=\"0x020003000001\"}}",
      "EUnl": "{{fun_0003_0001 arg=\"0x0000\"}}Jij... wilt deze helm hebben?{{fun_0001_0004 arg=\"0x020003000001\"}}",
      "EUru": "{{fun_0003_0001 arg=\"0x0000\"}}Тебе нужен этот шлем?{{fun_0001_0004 arg=\"0x020003000001\"}}",
      "JPja": "{{fun_0003_0001 arg=\"0x0000\"}}お{{ruby charSpan=\"1\" value=\"まえ\"}}前… この{{ruby charSpan=\"1\" value=\"かぶと\"}}兜がほしいのか？{{fun_0001_0004 arg=\"0x020003000001\"}}",
      "KRko": "{{fun_0003_0001 arg=\"0x0000\"}}그대… 이 투구를 원하는가?{{fun_0001_0004 arg=\"0x020003000001\"}}",
      "TWzh": "{{fun_0003_0001 arg=\"0x0000\"}}你……想要這頂頭盔嗎？{{fun_0001_0004 arg=\"0x020003000001\"}}",
      "USen": "{{fun_0003_0001 arg=\"0x0000\"}}You...desire this helm?{{fun_0001_0004 arg=\"0x020003000001\"}}",
      "USes": "{{fun_0003_0001 arg=\"0x0000\"}}¿Lo quieres para ti?{{fun_0001_0004 arg=\"0x020003000001\"}}",
      "USfr": "{{fun_0003_0001 arg=\"0x0000\"}}Dis-moi... Tu veux ce masque?{{fun_0001_0004 arg=\"0x020003000001\"}}"
    }
  },
  {
    "label": "0002",
    "attribute": "0xBE000000",
    "locale": {
      "CNzh": "想要",
      "EUde": "Oh ja!",
      "EUen": "I want it!",
      "EUes": "Pues sí",
      "EUfr": "Oui.",
      "EUit": "Lo voglio.",
      "EUnl": "Ik wil 'm hebben, ja.",
      "EUru": "Очень!",
      "JPja": "ほしい",
      "KRko": "원해",
      "TWzh": "想要",
      "USen": "I want it!",
      "USes": "Pues sí",
      "USfr": "Oui."
    }
  },
  {
    "label": "0003",
    "attribute": "0xC0000000",
    "locale": {
      "CNzh": "不想要",
      "EUde": "Nein.",
      "EUen": "I don't need it.",
      "EUes": "No...",
      "EUfr": "Non, pas du tout.",
      "EUit": "Non lo voglio.",
      "EUnl": "Nee, ik hoef 'm niet.",
      "EUru": "Нет, не нужен",
      "JPja": "ほしくない",
      "KRko": "아니",
      "TWzh": "不想要",
      "USen": "I don't need it.",
      "USes": "No...",
      "USfr": "Non, pas du tout."
    }
  },
  {
    "label": "Talk09",
    "attribute": "0xC2000000",
    "locale": {
      "CNzh": "{{fun_0003_0001 arg=\"0x0800\"}}{{size value=\"125\"}}那么就请你别再靠近了！{{size value=\"100\"}}",
      "EUde": "{{fun_0003_0001 arg=\"0x0800\"}}{{size value=\"125\"}}Aber antatschen wolltest du ihn!{{size value=\"100\"}}",
      "EUen": "{{fun_0003_0001 arg=\"0x0800\"}}{{size value=\"125\"}}Then come no closer!{{size value=\"100\"}}",
      "EUes": "{{fun_0003_0001 arg=\"0x0800\"}}{{size value=\"125\"}}¡Entonces ni te acerques!{{size value=\"100\"}}",
      "EUfr": "{{fun_0003_0001 arg=\"0x0800\"}}{{size value=\"125\"}}Alors ne t'en approche pas !{{size value=\"100\"}}",
      "EUit": "{{fun_0003_0001 arg=\"0x0800\"}}{{size value=\"125\"}}Allora non ti avvicinare!{{size value=\"100\"}}",
      "EUnl": "{{fun_0003_0001 arg=\"0x0800\"}}{{size value=\"125\"}}Houd dan gepaste afstand!{{size value=\"100\"}}",
      "EUru": "{{fun_0003_0001 arg=\"0x0800\"}}{{size value=\"125\"}}Вот и не подходи к нему!{{size value=\"100\"}}",
      "JPja": "{{fun_0003_0001 arg=\"0x0800\"}}{{size value=\"125\"}}なら {{ruby charSpan=\"1\" value=\"ちか\"}}近づかんでもらいたいな！{{size value=\"100\"}}",
      "KRko": "{{fun_0003_0001 arg=\"0x0800\"}}{{size value=\"125\"}}그렇다면 떨어져 줬으면 좋겠군!{{size value=\"100\"}}",
      "TWzh": "{{fun_0003_0001 arg=\"0x0800\"}}{{size value=\"125\"}}那麼就請你別再靠近了！{{size value=\"100\"}}",
      "USen": "{{fun_0003_0001 arg=\"0x0800\"}}{{size value=\"125\"}}Then come no closer!{{size value=\"100\"}}",
      "USes": "{{fun_0003_0001 arg=\"0x0800\"}}{{size value=\"125\"}}¡Entonces ni te acerques!{{size value=\"100\"}}",
      "USfr": "{{fun_0003_0001 arg=\"0x0800\"}}{{size value=\"125\"}}Alors, ne t'en approche pas!{{size value=\"100\"}}"
    }
  },
  {
    "label": "Talk02",
    "attribute": "0xDC000000",
    "locale": {
      "CNzh": "{{fun_0003_0001 arg=\"0x0000\"}}这样啊……虽说你是我们的恩人，\n但这个实在无法送给你。\n{{fun_0003_0001 arg=\"0x0B00\"}}…{{delay1}}…不过，{{delay3}}\n你要面对的对手可是……\n乌尔波扎大人的敌人……\n\n{{fun_0003_0001 arg=\"0x0000\"}}若你真心渴望，也不是不能借给你……{{fun_0001_0004 arg=\"0x000001000001\"}}",
      "EUde": "{{fun_0003_0001 arg=\"0x0000\"}}Ich verstehe...{{delay1}} Aber bei allem, was wir\ndir zu verdanken haben, diesen Helm\nkönnen wir dir nicht einfach überlassen.\n{{fun_0003_0001 arg=\"0x0B00\"}}...{{delay1}} ...{{delay1}}\nObwohl...{{delay3}} Du willst gegen den kämpfen,\nder auch Urbosas Feind war...{{pageBreak}}{{fun_0003_0001 arg=\"0x0000\"}}Wenn du den Helm wirklich unbedingt\nhaben möchtest, könnten wir ihn dir\nvielleicht eine Zeit lang ausleihen...{{fun_0001_0004 arg=\"0x000001000001\"}}",
      "EUen": "{{fun_0003_0001 arg=\"0x0000\"}}I see... And yet, despite the great debt\nwe owe you,{{delay1}} I cannot just give such a\nprecious thing to you.\n{{fun_0003_0001 arg=\"0x0B00\"}}...But you ARE up against the enemy of\nLady Urbosa...\n\n{{fun_0003_0001 arg=\"0x0000\"}}And if you truly desire it, then perhaps\nI can lend it to you...{{fun_0001_0004 arg=\"0x000001000001\"}}",
      "EUes": "{{fun_0003_0001 arg=\"0x0000\"}}Ya veo... Pero por mucho que te\ndebamos, no podemos dejar que\nte lo lleves así como así.\n{{fun_0003_0001 arg=\"0x0B00\"}}Mmm...{{delay1}} Aunque...{{delay3}} ya que vas a ir a\nocuparte del enemigo de Urbosa...{{pageBreak}}{{fun_0003_0001 arg=\"0x0000\"}}Si tanto te interesa, podría\nprestártelo.{{fun_0001_0004 arg=\"0x000001000001\"}}",
      "EUfr": "{{fun_0003_0001 arg=\"0x0000\"}}Je vois. Mais je ne peux pas te le donner\ncomme ça, tout bienfaiteur que tu es.\n\n{{fun_0003_0001 arg=\"0x0B00\"}}Cela dit.{{delay1}}.{{delay1}}. {{delay3}}l'adversaire dont tu essaies\nde nous débarrasser n'est autre que\nl'ennemi d'Urbosa la Grande.\n{{fun_0003_0001 arg=\"0x0000\"}}Si tu as vraiment besoin de ce masque,\nje ne suis pas contre l'idée de te le\nprêter...{{fun_0001_0004 arg=\"0x000001000001\"}}",
      "EUit": "{{fun_0003_0001 arg=\"0x0000\"}}Capisco. Ma per quanto il nostro popolo\nti sia debitore, non te lo possiamo dare.\n\n{{fun_0003_0001 arg=\"0x0B00\"}}...{{delay1}} ... Però...{{delay3}} dal momento che abbiamo\nun nemico comune...\n\nLo stesso nemico che affrontò Urbosa...\n\n\n{{fun_0003_0001 arg=\"0x0000\"}}Se lo desideri veramente, allora forse\nte lo possiamo prestare.{{fun_0001_0004 arg=\"0x000001000001\"}}",
      "EUnl": "{{fun_0003_0001 arg=\"0x0000\"}}Hmm... Ook al staan we bij je in het krijt,\nik kan je de helm niet zomaar geven.{{pageBreak}}{{fun_0003_0001 arg=\"0x0B00\"}}Maar...{{delay3}} aangezien je het wilt opnemen\ntegen de vijand van Urbosa...{{pageBreak}}{{fun_0003_0001 arg=\"0x0000\"}}Kan ik 'm misschien wel aan je lenen...{{fun_0001_0004 arg=\"0x000001000001\"}}",
      "EUru": "{{fun_0003_0001 arg=\"0x0000\"}}Ясно.{{delay1}} Мы тебе, конечно, благодарны,\nно шлем отдать не можем.{{pageBreak}}{{fun_0003_0001 arg=\"0x0B00\"}}...{{pageBreak}}Хотя ты ведь собираешься сразиться\nс врагом госпожи Урбозы...{{pageBreak}}{{fun_0003_0001 arg=\"0x0000\"}}Ну хорошо.{{delay1}} Если он тебе так нужен,\nмогу одолжить, но ненадолго.{{fun_0001_0004 arg=\"0x000001000001\"}}",
      "JPja": "{{fun_0003_0001 arg=\"0x0000\"}}そうか… しかしいくらお{{ruby charSpan=\"1\" value=\"まえ\"}}前が{{ruby charSpan=\"2\" value=\"おんじん\"}}恩人でも\nこれだけはくれてやることはできんのだ\n{{fun_0003_0001 arg=\"0x0B00\"}}…{{delay1}}…だが{{delay3}}\nお{{ruby charSpan=\"1\" value=\"まえ\"}}前が{{ruby charSpan=\"1\" value=\"た\"}}立ち{{ruby charSpan=\"1\" value=\"む\"}}向かおうとしている{{ruby charSpan=\"2\" value=\"あいて\"}}相手は\nウルボザ{{ruby charSpan=\"1\" value=\"さま\"}}様の{{ruby charSpan=\"1\" value=\"かたき\"}}敵…\n\n{{fun_0003_0001 arg=\"0x0000\"}}お{{ruby charSpan=\"1\" value=\"まえ\"}}前が{{ruby charSpan=\"1\" value=\"こころ\"}}心から{{ruby charSpan=\"1\" value=\"のぞ\"}}望むなら\n{{ruby charSpan=\"1\" value=\"か\"}}貸してやらんこともないぞ…{{fun_0001_0004 arg=\"0x000001000001\"}}",
      "KRko": "{{fun_0003_0001 arg=\"0x0000\"}}그래… 하지만 아무리 그대가 은인이라 하더라도\n이것만은 넘겨 줄 수는 없다\n{{fun_0003_0001 arg=\"0x0B00\"}}…{{delay1}}…하지만{{delay3}}\n그대가 상대하려고 하는 것은\n우르보사님의 적…\n\n{{fun_0003_0001 arg=\"0x0000\"}}그대가 진심으로 원한다면\n빌려줄 수는 있는데…{{fun_0001_0004 arg=\"0x000001000001\"}}",
      "TWzh": "{{fun_0003_0001 arg=\"0x0000\"}}這樣啊……雖說你是我們的恩人，\n但這個實在無法送給你。\n{{fun_0003_0001 arg=\"0x0B00\"}}…{{delay1}}…不過，{{delay3}}\n你所面對的對手\n是烏爾波扎大人的敵人……\n\n{{fun_0003_0001 arg=\"0x0000\"}}若你真心渴望，\n也不是不能借給你……{{fun_0001_0004 arg=\"0x000001000001\"}}",
      "USen": "{{fun_0003_0001 arg=\"0x0000\"}}I see... And yet, despite the great debt\nwe owe you,{{delay1}} I cannot just give such a\nprecious thing to you.\n{{fun_0003_0001 arg=\"0x0B00\"}}...But you ARE up against the enemy of\nLady Urbosa...\n\n{{fun_0003_0001 arg=\"0x0000\"}}And if you truly desire it, then perhaps\nI can lend it to you...{{fun_0001_0004 arg=\"0x000001000001\"}}",
      "USes": "{{fun_0003_0001 arg=\"0x0000\"}}Ya veo... Pero por mucho que te\ndebamos, no podemos dejar que\nte lo lleves así como así.\n{{fun_0003_0001 arg=\"0x0B00\"}}Mmm...{{delay1}} Aunque...{{delay3}} ya que vas a ir a\nocuparte del enemigo de Urbosa...{{pageBreak}}{{fun_0003_0001 arg=\"0x0000\"}}Si tanto te interesa, podría\nprestártelo.{{fun_0001_0004 arg=\"0x000001000001\"}}",
      "USfr": "{{fun_0003_0001 arg=\"0x0000\"}}Je vois. Mais je ne peux pas te le donner\ncomme ça, tout bienfaiteur que tu es.\n\n{{fun_0003_0001 arg=\"0x0B00\"}}Cela dit.{{delay1}}.{{delay1}}. {{delay3}}L'adversaire dont tu essaies\nde nous débarrasser n'est autre que\nl'ennemi d'Urbosa la Grande.\n{{fun_0003_0001 arg=\"0x0000\"}}Si tu as vraiment besoin de ce masque,\nje ne suis pas contre l'idée de te le\nprêter...{{fun_0001_0004 arg=\"0x000001000001\"}}"
    }
  },
  {
    "label": "0000",
    "attribute": "0xF6000000",
    "locale": {
      "CNzh": "请务必借给我！",
      "EUde": "Bitte leiht ihn mir!",
      "EUen": "Yes! Lend it to me!",
      "EUes": "¡Préstamelo!",
      "EUfr": "Oui, s'il te plaît !",
      "EUit": "Prestatemelo!",
      "EUnl": "Alsjeblieft!",
      "EUru": "Было бы здорово!",
      "JPja": "ぜひ貸してください！",
      "KRko": "꼭 빌려줘!",
      "TWzh": "請務必借給我！",
      "USen": "Yes! Lend it to me!",
      "USes": "¡Préstamelo!",
      "USfr": "Oui, s'il te plaît!"
    }
  },
  {
    "label": "0001",
    "attribute": "0xF8000000",
    "locale": {
      "CNzh": "还是算了",
      "EUde": "Klingt nach Arbeit...",
      "EUen": "Never mind...",
      "EUes": "Es igual",
      "EUfr": "Pas besoin, merci.",
      "EUit": "Non importa.",
      "EUnl": "Nee, laat maar.",
      "EUru": "Спасибо, не надо",
      "JPja": "やめておきます",
      "KRko": "괜찮아",
      "TWzh": "還是算了",
      "USen": "Never mind...",
      "USes": "No es necesario",
      "USfr": "Pas besoin, merci."
    }
  },
  {
    "label": "Talk03",
    "attribute": "0xFA000000",
    "locale": {
      "CNzh": "{{fun_0003_0001 arg=\"0x0000\"}}那就让我见识你的决心吧。\n\n这顶头盔是吾国的至宝，\n希望你能获得人民的信赖。\n帮助所有抱有烦恼的人民，\n为这座小镇带来真正的和平吧。",
      "EUde": "{{fun_0003_0001 arg=\"0x0000\"}}Dann musst du uns beweisen, wie ernst\nes dir damit ist.{{pageBreak}}Dieser Helm ist Eigentum des ganzen\nStammes.{{delay1}} Deshalb musst du das\nVertrauen aller Gerudo gewinnen.\nHilf allen, die Sorgen haben, und bringe\nGlück und Frieden in die ganze Stadt!",
      "EUen": "{{fun_0003_0001 arg=\"0x0000\"}}Well then, let's see how serious you are.\nThis helm is a cultural treasure. To earn\nit, you must gain the trust of our people.\nI want you to address their concerns and\nbring a resolute peace to our town.",
      "EUes": "{{fun_0003_0001 arg=\"0x0000\"}}Entonces debo ver con mis propios\nojos si eres de fiar o no.{{pageBreak}}Este casco es un tesoro de la tribu,\npor lo que primero deberás ganarte\nel favor de nuestras gentes.\nQuiero que te ocupes de escuchar\nsus cuitas y tratar de hallar una\nsolución pacífica a todas ellas.",
      "EUfr": "{{fun_0003_0001 arg=\"0x0000\"}}Bien. Alors tu vas devoir me montrer\nà quel point tu es déterminé.\n\nCe masque est notre trésor. Tu vas\ndonc devoir obtenir la confiance de\nmon peuple.\nAide-le à régler ses problèmes et fais\nde cette cité un havre de paix.",
      "EUit": "{{fun_0003_0001 arg=\"0x0000\"}}Bene, allora vediamo se fai sul serio.\n\n\nQuesto elmo è un cimelio del nostro\npopolo. Quindi se lo vuoi, devi\nconquistare la fiducia della mia gente.\nAscolta le loro necessità e cerca di\nriportare un po' di pace nella nostra\ncittadella.",
      "EUnl": "{{fun_0003_0001 arg=\"0x0000\"}}Dan zullen we eens testen hoe graag je\n'm wilt lenen. Deze helm is een nationale\nschat.\nIk wil dat je het vertrouwen van mijn volk\nwint en dat je iedereen helpt. Ik wil een\ntevreden en vreedzaam volk.",
      "EUru": "{{fun_0003_0001 arg=\"0x0000\"}}В таком случае докажи, что\nты настроен серьезно.{{pageBreak}}Все-таки этот шлем — реликвия\nнашего народа, поэтому ты должен\nзавоевать доверие всех герудо.{{pageBreak}}Я хочу, чтобы в нашем городе все\nбыли счастливы: помоги тем, кому\nтребуется помощь!",
      "JPja": "{{fun_0003_0001 arg=\"0x0000\"}}ではお{{ruby charSpan=\"1\" value=\"まえ\"}}前の{{ruby charSpan=\"2\" value=\"ほんき\"}}本気を{{ruby charSpan=\"1\" value=\"み\"}}見せてもらおうか\n\nこの{{ruby charSpan=\"1\" value=\"かぶと\"}}兜はこの{{ruby charSpan=\"1\" value=\"くに\"}}国の{{ruby charSpan=\"1\" value=\"たから\"}}宝\n{{ruby charSpan=\"1\" value=\"たみ\"}}民からの{{ruby charSpan=\"2\" value=\"しんらい\"}}信頼も{{ruby charSpan=\"1\" value=\"え\"}}得てもらいたい\n{{ruby charSpan=\"1\" value=\"なや\"}}悩みをもつ{{ruby charSpan=\"1\" value=\"たみ\"}}民をすべて{{ruby charSpan=\"1\" value=\"すく\"}}救い\nこの{{ruby charSpan=\"1\" value=\"まち\"}}街に {{ruby charSpan=\"1\" value=\"まご\"}}紛うことなき{{ruby charSpan=\"2\" value=\"へいおん\"}}平穏をもたらしてみよ",
      "KRko": "{{fun_0003_0001 arg=\"0x0000\"}}그렇다면 그대의 진심을 보도록 할까\n\n이 투구는 우리나라의 보물이니만큼\n백성들로부터 신뢰를 얻었으면 한다\n고민을 지닌 백성을 모두 도와\n이 마을에 진정한 평온을 가져와 보아라",
      "TWzh": "{{fun_0003_0001 arg=\"0x0000\"}}那就讓本宮見識你的決心吧。\n\n這頂頭盔是我國至寶，\n希望你能獲得人民的信賴。\n幫助所有抱有煩惱的人民，\n為這個鎮上帶來真正的和平吧。",
      "USen": "{{fun_0003_0001 arg=\"0x0000\"}}Well then, let's see how serious you are.\nThis helm is a cultural treasure. To earn\nit, you must gain the trust of our people.\nI want you to address their concerns and\nbring a resolute peace to our town.",
      "USes": "{{fun_0003_0001 arg=\"0x0000\"}}Entonces debo ver con mis propios\nojos si eres de fiar o no.{{pageBreak}}Este casco es un tesoro de la tribu,\npor lo que primero deberás ganarte\nel favor de nuestras gentes.\nQuiero que te ocupes de escuchar\nsus problemas y tratar de hallar una\nsolución pacífica a todos ellos.",
      "USfr": "{{fun_0003_0001 arg=\"0x0000\"}}Bien. Alors, tu vas devoir me montrer\nà quel point tu es déterminé.\n\nCe masque est notre trésor. Tu vas\ndonc devoir obtenir la confiance de\nmon peuple.\nAide-le à régler ses problèmes et fais\nde cette cité un havre de paix."
    }
  },
  {
    "label": "Talk08",
    "attribute": "0x14010000",
    "locale": {
      "CNzh": "{{fun_0003_0001 arg=\"0x0000\"}}你确实拥有强大的力量……\n但单靠力量是无法拯救人民的。",
      "EUde": "{{fun_0003_0001 arg=\"0x0000\"}}Deine Stärke hast du eindrucksvoll unter\nBeweis gestellt.{{delay1}} Aber nur mit Stärke\nkann man nicht alle Probleme lösen.",
      "EUen": "{{fun_0003_0001 arg=\"0x0000\"}}We already know that you are powerful.\nBut you can't solve all of my people's\nproblems with power alone.",
      "EUes": "{{fun_0003_0001 arg=\"0x0000\"}}Sabemos de sobra que eres fuerte\ny poderoso, pero con eso no basta\npara ayudar a los demás.",
      "EUfr": "{{fun_0003_0001 arg=\"0x0000\"}}Tu es fort, je le reconnais. Mais la force\nseule ne suffit pas à apaiser un peuple.",
      "EUit": "{{fun_0003_0001 arg=\"0x0000\"}}Sappiamo già quanto sei bravo a\ncombattere, ma la forza non basta per\nrisolvere i problemi del popolo.",
      "EUnl": "{{fun_0003_0001 arg=\"0x0000\"}}We weten al dat je sterk bent. Maar\nproblemen los je niet alleen op met brute\nkracht.",
      "EUru": "{{fun_0003_0001 arg=\"0x0000\"}}Ты уже доказал свою силу,\nно сила решает далеко не все.",
      "JPja": "{{fun_0003_0001 arg=\"0x0000\"}}お{{ruby charSpan=\"1\" value=\"まえ\"}}前の{{ruby charSpan=\"1\" value=\"ちから\"}}力は{{ruby charSpan=\"1\" value=\"たし\"}}確かなものだ…\nしかし {{ruby charSpan=\"1\" value=\"ちから\"}}力だけでは{{ruby charSpan=\"1\" value=\"たみ\"}}民は{{ruby charSpan=\"1\" value=\"すく\"}}救えぬぞ",
      "KRko": "{{fun_0003_0001 arg=\"0x0000\"}}그대의 힘은 확실하지만…\n힘만으로는 백성을 구할 수 없지",
      "TWzh": "{{fun_0003_0001 arg=\"0x0000\"}}你確實擁有強大的力量……\n但單靠力量是無法拯救人民的。",
      "USen": "{{fun_0003_0001 arg=\"0x0000\"}}We already know that you are powerful.\nBut you can't solve all of my people's\nproblems with power alone.",
      "USes": "{{fun_0003_0001 arg=\"0x0000\"}}Sabemos de sobra que eres fuerte\ny poderoso, pero con eso no basta\npara ayudar a los demás.",
      "USfr": "{{fun_0003_0001 arg=\"0x0000\"}}Tu es fort, je le reconnais. Mais la force\nseule ne suffit pas à apaiser un peuple."
    }
  },
  {
    "label": "Talk04",
    "attribute": "0x2E010000",
    "locale": {
      "CNzh": "{{fun_0003_0001 arg=\"0x0000\"}}这顶{{color id=\"2\"}}雷鸣头盔{{color id=\"65535\"}}是吾国的至宝……\n若想碰它，就做好觉悟再来吧。",
      "EUde": "{{fun_0003_0001 arg=\"0x0000\"}}Dieser {{color id=\"2\"}}{{wordInfo gender=\"1\" defArticle=\"0\" indefArticle=\"0\" isPlural=\"0\"}}Donnerhelm{{color id=\"65535\"}} ist der Schatz\nunseres Stammes.{{delay1}} Offenbar fehlt dir die\nEntschlossenheit, ihn zu besitzen.",
      "EUen": "{{fun_0003_0001 arg=\"0x0000\"}}This {{color id=\"2\"}}Thunder Helm {{color id=\"65535\"}}is our cultural\ntreasure...\n\nIf you want to lay hands on it, you must\nshow us you are serious and come back.",
      "EUes": "{{fun_0003_0001 arg=\"0x0000\"}}El {{color id=\"2\"}}{{wordInfo gender=\"1\" defArticle=\"0\" indefArticle=\"0\" isPlural=\"0\"}}casco del trueno{{color id=\"65535\"}} es un tesoro\nmuy valioso para la tribu gerudo.{{pageBreak}}Si tanto lo deseas, deberás demostrar\nque vas en serio, y volver cuando lo\nhayas conseguido.",
      "EUfr": "{{fun_0003_0001 arg=\"0x0000\"}}Le {{color id=\"2\"}}{{wordInfo gender=\"1\" defArticle=\"0\" indefArticle=\"0\" isPlural=\"0\"}}masque du tonnerre{{color id=\"65535\"}} est le trésor de\nnotre peuple...\n\nSi tu veux ne serait-ce que le toucher,\ntu vas d'abord devoir nous prouver ta\ndétermination.",
      "EUit": "{{fun_0003_0001 arg=\"0x0000\"}}L'{{color id=\"2\"}}{{wordInfo gender=\"1\" defArticle=\"3\" indefArticle=\"0\" isPlural=\"0\"}}elmo del tuono {{color id=\"65535\"}}è il nostro cimelio...\nSe lo vuoi toccare, devi dimostrare\ndi fare sul serio.",
      "EUnl": "{{fun_0003_0001 arg=\"0x0000\"}}Deze {{color id=\"2\"}}Bliksemhelm{{color id=\"65535\"}} is onze schat. Als je\n'm wilt hebben, zul je eerst daadkracht\nmoeten tonen!",
      "EUru": "{{fun_0003_0001 arg=\"0x0000\"}}{{color id=\"2\"}}Шлем Грома{{color id=\"65535\"}} — реликвия нашего\nнарода.{{delay1}} Если хочешь его носить,\nдокажи, что настроен серьезно.",
      "JPja": "{{fun_0003_0001 arg=\"0x0000\"}}この{{color id=\"2\"}}{{ruby charSpan=\"2\" value=\"らいめい\"}}雷鳴の{{ruby charSpan=\"1\" value=\"かぶと\"}}兜{{color id=\"65535\"}}は {{ruby charSpan=\"1\" value=\"わ\"}}我が{{ruby charSpan=\"1\" value=\"くに\"}}国の{{ruby charSpan=\"1\" value=\"たから\"}}宝…\n{{ruby charSpan=\"1\" value=\"ふ\"}}触れたければ {{ruby charSpan=\"2\" value=\"かくご\"}}覚悟を{{ruby charSpan=\"1\" value=\"も\"}}持って{{ruby charSpan=\"1\" value=\"おとず\"}}訪れよ",
      "KRko": "{{fun_0003_0001 arg=\"0x0000\"}}이 {{color id=\"2\"}}뇌명의 투구{{color id=\"65535\"}}는 우리나라의 보물…\n만지려 한다면 각오를 다지고 와라",
      "TWzh": "{{fun_0003_0001 arg=\"0x0000\"}}這頂{{color id=\"2\"}}雷鳴頭盔{{color id=\"65535\"}}是我國至寶……\n若想碰它，就做好覺悟再來吧。",
      "USen": "{{fun_0003_0001 arg=\"0x0000\"}}This {{color id=\"2\"}}Thunder Helm {{color id=\"65535\"}}is our cultural\ntreasure...\n\nIf you want to lay hands on it, you must\nshow us you are serious and come back.",
      "USes": "{{fun_0003_0001 arg=\"0x0000\"}}El {{color id=\"2\"}}{{wordInfo gender=\"1\" defArticle=\"0\" indefArticle=\"0\" isPlural=\"0\"}}casco del trueno{{color id=\"65535\"}} es un tesoro\nmuy valioso para la tribu gerudo.{{pageBreak}}Si tanto lo deseas, deberás demostrar\nque lo haces en serio, y volver cuando\nlo hayas conseguido.",
      "USfr": "{{fun_0003_0001 arg=\"0x0000\"}}Le {{color id=\"2\"}}{{wordInfo gender=\"1\" defArticle=\"0\" indefArticle=\"0\" isPlural=\"0\"}}masque du tonnerre{{color id=\"65535\"}} est le trésor\nde notre peuple...\n\nSi tu veux ne serait-ce que le toucher,\ntu vas d'abord devoir nous prouver ta\ndétermination."
    }
  },
  {
    "label": "Talk11",
    "attribute": "0x48010000",
    "locale": {
      "CNzh": "{{fun_0003_0001 arg=\"0x0000\"}}你就这么中意这顶{{color id=\"2\"}}雷鸣头盔{{color id=\"65535\"}}吗？\n\n不过，也不是不能理解……毕竟这是\n继承了乌尔波扎大人力量的特别头盔。\n虽说你是我们的恩人，\n但实在无法把它送给你。\n{{fun_0003_0001 arg=\"0x0B00\"}}…{{delay1}}…话虽如此，{{delay3}}\n我们面对的是同一个对手……\n{{fun_0003_0001 arg=\"0x0000\"}}若你真心渴望，也可以借给你……{{fun_0001_0004 arg=\"0x000001000001\"}}",
      "EUde": "{{fun_0003_0001 arg=\"0x0000\"}}So sehr möchtest du den {{color id=\"2\"}}{{wordInfo gender=\"1\" defArticle=\"0\" indefArticle=\"0\" isPlural=\"0\"}}Donnerhelm{{color id=\"65535\"}}\nhaben?{{pageBreak}}Aber ich verstehe dich...{{delay1}} {{color id=\"2\"}}Urbosas{{color id=\"65535\"}}\nlegendäre Kraft wohnt in diesem Helm.{{pageBreak}}Doch bei allem, was wir dir zu verdanken\nhaben, diesen Helm können wir dir nicht\neinfach überlassen.\n{{fun_0003_0001 arg=\"0x0B00\"}}Obwohl...{{delay3}} Dein Feind ist auch unser\nFeind...{{pageBreak}}{{fun_0003_0001 arg=\"0x0000\"}}Wenn du den Helm wirklich unbedingt\nhaben möchtest, könnten wir ihn dir\nvielleicht eine Zeit lang ausleihen...{{fun_0001_0004 arg=\"0x000001000001\"}}",
      "EUen": "{{fun_0003_0001 arg=\"0x0000\"}}You want this {{color id=\"2\"}}Thunder Helm {{color id=\"65535\"}}that badly?\nI bet you do. This special helm still holds\nsome of Urbosa's power.\nBut no matter how much we may be\nindebted to you, I can't just give it away.\n\n{{fun_0003_0001 arg=\"0x0B00\"}}...{{delay1}}And yet,{{delay3}} you are setting off to carry\nthe fight to the enemy of Urbosa...\n\n{{fun_0003_0001 arg=\"0x0000\"}}So if you truly desire it, then perhaps I\ncan lend it to you...{{fun_0001_0004 arg=\"0x000001000001\"}}",
      "EUes": "{{fun_0003_0001 arg=\"0x0000\"}}¿Tanto deseas el {{color id=\"2\"}}{{wordInfo gender=\"1\" defArticle=\"0\" indefArticle=\"0\" isPlural=\"0\"}}casco del trueno{{color id=\"65535\"}}?{{pageBreak}}Bien... ¿quién no lo desearía? {{delay1}}Se trata\nde un tesoro que todavía conserva parte\ndel poder de Urbosa.\nPor mucho que te debamos, no quiere\ndecir que podamos entregártelo tan\nalegremente.\n{{fun_0003_0001 arg=\"0x0B00\"}}Aunque...{{delay3}} dado que vas a encargarte\nde la némesis de Urbosa...{{pageBreak}}{{fun_0003_0001 arg=\"0x0000\"}}Si tanto lo deseas, quizás podamos\nprestártelo temporalmente.{{fun_0001_0004 arg=\"0x000001000001\"}}",
      "EUfr": "{{fun_0003_0001 arg=\"0x0000\"}}Le {{color id=\"2\"}}{{wordInfo gender=\"1\" defArticle=\"0\" indefArticle=\"0\" isPlural=\"0\"}}masque du tonnerre{{color id=\"65535\"}} t'intrigue tant\nque ça ?\n\nC'est normal. Il renferme le pouvoir\nd'Urbosa la Grande.\n\nJ'espère que tu comprends que je ne\npeux pas te le donner comme ça, tout\nbienfaiteur que tu es.\n{{fun_0003_0001 arg=\"0x0B00\"}}Cela dit.{{delay1}}.{{delay1}}.{{delay3}} L'ennemi contre lequel tu te\ndresses est aussi celui d'Urbosa...\n\n{{fun_0003_0001 arg=\"0x0000\"}}Si tu as vraiment besoin de ce masque,\nje ne suis pas contre l'idée de te le\nprêter...{{fun_0001_0004 arg=\"0x000001000001\"}}",
      "EUit": "{{fun_0003_0001 arg=\"0x0000\"}}Vuoi davvero l'{{color id=\"2\"}}{{wordInfo gender=\"1\" defArticle=\"3\" indefArticle=\"0\" isPlural=\"0\"}}elmo del tuono{{color id=\"65535\"}}?\n\n\nCi credo... Questo elmo è magico e\nracchiude la forza di Urbosa.\n\nMa anche se abbiamo un debito nei\ntuoi confronti, non posso acconsentire\na un regalo del genere.\n{{fun_0003_0001 arg=\"0x0B00\"}}...{{delay1}} ... Però...{{delay3}} dal momento che abbiamo\nun nemico comune...\n\n{{fun_0003_0001 arg=\"0x0000\"}}Se lo desideri veramente, allora forse\nte lo possiamo prestare.{{fun_0001_0004 arg=\"0x000001000001\"}}",
      "EUnl": "{{fun_0003_0001 arg=\"0x0000\"}}Wil je de {{color id=\"2\"}}Bliksemhelm{{color id=\"65535\"}} echt zo graag\nhebben? Vast wel. Deze speciale helm\nbevat nog wat van Urbosa's kracht.\nMaar ook al staan we bij je in het krijt, ik\nkan 'm niet zomaar aan je geven.{{pageBreak}}{{fun_0003_0001 arg=\"0x0B00\"}}Maar...{{delay3}} we vechten tegen dezelfde\nvijand...{{pageBreak}}{{fun_0003_0001 arg=\"0x0000\"}}...en omdat je 'm graag wilt, kan ik 'm\naan je lenen...{{fun_0001_0004 arg=\"0x000001000001\"}}",
      "EUru": "{{fun_0003_0001 arg=\"0x0000\"}}Что, хочешь заполучить {{color id=\"2\"}}Шлем Грома{{color id=\"65535\"}}?{{delay1}}\nИ не зря — в нем сила самой Урбозы.{{pageBreak}}Мы благодарны тебе за все,\nно шлем отдать не можем.{{pageBreak}}{{fun_0003_0001 arg=\"0x0B00\"}}...{{pageBreak}}Хотя ты ведь собираешься сразиться\nс нашим общим врагом...{{pageBreak}}{{fun_0003_0001 arg=\"0x0000\"}}Ну хорошо.{{delay1}} Если он тебе так нужен,\nмогу одолжить, но ненадолго.{{fun_0001_0004 arg=\"0x000001000001\"}}",
      "JPja": "{{fun_0003_0001 arg=\"0x0000\"}}この{{color id=\"2\"}}{{ruby charSpan=\"2\" value=\"らいめい\"}}雷鳴の{{ruby charSpan=\"1\" value=\"かぶと\"}}兜{{color id=\"65535\"}}がそんなに{{ruby charSpan=\"1\" value=\"き\"}}気になるか？\n\nまぁ そうだろうな… これはウルボザ{{ruby charSpan=\"1\" value=\"さま\"}}様の{{ruby charSpan=\"1\" value=\"ちから\"}}力を\n{{ruby charSpan=\"1\" value=\"う\"}}受け{{ruby charSpan=\"1\" value=\"つ\"}}継いだ{{ruby charSpan=\"2\" value=\"とくべつ\"}}特別な{{ruby charSpan=\"1\" value=\"かぶと\"}}兜\nしかし いくらお{{ruby charSpan=\"1\" value=\"まえ\"}}前が{{ruby charSpan=\"2\" value=\"おんじん\"}}恩人でも\nこれだけは くれてやることはできんのだ\n{{fun_0003_0001 arg=\"0x0B00\"}}…{{delay1}}…だが{{delay3}}\n{{ruby charSpan=\"1\" value=\"た\"}}立ち{{ruby charSpan=\"1\" value=\"む\"}}向かうべき{{ruby charSpan=\"2\" value=\"あいて\"}}相手は{{ruby charSpan=\"1\" value=\"おな\"}}同じ…\n{{fun_0003_0001 arg=\"0x0000\"}}お{{ruby charSpan=\"1\" value=\"まえ\"}}前が{{ruby charSpan=\"1\" value=\"こころ\"}}心から{{ruby charSpan=\"1\" value=\"のぞ\"}}望むなら\n{{ruby charSpan=\"1\" value=\"か\"}}貸してやってもよいが…{{fun_0001_0004 arg=\"0x000001000001\"}}",
      "KRko": "{{fun_0003_0001 arg=\"0x0000\"}}이 {{color id=\"2\"}}뇌명의 투구{{color id=\"65535\"}}가 그렇게 신경 쓰이나?\n\n뭐, 그렇겠지… 이것은 우르보사님의 힘을\n이어받은 특별한 투구\n하지만 그대가 아무리 은인이라고 하더라도\n이것만은 넘겨 줄 수가 없다\n{{fun_0003_0001 arg=\"0x0B00\"}}…{{delay1}}…하지만{{delay3}}\n우리가 맞설 상대는 같으니…\n{{fun_0003_0001 arg=\"0x0000\"}}그대가 진심으로 원한다면\n빌려줄 수는 있는데…{{fun_0001_0004 arg=\"0x000001000001\"}}",
      "TWzh": "{{fun_0003_0001 arg=\"0x0000\"}}你就這麼中意這頂{{color id=\"2\"}}雷鳴頭盔{{color id=\"65535\"}}嗎？\n\n不過，也不是不能理解……畢竟這是\n繼承了烏爾波扎大人力量的特別頭盔。\n雖說你是我們的恩人，\n但實在無法把它送給你。\n{{fun_0003_0001 arg=\"0x0B00\"}}…{{delay1}}…話雖如此，{{delay3}}\n我們面對的對手是同一個……\n{{fun_0003_0001 arg=\"0x0000\"}}若你真心渴望，\n也可以借給你……{{fun_0001_0004 arg=\"0x000001000001\"}}",
      "USen": "{{fun_0003_0001 arg=\"0x0000\"}}You want this {{color id=\"2\"}}Thunder Helm {{color id=\"65535\"}}that badly?\nI bet you do. This special helm still holds\nsome of Urbosa's power.\nBut no matter how much we may be\nindebted to you, I can't just give it away.\n\n{{fun_0003_0001 arg=\"0x0B00\"}}...{{delay1}}And yet,{{delay3}} you are setting off to carry\nthe fight to the enemy of Urbosa...\n\n{{fun_0003_0001 arg=\"0x0000\"}}So if you truly desire it, then perhaps I\ncan lend it to you...{{fun_0001_0004 arg=\"0x000001000001\"}}",
      "USes": "{{fun_0003_0001 arg=\"0x0000\"}}¿Tanto deseas el {{color id=\"2\"}}{{wordInfo gender=\"1\" defArticle=\"0\" indefArticle=\"0\" isPlural=\"0\"}}casco del trueno{{color id=\"65535\"}}?{{pageBreak}}Bien... ¿quién no lo desearía? {{delay1}}Se trata\nde un tesoro que todavía conserva parte\ndel poder de Urbosa.\nPor mucho que te debamos, no quiere\ndecir que podamos entregártelo tan\nalegremente.\n{{fun_0003_0001 arg=\"0x0B00\"}}Aunque...{{delay3}} dado que vas a encargarte\ndel adversario de Urbosa...{{pageBreak}}{{fun_0003_0001 arg=\"0x0000\"}}Si tanto lo deseas, quizás podamos\nprestártelo temporalmente.{{fun_0001_0004 arg=\"0x000001000001\"}}",
      "USfr": "{{fun_0003_0001 arg=\"0x0000\"}}Le {{color id=\"2\"}}{{wordInfo gender=\"1\" defArticle=\"0\" indefArticle=\"0\" isPlural=\"0\"}}masque du tonnerre{{color id=\"65535\"}} t'intrigue\ntant que ça?\n\nC'est normal. Il renferme le pouvoir\nd'Urbosa la Grande.\n\nJ'espère que tu comprends que je ne\npeux pas te le donner comme ça, tout\nbienfaiteur que tu es.\n{{fun_0003_0001 arg=\"0x0B00\"}}Cela dit.{{delay1}}.{{delay1}}.{{delay3}} L'ennemi contre lequel tu te\ndresses est aussi celui d'Urbosa...\n\n{{fun_0003_0001 arg=\"0x0000\"}}Si tu as vraiment besoin de ce masque,\nje ne suis pas contre l'idée de te le\nprêter...{{fun_0001_0004 arg=\"0x000001000001\"}}"
    }
  },
  {
    "label": "Talk12",
    "attribute": "0x62010000",
    "locale": {
      "CNzh": "{{color id=\"2\"}}{{fun_0003_0001 arg=\"0x0000\"}}雷鸣头盔{{color id=\"65535\"}}是继承了\n乌尔波扎大人力量的特别头盔……\n若想要这份力量，就去帮助抱有烦恼的人民，\n为这座小镇带来真正的和平吧。\n如此一来，我就承认你为格鲁德族之友，\n将头盔借给你一用。",
      "EUde": "{{fun_0003_0001 arg=\"0x0000\"}}Der {{color id=\"2\"}}{{wordInfo gender=\"1\" defArticle=\"0\" indefArticle=\"0\" isPlural=\"0\"}}Donnerhelm{{color id=\"65535\"}} ist etwas ganz\nBesonderes.{{delay1}} Er enthält Urbosas\nlegendäre Kraft!\nWenn du ihn haben möchtest, dann hilf\nallen von unserem Stamm, die Sorgen\nhaben, und bring Glück in unsere Stadt.\nDann ernenne ich dich zum\nEhren-Gerudo und überreiche dir\nden Helm.",
      "EUen": "{{fun_0003_0001 arg=\"0x0000\"}}This {{color id=\"2\"}}Thunder Helm{{color id=\"65535\"}} still holds some of\nUrbosa's power.\n\nIf you want to wield that power, then you\nmust address the concerns of my people\nand bring a resolute peace to our town.\nThen you will be acknowledged as a\nfriend of the Gerudo, and only then will I\nlend the helm to you.",
      "EUes": "{{fun_0003_0001 arg=\"0x0000\"}}El {{color id=\"2\"}}{{wordInfo gender=\"1\" defArticle=\"0\" indefArticle=\"0\" isPlural=\"0\"}}casco del trueno{{color id=\"65535\"}} todavía conserva\nparte del poder de Urbosa.{{pageBreak}}Si deseas acceder a tal poder, deberás\nescuchar las cuitas de nuestras gentes\ny hallar una solución pacífica a todas.\nTras hacerlo, pasarás a ser un aliado\nde las gerudo y podremos prestarte\nel casco.",
      "EUfr": "{{fun_0003_0001 arg=\"0x0000\"}}Le {{color id=\"2\"}}{{wordInfo gender=\"1\" defArticle=\"0\" indefArticle=\"0\" isPlural=\"0\"}}masque du tonnerre{{color id=\"65535\"}} est un objet très\nspécial qui renferme le pouvoir d'Urbosa\nla Grande.\nSi tu le veux, tu vas devoir aider mon\npeuple à régler ses problèmes et faire\nde cette cité un havre de paix.\nJe t'accepterai alors en tant qu'ami\ndes Gerudos et te confierai le masque.",
      "EUit": "{{fun_0003_0001 arg=\"0x0000\"}}L'{{color id=\"2\"}}{{wordInfo gender=\"1\" defArticle=\"3\" indefArticle=\"0\" isPlural=\"0\"}}elmo del tuono{{color id=\"65535\"}} racchiude ancora\nil potere di Urbosa.\n\nSe desideri questo potere, devi\nconquistare la fiducia della mia gente,\ne portare un po' di pace nella cittadella.\nSolo allora verrai riconosciuto come\namico delle Gerudo e io ti presterò\nl'elmo.",
      "EUnl": "{{fun_0003_0001 arg=\"0x0000\"}}De {{color id=\"2\"}}Bliksemhelm{{color id=\"65535\"}} bevat nog altijd wat van\nUrbosa's kracht.{{pageBreak}}Als je die kracht wilt, zul je mijn volk\nmoeten helpen en het dorp tevreden en\nvreedzaam achter moeten laten.\nAlleen dan zullen we je zien als een\nvriend van de Gerudo's en zal ik de helm\naan je lenen.",
      "EUru": "{{fun_0003_0001 arg=\"0x0000\"}}В {{color id=\"2\"}}Шлеме Грома{{color id=\"65535\"}} сила самой Урбозы.{{pageBreak}}Если хочешь его получить, помоги\nжителям города решить их проблемы.{{pageBreak}}Тогда я объявлю тебя другом народа\nгерудо и смогу одолжить этот шлем.",
      "JPja": "{{color id=\"2\"}}{{fun_0003_0001 arg=\"0x0000\"}}{{ruby charSpan=\"2\" value=\"らいめい\"}}雷鳴の{{ruby charSpan=\"1\" value=\"かぶと\"}}兜{{color id=\"65535\"}}はウルボザ{{ruby charSpan=\"1\" value=\"さま\"}}様の{{ruby charSpan=\"1\" value=\"ちから\"}}力を\n{{ruby charSpan=\"1\" value=\"う\"}}受け{{ruby charSpan=\"1\" value=\"つ\"}}継いだ{{ruby charSpan=\"2\" value=\"とくべつ\"}}特別な{{ruby charSpan=\"1\" value=\"かぶと\"}}兜…\n{{ruby charSpan=\"1\" value=\"ちから\"}}力を{{ruby charSpan=\"1\" value=\"さず\"}}授かりたくば {{ruby charSpan=\"1\" value=\"なや\"}}悩める{{ruby charSpan=\"1\" value=\"たみ\"}}民を{{ruby charSpan=\"1\" value=\"すく\"}}救い\nこの{{ruby charSpan=\"1\" value=\"まち\"}}街に {{ruby charSpan=\"1\" value=\"まご\"}}紛うことなき{{ruby charSpan=\"2\" value=\"へいおん\"}}平穏をもたらしてみよ\nそうすれば わらわはお{{ruby charSpan=\"1\" value=\"まえ\"}}前をゲルド{{ruby charSpan=\"1\" value=\"ぞく\"}}族の{{ruby charSpan=\"1\" value=\"とも\"}}友と{{ruby charSpan=\"1\" value=\"みと\"}}認め\nこの{{ruby charSpan=\"1\" value=\"かぶと\"}}兜を{{ruby charSpan=\"1\" value=\"あず\"}}預けようぞ",
      "KRko": "{{color id=\"2\"}}{{fun_0003_0001 arg=\"0x0000\"}}뇌명의 투구{{color id=\"65535\"}}는 우르보사님의 힘을\n이어받은 특별한 투구…\n힘을 얻고 싶다면 고민을 겪는 백성을 구하고\n이 마을에 진정한 평온을 가져와 보아라\n그렇게 한다면 나는 그대를\n겔드족의 친구로 인정하고 이 투구를 맡기겠다",
      "TWzh": "{{color id=\"2\"}}{{fun_0003_0001 arg=\"0x0000\"}}雷鳴頭盔{{color id=\"65535\"}}是繼承了烏爾波扎大人力量的\n特別頭盔……\n若想要這份力量，就去幫助抱有煩惱的人民，\n為這個鎮上帶來真正的和平吧。\n如此一來，本宮就承認你為格魯德族之友，\n將頭盔借給你使用。",
      "USen": "{{fun_0003_0001 arg=\"0x0000\"}}This {{color id=\"2\"}}Thunder Helm{{color id=\"65535\"}} still holds some of\nUrbosa's power.\n\nIf you want to wield that power, then you\nmust address the concerns of my people\nand bring a resolute peace to our town.\nThen you will be acknowledged as a\nfriend of the Gerudo, and only then will I\nlend the helm to you.",
      "USes": "{{fun_0003_0001 arg=\"0x0000\"}}El {{color id=\"2\"}}{{wordInfo gender=\"1\" defArticle=\"0\" indefArticle=\"0\" isPlural=\"0\"}}casco del trueno{{color id=\"65535\"}} todavía conserva\nparte del poder de Urbosa.{{pageBreak}}Si deseas acceder a tal poder, debes oír\nlas preocupaciones de nuestra gente\ny hallar una solución pacífica a todos.\nTras hacerlo, pasarás a ser un aliado\nde las gerudo y podremos prestarte\nel casco.",
      "USfr": "{{fun_0003_0001 arg=\"0x0000\"}}Le {{color id=\"2\"}}{{wordInfo gender=\"1\" defArticle=\"0\" indefArticle=\"0\" isPlural=\"0\"}}masque du tonnerre{{color id=\"65535\"}} est un objet\nextraordinaire qui renferme le pouvoir\nd'Urbosa la Grande.\nSi tu le veux, tu vas devoir aider mon\npeuple à régler ses problèmes et faire\nde cette cité un havre de paix.\nJe t'accepterai alors en tant qu'ami\ndes Gerudos et te confierai le masque."
    }
  },
  {
    "label": "Talk17",
    "attribute": "0x7C010000",
    "locale": {
      "CNzh": "{{color id=\"2\"}}{{fun_0003_0001 arg=\"0x0000\"}}那个宝箱中装有{{color id=\"65535\"}}\n乌尔波扎大人曾用过的珍贵的武具。",
      "EUde": "{{color id=\"2\"}}{{fun_0003_0001 arg=\"0x0000\"}}In diesen Schatztruhen {{color id=\"65535\"}}liegen\nAusrüstungsstücke, welche einst die\ngroße Urbosa verwendet hat.",
      "EUen": "{{fun_0003_0001 arg=\"0x0000\"}}Within those {{color id=\"2\"}}treasure chests {{color id=\"65535\"}}are\nprecious armaments once used by\nLady Urbosa herself.",
      "EUes": "{{fun_0003_0001 arg=\"0x0000\"}}{{color id=\"2\"}}Esos cofres del tesoro{{color id=\"65535\"}} han albergado\ndesde hace mucho tiempo unos valiosos\nobjetos que pertenecieron a Urbosa.",
      "EUfr": "{{fun_0003_0001 arg=\"0x0000\"}}Ces {{color id=\"2\"}}coffres{{color id=\"65535\"}} contiennent chacun un\nmagnifique objet utilisé à l'époque\npar Urbosa la Grande.",
      "EUit": "{{fun_0003_0001 arg=\"0x0000\"}}{{color id=\"2\"}}Dentro quegli scrigni {{color id=\"65535\"}}c'è il glorioso\nequipaggiamento usato da Urbosa.",
      "EUnl": "{{fun_0003_0001 arg=\"0x0000\"}}{{color id=\"2\"}}In die schatkisten{{color id=\"65535\"}} zit prachtige uitrusting\ndie is gebruikt door Urbosa.",
      "EUru": "{{fun_0003_0001 arg=\"0x0000\"}}{{color id=\"2\"}}В сундуках{{color id=\"65535\"}} лежит великолепное\nснаряжение, принадлежавшее\nгоспоже Урбозе.",
      "JPja": "{{color id=\"2\"}}{{fun_0003_0001 arg=\"0x0000\"}}その{{ruby charSpan=\"2\" value=\"たからばこ\"}}宝箱に{{ruby charSpan=\"1\" value=\"はい\"}}入っているのは{{color id=\"65535\"}}\nウルボザ{{ruby charSpan=\"1\" value=\"さま\"}}様がお{{ruby charSpan=\"1\" value=\"つか\"}}使いになった {{ruby charSpan=\"2\" value=\"しゅぎょく\"}}珠玉の{{ruby charSpan=\"2\" value=\"ぶぐ\"}}武具だ",
      "KRko": "{{color id=\"2\"}}{{fun_0003_0001 arg=\"0x0000\"}}그 보물 상자에 들어 있는 것은{{color id=\"65535\"}}\n우르보사님께서 쓰시던 귀한 장비다",
      "TWzh": "{{color id=\"2\"}}{{fun_0003_0001 arg=\"0x0000\"}}那個寶箱中，裝有{{color id=\"65535\"}}\n烏爾波扎大人曾用過的傑出武具。",
      "USen": "{{fun_0003_0001 arg=\"0x0000\"}}Within those {{color id=\"2\"}}treasure chests {{color id=\"65535\"}}are\nprecious armaments once used by\nLady Urbosa herself.",
      "USes": "{{fun_0003_0001 arg=\"0x0000\"}}{{color id=\"2\"}}Esos cofres{{color id=\"65535\"}} han albergado desde\nhace mucho tiempo unos valiosos\nobjetos que pertenecieron a Urbosa.",
      "USfr": "{{fun_0003_0001 arg=\"0x0000\"}}Ces {{color id=\"2\"}}coffres{{color id=\"65535\"}} contiennent chacun un\nmagnifique objet utilisé à l'époque\npar Urbosa la Grande."
    }
  },
  {
    "label": "Talk18",
    "attribute": "0x96010000",
    "locale": {
      "CNzh": "{{fun_0003_0001 arg=\"0x0000\"}}或许比不上{{color id=\"2\"}}雷鸣头盔{{color id=\"65535\"}}，\n但也是来之不易的珍贵物品。\n你是乌尔波扎大人之友，\n由你带着想必再好不过吧。\n不用客气，拿起来试试吧。",
      "EUde": "{{fun_0003_0001 arg=\"0x0000\"}}Mit dem {{color id=\"2\"}}{{wordInfo gender=\"1\" defArticle=\"0\" indefArticle=\"0\" isPlural=\"0\"}}Donnerhelm {{color id=\"65535\"}}lassen sie sich nicht\nvergleichen, aber es sind dennoch\nüberaus seltene Kostbarkeiten.{{pageBreak}}Als Freund der großen Urbosa gebührt\nes dir, diese Gegenstände zu empfangen.{{pageBreak}}Nur keine Scheu...{{delay1}} Nimm sie schon!",
      "EUen": "{{fun_0003_0001 arg=\"0x0000\"}}They may pale in comparison to the\n{{color id=\"2\"}}Thunder Helm{{color id=\"65535\"}}, but they are very\nvaluable and not easy to come by.\nSince you were a friend to Lady Urbosa,\nit would be best for you to have them.\n\nDo not hesitate—take them in\nyour hands.",
      "EUes": "{{fun_0003_0001 arg=\"0x0000\"}}Serán poca cosa comparados con el\n{{color id=\"2\"}}{{wordInfo gender=\"1\" defArticle=\"0\" indefArticle=\"0\" isPlural=\"0\"}}casco del trueno{{color id=\"65535\"}}, pero de todos modos\nson muy valiosos y difíciles de conseguir.{{pageBreak}}Dado que eras amigo de Urbosa,\nestarán seguros en tus manos.\nAdelante, cógelos.",
      "EUfr": "{{fun_0003_0001 arg=\"0x0000\"}}Ils ne sont certes pas aussi précieux que\nle {{color id=\"2\"}}{{wordInfo gender=\"1\" defArticle=\"0\" indefArticle=\"0\" isPlural=\"0\"}}masque du tonnerre{{color id=\"65535\"}}...\n\nMais ce sont tout de même des objets\nrares, et d'une grande valeur.\n\nLe mieux est encore qu'ils te reviennent,\ntoi qui es l'ami du Prodige gerudo.\n\nAllez, ne te fais pas prier et prends-les.",
      "EUit": "{{fun_0003_0001 arg=\"0x0000\"}}Non sono pezzi pregiati come\nl'{{color id=\"2\"}}{{wordInfo gender=\"1\" defArticle=\"3\" indefArticle=\"0\" isPlural=\"0\"}}elmo del tuono{{color id=\"65535\"}}, ma hanno comunque\nun valore immenso.\nTu hai conosciuto Urbosa e hai\ncombattuto al suo fianco. Quindi\nè giusto che sia tu a portarli...\nNon esitare, su. Prendili in mano!",
      "EUnl": "{{fun_0003_0001 arg=\"0x0000\"}}Ze zijn misschien niet zo bijzonder als de\n{{color id=\"2\"}}Bliksemhelm{{color id=\"65535\"}}, maar toch heel zeldzaam.{{pageBreak}}Aangezien jij was bevriend met Urbosa,\nzijn ze bij jou vast in goede handen.{{pageBreak}}Aarzel niet. Je mag het gerust\nvastpakken.",
      "EUru": "{{fun_0003_0001 arg=\"0x0000\"}}Оно имеет для нас не меньшую\nценность, чем {{color id=\"2\"}}Шлем Грома{{color id=\"65535\"}}...{{pageBreak}}Ты друг госпожи Урбозы, поэтому\nкак никто другой достоин носить\nэто снаряжение.{{delay1}} Прошу, возьми его.",
      "JPja": "{{fun_0003_0001 arg=\"0x0000\"}}{{color id=\"2\"}}{{ruby charSpan=\"2\" value=\"らいめい\"}}雷鳴の{{ruby charSpan=\"1\" value=\"かぶと\"}}兜{{color id=\"65535\"}}には{{ruby charSpan=\"1\" value=\"おと\"}}劣るかもしれんが\nなかなか{{ruby charSpan=\"1\" value=\"て\"}}手に{{ruby charSpan=\"1\" value=\"はい\"}}入らん {{ruby charSpan=\"2\" value=\"きちょう\"}}貴重なものだ\nウルボザ{{ruby charSpan=\"1\" value=\"さま\"}}様の{{ruby charSpan=\"1\" value=\"とも\"}}友であった お{{ruby charSpan=\"1\" value=\"まえ\"}}前が{{ruby charSpan=\"1\" value=\"も\"}}持つのが\n{{ruby charSpan=\"3\" value=\"いちばんよ\"}}一番良いであろう\n{{ruby charSpan=\"2\" value=\"えんりょ\"}}遠慮はいらん\n{{ruby charSpan=\"1\" value=\"て\"}}手に{{ruby charSpan=\"1\" value=\"と\"}}取ってみてくれ",
      "KRko": "{{fun_0003_0001 arg=\"0x0000\"}}{{color id=\"2\"}}뇌명의 투구{{color id=\"65535\"}}에는 미치지 못할지도 모르나\n좀처럼 구하기 힘든 귀중한 것이지\n우르보사님의 친구였던 그대가 지니는 것이\n가장 좋을 것 같구나\n사양할 필요는 없다\n들어 보아라",
      "TWzh": "{{fun_0003_0001 arg=\"0x0000\"}}雖然可能比不上{{color id=\"2\"}}雷鳴頭盔{{color id=\"65535\"}}，\n但也是難以取得的珍貴物品。\n讓身為烏爾波扎大人之友的你帶著，\n想必再好也不過吧。\n不用客氣，\n拿起來試試吧。",
      "USen": "{{fun_0003_0001 arg=\"0x0000\"}}They may pale in comparison to the\n{{color id=\"2\"}}Thunder Helm{{color id=\"65535\"}}, but they are very\nvaluable and not easy to come by.\nSince you were a friend to Lady Urbosa,\nit would be best for you to have them.\n\nDo not hesitate—take them in\nyour hands.",
      "USes": "{{fun_0003_0001 arg=\"0x0000\"}}Será poca cosa comparado con el\n{{color id=\"2\"}}{{wordInfo gender=\"1\" defArticle=\"0\" indefArticle=\"0\" isPlural=\"0\"}}casco del trueno{{color id=\"65535\"}}, pero de todos modos\nes muy valioso y difícil de conseguir.{{pageBreak}}Dado que eras amigo de Urbosa,\nestará seguro en tus manos.\nAdelante, tómalo.",
      "USfr": "{{fun_0003_0001 arg=\"0x0000\"}}Ils ne sont certes pas aussi précieux que\nle {{color id=\"2\"}}{{wordInfo gender=\"1\" defArticle=\"0\" indefArticle=\"0\" isPlural=\"0\"}}masque du tonnerre{{color id=\"65535\"}}...\n\nMais ce sont tout de même des objets\nrares, et d'une grande valeur.\n\nLe mieux est encore qu'ils te reviennent,\ntoi qui es l'ami de la Prodige Gerudo.\n\nAllez, ne te fais pas prier et prends-les."
    }
  },
  {
    "label": "Talk05",
    "attribute": "0xB0010000",
    "locale": {
      "CNzh": "{{fun_0003_0001 arg=\"0x0000\"}}先前戴上{{color id=\"2\"}}雷鸣头盔{{color id=\"65535\"}}和你一同战斗时，\n似乎听到有人……{{delay3}}\n叫了我一声璐菊……{{delay3}}\n\n{{fun_0003_0001 arg=\"0x0700\"}}呵呵……\n好久没人这样叫我了，\n{{fun_0003_0001 arg=\"0x0000\"}}那充满力量又蕴含温柔的声音，\n说不定是乌尔波扎大人呢……{{fun_0001_0004 arg=\"0x040005000001\"}}",
      "EUde": "{{fun_0003_0001 arg=\"0x0000\"}}Als ich den {{color id=\"2\"}}{{wordInfo gender=\"1\" defArticle=\"0\" indefArticle=\"0\" isPlural=\"0\"}}Donnerhelm{{color id=\"65535\"}} trug und an\ndeiner Seite kämpfte, hatte ich das\nGefühl, eine Stimme ruft meinen Namen.{{delay3}}\nRiju...{{delay3}}{{pageBreak}}{{fun_0003_0001 arg=\"0x0700\"}}Es ist lange her, dass mich jemand so\nangesprochen hat...{{pageBreak}}{{fun_0003_0001 arg=\"0x0000\"}}Diese starke, warme Stimme...{{delay1}}\nVielleicht war es wirklich Urbosa...{{fun_0001_0004 arg=\"0x040005000001\"}}",
      "EUen": "{{fun_0003_0001 arg=\"0x0000\"}}When I wore the {{color id=\"2\"}}Thunder Helm {{color id=\"65535\"}}and\nfought along your side, I thought I heard\na name called out on the wind.{{delay3}} Riju...{{delay3}}\n{{fun_0003_0001 arg=\"0x0700\"}}Heh... I hadn't been called by that name\nin a while. {{fun_0003_0001 arg=\"0x0000\"}}That strong, warm voice...\nIt must have belonged to Urbosa...{{fun_0001_0004 arg=\"0x040005000001\"}}",
      "EUes": "{{fun_0003_0001 arg=\"0x0000\"}}Cuando me puse el {{color id=\"2\"}}{{wordInfo gender=\"1\" defArticle=\"0\" indefArticle=\"0\" isPlural=\"0\"}}casco del trueno{{color id=\"65535\"}}\ny luché a tu lado, me pareció que\nel viento arrastraba un nombre.\nRiju...{{pageBreak}}{{fun_0003_0001 arg=\"0x0700\"}}Hacía mucho tiempo que nadie me\nllamaba así.{{pageBreak}}{{fun_0003_0001 arg=\"0x0000\"}}Una voz tan potente y cálida ha de ser\nsin duda la de Urbosa.{{fun_0001_0004 arg=\"0x040005000001\"}}",
      "EUfr": "{{fun_0003_0001 arg=\"0x0000\"}}Quand j'ai combattu à tes côtés équipée\ndu {{color id=\"2\"}}{{wordInfo gender=\"1\" defArticle=\"0\" indefArticle=\"0\" isPlural=\"0\"}}masque du tonnerre{{color id=\"65535\"}},{{delay3}} j'ai eu\nl'impression... qu'il m'appelait...\n« Riju »...{{delay3}}\n\n\n{{fun_0003_0001 arg=\"0x0700\"}}Hihi... Ça faisait si longtemps qu'on ne\nm'avait pas appelée comme ça...\n\n{{fun_0003_0001 arg=\"0x0000\"}}Cette voix si puissante, si chaude...\nc'était sûrement celle d'Urbosa la\nGrande...{{fun_0001_0004 arg=\"0x040005000001\"}}",
      "EUit": "{{fun_0003_0001 arg=\"0x0000\"}}Sai, quando ho combattuto al tuo fianco\nindossando l'{{color id=\"2\"}}{{wordInfo gender=\"1\" defArticle=\"3\" indefArticle=\"0\" isPlural=\"0\"}}elmo del tuono {{color id=\"65535\"}}mi è\nsembrato di sentire una voce chiamare...{{delay3}}\nRiju!{{delay3}}\n\n\n{{fun_0003_0001 arg=\"0x0700\"}}Era una vita che nessuno mi chiamava\ncon quel nome.\n\n{{fun_0003_0001 arg=\"0x0000\"}}E sono sicura che quella voce così forte\ne avvolgente fosse quella di Urbosa.{{fun_0001_0004 arg=\"0x040005000001\"}}",
      "EUnl": "{{fun_0003_0001 arg=\"0x0000\"}}Toen ik de {{color id=\"2\"}}Bliksemhelm{{color id=\"65535\"}} ophad en aan\njouw zijde streed, dacht ik een naam te\nhoren.{{delay3}} Riju...\n{{fun_0003_0001 arg=\"0x0700\"}}Hehe... Ik ben al een hele tijd niet meer\nbij mijn naam genoemd.{{pageBreak}}{{fun_0003_0001 arg=\"0x0000\"}}Die krachtige, warme stem was vast van\nUrbosa...{{fun_0001_0004 arg=\"0x040005000001\"}}",
      "EUru": "{{fun_0003_0001 arg=\"0x0000\"}}Когда {{color id=\"2\"}}Шлем Грома{{color id=\"65535\"}} был на мне\nво время боя, мне показалось,\nчто кто-то зовет меня по имени.{{pageBreak}}{{fun_0003_0001 arg=\"0x0700\"}}Риджу...{{delay1}} Давно меня так не называли!{{pageBreak}}{{fun_0003_0001 arg=\"0x0000\"}}Голос был очень сильный и в нем\nзвучала забота...{{delay1}} Неужели это была\nУрбоза?{{fun_0001_0004 arg=\"0x040005000001\"}}",
      "JPja": "{{fun_0003_0001 arg=\"0x0000\"}}{{color id=\"2\"}}{{ruby charSpan=\"2\" value=\"らいめい\"}}雷鳴の{{ruby charSpan=\"1\" value=\"かぶと\"}}兜{{color id=\"65535\"}}を{{ruby charSpan=\"1\" value=\"み\"}}身につけ お{{ruby charSpan=\"1\" value=\"まえ\"}}前と{{ruby charSpan=\"1\" value=\"とも\"}}共に{{ruby charSpan=\"1\" value=\"たたか\"}}戦った{{ruby charSpan=\"1\" value=\"とき\"}}時\n{{ruby charSpan=\"2\" value=\"なまえ\"}}名前を{{ruby charSpan=\"1\" value=\"よ\"}}呼ばれた{{ruby charSpan=\"1\" value=\"き\"}}気がしたんだ{{delay3}}\nルージュとな…{{delay3}}\n\n{{fun_0003_0001 arg=\"0x0700\"}}ふふっ…\nこの{{ruby charSpan=\"2\" value=\"なまえ\"}}名前で{{ruby charSpan=\"1\" value=\"よ\"}}呼ばれたのは{{ruby charSpan=\"2\" value=\"ひさびさ\"}}久々よ\n{{fun_0003_0001 arg=\"0x0000\"}}あの{{ruby charSpan=\"2\" value=\"ちからづよ\"}}力強く {{ruby charSpan=\"1\" value=\"あたた\"}}温かく{{ruby charSpan=\"1\" value=\"つつ\"}}包みこむような{{ruby charSpan=\"1\" value=\"こえ\"}}声の{{ruby charSpan=\"1\" value=\"ぬし\"}}主は\nウルボザ{{ruby charSpan=\"1\" value=\"さま\"}}様だったのかもしれないな…{{fun_0001_0004 arg=\"0x040005000001\"}}",
      "KRko": "{{fun_0003_0001 arg=\"0x0000\"}}{{color id=\"2\"}}뇌명의 투구{{color id=\"65535\"}}를 쓰고 그대와 함께 싸웠을 때\n내 이름을 부르는 것 같더군{{delay3}}\n루쥬라고 말이야…{{delay3}}\n\n{{fun_0003_0001 arg=\"0x0700\"}}후훗…\n이 이름으로 불린 건 오랜만이었지\n{{fun_0003_0001 arg=\"0x0000\"}}그 강하고 따스히 감싸 주는 목소리의 주인은\n우르보사님이었을지도 모르지…{{fun_0001_0004 arg=\"0x040005000001\"}}",
      "TWzh": "{{fun_0003_0001 arg=\"0x0000\"}}先前戴上{{color id=\"2\"}}雷鳴頭盔{{color id=\"65535\"}}和你一同戰鬥時，\n似乎聽到有人……{{delay3}}\n叫了本宮一聲露珠……{{delay3}}\n\n{{fun_0003_0001 arg=\"0x0700\"}}呵呵……\n好久沒人這樣叫本宮了，\n{{fun_0003_0001 arg=\"0x0000\"}}那充滿力量又蘊含溫柔的聲音，\n說不定是烏爾波扎大人呢……{{fun_0001_0004 arg=\"0x040005000001\"}}",
      "USen": "{{fun_0003_0001 arg=\"0x0000\"}}When I wore the {{color id=\"2\"}}Thunder Helm {{color id=\"65535\"}}and\nfought along your side, I thought I heard\na name called out on the wind.{{delay3}} Riju...{{delay3}}\n{{fun_0003_0001 arg=\"0x0700\"}}Heh... I hadn't been called by that name\nin a while. {{fun_0003_0001 arg=\"0x0000\"}}That strong, warm voice...\nIt must have belonged to Urbosa...{{fun_0001_0004 arg=\"0x040005000001\"}}",
      "USes": "{{fun_0003_0001 arg=\"0x0000\"}}Cuando me puse el {{color id=\"2\"}}{{wordInfo gender=\"1\" defArticle=\"0\" indefArticle=\"0\" isPlural=\"0\"}}casco del trueno{{color id=\"65535\"}}\ny luché a tu lado, me pareció que\nel viento arrastraba un nombre.\nRiju...{{pageBreak}}{{fun_0003_0001 arg=\"0x0700\"}}Hacía mucho tiempo que nadie me\nllamaba así. {{fun_0003_0001 arg=\"0x0000\"}}Una voz tan potente y\ncálida ha de ser sin duda la de Urbosa.{{fun_0001_0004 arg=\"0x040005000001\"}}",
      "USfr": "{{fun_0003_0001 arg=\"0x0000\"}}Quand j'ai combattu à tes côtés équipée\ndu {{color id=\"2\"}}{{wordInfo gender=\"1\" defArticle=\"0\" indefArticle=\"0\" isPlural=\"0\"}}masque du tonnerre{{color id=\"65535\"}},{{delay3}} j'ai eu\nl'impression... qu'il m'appelait...\n« Riju »...{{delay3}}\n\n\n{{fun_0003_0001 arg=\"0x0700\"}}Hihi... Ça faisait si longtemps qu'on ne\nm'avait pas appelée comme ça...\n\n{{fun_0003_0001 arg=\"0x0000\"}}Cette voix si puissante, si chaude...\nc'était sûrement celle d'Urbosa la\nGrande...{{fun_0001_0004 arg=\"0x040005000001\"}}"
    }
  },
  {
    "label": "0004",
    "attribute": "0xCA010000",
    "locale": {
      "CNzh": "璐菊……",
      "EUde": "Riju...",
      "EUen": "Riju...",
      "EUes": "Riju...",
      "EUfr": "Riju...",
      "EUit": "Riju...",
      "EUnl": "Riju...",
      "EUru": "Риджу...",
      "JPja": "ルージュ…",
      "KRko": "루쥬…",
      "TWzh": "露珠……",
      "USen": "Riju...",
      "USes": "Riju...",
      "USfr": "Riju..."
    }
  },
  {
    "label": "0005",
    "attribute": "0xCC010000",
    "locale": {
      "CNzh": "再见",
      "EUde": "Wiedersehen.",
      "EUen": "Good-bye.",
      "EUes": "Hasta la próxima",
      "EUfr": "À plus !",
      "EUit": "Arrivederci.",
      "EUnl": "Tot ziens.",
      "EUru": "Пока",
      "JPja": "さよなら",
      "KRko": "안녕히",
      "TWzh": "再見",
      "USen": "Good-bye.",
      "USes": "Hasta la próxima",
      "USfr": "À plus!"
    }
  },
  {
    "label": "Talk13",
    "attribute": "0xCE010000",
    "locale": {
      "CNzh": "{{fun_0003_0001 arg=\"0x0800\"}}就、就算是你，面对族长大人\n居然直呼名讳……不可饶恕！{{delay3}}",
      "EUde": "{{fun_0003_0001 arg=\"0x0800\"}}Du wagst es, sie so anzusprechen?!{{delay3}}\nHast du vergessen, dass sie eine\nKönigin ist?",
      "EUen": "{{fun_0003_0001 arg=\"0x0800\"}}Such insolence! Even deeds as\nvalorous as yours do not earn you the\nright to speak so to the chief!{{delay3}}",
      "EUes": "{{fun_0003_0001 arg=\"0x0800\"}}¡Insolente!{{delay3}} ¡¿Cómo osas dirigirte de\nesa manera a nuestra matriarca?!",
      "EUfr": "{{fun_0003_0001 arg=\"0x0800\"}}Comment oses-tu appeler notre chef\npar son nom ?!{{delay3}}",
      "EUit": "{{fun_0003_0001 arg=\"0x0800\"}}Anche se sei tu, non permetterò\ntutta questa confidenza con la\nmatriarca!{{delay3}}",
      "EUnl": "{{fun_0003_0001 arg=\"0x0800\"}}Hoe onbeschoft! Zelfs jij mag de\nmatriarch niet zo direct aanspreken!",
      "EUru": "{{fun_0003_0001 arg=\"0x0800\"}}Как ты смеешь! Никому не дозволено\nназывать предводительницу по имени!{{delay3}}\nДаже тебе!",
      "JPja": "{{fun_0003_0001 arg=\"0x0800\"}}い いくらお{{ruby charSpan=\"1\" value=\"まえ\"}}前でも\n{{ruby charSpan=\"3\" value=\"ぞくちょうさま\"}}族長様へのその{{ruby charSpan=\"2\" value=\"しょぎょう\"}}所業…  {{ruby charSpan=\"1\" value=\"ゆる\"}}許せん！{{delay3}}",
      "KRko": "{{fun_0003_0001 arg=\"0x0800\"}}아, 아무리 너라고 해도\n족장님에 대한 무례는… 용서 못한다!{{delay3}}",
      "TWzh": "{{fun_0003_0001 arg=\"0x0800\"}}就、就算是你，面對族長大人\n居然直呼名諱……不可饒恕！{{delay3}}",
      "USen": "{{fun_0003_0001 arg=\"0x0800\"}}Such insolence! Even deeds as\nvalorous as yours do not earn you the\nright to speak so to the chief!{{delay3}}",
      "USes": "{{fun_0003_0001 arg=\"0x0800\"}}¡Insolente!{{delay3}} ¡¿Cómo osas dirigirte\nde esa manera a nuestra jefa?!",
      "USfr": "{{fun_0003_0001 arg=\"0x0800\"}}Comment oses-tu appeler notre chef\npar son nom?!{{delay3}}"
    }
  },
  {
    "label": "Talk14",
    "attribute": "0xE8010000",
    "locale": {
      "CNzh": "{{fun_0003_0001 arg=\"0x0700\"}}呵呵……{{delay3}}\n\n哎，有什么关系呢，\n碧优拉。\n偶尔被叫叫名字，\n感觉也不错。",
      "EUde": "{{fun_0003_0001 arg=\"0x0700\"}}Hihi...{{pageBreak}}Ist schon gut, Bylla.{{delay3}} Ich höre gern\nvon Zeit zu Zeit meinen Vornamen.",
      "EUen": "{{fun_0003_0001 arg=\"0x0700\"}}Hm hm hm...{{delay3}}\n\n\nLet it go, Buliara.\n\n\nBeing called by my name every once in a \nwhile isn't so bad.",
      "EUes": "{{fun_0003_0001 arg=\"0x0700\"}}Je, je...{{pageBreak}}Tranquila, Adine. No me molesta que\nde vez en cuando me llamen\npor mi nombre.",
      "EUfr": "{{fun_0003_0001 arg=\"0x0700\"}}Hihi... !{{delay3}}\n\n\nCe n'est rien, Beterah. Ça me fait du\nbien d'être appelée par mon vrai nom\nde temps en temps.",
      "EUit": "{{fun_0003_0001 arg=\"0x0700\"}}Uh uh uh...{{delay3}}\n\n\nDai, Biulla, non prendertela...\nOgni tanto fa piacere anche a me\nsentirmi chiamare per nome.",
      "EUnl": "{{fun_0003_0001 arg=\"0x0700\"}}Haha...{{pageBreak}}Rustig maar, Buliara. Zo erg is het nou\nook weer niet om af en toe bij mijn naam\nte worden genoemd.",
      "EUru": "{{fun_0003_0001 arg=\"0x0700\"}}Хи-хи!{{pageBreak}}Все в порядке, Белла. Нет ничего\nстрашного в том, если меня один\nраз назовут просто по имени.",
      "JPja": "{{fun_0003_0001 arg=\"0x0700\"}}ふふっ…{{delay3}}\n\nまぁ いいではないか\nビューラ\nたまには {{ruby charSpan=\"1\" value=\"な\"}}名を{{ruby charSpan=\"1\" value=\"よ\"}}呼ばれるのも\n{{ruby charSpan=\"1\" value=\"わる\"}}悪くないものよ",
      "KRko": "{{fun_0003_0001 arg=\"0x0700\"}}후훗…{{delay3}}\n\n괜찮다, 뷰러\n\n가끔은 이름으로 불리는 것도\n나쁘지 않아",
      "TWzh": "{{fun_0003_0001 arg=\"0x0700\"}}呵呵……{{delay3}}\n\n哎，有什麼關係呢，\n碧優拉。\n偶爾被叫叫名字，\n感覺也不錯。",
      "USen": "{{fun_0003_0001 arg=\"0x0700\"}}Hm hm hm...{{delay3}}\n\n\nLet it go, Buliara.\n\n\nBeing called by my name every once in a \nwhile isn't so bad.",
      "USes": "{{fun_0003_0001 arg=\"0x0700\"}}Je, je...{{pageBreak}}Tranquila, Adine. No me molesta que\nde vez en cuando me llamen\npor mi nombre.",
      "USfr": "{{fun_0003_0001 arg=\"0x0700\"}}Hihi...!{{delay3}}\n\n\nCe n'est rien, Beterah. Ça me fait du\nbien d'être appelée par mon vrai nom\nde temps en temps."
    }
  },
  {
    "label": "Talk16",
    "attribute": "0x02020000",
    "locale": {
      "CNzh": "{{fun_0003_0001 arg=\"0x0000\"}}我国有乌尔波扎大人的护佑。\n我必须守护好这份和平才行。",
      "EUde": "{{fun_0003_0001 arg=\"0x0000\"}}Urbosa wacht über unseren Stamm.{{delay1}}\nEs ist meine Aufgabe, ihn vor allem\nUnheil zu bewahren.",
      "EUen": "{{fun_0003_0001 arg=\"0x0000\"}}Lady Urbosa smiles upon us once more.\nI must protect our fragile peace.",
      "EUes": "{{fun_0003_0001 arg=\"0x0000\"}}Urbosa vuelve a estar con nosotras.\nAhora debo preservar la paz que\ntanto nos ha costado conseguir.",
      "EUfr": "{{fun_0003_0001 arg=\"0x0000\"}}Urbosa la Grande marche à nos côtés.\nJe protégerai notre peuple.",
      "EUit": "{{fun_0003_0001 arg=\"0x0000\"}}Lo spirito di Urbosa veglia ancora\nsul nostro popolo. Io ho il dovere\ndi preservare la pace!",
      "EUnl": "{{fun_0003_0001 arg=\"0x0000\"}}Urbosa waakt over ons. Het is mijn taak\nom ons volk te beschermen.",
      "EUru": "{{fun_0003_0001 arg=\"0x0000\"}}Госпожа Урбоза снова с нами...{{delay1}}\nЯ должна беречь свой народ.",
      "JPja": "{{fun_0003_0001 arg=\"0x0000\"}}{{ruby charSpan=\"1\" value=\"わ\"}}我が{{ruby charSpan=\"1\" value=\"くに\"}}国にはウルボザ{{ruby charSpan=\"1\" value=\"さま\"}}様がついておられる\nこの{{ruby charSpan=\"2\" value=\"へいおん\"}}平穏 {{ruby charSpan=\"1\" value=\"まも\"}}守っていかねばの",
      "KRko": "{{fun_0003_0001 arg=\"0x0000\"}}우리나라엔 우르보사님이 함께하신다\n이 평온을 잘 지켜 나가야겠지",
      "TWzh": "{{fun_0003_0001 arg=\"0x0000\"}}我國有烏爾波扎大人的護佑。\n本宮必須守護好這份和平才行。",
      "USen": "{{fun_0003_0001 arg=\"0x0000\"}}Lady Urbosa smiles upon us once more.\nI must protect our fragile peace.",
      "USes": "{{fun_0003_0001 arg=\"0x0000\"}}Urbosa vuelve a estar con nosotras.\nAhora debo preservar la paz que\ntanto nos ha costado conseguir.",
      "USfr": "{{fun_0003_0001 arg=\"0x0000\"}}Urbosa la Grande marche à nos côtés.\nJe protégerai notre peuple."
    }
  },
  {
    "label": "Talk19",
    "attribute": "0x1C020000",
    "locale": {
      "CNzh": "{{fun_0003_0001 arg=\"0x0000\"}}我国有乌尔波扎大人的庇佑。\n\n我必须和这顶{{color id=\"2\"}}雷鸣头盔{{color id=\"65535\"}}一同\n守护这份和平才行。",
      "EUde": "{{fun_0003_0001 arg=\"0x0000\"}}Urbosa wacht über unseren Stamm.{{delay1}}\nEs ist meine Aufgabe, ihn mithilfe des\n{{color id=\"2\"}}{{wordInfo gender=\"1\" defArticle=\"0\" indefArticle=\"0\" isPlural=\"0\"}}Donnerhelms {{color id=\"65535\"}}zu beschützen.",
      "EUen": "{{fun_0003_0001 arg=\"0x0000\"}}Lady Urbosa smiles upon us once more.\nI must protect our fragile peace and the\n{{color id=\"2\"}}Thunder Helm{{color id=\"65535\"}} that rests here.",
      "EUes": "{{fun_0003_0001 arg=\"0x0000\"}}Urbosa vuelve a estar con nosotras.\nMi obligación ahora es preservar\nla paz... y también el {{color id=\"2\"}}{{wordInfo gender=\"1\" defArticle=\"0\" indefArticle=\"0\" isPlural=\"0\"}}casco del trueno{{color id=\"65535\"}}.",
      "EUfr": "{{fun_0003_0001 arg=\"0x0000\"}}Urbosa la Grande marche à nos côtés.\n\n\nAvec l'aide du {{color id=\"2\"}}{{wordInfo gender=\"1\" defArticle=\"0\" indefArticle=\"0\" isPlural=\"0\"}}masque du tonnerre{{color id=\"65535\"}},\nje protégerai notre peuple.",
      "EUit": "{{fun_0003_0001 arg=\"0x0000\"}}Lo spirito di Urbosa veglia ancora\nsul nostro popolo.\n\nIo ho il dovere di preservare la pace\nservendomi dell'{{color id=\"2\"}}{{wordInfo gender=\"1\" defArticle=\"3\" indefArticle=\"0\" isPlural=\"0\"}}elmo del tuono{{color id=\"65535\"}}.",
      "EUnl": "{{fun_0003_0001 arg=\"0x0000\"}}Urbosa waakt over ons. Het is mijn taak\nom ons volk en de {{color id=\"2\"}}Bliksemhelm{{color id=\"65535\"}} te\nbeschermen.",
      "EUru": "{{fun_0003_0001 arg=\"0x0000\"}}Госпожа Урбоза снова с нами...{{delay1}}\nЯ должна беречь свой народ...{{delay1}}\nи {{color id=\"2\"}}Шлем Грома{{color id=\"65535\"}}.",
      "JPja": "{{fun_0003_0001 arg=\"0x0000\"}}{{ruby charSpan=\"1\" value=\"わ\"}}我が{{ruby charSpan=\"1\" value=\"くに\"}}国にはウルボザ{{ruby charSpan=\"1\" value=\"さま\"}}様がついておられる\n\nそこにある{{color id=\"2\"}}{{ruby charSpan=\"2\" value=\"らいめい\"}}雷鳴の{{ruby charSpan=\"1\" value=\"かぶと\"}}兜{{color id=\"65535\"}}と{{ruby charSpan=\"1\" value=\"とも\"}}共に\nこの{{ruby charSpan=\"2\" value=\"へいおん\"}}平穏 {{ruby charSpan=\"1\" value=\"まも\"}}守っていかねばの",
      "KRko": "{{fun_0003_0001 arg=\"0x0000\"}}우리나라엔 우르보사님이 함께하신다\n\n거기 있는 {{color id=\"2\"}}뇌명의 투구{{color id=\"65535\"}}와 함께\n이 평온을 지켜 나가야겠지",
      "TWzh": "{{fun_0003_0001 arg=\"0x0000\"}}我國有烏爾波扎大人的庇佑。\n\n本宮必須和這頂{{color id=\"2\"}}雷鳴頭盔{{color id=\"65535\"}}一同\n守護這份和平才行。",
      "USen": "{{fun_0003_0001 arg=\"0x0000\"}}Lady Urbosa smiles upon us once more.\nI must protect our fragile peace and the\n{{color id=\"2\"}}Thunder Helm{{color id=\"65535\"}} that rests here.",
      "USes": "{{fun_0003_0001 arg=\"0x0000\"}}Urbosa vuelve a estar con nosotras.\nMi obligación ahora es preservar\nla paz... y también el {{color id=\"2\"}}{{wordInfo gender=\"1\" defArticle=\"0\" indefArticle=\"0\" isPlural=\"0\"}}casco del trueno{{color id=\"65535\"}}.",
      "USfr": "{{fun_0003_0001 arg=\"0x0000\"}}Urbosa la Grande marche à nos côtés.\n\n\nAvec l'aide du {{color id=\"2\"}}{{wordInfo gender=\"1\" defArticle=\"0\" indefArticle=\"0\" isPlural=\"0\"}}masque du tonnerre{{color id=\"65535\"}},\nje protégerai notre peuple."
    }
  },
  {
    "label": "Talk06",
    "attribute": "0x36020000",
    "locale": {
      "CNzh": "{{fun_0003_0001 arg=\"0x0000\"}}你的诸多贡献我也有所耳闻。\n听说你让人民恢复了笑容……\n身为族长，我在此正式向你道谢。\n\n沙库沙库。{{delay3}}\n\n你已成为我们格鲁德族之友！\n\n为了帮助朋友渡过难关，\n我很乐意将神器借给你。",
      "EUde": "{{fun_0003_0001 arg=\"0x0000\"}}Mir ist nicht verborgen geblieben, was du\nfür die Mitglieder meines Stammes getan\nhast.{{delay1}} Als Königin danke ich dir.{{pageBreak}}Sarq-sarq!{{delay3}}{{pageBreak}}Hiermit bist du ein Ehren-Gerudo!{{pageBreak}}Und als solchem vertraue ich dir mit\nFreuden unser heiliges Erbe an...",
      "EUen": "{{fun_0003_0001 arg=\"0x0000\"}}I have heard of your recent actions.\nYou have returned smiles to the faces of\nmy people...\nOn behalf of all Gerudo, I must offer you\nmy heartfelt thanks.\n\nSarqso.{{delay3}}\n\n\nYou are, from this moment on, a true\nfriend of the Gerudo!\n\nAnd if it can help a true friend in need,\nwe will gladly lend you this sacred\ntreasure.",
      "EUes": "{{fun_0003_0001 arg=\"0x0000\"}}Me han hablado de lo que has hecho.\nHas logrado que mis gentes vuelvan\na sonreír.\nMe gustaría darte las gracias en nombre\nde toda la tribu gerudo. {{delay3}}¡Sahku!{{pageBreak}}A partir de este momento, pasas a ser\noficialmente amigo de las gerudo.{{pageBreak}}Y, dado que nuestra obligación es ayudar\na un amigo que esté en apuros, te\ncederemos este tesoro de buen grado.",
      "EUfr": "{{fun_0003_0001 arg=\"0x0000\"}}On m'a raconté ce que tu as fait pour\nmon peuple... Tout le monde semble\navoir retrouvé le sourire.\nEn tant que chef, je me dois de te\nremercier.\n\nSaksak.{{delay3}}\n\n\nTu es l'ami de mon peuple, l'ami des\nGerudos !\n\nEt si ce masque divin peut aider un ami\ndans le besoin, alors je le lui confie\nvolontiers !",
      "EUit": "{{fun_0003_0001 arg=\"0x0000\"}}Ho saputo delle tue ultime gesta. Sei\nriuscito a riportare il sorriso sui volti\ndel mio popolo.\nVoglio ringraziarti a nome di tutte noi.\n\n\nSarq sarq.{{delay3}}\n\n\nDa oggi sei un amico delle Gerudo!\nPer aiutare un amico in difficoltà, sarò\nlieta di prestarti il nostro tesoro sacro.",
      "EUnl": "{{fun_0003_0001 arg=\"0x0000\"}}Ik heb gehoord over je recente daden.\nMijn volk heeft weer een glimlach op het\ngezicht dankzij jou.\nIk wil je namens mijn volk bedanken.{{pageBreak}}Sarqsarq.{{pageBreak}}Vanaf dit moment ben jij een vriend van\nde Gerudo's! En om een vriend te\nhelpen, lenen we graag onze schat uit.",
      "EUru": "{{fun_0003_0001 arg=\"0x0000\"}}Я слышала о твоих деяниях.{{delay1}}\nМой народ снова счастлив.{{pageBreak}}Благодарю тебя от имени\nвсех герудо.{{delay1}} Саак-саак!{{pageBreak}}С этой минуты ты друг народа герудо!{{delay1}}\nИ как другу я вручаю тебе реликвию.",
      "JPja": "{{fun_0003_0001 arg=\"0x0000\"}}お{{ruby charSpan=\"1\" value=\"まえ\"}}前の{{ruby charSpan=\"1\" value=\"はたら\"}}働きはわらわの{{ruby charSpan=\"1\" value=\"みみ\"}}耳にも{{ruby charSpan=\"1\" value=\"はい\"}}入っておるぞ\n{{ruby charSpan=\"1\" value=\"たみ\"}}民に{{ruby charSpan=\"2\" value=\"えがお\"}}笑顔を{{ruby charSpan=\"1\" value=\"と\"}}取り{{ruby charSpan=\"1\" value=\"もど\"}}戻してくれたようだな…\n{{ruby charSpan=\"1\" value=\"おさ\"}}長として{{ruby charSpan=\"1\" value=\"あらた\"}}改めて{{ruby charSpan=\"1\" value=\"れい\"}}礼を{{ruby charSpan=\"1\" value=\"い\"}}言わせてもらう\n\nサークサーク{{delay3}}\n\nお{{ruby charSpan=\"1\" value=\"まえ\"}}前は{{ruby charSpan=\"1\" value=\"われ\"}}我らゲルド{{ruby charSpan=\"1\" value=\"ぞく\"}}族の{{ruby charSpan=\"1\" value=\"とも\"}}友だ！\n\n{{ruby charSpan=\"1\" value=\"とも\"}}友の{{ruby charSpan=\"2\" value=\"きき\"}}危機を{{ruby charSpan=\"1\" value=\"すく\"}}救えるのであれば\n{{ruby charSpan=\"1\" value=\"よろこ\"}}喜んで{{ruby charSpan=\"2\" value=\"じんぎ\"}}神器を{{ruby charSpan=\"1\" value=\"あず\"}}預けようぞ",
      "KRko": "{{fun_0003_0001 arg=\"0x0000\"}}그대의 활약은 내 귀에도 들리더군\n백성들에게 미소를 되찾아 준 모양이야…\n족장으로서 다시 감사 인사를 하지\n\n사크사크{{delay3}}\n\n그대는 우리 겔드족의 친구다!\n\n친구의 위기를 돕기 위해서라면\n기꺼이 보물을 맡기도록 하지",
      "TWzh": "{{fun_0003_0001 arg=\"0x0000\"}}你的諸多貢獻本宮也有所耳聞。\n聽說你讓人民恢復了笑容……\n身為族長，本宮在此正式向你道謝。\n\n薩庫薩庫。{{delay3}}\n\n你已成為我們格魯德族之友！\n\n為了幫助朋友渡過難關，\n本宮很樂意將神器借給你。",
      "USen": "{{fun_0003_0001 arg=\"0x0000\"}}I have heard of your recent actions.\nYou have returned smiles to the faces of\nmy people...\nOn behalf of all Gerudo, I must offer you\nmy heartfelt thanks.\n\nSarqso.{{delay3}}\n\n\nYou are, from this moment on, a true\nfriend of the Gerudo!\n\nAnd if it can help a true friend in need,\nwe will gladly lend you this sacred\ntreasure.",
      "USes": "{{fun_0003_0001 arg=\"0x0000\"}}Tus actos de bondad han llegado a \nmis oídos. Lograste que la gente de\nmi tribu volviera a sonreír.\nMe gustaría darte las gracias en nombre\nde toda la tribu gerudo. {{delay3}}¡Sahku!{{pageBreak}}A partir de este momento, pasas a ser\noficialmente amigo de las gerudo.{{pageBreak}}Y, dado que nuestra obligación es ayudar\na un amigo que esté en apuros, te\ncederemos este tesoro sagrado.",
      "USfr": "{{fun_0003_0001 arg=\"0x0000\"}}On m'a raconté ce que tu as fait pour\nmon peuple... Tout le monde semble\navoir retrouvé le sourire, depuis.\nEn tant que chef, je me dois de te\nremercier.\n\nSaksak.{{delay3}}\n\n\nTu es l'ami de mon peuple, l'ami des\nGerudos!\n\nEt si ce masque divin peut aider un ami\ndans le besoin, alors je le lui confie\nvolontiers!"
    }
  },
  {
    "label": "Talk07",
    "attribute": "0x50020000",
    "locale": {
      "CNzh": "{{fun_0003_0001 arg=\"0x0000\"}}相信你定能将这顶{{color id=\"2\"}}雷鸣头盔{{color id=\"65535\"}}……{{delay1}}\n将乌尔波扎{{delay3}}大人的力量运用得比谁都好。",
      "EUde": "{{fun_0003_0001 arg=\"0x0000\"}}Du bist es, der den {{color id=\"2\"}}{{wordInfo gender=\"1\" defArticle=\"0\" indefArticle=\"0\" isPlural=\"0\"}}Donnerhelm{{color id=\"65535\"}} tragen\nsollte.{{delay3}} Keiner ist Urbosas Kraft so würdig\nwie du!",
      "EUen": "{{fun_0003_0001 arg=\"0x0000\"}}I know that you, more than any other,\nwill be able to use this {{color id=\"2\"}}Thunder Helm {{color id=\"65535\"}}to\nits fullest potential...\nI believe you can unlock the power of\n{{delay1}}Urbosa{{delay3}} that lies within.",
      "EUes": "{{fun_0003_0001 arg=\"0x0000\"}}Sé que usarás el {{color id=\"2\"}}{{wordInfo gender=\"1\" defArticle=\"0\" indefArticle=\"0\" isPlural=\"0\"}}casco del trueno{{color id=\"65535\"}}\nde modo que le saques el máximo\npartido.\nConfío en que lograrás liberar el poder\nde Urbosa que duerme en su interior.",
      "EUfr": "{{fun_0003_0001 arg=\"0x0000\"}}Je sais que plus que n'importe qui\nd'autre,{{delay1}} tu sauras faire bon usage du\n{{color id=\"2\"}}{{wordInfo gender=\"1\" defArticle=\"0\" indefArticle=\"0\" isPlural=\"0\"}}masque du tonnerre{{color id=\"65535\"}}...\n... et du pouvoir d'Urbosa la Grande qu'il\nrenferme.",
      "EUit": "{{fun_0003_0001 arg=\"0x0000\"}}Tu più di chiunque altro saprai sfruttare\nal meglio l'{{color id=\"2\"}}{{wordInfo gender=\"1\" defArticle=\"3\" indefArticle=\"0\" isPlural=\"0\"}}elmo del tuono{{color id=\"65535\"}}.{{delay3}} Tu saprai\ncome usare il potere di {{delay1}}Urbosa.",
      "EUnl": "{{fun_0003_0001 arg=\"0x0000\"}}Ik weet dat jij, meer dan wie dan ook,\ndeze helm tot zijn volste potentieel zult\nbenutten...\nIk durf zelfs te wedden dat je de kracht\nvan Urbosa in deze helm zult weten te\ngebruiken.",
      "EUru": "{{fun_0003_0001 arg=\"0x0000\"}}Ты заслужил право\nносить {{color id=\"2\"}}Шлем Грома{{color id=\"65535\"}}.{{pageBreak}}Надеюсь, сила Урбозы, скрытая\nв нем, поможет тебе одержать\nмножество побед.",
      "JPja": "{{fun_0003_0001 arg=\"0x0000\"}}お{{ruby charSpan=\"1\" value=\"まえ\"}}前ならこの{{color id=\"2\"}}{{ruby charSpan=\"2\" value=\"らいめい\"}}雷鳴の{{ruby charSpan=\"1\" value=\"かぶと\"}}兜{{color id=\"65535\"}}を… {{delay1}}ウルボザ{{ruby charSpan=\"1\" value=\"さま\"}}様の{{ruby charSpan=\"1\" value=\"ちから\"}}力を{{delay3}}\n{{ruby charSpan=\"1\" value=\"だれ\"}}誰よりも{{ruby charSpan=\"1\" value=\"つか\"}}使いこなしてくれると{{ruby charSpan=\"1\" value=\"しん\"}}信じているぞ",
      "KRko": "{{fun_0003_0001 arg=\"0x0000\"}}그대라면 이 {{color id=\"2\"}}뇌명의 투구{{color id=\"65535\"}}를… {{delay1}}우르보사님의 힘을{{delay3}}\n누구보다 잘 써 줄 거라고 믿는다",
      "TWzh": "{{fun_0003_0001 arg=\"0x0000\"}}相信你定能將這頂{{color id=\"2\"}}雷鳴頭盔{{color id=\"65535\"}}……{{delay1}}\n將烏爾波扎{{delay3}}大人的力量運用得比誰都好。",
      "USen": "{{fun_0003_0001 arg=\"0x0000\"}}I know that you, more than any other,\nwill be able to use this {{color id=\"2\"}}Thunder Helm {{color id=\"65535\"}}to\nits fullest potential...\nI believe you can unlock the power of\n{{delay1}}Urbosa{{delay3}} that lies within.",
      "USes": "{{fun_0003_0001 arg=\"0x0000\"}}Sé que usarás el {{color id=\"2\"}}{{wordInfo gender=\"1\" defArticle=\"0\" indefArticle=\"0\" isPlural=\"0\"}}casco del trueno{{color id=\"65535\"}}\nsabiamente y que lo aprovecharás\ncomo nadie.\nConfío en que lograrás liberar el poder\nde Urbosa que duerme en su interior.",
      "USfr": "{{fun_0003_0001 arg=\"0x0000\"}}Je sais que plus que n'importe qui\nd'autre,{{delay1}} tu sauras faire bon usage du\n{{color id=\"2\"}}{{wordInfo gender=\"1\" defArticle=\"0\" indefArticle=\"0\" isPlural=\"0\"}}masque du tonnerre{{color id=\"65535\"}}...\n... et du pouvoir d'Urbosa la Grande qu'il\nrenferme."
    }
  },
  {
    "label": "Near01",
    "attribute": "0x6A020000",
    "locale": {
      "CNzh": "{{fun_0003_0001 arg=\"0x0109\"}}呵呵……",
      "EUde": "{{fun_0003_0001 arg=\"0x0109\"}}Hihi...",
      "EUen": "{{fun_0003_0001 arg=\"0x0109\"}}Hm hm hm...",
      "EUes": "{{fun_0003_0001 arg=\"0x0109\"}}Je, je...",
      "EUfr": "{{fun_0003_0001 arg=\"0x0109\"}}Héhé...",
      "EUit": "{{fun_0003_0001 arg=\"0x0109\"}}Eh eh...",
      "EUnl": "{{fun_0003_0001 arg=\"0x0109\"}}Haha...",
      "EUru": "{{fun_0003_0001 arg=\"0x0109\"}}Хи-хи...",
      "JPja": "{{fun_0003_0001 arg=\"0x0109\"}}ふふっ…",
      "KRko": "{{fun_0003_0001 arg=\"0x0109\"}}후훗…",
      "TWzh": "{{fun_0003_0001 arg=\"0x0109\"}}呵呵……",
      "USen": "{{fun_0003_0001 arg=\"0x0109\"}}Hm hm hm...",
      "USes": "{{fun_0003_0001 arg=\"0x0109\"}}Je, je...",
      "USfr": "{{fun_0003_0001 arg=\"0x0109\"}}Héhé..."
    }
  }
]