[
  {
    "label": "Talk00",
    "attribute": "0x68000000",
    "locale": {
      "CNzh": "{{fun_0003_0001 arg=\"0x070B\"}}哎呀哎呀，没想到在这种地方还能遇上人……{{delay3}}\n这就是所谓不幸中的大幸吧……\n{{fun_0003_0001 arg=\"0x0001\"}}我跟你一样都是旅行者……{{delay3}}\n我在这座山岭被怪物袭击……\n{{fun_0003_0001 arg=\"0x0B10\"}}当时和我搭档的{{color id=\"0\"}}马{{color id=\"65535\"}}受惊逃走，{{delay3}}\n结果我就被困在这里了……",
      "EUde": "{{fun_0003_0001 arg=\"0x070B\"}}Hätte nicht gedacht, hier jemanden zu\ntreffen...{{delay3}} Vielleicht ist mir das Glück ja\nzur Abwechslung mal hold...{{pageBreak}}{{fun_0003_0001 arg=\"0x0001\"}}Ich bin ein Reisender wie du...{{delay3}}\nMonster haben mich angegriffen...{{pageBreak}}{{fun_0003_0001 arg=\"0x0B10\"}}Dabei ist mein Partner, soll heißen, mein\n{{color id=\"0\"}}Pferd{{color id=\"65535\"}}, durchgegangen.{{delay3}} Und seitdem sitze\nich hier fest.",
      "EUen": "{{fun_0003_0001 arg=\"0x070B\"}}Hey, hey, I sure wasn't expecting to meet\nanyone out here...{{delay3}} Maybe this is just the\nupturn in luck I needed!\n{{fun_0003_0001 arg=\"0x0001\"}}Yeah, so yeah, I'm a traveler like you...{{delay3}}\nAnd I was attacked by monsters in this\nvery canyon...\n{{fun_0003_0001 arg=\"0x0B10\"}}That's when my partner, that's to say,\nmy {{color id=\"0\"}}horse{{color id=\"65535\"}}, ran off.{{delay3}} And hey, I've been\nstranded here ever since...",
      "EUes": "{{fun_0003_0001 arg=\"0x070B\"}}¡Saludos, rubiales! No esperaba\nencontrar a nadie por aquí.{{delay3}}\nSerá mi día de suerte.\n{{fun_0003_0001 arg=\"0x0001\"}}Estaba de viaje, igual que tú, cuando\nde repente me atacaron unos monstruos\nen este paso de montaña.\n{{fun_0003_0001 arg=\"0x0B10\"}}Asustaron tanto a mi {{color id=\"0\"}}caballo{{color id=\"65535\"}} que salió\nal galope despavorido y no pude seguirle\nla pista.\nY nada, me quedé aquí tirado\nsin ningún medio de transporte.",
      "EUfr": "{{fun_0003_0001 arg=\"0x070B\"}}Hé, ça alors ! Si je m'attendais à tomber\nsur quelqu'un dans ce trou perdu !{{delay3}} Faut\ncroire que la chance a fini par tourner...\n{{fun_0003_0001 arg=\"0x0001\"}}Moi aussi, je suis un voyageur, tout\ncomme toi !{{delay3}} J'ai été attaqué en passant\nle col de la montagne.\n{{fun_0003_0001 arg=\"0x0B10\"}}Dès que Mon p'tit pote a flairé les\nmonstres, il a filé sans demander son\nreste.\nMon p'tit pote, c'est mon {{color id=\"0\"}}cheval{{color id=\"65535\"}}.{{delay3}}\nJe suis coincé ici depuis que cette\nfripouille ingrate s'est fait la malle.",
      "EUit": "{{fun_0003_0001 arg=\"0x070B\"}}Non si incontra spesso gente da\nqueste parti!{{delay3}} Un piccolo raggio di\nsperanza nella mia infelicità...\n{{fun_0003_0001 arg=\"0x0001\"}}Anche io sono un viandante come te,{{delay3}}\nma sono stato attaccato dai mostri\nmentre attraversavo questo passo.\n{{fun_0003_0001 arg=\"0x0B10\"}}E il mio {{color id=\"0\"}}cavallo{{color id=\"65535\"}} ha pensato bene di\ndarsela a gambe{{delay3}} abbandonandomi qui...",
      "EUnl": "{{fun_0003_0001 arg=\"0x070B\"}}Héhé! Ik had niet verwacht hier iemand\ntegen te komen... Misschien komt er\neindelijk weer wat geluk mijn kant op!\n{{fun_0003_0001 arg=\"0x0001\"}}Hé, dus, um... ik ben een reiziger, net als\njij...{{delay3}} en ik ben in deze bergpas\naangevallen door monsters...\n{{fun_0003_0001 arg=\"0x0B10\"}}En toen is mijn partner, dat wil zeggen,\nmijn {{color id=\"0\"}}paard{{color id=\"65535\"}}, ervandoor gegaan. Sindsdien\nzit ik hier vast.",
      "EUru": "{{fun_0003_0001 arg=\"0x070B\"}}Цок-цок!{{delay1}} Не ожидал, что встречу\nздесь кого-нибудь!{{delay1}} Неужели мне\nнаконец-то повезло?{{pageBreak}}{{fun_0003_0001 arg=\"0x0001\"}}Я путешественник, такой же, как и ты.{{delay1}}\nНа меня напали монстры...{{pageBreak}}{{fun_0003_0001 arg=\"0x0B10\"}}И моя спутница, то есть {{color id=\"0\"}}лошадь{{color id=\"65535\"}},\nубежала.{{delay3}} Вот так я здесь и застрял.",
      "JPja": "{{fun_0003_0001 arg=\"0x070B\"}}やあやあ こんなところで{{ruby charSpan=\"1\" value=\"ひと\"}}人に{{ruby charSpan=\"1\" value=\"あ\"}}会うとは…{{delay3}}\n{{ruby charSpan=\"3\" value=\"ふこうちゅう\"}}不幸中の{{ruby charSpan=\"1\" value=\"さいわ\"}}幸いとはこういう{{ruby charSpan=\"1\" value=\"こと\"}}事なんですねえ…\n{{fun_0003_0001 arg=\"0x0001\"}}{{ruby charSpan=\"1\" value=\"わたし\"}}私もあなたと{{ruby charSpan=\"1\" value=\"おな\"}}同じ{{ruby charSpan=\"2\" value=\"たびびと\"}}旅人なのですが…{{delay3}}\nこの{{ruby charSpan=\"1\" value=\"とうげ\"}}峠で{{ruby charSpan=\"2\" value=\"まもの\"}}魔物に{{ruby charSpan=\"1\" value=\"おそ\"}}襲われてしまいましてねえ…\n{{fun_0003_0001 arg=\"0x0B10\"}}その{{ruby charSpan=\"1\" value=\"とき\"}}時 {{ruby charSpan=\"2\" value=\"あいぼう\"}}相棒の{{color id=\"0\"}}{{ruby charSpan=\"1\" value=\"うま\"}}馬{{color id=\"65535\"}}が{{ruby charSpan=\"1\" value=\"に\"}}逃げて{{ruby charSpan=\"1\" value=\"い\"}}行ってしまいまして{{delay3}}\nここで{{ruby charSpan=\"1\" value=\"た\"}}立ち{{ruby charSpan=\"2\" value=\"おうじょう\"}}往生しているところだったんです…",
      "KRko": "{{fun_0003_0001 arg=\"0x070B\"}}우와, 이런 곳에서 사람을 만날 줄이야…{{delay3}}\n이런 걸 두고 불행 중 다행이라고 하나 보네요…\n{{fun_0003_0001 arg=\"0x0001\"}}저도 당신과 같은 여행자인데요…{{delay3}}\n이 고개에서 몬스터의 습격을 받았는데…\n{{fun_0003_0001 arg=\"0x0B10\"}}그때 아끼던 {{color id=\"0\"}}말{{color id=\"65535\"}}이 도망쳐 버려서{{delay3}}\n여기에서 이렇게 오도 가도 못하고 있어요…",
      "TWzh": "{{fun_0003_0001 arg=\"0x070B\"}}哎呀哎呀，沒想到在這種地方還能遇上人……{{delay3}}\n這就是所謂不幸中的大幸吧……\n{{fun_0003_0001 arg=\"0x0001\"}}我跟你一樣都是旅行者……{{delay3}}\n我在這座山嶺被怪物襲擊……\n{{fun_0003_0001 arg=\"0x0B10\"}}當時和我夥伴的{{color id=\"0\"}}馬{{color id=\"65535\"}}受驚逃走，{{delay3}}\n結果我就被困在這裡了……",
      "USen": "{{fun_0003_0001 arg=\"0x070B\"}}Hey, hey, I sure wasn't expecting to meet\nanyone out here...{{delay3}} Maybe this is just the\nupturn in luck I needed!\n{{fun_0003_0001 arg=\"0x0001\"}}Yeah, so yeah, I'm a traveler like you...{{delay3}}\nAnd I was attacked by monsters in this\nvery canyon...\n{{fun_0003_0001 arg=\"0x0B10\"}}That's when my partner, that's to say,\nmy {{color id=\"0\"}}horse{{color id=\"65535\"}}, ran off.{{delay3}} And hey, I've been\nstranded here ever since...",
      "USes": "{{fun_0003_0001 arg=\"0x070B\"}}¡Eh, saludos, güero! No esperaba\nencontrar a nadie por aquí.{{delay3}}\nSerá mi día de suerte.{{pageBreak}}{{fun_0003_0001 arg=\"0x0001\"}}Mira, estaba de viaje, igual que tú,\ncuando de repente me atacaron unos\nmonstruos en este paso de montaña.\n{{fun_0003_0001 arg=\"0x0B10\"}}Asustaron a mi {{color id=\"0\"}}caballo{{color id=\"65535\"}} y pues salió\nal galope y no pude seguirle la pista,\n¿no?\nEntonces me quedé aquí perdido\nsin ningún medio de transporte.",
      "USfr": "{{fun_0003_0001 arg=\"0x070B\"}}Hé, ça alors! Si je m'attendais à tomber\nsur quelqu'un dans ce trou perdu!{{delay3}} Faut\ncroire que la chance a fini par tourner...\n{{fun_0003_0001 arg=\"0x0001\"}}Moi aussi, je suis un voyageur, tout\ncomme toi!{{delay3}} J'ai été attaqué en passant\nle col de la montagne.\n{{fun_0003_0001 arg=\"0x0B10\"}}Dès que Mon bon ami a flairé les\nmonstres, il a filé sans demander son\nreste.\nMon bon ami, c'est mon {{color id=\"0\"}}cheval{{color id=\"65535\"}}.{{delay3}}\nJe suis coincé ici depuis que cette\nfripouille ingrate s'est poussée."
    }
  },
  {
    "label": "Talk16",
    "attribute": "0x86000000",
    "locale": {
      "CNzh": "{{fun_0003_0001 arg=\"0x010B\"}}哎呀哎呀，\n你果然愿意伸出援手是吗？",
      "EUde": "{{fun_0003_0001 arg=\"0x010B\"}}Du hast dich also entschieden, mir zu\nhelfen?",
      "EUen": "{{fun_0003_0001 arg=\"0x010B\"}}Hey, hey, so you decided that you \nwant to help me out?",
      "EUes": "{{fun_0003_0001 arg=\"0x010B\"}}Eh, ¿no te decides a ayudarme?",
      "EUfr": "{{fun_0003_0001 arg=\"0x010B\"}}Hé ! Tu veux bien m'aider, finalement ?",
      "EUit": "{{fun_0003_0001 arg=\"0x010B\"}}Dunque hai deciso di aiutarmi?",
      "EUnl": "{{fun_0003_0001 arg=\"0x010B\"}}Héhé! Dus je hebt besloten om me te\nhelpen?",
      "EUru": "{{fun_0003_0001 arg=\"0x010B\"}}Цок-цок!{{delay1}} Неужели ты\nрешил мне помочь?",
      "JPja": "{{fun_0003_0001 arg=\"0x010B\"}}やあやあ やっぱり{{ruby charSpan=\"1\" value=\"たす\"}}助けてくれる{{ruby charSpan=\"1\" value=\"き\"}}気に\nなってくださったのですか？",
      "KRko": "{{fun_0003_0001 arg=\"0x010B\"}}우와, 역시 도와주실 마음이 생긴 건가요?",
      "TWzh": "{{fun_0003_0001 arg=\"0x010B\"}}哎呀哎呀，\n你果然願意伸出援手是嗎？",
      "USen": "{{fun_0003_0001 arg=\"0x010B\"}}Hey, hey, so you decided that you \nwant to help me out?",
      "USes": "{{fun_0003_0001 arg=\"0x010B\"}}Eh, ¿al final me vas a ayudar, entonces?",
      "USfr": "{{fun_0003_0001 arg=\"0x010B\"}}Hé! Tu veux bien m'aider, finalement?"
    }
  },
  {
    "label": "Talk01",
    "attribute": "0xA4000000",
    "locale": {
      "CNzh": "{{fun_0003_0001 arg=\"0x0B10\"}}哎呀，要是有匹{{color id=\"0\"}}马{{color id=\"65535\"}}，我就能继续旅行了……{{delay3}}\n拜托你！替我找匹{{delay2}}{{color id=\"0\"}}马{{color id=\"65535\"}}过来吧！",
      "EUde": "{{fun_0003_0001 arg=\"0x0B10\"}}Wenn ich ein {{color id=\"0\"}}Pferd{{color id=\"65535\"}} hätte, könnte ich\nwieder reisen...{{delay3}} Ich bitte dich!{{delay2}}\nKannst du mir nicht ein {{color id=\"0\"}}Pferd{{color id=\"65535\"}} besorgen?",
      "EUen": "{{fun_0003_0001 arg=\"0x0B10\"}}Yeah, hey, if I just had a {{color id=\"0\"}}horse{{color id=\"65535\"}}, I could\nkeep traveling on my way... Please!{{delay2}}\nPlease find and bring me a {{color id=\"0\"}}horse{{color id=\"65535\"}}!",
      "EUes": "{{fun_0003_0001 arg=\"0x0B10\"}}Tú pareces buen chaval.{{delay2}} ¿Puedo\npedirte que me eches una mano,\nde viajero a viajero?\nTráeme un {{color id=\"0\"}}caballo{{color id=\"65535\"}}, por favor.{{delay3}} Así podré\nseguir con mi viaje y salir de este camino\npolvoriento.",
      "EUfr": "{{fun_0003_0001 arg=\"0x0B10\"}}Ah, si seulement j'avais un {{color id=\"0\"}}cheval {{color id=\"65535\"}}! Je\npourrais reprendre mes pérégrinations !{{delay3}}\nTu voudrais pas m'en trouver un, dis ?",
      "EUit": "{{fun_0003_0001 arg=\"0x0B10\"}}Se avessi un {{color id=\"0\"}}cavallo{{color id=\"65535\"}} potrei riprendere\nil mio viaggio...{{delay3}}\nPer favore! {{delay2}}Portami un {{color id=\"0\"}}cavallo{{color id=\"65535\"}}!",
      "EUnl": "{{fun_0003_0001 arg=\"0x0B10\"}}Had ik maar een {{color id=\"0\"}}paard{{color id=\"65535\"}}, dan zou ik mijn\nreis voort kunnen zetten...{{delay3}} Alsjeblieft!{{delay2}}\nKun jij me een {{color id=\"0\"}}paard{{color id=\"65535\"}} brengen?",
      "EUru": "{{fun_0003_0001 arg=\"0x0B10\"}}Цок, было б на чем — поехал бы\nдальше путешествовать.{{delay1}} Слушай,\nты можешь достать мне {{color id=\"0\"}}лошадь{{color id=\"65535\"}}?",
      "JPja": "{{fun_0003_0001 arg=\"0x0B10\"}}やあ {{color id=\"0\"}}{{ruby charSpan=\"1\" value=\"うま\"}}馬{{color id=\"65535\"}}さえいれば まだ{{ruby charSpan=\"1\" value=\"たび\"}}旅を{{ruby charSpan=\"1\" value=\"つづ\"}}続けられるのに…{{delay3}}\nお{{ruby charSpan=\"1\" value=\"ねが\"}}願いです！ {{delay2}}{{color id=\"0\"}}{{ruby charSpan=\"1\" value=\"うま\"}}馬{{color id=\"65535\"}}を{{ruby charSpan=\"1\" value=\"つ\"}}連れて{{ruby charSpan=\"1\" value=\"き\"}}来てください！",
      "KRko": "{{fun_0003_0001 arg=\"0x0B10\"}}{{color id=\"0\"}}말{{color id=\"65535\"}}만 있으면 여행을 이어갈 수 있을 텐데…{{delay3}}\n부탁이에요! {{delay2}}{{color id=\"0\"}}말{{color id=\"65535\"}}을 데리고 와 주세요!",
      "TWzh": "{{fun_0003_0001 arg=\"0x0B10\"}}哎呀，要是有匹{{color id=\"0\"}}馬{{color id=\"65535\"}}，我就能繼續旅行了……{{delay3}}\n拜託你！替我找匹{{delay2}}{{color id=\"0\"}}馬{{color id=\"65535\"}}過來吧！",
      "USen": "{{fun_0003_0001 arg=\"0x0B10\"}}Yeah, hey, if I just had a {{color id=\"0\"}}horse{{color id=\"65535\"}}, I could\nkeep traveling on my way... Please!{{delay2}}\nPlease find and bring me a {{color id=\"0\"}}horse{{color id=\"65535\"}}!",
      "USes": "{{fun_0003_0001 arg=\"0x0B10\"}}Tú tienes cara de bueno.{{delay2}} No te\nimportaría echarme una mano,\n¿verdad? ¿De viajero a viajero?{{pageBreak}}Mira, lo que necesito es un {{color id=\"0\"}}caballo{{color id=\"65535\"}}.{{delay3}} Si\nme traes uno, así podré seguir con mi\nviaje y dejar este camino polvoriento.",
      "USfr": "{{fun_0003_0001 arg=\"0x0B10\"}}Ah, si seulement j'avais un {{color id=\"0\"}}cheval{{color id=\"65535\"}}! Je\npourrais reprendre mes voyages!{{delay3}}\nTu voudrais pas m'en trouver un, dis?"
    }
  },
  {
    "label": "Talk02",
    "attribute": "0xC2000000",
    "locale": {
      "CNzh": "{{fun_0003_0001 arg=\"0x0716\"}}哦哦！{{delay2}}那匹{{color id=\"0\"}}马{{color id=\"65535\"}}……{{delay2}}非常适合当我的搭档！{{delay3}}\n真是匹好{{color id=\"0\"}}马{{color id=\"65535\"}}啊……{{size value=\"80\"}}{{size value=\"100\"}}\n{{fun_0003_0001 arg=\"0x0101\"}}请你务必将那匹{{color id=\"0\"}}马{{color id=\"65535\"}}让给我！{{delay2}}\n我愿意用{{color id=\"0\"}}300卢比{{color id=\"65535\"}}收购，你意下如何？{{fun_0001_0004 arg=\"0x000001000001\"}}",
      "EUde": "{{fun_0003_0001 arg=\"0x0716\"}}Oh! {{delay2}}Dieses {{color id=\"0\"}}Pferd{{color id=\"65535\"}}...{{delay2}} Es ist genau wie\nmein Partner,{{delay1}} äh,{{delay1}} {{color id=\"0\"}}Pferd{{color id=\"65535\"}}!{{delay2}} Sieht toll aus!{{pageBreak}}{{fun_0003_0001 arg=\"0x0101\"}}Würdest du mir dieses {{color id=\"0\"}}Pferd{{color id=\"65535\"}} überlassen?{{delay1}}\nEs soll dein Schaden nicht sein, ich gebe\ndir {{color id=\"0\"}}300 Rubine{{color id=\"65535\"}} dafür!{{fun_0001_0004 arg=\"0x000001000001\"}}",
      "EUen": "{{fun_0003_0001 arg=\"0x0716\"}}Ohh! {{delay2}}HEY! That {{color id=\"0\"}}horse{{color id=\"65535\"}}...{{delay2}} It's just like my\nold partner! {{delay3}}Talk about a fine {{color id=\"0\"}}horse{{color id=\"65535\"}}...\n\n{{size value=\"80\"}}{{fun_0003_0001 arg=\"0x0101\"}}{{size value=\"100\"}}Think I could have this {{color id=\"0\"}}horse{{color id=\"65535\"}}?{{delay2}} \nI'll pay you {{color id=\"0\"}}300 rupees{{color id=\"65535\"}} for it, what do\nyou say, hey?{{fun_0001_0004 arg=\"0x000001000001\"}}",
      "EUes": "{{fun_0003_0001 arg=\"0x0716\"}}¡Oooh! {{delay2}}Este {{color id=\"0\"}}caballo{{color id=\"65535\"}} se parece mucho\na mi antigua montura.{{delay2}} ¡Es un buen\nejemplar!\n{{fun_0003_0001 arg=\"0x0101\"}}¿Me lo puedo quedar?{{delay2}} Te daré {{color id=\"0\"}}300\nrupias{{color id=\"65535\"}} por él. ¿Qué me dices, rubiales?{{fun_0001_0004 arg=\"0x000001000001\"}}",
      "EUfr": "{{fun_0003_0001 arg=\"0x0716\"}}Ouah ! {{delay2}}Ce {{color id=\"0\"}}cheval{{color id=\"65535\"}},{{delay2}} c'est le portrait craché\nde mon canasson en cavale !{{delay3}} Quelle bête\nsuperbe !\n{{fun_0003_0001 arg=\"0x0101\"}}Tu veux bien me le laisser, gamin ?{{delay2}} \nJ'suis prêt à t'en donner {{color id=\"0\"}}300 rubis {{color id=\"65535\"}}!!!\nUne somme rondelette ! T'es partant ?{{fun_0001_0004 arg=\"0x000001000001\"}} ",
      "EUit": "{{fun_0003_0001 arg=\"0x0716\"}}Oooh!{{delay2}} Questo {{color id=\"0\"}}cavallo{{color id=\"65535\"}}...{{delay2}} è uguale\nspiccicato a quello che avevo!{{delay3}}\nChe portamento!\n{{fun_0003_0001 arg=\"0x0101\"}}Ti prego, dallo a me!\nTe lo compro per {{color id=\"0\"}}300 rupie{{color id=\"65535\"}}, che ne dici?{{fun_0001_0004 arg=\"0x000001000001\"}}",
      "EUnl": "{{fun_0003_0001 arg=\"0x0716\"}}Ooo!{{delay2}} Dat {{color id=\"0\"}}paard{{color id=\"65535\"}}...{{delay2}} Het is precies mijn\noude partner! Wat een mooi {{color id=\"0\"}}paard{{color id=\"65535\"}}...{{pageBreak}}{{fun_0003_0001 arg=\"0x0101\"}}Mag ik dat {{color id=\"0\"}}paard{{color id=\"65535\"}} hebben? Ik geef je er\n{{color id=\"0\"}}300 rupees{{color id=\"65535\"}} voor. Dat lijkt me geen\nslechte deal.{{fun_0001_0004 arg=\"0x000001000001\"}}",
      "EUru": "{{fun_0003_0001 arg=\"0x0716\"}}Ах какая {{color id=\"0\"}}лошадка{{color id=\"65535\"}}!{{delay1}} Просто красавица!{{delay1}}\nСовсем как моя прежняя спутница.{{pageBreak}}{{fun_0003_0001 arg=\"0x0101\"}}Слушай, друг, продай мне ее!{{delay1}} За мной\nне заржавеет — дам {{color id=\"0\"}}300 рупий{{color id=\"65535\"}}.{{delay1}} По\nрукам?{{fun_0001_0004 arg=\"0x000001000001\"}}",
      "JPja": "{{fun_0003_0001 arg=\"0x0716\"}}おぉ！{{delay2}} その{{color id=\"0\"}}{{ruby charSpan=\"1\" value=\"うま\"}}馬{{color id=\"65535\"}}…{{delay2}} {{ruby charSpan=\"1\" value=\"わたし\"}}私の{{ruby charSpan=\"2\" value=\"あいぼう\"}}相棒にぴったりです！{{delay3}}\nなかなかの{{color id=\"0\"}}{{ruby charSpan=\"1\" value=\"うま\"}}馬{{color id=\"65535\"}}ですね…{{size value=\"80\"}}{{size value=\"100\"}}\n{{fun_0003_0001 arg=\"0x0101\"}}どうか その{{color id=\"0\"}}{{ruby charSpan=\"1\" value=\"うま\"}}馬{{color id=\"65535\"}}を {{ruby charSpan=\"1\" value=\"わたし\"}}私に{{ruby charSpan=\"1\" value=\"ゆず\"}}譲ってもらえませんか？{{delay2}} \n{{color id=\"0\"}}300ルピー{{color id=\"65535\"}}で{{ruby charSpan=\"1\" value=\"か\"}}買い{{ruby charSpan=\"1\" value=\"と\"}}取りますが いかがでしょう？{{fun_0001_0004 arg=\"0x000001000001\"}}",
      "KRko": "{{fun_0003_0001 arg=\"0x0716\"}}오오!{{delay2}} 그 {{color id=\"0\"}}말{{color id=\"65535\"}}…{{delay2}} 제가 아끼던 말과 똑 닮았어요!{{delay3}}\n굉장한 {{color id=\"0\"}}말{{color id=\"65535\"}}이네요…{{size value=\"80\"}}{{size value=\"100\"}}\n{{fun_0003_0001 arg=\"0x0101\"}}부디 그 {{color id=\"0\"}}말{{color id=\"65535\"}}을 저에게 주실 순 없을까요?{{delay2}} \n{{color id=\"0\"}}300루피{{color id=\"65535\"}}에 살게요, 어떠세요?{{fun_0001_0004 arg=\"0x000001000001\"}}",
      "TWzh": "{{fun_0003_0001 arg=\"0x0716\"}}哦哦！{{delay2}}那匹{{color id=\"0\"}}馬{{color id=\"65535\"}}……{{delay2}}非常適合當我的夥伴！{{delay3}}\n真是匹好{{color id=\"0\"}}馬{{color id=\"65535\"}}啊……{{size value=\"80\"}}{{size value=\"100\"}}\n{{fun_0003_0001 arg=\"0x0101\"}}請你務必將那匹{{color id=\"0\"}}馬{{color id=\"65535\"}}讓給我！{{delay2}}\n我願意用{{color id=\"0\"}}300盧比{{color id=\"65535\"}}收購，你意下如何？{{fun_0001_0004 arg=\"0x000001000001\"}}",
      "USen": "{{fun_0003_0001 arg=\"0x0716\"}}Ohh! {{delay2}}HEY! That {{color id=\"0\"}}horse{{color id=\"65535\"}}...{{delay2}} It's just like my\nold partner! {{delay3}}Talk about a fine {{color id=\"0\"}}horse{{color id=\"65535\"}}...\n\n{{size value=\"80\"}}{{fun_0003_0001 arg=\"0x0101\"}}{{size value=\"100\"}}Think I could have this {{color id=\"0\"}}horse{{color id=\"65535\"}}?{{delay2}} \nI'll pay you {{color id=\"0\"}}300 rupees{{color id=\"65535\"}} for it, what do\nyou say, hey?{{fun_0001_0004 arg=\"0x000001000001\"}}",
      "USes": "{{fun_0003_0001 arg=\"0x0716\"}}¡Oooh! {{delay2}}Este {{color id=\"0\"}}caballo{{color id=\"65535\"}} se parece mucho\nal que tenía.{{delay2}} ¡Es un buen ejemplar!{{pageBreak}}{{fun_0003_0001 arg=\"0x0101\"}}¿Me lo puedo quedar?{{delay2}} Te daré {{color id=\"0\"}}300\nrupias{{color id=\"65535\"}} por él. ¿Qué me dices, güero?{{fun_0001_0004 arg=\"0x000001000001\"}}",
      "USfr": "{{fun_0003_0001 arg=\"0x0716\"}}Ouah! {{delay2}}Ce {{color id=\"0\"}}cheval{{color id=\"65535\"}},{{delay2}} c'est le portrait craché\nde ma picouille en cavale!{{delay3}} Quelle bête\nsuperbe!\n{{fun_0003_0001 arg=\"0x0101\"}}Tu veux bien me le laisser, le jeune?{{delay2}} \nJ'suis prêt à t'en donner {{color id=\"0\"}}300 rubis{{color id=\"65535\"}}!!!\nC'est une belle somme! T'es partant?{{fun_0001_0004 arg=\"0x000001000001\"}} "
    }
  },
  {
    "label": "0000",
    "attribute": "0xE0000000",
    "locale": {
      "CNzh": "那就卖吧！",
      "EUde": "Verkauft!",
      "EUen": "I'll sell it!",
      "EUes": "¡Trato hecho!",
      "EUfr": "Marché conclu !",
      "EUit": "Te lo vendo!",
      "EUnl": "Ik verkoop het!",
      "EUru": "Покупай!",
      "JPja": "{{ruby charSpan=\"1\" value=\"う\"}}売りましょう！",
      "KRko": "팔게!",
      "TWzh": "那就賣吧！",
      "USen": "I'll sell it!",
      "USes": "¡Trato hecho!",
      "USfr": "Marché conclu!"
    }
  },
  {
    "label": "0001",
    "attribute": "0xE2000000",
    "locale": {
      "CNzh": "怎么可以！",
      "EUde": "Auf keinen Fall!",
      "EUen": "No way!",
      "EUes": "Ni hablar",
      "EUfr": "Pas question !",
      "EUit": "Nemmeno per sogno!",
      "EUnl": "Geen sprake van!",
      "EUru": "Нет уж!",
      "JPja": "とんでもない！",
      "KRko": "말도 안 돼!",
      "TWzh": "怎麼可以！",
      "USen": "No way!",
      "USes": "Ni loco",
      "USfr": "Pas question!"
    }
  },
  {
    "label": "Talk03",
    "attribute": "0xE4000000",
    "locale": {
      "CNzh": "{{fun_0003_0001 arg=\"0x010B\"}}哎呀哎呀，{{delay1}}真的吗！\n要是之后叫我还回去，我可不会答应哦？{{fun_0001_0004 arg=\"0x020003000001\"}}",
      "EUde": "{{fun_0003_0001 arg=\"0x010B\"}}Meinst du das ernst? {{delay2}}Gnihihi...\nSollen wir den Handel dann festmachen?{{fun_0001_0004 arg=\"0x020003000001\"}}",
      "EUen": "{{fun_0003_0001 arg=\"0x010B\"}}Heyyyyy, {{delay1}}really?!\nYou know this is for keeps, right?{{fun_0001_0004 arg=\"0x020003000001\"}}",
      "EUes": "{{fun_0003_0001 arg=\"0x010B\"}}¡Anda! ¿En serio? Luego no vale\necharse atrás, ¿eh?{{fun_0001_0004 arg=\"0x020003000001\"}}",
      "EUfr": "{{fun_0003_0001 arg=\"0x010B\"}}Oh oh, {{delay1}}sérieusement ?!{{delay2}} Mais attention,\nhein ! Donner c'est donner, reprendre\nc'est voler !{{fun_0001_0004 arg=\"0x020003000001\"}}",
      "EUit": "{{fun_0003_0001 arg=\"0x010B\"}}Che bello!{{delay1}} Grazie!{{delay2}} Guarda che non te lo\nrestituisco più, eh!{{fun_0001_0004 arg=\"0x020003000001\"}}",
      "EUnl": "{{fun_0003_0001 arg=\"0x010B\"}}Hé, {{delay1}}echt?! Je begrijpt dat dit permanent\nis, hè?{{fun_0001_0004 arg=\"0x020003000001\"}}",
      "EUru": "{{fun_0003_0001 arg=\"0x010B\"}}Цок-цок-цок, ты согласен?!{{pageBreak}}Уверен?{{delay1}} Не передумаешь?{{fun_0001_0004 arg=\"0x020003000001\"}}",
      "JPja": "{{fun_0003_0001 arg=\"0x010B\"}}やあやあ{{delay1}} {{ruby charSpan=\"2\" value=\"ほんとう\"}}本当ですか！\n{{ruby charSpan=\"1\" value=\"あと\"}}後で{{ruby charSpan=\"1\" value=\"かえ\"}}返してくれって{{ruby charSpan=\"1\" value=\"い\"}}言っても {{ruby charSpan=\"1\" value=\"かえ\"}}返せませんよ？{{fun_0001_0004 arg=\"0x020003000001\"}}",
      "KRko": "{{fun_0003_0001 arg=\"0x010B\"}}우와,{{delay1}} 정말인가요?!\n나중에 돌려달라고 하시면 안 돼요?{{fun_0001_0004 arg=\"0x020003000001\"}}",
      "TWzh": "{{fun_0003_0001 arg=\"0x010B\"}}哎呀哎呀，{{delay1}}真的嗎！\n要是之後叫我還回去，我可不會答應喔？{{fun_0001_0004 arg=\"0x020003000001\"}}",
      "USen": "{{fun_0003_0001 arg=\"0x010B\"}}Heyyyyy, {{delay1}}really?!\nYou know this is for keeps, right?{{fun_0001_0004 arg=\"0x020003000001\"}}",
      "USes": "{{fun_0003_0001 arg=\"0x010B\"}}¡Anda! ¿En serio? No vayas a cambiar\nde opinión después, ¿eh?{{fun_0001_0004 arg=\"0x020003000001\"}}",
      "USfr": "{{fun_0003_0001 arg=\"0x010B\"}}Oh oh, {{delay1}}sérieusement?!{{delay2}} Mais attention,\nhein! Donner c'est donner, reprendre\nc'est voler!{{fun_0001_0004 arg=\"0x020003000001\"}}"
    }
  },
  {
    "label": "0002",
    "attribute": "0x02010000",
    "locale": {
      "CNzh": "让给你吧",
      "EUde": "Das Pferd gehört dir!",
      "EUen": "It's yours.",
      "EUes": "Todo tuyo",
      "EUfr": "Évidemment.",
      "EUit": "È tutto tuo!",
      "EUnl": "Dat snap ik!",
      "EUru": "Забирай!",
      "JPja": "お{{ruby charSpan=\"1\" value=\"ゆず\"}}譲りします",
      "KRko": "줄게",
      "TWzh": "讓給你吧",
      "USen": "It's yours.",
      "USes": "Todo tuyo",
      "USfr": "Évidemment."
    }
  },
  {
    "label": "0003",
    "attribute": "0x04010000",
    "locale": {
      "CNzh": "还是算了",
      "EUde": "Lieber doch nicht.",
      "EUen": "No, never mind.",
      "EUes": "Mejor me lo quedo",
      "EUfr": "Finalement, non.",
      "EUit": "Ci ho ripensato...",
      "EUnl": "Nee, laat dan maar.",
      "EUru": "Надо подумать...",
      "JPja": "やっぱりやめます",
      "KRko": "역시 그만둘래",
      "TWzh": "還是算了",
      "USen": "No, never mind.",
      "USes": "Mejor me lo quedo",
      "USfr": "Finalement, non."
    }
  },
  {
    "label": "Talk04",
    "attribute": "0x06010000",
    "locale": {
      "CNzh": "{{fun_0003_0001 arg=\"0x090C\"}}哎……{{delay1}}呀……{{delay1}}哎……{{delay1}}呀……{{delay1}}哎呀，{{delay1}}这样啊……{{delay3}}\n看来你也是费了一番苦心才捉到这匹{{color id=\"0\"}}马{{color id=\"65535\"}}呢……\n{{fun_0003_0001 arg=\"0x0001\"}}如果你有愿意出售的{{color id=\"0\"}}马{{color id=\"65535\"}}，请牵到我这里来。{{delay2}}\n就算是{{color id=\"0\"}}野生马匹{{color id=\"65535\"}}也无所谓，拜托你了！",
      "EUde": "{{fun_0003_0001 arg=\"0x090C\"}}Ach so...{{delay3}} \nKlar, verstehe ich, der ganze Aufwand\nmit dem Fangen und so...{{pageBreak}}{{fun_0003_0001 arg=\"0x0001\"}}Aber wenn du mal ein {{color id=\"0\"}}Pferd{{color id=\"65535\"}} verkaufen\nmöchtest, denk bitte an mich!{{delay1}} Ich würde\nauch ein {{color id=\"0\"}}wildes Pferd{{color id=\"65535\"}} nehmen!",
      "EUen": "{{fun_0003_0001 arg=\"0x090C\"}}Hey{{delay1}}yyyyy... {{delay1}}He{{delay1}}yyyyy... {{delay1}}Hey,{{delay1}} OK, I see...{{delay3}} \nI mean sure, after you went to the\ntrouble of catching this {{color id=\"0\"}}horse{{color id=\"65535\"}} and all...\n{{fun_0003_0001 arg=\"0x0001\"}}I get it. But if you find a {{color id=\"0\"}}horse{{color id=\"65535\"}} you don't\nmind selling, please bring it to me, hey?{{delay2}}\nEven a {{color id=\"0\"}}wild horse{{color id=\"65535\"}} is fine! Just, please!",
      "EUes": "{{fun_0003_0001 arg=\"0x090C\"}}Ah... {{delay1}}Vaya...{{delay1}} Pues qué faena...{{delay3}}\nEstás en tu derecho, claro. Has sido\ntú el que lo ha domado y todo eso...\n{{fun_0003_0001 arg=\"0x0001\"}}Si encuentras otro {{color id=\"0\"}}caballo{{color id=\"65535\"}} del que no\nte importe separarte, ven a verme.{{delay1}}\nHasta me valdría un {{color id=\"0\"}}caballo salvaje{{color id=\"65535\"}}.",
      "EUfr": "{{fun_0003_0001 arg=\"0x090C\"}}Hé... {{delay1}}hé... {{delay1}}hé... {{delay1}}{{delay1}} Je vois.{{delay3}} Non, bien sûr,\nc'est normal. Après tout, tu t'es donné\nla peine de l'attraper, tout ça...\n{{fun_0003_0001 arg=\"0x0001\"}}Mais si tu trouves un {{color id=\"0\"}}cheval {{color id=\"65535\"}}que t'es\nprêt à vendre, apporte-le-moi, OK ?{{delay2}}\nMême un {{color id=\"0\"}}cheval sauvage{{color id=\"65535\"}}, hein.\nJe vais pas faire le difficile...",
      "EUit": "{{fun_0003_0001 arg=\"0x090C\"}}Beh... {{delay1}}Ah... {{delay1}}Ehm... {{delay1}}Sì... {{delay1}}Certo...{{delay3}} \nDevi aver faticato molto per catturare\nquesto {{color id=\"0\"}}cavallo{{color id=\"65535\"}}...\n{{fun_0003_0001 arg=\"0x0001\"}}Se trovi un {{color id=\"0\"}}cavallo {{color id=\"65535\"}}che sei disposto a\nvendere, torna pure da me!{{delay2}}\nVa bene anche un {{color id=\"0\"}}cavallo selvatico{{color id=\"65535\"}}!",
      "EUnl": "{{fun_0003_0001 arg=\"0x090C\"}}Hé...{{delay1}} hé...{{delay1}} hé...{{delay1}} hé...{{delay1}} Ik snap het... Je\nhebt al die moeite gedaan om het te\nvangen, dus...\n{{fun_0003_0001 arg=\"0x0001\"}}Nou ja, als je een {{color id=\"0\"}}paard{{color id=\"65535\"}} vindt dat je wel\nwilt verkopen, breng het dan naar mij.\nHet mag zelfs een {{color id=\"0\"}}wild paard{{color id=\"65535\"}} zijn!",
      "EUru": "{{fun_0003_0001 arg=\"0x090C\"}}Цо-{{delay1}}ок...{{delay1}} цо-{{delay1}}ок...{{delay1}} Вот как...{{delay1}} Понимаю,\nтебе пришлось постараться, чтобы ее\nпоймать...{{pageBreak}}{{fun_0003_0001 arg=\"0x0001\"}}Если захочешь продать хоть\nкакую-нибудь {{color id=\"0\"}}лошадь{{color id=\"65535\"}}, я буду\nждать здесь.{{pageBreak}}Даже {{color id=\"0\"}}дикая {{color id=\"65535\"}}сойдет!",
      "JPja": "{{fun_0003_0001 arg=\"0x090C\"}}や… {{delay1}}あ… {{delay1}}や… {{delay1}}あ… {{delay1}}やあ{{delay1}} そうですか…{{delay3}} \n{{ruby charSpan=\"1\" value=\"み\"}}見れば{{ruby charSpan=\"2\" value=\"くろう\"}}苦労して{{ruby charSpan=\"1\" value=\"つか\"}}捕まえた{{color id=\"0\"}}{{ruby charSpan=\"1\" value=\"うま\"}}馬{{color id=\"65535\"}}のようですからね…\n{{fun_0003_0001 arg=\"0x0001\"}}もし{{ruby charSpan=\"1\" value=\"う\"}}売ってもいい{{color id=\"0\"}}{{ruby charSpan=\"1\" value=\"うま\"}}馬{{color id=\"65535\"}}がいれば{{ruby charSpan=\"1\" value=\"つ\"}}連れてきてください{{delay2}}\n{{color id=\"0\"}}{{ruby charSpan=\"3\" value=\"やせいば\"}}野生馬{{color id=\"65535\"}}でもかまいませんのでお{{ruby charSpan=\"1\" value=\"ねが\"}}願いします！",
      "KRko": "{{fun_0003_0001 arg=\"0x090C\"}}이… {{delay1}}그… {{delay1}}저… {{delay1}}아… {{delay1}}그,{{delay1}} 그렇군요…{{delay3}}\n딱 봐도 고생해서 얻으신 {{color id=\"0\"}}말{{color id=\"65535\"}}인 것 같긴 해요…\n{{fun_0003_0001 arg=\"0x0001\"}}혹시 팔아도 괜찮은 {{color id=\"0\"}}말{{color id=\"65535\"}}이 있으면 데리고 오세요{{delay2}}\n{{color id=\"0\"}}야생마{{color id=\"65535\"}}더라도 상관없으니까 부탁해요!",
      "TWzh": "{{fun_0003_0001 arg=\"0x090C\"}}哎……{{delay1}}呀……{{delay1}}哎……{{delay1}}呀……{{delay1}}哎呀，{{delay1}}這樣啊……{{delay3}}\n看來你也是費了一番苦心才捉到這匹{{color id=\"0\"}}馬{{color id=\"65535\"}}呢……\n{{fun_0003_0001 arg=\"0x0001\"}}如果你有願意出售的{{color id=\"0\"}}馬{{color id=\"65535\"}}，請牽到我這裡來。{{delay2}}\n就算是{{color id=\"0\"}}野生馬匹{{color id=\"65535\"}}也無所謂，拜託你了！",
      "USen": "{{fun_0003_0001 arg=\"0x090C\"}}Hey{{delay1}}yyyyy... {{delay1}}He{{delay1}}yyyyy... {{delay1}}Hey,{{delay1}} OK, I see...{{delay3}} \nI mean sure, after you went to the\ntrouble of catching this {{color id=\"0\"}}horse{{color id=\"65535\"}} and all...\n{{fun_0003_0001 arg=\"0x0001\"}}I get it. But if you find a {{color id=\"0\"}}horse{{color id=\"65535\"}} you don't\nmind selling, please bring it to me, hey?{{delay2}}\nEven a {{color id=\"0\"}}wild horse{{color id=\"65535\"}} is fine! Just, please!",
      "USes": "{{fun_0003_0001 arg=\"0x090C\"}}Ah... {{delay1}}Este...{{delay3}} Pues...{{delay1}}\nEstás en tu derecho, claro. Fuiste tú el\nque consiguió domarlo y así...\n{{fun_0003_0001 arg=\"0x0001\"}}Pues mira, si encuentras otro del que no\nte importe separarte, ven a verme, ¿no?{{delay1}}\nHasta me valdría un {{color id=\"0\"}}caballo salvaje{{color id=\"65535\"}}.",
      "USfr": "{{fun_0003_0001 arg=\"0x090C\"}}Hé... {{delay1}}hé... {{delay1}}hé...{{delay1}}{{delay1}} Je vois.{{delay3}} Non, bien sûr,\nc'est normal. Après tout, tu t'es donné\nla peine de l'attraper, tout ça...\n{{fun_0003_0001 arg=\"0x0001\"}}Mais si tu trouves un {{color id=\"0\"}}cheval {{color id=\"65535\"}}que t'es\nprêt à vendre, apporte-le-moi, OK?{{delay2}}\nMême un {{color id=\"0\"}}cheval sauvage{{color id=\"65535\"}}, hein.\nJe vais pas faire le difficile..."
    }
  },
  {
    "label": "Talk05",
    "attribute": "0x24010000",
    "locale": {
      "CNzh": "{{fun_0003_0001 arg=\"0x0709\"}}哎呀哎呀，{{delay1}}我会将你卖给我的{{color id=\"0\"}}马{{color id=\"65535\"}}，\n当作我的新搭档兼重要旅伴！\n{{fun_0003_0001 arg=\"0x0101\"}}那么我要立刻与新搭档继续旅行了！{{delay1}}\n希望你我都有美好的旅程！",
      "EUde": "{{fun_0003_0001 arg=\"0x0709\"}}Dieses {{color id=\"0\"}}Pferd{{color id=\"65535\"}}, das ich von dir gekauft\nhabe... {{delay2}}Das wird mein neuer Partner!{{pageBreak}}{{fun_0003_0001 arg=\"0x0101\"}}Also dann, mein Partner und ich machen\nuns auf!{{delay1}} Eine gute Reise wünsche ich!",
      "EUen": "{{fun_0003_0001 arg=\"0x0709\"}}Hey, hey! {{delay1}}I'm making this {{color id=\"0\"}}horse{{color id=\"65535\"}} I bought\nfrom you my new partner! My new best\nbuddy and traveling attendant!\n{{fun_0003_0001 arg=\"0x0101\"}}So off we go, me and my partner!{{delay1}}\nMay we all have good travels!",
      "EUes": "{{fun_0003_0001 arg=\"0x0709\"}}Y bueno, {{delay1}}ya que me lo has vendido tú,{{delay2}}\nlo llamaré «Rubiales» en tu honor.{{pageBreak}}{{fun_0003_0001 arg=\"0x0101\"}}¡Pues ya estoy listo para salir de\naventuras!{{delay2}} ¡Adiós y suerte!",
      "EUfr": "{{fun_0003_0001 arg=\"0x0709\"}}Hé, {{delay1}}j'ai déjà un nom pour le {{color id=\"0\"}}cheval {{color id=\"65535\"}}que\ntu m'as vendu{{size value=\"80\"}}{{delay2}} pour une bouchée de pain{{delay2}} {{size value=\"100\"}}!\n\nDis bonjour à Mon p'tit pote, deuxième\ndu nom ! On va en vivre des aventures,\nMPP II et moi.\n{{fun_0003_0001 arg=\"0x0101\"}}Merci encore, gamin ! Et que la route te\nsoit clémente !{{delay2}}",
      "EUit": "{{fun_0003_0001 arg=\"0x0709\"}}Grazie!{{delay1}} Questo bel {{color id=\"0\"}}cavallo {{color id=\"65535\"}}che mi hai\nvenduto sarà il mio nuovo compagno\ndi viaggio!\n{{fun_0003_0001 arg=\"0x0101\"}}Bene, è ora di partire verso nuove\navventure con il mio fidato destriero!{{delay1}}\nBuon viaggio!",
      "EUnl": "{{fun_0003_0001 arg=\"0x0709\"}}Héhé!{{delay1}} Dat {{color id=\"0\"}}paard{{color id=\"65535\"}} dat ik van je heb\ngekocht... gaat me vanaf nu trouw\nbegeleiden, als een partner.\n{{fun_0003_0001 arg=\"0x0101\"}}Daar gaan we dan, ik en mijn partner. Dat\nonze reis maar voorspoedig mag\nverlopen!",
      "EUru": "{{fun_0003_0001 arg=\"0x0709\"}}Цок-цок!{{delay1}} Хорошую ты мне\n{{color id=\"0\"}}лошадку {{color id=\"65535\"}}поймал!{{delay1}} Она станет\nмоей новой спутницей!{{pageBreak}}{{fun_0003_0001 arg=\"0x0101\"}}Ну ладно, мы со спутницей\nотправляемся в путь!{{delay1}} Хорошей\nдороги тебе и мне!",
      "JPja": "{{fun_0003_0001 arg=\"0x0709\"}}やあやあ{{delay1}} あなたから{{ruby charSpan=\"1\" value=\"か\"}}買った この{{color id=\"0\"}}{{ruby charSpan=\"1\" value=\"うま\"}}馬{{color id=\"65535\"}}は\n{{ruby charSpan=\"1\" value=\"わたし\"}}私の{{ruby charSpan=\"1\" value=\"あたら\"}}新しい{{ruby charSpan=\"2\" value=\"あいぼう\"}}相棒として{{ruby charSpan=\"1\" value=\"たび\"}}旅の{{ruby charSpan=\"2\" value=\"たいせつ\"}}大切なお{{ruby charSpan=\"1\" value=\"とも\"}}供にします！\n{{fun_0003_0001 arg=\"0x0101\"}}それではさっそく {{ruby charSpan=\"2\" value=\"あいぼう\"}}相棒と{{ruby charSpan=\"1\" value=\"たび\"}}旅を{{ruby charSpan=\"1\" value=\"つづ\"}}続けます！{{delay1}}\nお{{ruby charSpan=\"1\" value=\"たが\"}}互いに{{ruby charSpan=\"1\" value=\"よ\"}}良い{{ruby charSpan=\"1\" value=\"たび\"}}旅を！",
      "KRko": "{{fun_0003_0001 arg=\"0x0709\"}}하하,{{delay1}} 당신께 산 이 {{color id=\"0\"}}말{{color id=\"65535\"}}은\n저의 새로운 여행 파트너로서 아끼도록 할게요!\n{{fun_0003_0001 arg=\"0x0101\"}}그럼 바로 파트너와 함께 여행을 계속하겠습니다!{{delay1}}\n서로 멋진 여행이 되길!",
      "TWzh": "{{fun_0003_0001 arg=\"0x0709\"}}哎呀哎呀，{{delay1}}我會將你賣給我的{{color id=\"0\"}}馬{{color id=\"65535\"}}，\n當作我的新夥伴兼重要旅伴！\n{{fun_0003_0001 arg=\"0x0101\"}}那麼我要立刻與新夥伴繼續旅行了！{{delay1}}\n希望你我都有美好的旅程！",
      "USen": "{{fun_0003_0001 arg=\"0x0709\"}}Hey, hey! {{delay1}}I'm making this {{color id=\"0\"}}horse{{color id=\"65535\"}} I bought\nfrom you my new partner! My new best\nbuddy and traveling attendant!\n{{fun_0003_0001 arg=\"0x0101\"}}So off we go, me and my partner!{{delay1}}\nMay we all have good travels!",
      "USes": "{{fun_0003_0001 arg=\"0x0709\"}}Y bueno, {{delay1}}ya que me lo vendiste tú,\n{{delay2}}lo llamaré \"Güero\" en tu honor.{{pageBreak}}{{fun_0003_0001 arg=\"0x0101\"}}¡Pues ya estoy listo para salir de viaje!{{delay1}}\n¡Este caballo y yo!{{delay1}} ¡Adiós y suerte!{{delay2}}",
      "USfr": "{{fun_0003_0001 arg=\"0x0709\"}}Hé, {{delay1}}j'ai déjà un nom pour le {{color id=\"0\"}}cheval {{color id=\"65535\"}}que\ntu m'as vendu{{size value=\"80\"}}{{delay2}} pour une bouchée de pain{{delay2}}{{size value=\"100\"}}!\n\nDis bonjour à Mon bon ami, deuxième\ndu nom! On va en vivre des aventures,\nMBA II et moi.\n{{fun_0003_0001 arg=\"0x0101\"}}Merci encore, le jeune! Et que la route te\nsoit clémente!{{delay2}}"
    }
  },
  {
    "label": "Talk06",
    "attribute": "0x42010000",
    "locale": {
      "CNzh": "{{fun_0003_0001 arg=\"0x0B10\"}}要是有匹{{color id=\"0\"}}马{{color id=\"65535\"}}，我就能继续旅行了……{{size value=\"80\"}}{{pageBreak}}{{color id=\"0\"}}马{{color id=\"65535\"}}……{{size value=\"100\"}}{{delay2}}{{color id=\"0\"}}马{{color id=\"65535\"}}……{{size value=\"125\"}}要是有匹{{delay2}}{{color id=\"0\"}}马{{color id=\"65535\"}}就好了！！{{size value=\"100\"}}",
      "EUde": "{{fun_0003_0001 arg=\"0x0B10\"}}Hätte ich nur ein {{color id=\"0\"}}Pferd{{color id=\"65535\"}}, dann könnte ich\nweiterreisen...{{pageBreak}}{{size value=\"80\"}}Ein {{color id=\"0\"}}Pferd{{color id=\"65535\"}}... {{size value=\"100\"}}{{delay2}}Ein {{color id=\"0\"}}Pferd{{color id=\"65535\"}}... {{size value=\"125\"}}{{delay2}}Ein {{color id=\"0\"}}Pferd{{color id=\"65535\"}}, bitte!{{size value=\"100\"}}",
      "EUen": "{{fun_0003_0001 arg=\"0x0B10\"}}All I need is a {{color id=\"0\"}}horse{{color id=\"65535\"}} to continue my\ntravels...{{size value=\"80\"}}{{pageBreak}} A {{color id=\"0\"}}horse{{color id=\"65535\"}}...{{size value=\"100\"}} {{delay2}}A {{color id=\"0\"}}horse{{color id=\"65535\"}}... {{size value=\"125\"}}{{delay2}} \nIf I just had a {{color id=\"0\"}}horse{{color id=\"65535\"}}!{{size value=\"100\"}}",
      "EUes": "{{fun_0003_0001 arg=\"0x0B10\"}}Si tuviera un {{color id=\"0\"}}caballo{{color id=\"65535\"}}, podría proseguir\ncon mi viaje.{{pageBreak}}{{size value=\"125\"}}¡Necesito un {{color id=\"0\"}}caballo{{color id=\"65535\"}}!{{size value=\"100\"}}",
      "EUfr": "{{fun_0003_0001 arg=\"0x0B10\"}}Ah,{{delay2}} si seulement j'avais un {{color id=\"0\"}}cheval {{color id=\"65535\"}}pour\npouvoir reprendre ma route...\n\n{{size value=\"80\"}}Un {{color id=\"0\"}}cheval{{color id=\"65535\"}}...{{size value=\"100\"}} {{delay2}}Un {{color id=\"0\"}}cheval {{color id=\"65535\"}}! {{size value=\"125\"}}{{delay2}}\n\n\nJe demande pas la lune !{{size value=\"100\"}}",
      "EUit": "{{fun_0003_0001 arg=\"0x0B10\"}}Certo che...{{delay2}} se avessi un {{color id=\"0\"}}cavallo{{color id=\"65535\"}} potrei\ncontinuare il mio viaggio...{{delay2}}\n\n{{size value=\"80\"}}... Se avessi...{{size value=\"100\"}}{{size value=\"125\"}}{{delay2}} Se avessi un {{color id=\"0\"}}cavallo{{color id=\"65535\"}}!{{size value=\"100\"}}",
      "EUnl": "{{fun_0003_0001 arg=\"0x0B10\"}}Hé,{{delay2}} ik heb alleen een {{color id=\"0\"}}paard{{color id=\"65535\"}} nodig zodat\nik mijn reis kan voortzetten... {{size value=\"80\"}}Een {{color id=\"0\"}}paard{{color id=\"65535\"}}...{{size value=\"100\"}}{{delay2}}\n{{size value=\"80\"}}Een {{color id=\"0\"}}paard{{color id=\"65535\"}}...{{delay2}}{{size value=\"100\"}} Had ik maar een {{color id=\"0\"}}paard{{color id=\"65535\"}}!",
      "EUru": "{{fun_0003_0001 arg=\"0x0B10\"}}Цок, {{color id=\"0\"}}лошадку {{color id=\"65535\"}}б мне —\nя б сразу в путь...{{pageBreak}}{{size value=\"80\"}}{{color id=\"0\"}}Лошадку {{color id=\"65535\"}}б,{{size value=\"100\"}} {{color id=\"0\"}}лошадку {{color id=\"65535\"}}б...{{pageBreak}}{{size value=\"125\"}}{{color id=\"0\"}}Лошадку {{color id=\"65535\"}}б мне!{{size value=\"100\"}}",
      "JPja": "{{fun_0003_0001 arg=\"0x0B10\"}}{{color id=\"0\"}}{{ruby charSpan=\"1\" value=\"うま\"}}馬{{color id=\"65535\"}}さえいれば まだ{{ruby charSpan=\"1\" value=\"たび\"}}旅を{{ruby charSpan=\"1\" value=\"つづ\"}}続けられるのに…{{size value=\"80\"}}{{pageBreak}}{{color id=\"0\"}}{{ruby charSpan=\"1\" value=\"うま\"}}馬{{color id=\"65535\"}}さえ…{{size value=\"100\"}} {{delay2}}{{color id=\"0\"}}{{ruby charSpan=\"1\" value=\"うま\"}}馬{{color id=\"65535\"}}さえ… {{size value=\"125\"}}{{delay2}}{{color id=\"0\"}}{{ruby charSpan=\"1\" value=\"うま\"}}馬{{color id=\"65535\"}}さえいれば！！{{size value=\"100\"}}",
      "KRko": "{{fun_0003_0001 arg=\"0x0B10\"}}{{color id=\"0\"}}말{{color id=\"65535\"}}만 있으면 여행을 이어나갈 수 있을 텐데…{{size value=\"80\"}}{{pageBreak}}{{color id=\"0\"}}말{{color id=\"65535\"}}만…{{size value=\"100\"}} {{delay2}}{{color id=\"0\"}}말{{color id=\"65535\"}}만… {{size value=\"125\"}}{{delay2}}{{color id=\"0\"}}말{{color id=\"65535\"}}만 있으면!!{{size value=\"100\"}}",
      "TWzh": "{{fun_0003_0001 arg=\"0x0B10\"}}要是有匹{{color id=\"0\"}}馬{{color id=\"65535\"}}，我就能繼續旅行了……{{size value=\"80\"}}{{pageBreak}}{{color id=\"0\"}}馬{{color id=\"65535\"}}……{{size value=\"100\"}}{{delay2}}{{color id=\"0\"}}馬{{color id=\"65535\"}}……{{size value=\"125\"}}要是有匹{{delay2}}{{color id=\"0\"}}馬{{color id=\"65535\"}}就好了！！{{size value=\"100\"}}",
      "USen": "{{fun_0003_0001 arg=\"0x0B10\"}}All I need is a {{color id=\"0\"}}horse{{color id=\"65535\"}} to continue my\ntravels...{{size value=\"80\"}}{{pageBreak}} A {{color id=\"0\"}}horse{{color id=\"65535\"}}...{{size value=\"100\"}} {{delay2}}A {{color id=\"0\"}}horse{{color id=\"65535\"}}... {{size value=\"125\"}}{{delay2}} \nIf I just had a {{color id=\"0\"}}horse{{color id=\"65535\"}}!{{size value=\"100\"}}",
      "USes": "{{fun_0003_0001 arg=\"0x0B10\"}}Si tuviera un {{color id=\"0\"}}caballo{{color id=\"65535\"}}, podría proseguir\ncon mi viaje, ¿no?{{delay2}} {{size value=\"80\"}}Con uno me conformo,\ntampoco pido tanto...{{size value=\"100\"}}{{pageBreak}}{{size value=\"125\"}}¡Necesito un {{color id=\"0\"}}caballo{{color id=\"65535\"}}!{{size value=\"100\"}}",
      "USfr": "{{fun_0003_0001 arg=\"0x0B10\"}}Ah,{{delay2}} si seulement j'avais un {{color id=\"0\"}}cheval {{color id=\"65535\"}}pour\npouvoir reprendre ma route...\n\n{{size value=\"80\"}}Un {{color id=\"0\"}}cheval{{color id=\"65535\"}}...{{size value=\"100\"}} {{delay2}}Un {{color id=\"0\"}}cheval{{color id=\"65535\"}}!{{size value=\"125\"}}{{delay2}}\n\n\nJe demande pas la lune!{{size value=\"100\"}}"
    }
  },
  {
    "label": "Talk08",
    "attribute": "0x60010000",
    "locale": {
      "CNzh": "{{fun_0003_0001 arg=\"0x0B10\"}}要是有匹{{color id=\"0\"}}马{{color id=\"65535\"}}，我就能继续旅行了……{{size value=\"80\"}}{{delay3}}{{size value=\"100\"}}\n同为旅行者，我有件事想拜托你。\n{{fun_0003_0001 arg=\"0x0001\"}}如果你在旅途中发现适合我骑的{{color id=\"0\"}}马{{color id=\"65535\"}}，{{delay1}}\n能否请你以100……不，{{color id=\"0\"}}300卢比{{color id=\"65535\"}}的价格让给我？{{fun_0001_0004 arg=\"0x040005000001\"}}",
      "EUde": "{{fun_0003_0001 arg=\"0x0B10\"}}Mit einem {{color id=\"0\"}}Pferd{{color id=\"65535\"}} könnte ich meine Reise\nfortsetzen...{{delay3}} Du als Reisender verstehst\ndas doch sicher...{{pageBreak}}{{fun_0003_0001 arg=\"0x0001\"}}Wenn du also ein {{color id=\"0\"}}Pferd{{color id=\"65535\"}} findest, würdest\ndu es mir für 100 Rubine verkaufen?{{delay1}}\nAch, was soll der Geiz...{{delay1}} Sagen wir {{color id=\"0\"}}300{{color id=\"65535\"}}!{{fun_0001_0004 arg=\"0x040005000001\"}}",
      "EUen": "{{fun_0003_0001 arg=\"0x0B10\"}}Hey, yeah, if I just had a {{color id=\"0\"}}horse{{color id=\"65535\"}}, I could\ncontinue my travels,{{size value=\"80\"}}{{delay3}}{{size value=\"100\"}} and you're a fellow\ntraveler, so I have to ask, right?\n{{fun_0003_0001 arg=\"0x0001\"}}If, on your travels, you see a horse that\nwould suit me,{{delay1}} would you sell it to me for\n100,{{delay2}} no,{{delay3}} {{color id=\"0\"}}300 rupees{{color id=\"65535\"}}?{{fun_0001_0004 arg=\"0x040005000001\"}}",
      "EUes": "{{fun_0003_0001 arg=\"0x0B10\"}}Necesito un {{color id=\"0\"}}caballo{{color id=\"65535\"}} desesperadamente.\n¿No podrías hacerme el favor? Debemos\nayudarnos entre viajeros...\n{{fun_0003_0001 arg=\"0x0001\"}}Si encuentras alguno, podría darte\n100... ¡No! ¡{{color id=\"0\"}}300 rupias{{color id=\"65535\"}} por él!{{delay1}}\n¿Qué te parece?{{fun_0001_0004 arg=\"0x040005000001\"}}",
      "EUfr": "{{fun_0003_0001 arg=\"0x0B10\"}}Un {{color id=\"0\"}}cheval{{color id=\"65535\"}}, je demande que ça ! Sans ça,\nje vais finir ma vie dans ce trou. Tu vas\nbien dépanner un collègue, gamin ?\n{{fun_0003_0001 arg=\"0x0001\"}}Si jamais tu trouves un {{color id=\"0\"}}cheval{{color id=\"65535\"}} pour moi,\nje suis prêt à te l'acheter !{{delay1}} J'irai jusqu'à\n100, non, {{color id=\"0\"}}300 rubis {{color id=\"65535\"}}! Tu veux bien ?{{fun_0001_0004 arg=\"0x040005000001\"}}",
      "EUit": "{{fun_0003_0001 arg=\"0x0B10\"}}Se avessi un {{color id=\"0\"}}cavallo{{color id=\"65535\"}} potrei riprendere\nil mio viaggio...{{delay3}} So che mi capisci, sei\nun viandante anche tu.\n{{fun_0003_0001 arg=\"0x0001\"}}Se trovi un {{color id=\"0\"}}cavallo{{color id=\"65535\"}} adatto a me,{{delay1}} te lo\ncompro per 100... anzi per {{color id=\"0\"}}300 rupie{{color id=\"65535\"}}!\nChe ne dici?{{fun_0001_0004 arg=\"0x040005000001\"}}",
      "EUnl": "{{fun_0003_0001 arg=\"0x0B10\"}}Hé,{{delay2}} als ik een {{color id=\"0\"}}paard{{color id=\"65535\"}} had, kon ik mijn reis\nvoortzetten. Dus vraag ik jou, mijn\nmedereiziger, om hulp.\n{{fun_0003_0001 arg=\"0x0001\"}}Als je een {{color id=\"0\"}}paard{{color id=\"65535\"}} ziet dat bij mij past, zou\nje het dan aan me willen verkopen voor\n100... eh... {{color id=\"0\"}}300 rupees{{color id=\"65535\"}}?{{fun_0001_0004 arg=\"0x040005000001\"}}",
      "EUru": "{{fun_0003_0001 arg=\"0x0B10\"}}Цок, {{color id=\"0\"}}лошадку {{color id=\"65535\"}}б мне — я б сразу\nв путь...{{delay1}} Как путешественник\nпутешественника прошу!{{pageBreak}}{{fun_0003_0001 arg=\"0x0001\"}}Если найдешь подходящую {{color id=\"0\"}}лошадь{{color id=\"65535\"}},\nя куплю ее у тебя за 100... нет — за\n{{color id=\"0\"}}300 рупий{{color id=\"65535\"}}!{{fun_0001_0004 arg=\"0x040005000001\"}}",
      "JPja": "{{fun_0003_0001 arg=\"0x0B10\"}}{{color id=\"0\"}}{{ruby charSpan=\"1\" value=\"うま\"}}馬{{color id=\"65535\"}}さえいれば まだ{{ruby charSpan=\"1\" value=\"たび\"}}旅を{{ruby charSpan=\"1\" value=\"つづ\"}}続けられるのに…{{size value=\"80\"}}{{delay3}}{{size value=\"100\"}}\nあなたに {{ruby charSpan=\"1\" value=\"おな\"}}同じ{{ruby charSpan=\"1\" value=\"たび\"}}旅の{{ruby charSpan=\"2\" value=\"なかま\"}}仲間として お{{ruby charSpan=\"1\" value=\"ねが\"}}願いがあります\n{{fun_0003_0001 arg=\"0x0001\"}}{{ruby charSpan=\"1\" value=\"たび\"}}旅の{{ruby charSpan=\"2\" value=\"とちゅう\"}}途中で {{ruby charSpan=\"1\" value=\"わたし\"}}私に{{ruby charSpan=\"1\" value=\"あ\"}}合うような{{color id=\"0\"}}{{ruby charSpan=\"1\" value=\"うま\"}}馬{{color id=\"65535\"}}を{{ruby charSpan=\"1\" value=\"み\"}}見つけたら{{delay1}}\n100いや {{color id=\"0\"}}300ルピー{{color id=\"65535\"}}で{{ruby charSpan=\"1\" value=\"ゆず\"}}譲ってもらえませんか？{{fun_0001_0004 arg=\"0x040005000001\"}}",
      "KRko": "{{fun_0003_0001 arg=\"0x0B10\"}}{{color id=\"0\"}}말{{color id=\"65535\"}}만 있으면 여행을 계속할 수 있는데…{{size value=\"80\"}}{{delay3}}{{size value=\"100\"}}\n같은 여행 동지로서 당신께 부탁이 있어요\n{{fun_0003_0001 arg=\"0x0001\"}}여행 중에 저에게 맞을 것 같은 {{color id=\"0\"}}말{{color id=\"65535\"}}을 찾으시면{{delay1}}\n100 아니, {{color id=\"0\"}}300루피{{color id=\"65535\"}}에 팔아 주시지 않을래요?{{fun_0001_0004 arg=\"0x040005000001\"}}",
      "TWzh": "{{fun_0003_0001 arg=\"0x0B10\"}}要是有匹{{color id=\"0\"}}馬{{color id=\"65535\"}}，我就能繼續旅行了……{{size value=\"80\"}}{{delay3}}{{size value=\"100\"}}\n同為旅行者，我有件事想拜託你。\n{{fun_0003_0001 arg=\"0x0001\"}}如果你在旅途中發現適合我騎的{{color id=\"0\"}}馬{{color id=\"65535\"}}，{{delay1}}\n能否請你以100……不，{{color id=\"0\"}}300盧比{{color id=\"65535\"}}的價格讓給我？{{fun_0001_0004 arg=\"0x040005000001\"}}",
      "USen": "{{fun_0003_0001 arg=\"0x0B10\"}}Hey, yeah, if I just had a {{color id=\"0\"}}horse{{color id=\"65535\"}}, I could\ncontinue my travels,{{size value=\"80\"}}{{delay3}}{{size value=\"100\"}} and you're a fellow\ntraveler, so I have to ask, right?\n{{fun_0003_0001 arg=\"0x0001\"}}If, on your travels, you see a horse that\nwould suit me,{{delay1}} would you sell it to me for\n100,{{delay2}} no,{{delay3}} {{color id=\"0\"}}300 rupees{{color id=\"65535\"}}?{{fun_0001_0004 arg=\"0x040005000001\"}}",
      "USes": "{{fun_0003_0001 arg=\"0x0B10\"}}Mira, necesito un {{color id=\"0\"}}caballo{{color id=\"65535\"}} urgentemente.\n¿No podrías hacerme el favor? Debemos\nayudarnos entre viajeros, ¿no?\n{{fun_0003_0001 arg=\"0x0001\"}}Si encuentras alguno, podría darte\n100... ¡No! ¡{{color id=\"0\"}}300 rupias{{color id=\"65535\"}} por él!{{delay1}}\n¿Qué te parece?{{fun_0001_0004 arg=\"0x040005000001\"}}",
      "USfr": "{{fun_0003_0001 arg=\"0x0B10\"}}Un {{color id=\"0\"}}cheval{{color id=\"65535\"}}, je demande que ça! Sans ça,\nje vais finir ma vie dans ce trou. Tu vas\nbien dépanner un collègue, le jeune?\n{{fun_0003_0001 arg=\"0x0001\"}}Si jamais tu trouves un {{color id=\"0\"}}cheval{{color id=\"65535\"}} pour moi,\nje suis prêt à te l'acheter!{{delay1}} J'irai jusqu'à\n100, non, {{color id=\"0\"}}300 rubis{{color id=\"65535\"}}! Tu veux bien?{{fun_0001_0004 arg=\"0x040005000001\"}}"
    }
  },
  {
    "label": "0004",
    "attribute": "0x7E010000",
    "locale": {
      "CNzh": "知道了！",
      "EUde": "Klar!",
      "EUen": "You got it!",
      "EUes": "Venga, vale",
      "EUfr": "D'accord.",
      "EUit": "Va bene!",
      "EUnl": "Oké!",
      "EUru": "По рукам!",
      "JPja": "わかりました！",
      "KRko": "알겠어!",
      "TWzh": "知道了！",
      "USen": "You got it!",
      "USes": "De acuerdo",
      "USfr": "D'accord."
    }
  },
  {
    "label": "0005",
    "attribute": "0x80010000",
    "locale": {
      "CNzh": "我拒绝！",
      "EUde": "Vergiss es!",
      "EUen": "I refuse!",
      "EUes": "Paso",
      "EUfr": "Pas question.",
      "EUit": "Niente da fare.",
      "EUnl": "Geen sprake van!",
      "EUru": "Не пойдет",
      "JPja": "お{{ruby charSpan=\"1\" value=\"ことわ\"}}断りします！",
      "KRko": "거절할게!",
      "TWzh": "我拒絕！",
      "USen": "I refuse!",
      "USes": "No",
      "USfr": "Pas question."
    }
  },
  {
    "label": "Talk09",
    "attribute": "0x82010000",
    "locale": {
      "CNzh": "{{fun_0003_0001 arg=\"0x090C\"}}哎呀……{{delay1}}哎呀……{{delay1}}明明同为旅行者，真遗憾……{{delay3}}\n但我仍会相信你，一直在这里等着。",
      "EUde": "{{fun_0003_0001 arg=\"0x090C\"}}Dabei sind wir doch beide Reisende...{{delay3}}\nVielleicht änderst du ja noch deine\nMeinung. {{delay1}}Ich warte hier...{{delay1}} auf Hilfe.",
      "EUen": "{{fun_0003_0001 arg=\"0x090C\"}}Heyyyy...{{delay1}} Heyyyy...{{delay1}} That's disappointing\nto hear from a fellow traveler.{{delay3}} I'll trust in\nyour eventual generosity and wait here.",
      "EUes": "{{fun_0003_0001 arg=\"0x090C\"}}Vaya chasco{{size value=\"80\"}}...{{size value=\"100\"}}{{delay1}} Esperaba más de ti,\nrubiales.{{delay3}} En fin, si cambias de opinión,\naquí estaré.",
      "EUfr": "{{fun_0003_0001 arg=\"0x090C\"}}Oh... Oh...{{delay1}} C'est moche, c'que tu fais,\ngamin. Entre voyageurs, faut s'entraider.\n{{delay3}}Je veux croire que tu changeras d'avis.",
      "EUit": "{{fun_0003_0001 arg=\"0x090C\"}}Sigh...{{delay1}} Sigh...{{delay1}} Pensavo che tra viandanti\nci saremmo capiti...{{delay3}}\n\nMa io resterò qui ad aspettare...\nHo ancora fiducia nel tuo buon cuore!",
      "EUnl": "{{fun_0003_0001 arg=\"0x090C\"}}Hé...{{size value=\"80\"}}{{delay1}} hé...{{size value=\"100\"}}{{delay1}} Dat is jammer. Word ik zomaar\nin de steek gelaten door een\nmedereiziger...\nMaar ik zal hier wachten voor het geval\nje last van je geweten krijgt.",
      "EUru": "{{fun_0003_0001 arg=\"0x090C\"}}Цок-цок-цок...{{delay1}} Я думал, ты как\nпутешественник поймешь меня...{{pageBreak}}Если передумаешь, я буду здесь.",
      "JPja": "{{fun_0003_0001 arg=\"0x090C\"}}やあ… {{delay1}}やあ…{{delay1}} {{ruby charSpan=\"1\" value=\"おな\"}}同じ{{ruby charSpan=\"2\" value=\"たびびと\"}}旅人だというのに{{ruby charSpan=\"2\" value=\"ざんねん\"}}残念です…{{delay3}}\nでも{{ruby charSpan=\"1\" value=\"わたし\"}}私はあなたを{{ruby charSpan=\"1\" value=\"しん\"}}信じてここでお{{ruby charSpan=\"1\" value=\"ま\"}}待ちしています",
      "KRko": "{{fun_0003_0001 arg=\"0x090C\"}}아… {{delay1}}아니…{{delay1}} 같은 여행자로서 굉장히 아쉽네요…{{delay3}}\n하지만 전 당신을 믿고 여기서 기다릴 거예요",
      "TWzh": "{{fun_0003_0001 arg=\"0x090C\"}}哎呀……{{delay1}}哎呀……{{delay1}}明明同為旅行者，真遺憾……{{delay3}}\n但我仍會相信你，一直在這裡等著。",
      "USen": "{{fun_0003_0001 arg=\"0x090C\"}}Heyyyy...{{delay1}} Heyyyy...{{delay1}} That's disappointing\nto hear from a fellow traveler.{{delay3}} I'll trust in\nyour eventual generosity and wait here.",
      "USes": "{{fun_0003_0001 arg=\"0x090C\"}}Vaya chasco{{size value=\"80\"}}...{{size value=\"100\"}}{{delay1}} Esperaba más de ti,\ngüero.{{delay3}} En fin, si cambias de opinión,\naquí estaré.{{pageBreak}}{{size value=\"80\"}}Tampoco puedo ir muy lejos...{{size value=\"100\"}}",
      "USfr": "{{fun_0003_0001 arg=\"0x090C\"}}Oh... Oh...{{delay1}} C'est poche, c'que tu fais,\ngamin. Entre voyageurs, faut s'entraider.\n{{delay3}}Je veux croire que tu changeras d'avis."
    }
  },
  {
    "label": "Talk10",
    "attribute": "0xA0010000",
    "locale": {
      "CNzh": "{{fun_0003_0001 arg=\"0x070B\"}}谢谢！{{delay3}}只是我骑不了{{color id=\"0\"}}体型太大的马{{color id=\"65535\"}}，\n所以麻烦你找匹{{color id=\"0\"}}体型适中的马{{color id=\"65535\"}}。",
      "EUde": "{{fun_0003_0001 arg=\"0x070B\"}}Danke im Voraus! {{delay3}}Das {{color id=\"0\"}}Pferd{{color id=\"65535\"}} darf aber\n{{color id=\"0\"}}nicht zu groß{{color id=\"65535\"}} sein.{{delay1}} Bring mir bitte eines\nin {{color id=\"0\"}}Normalgröße{{color id=\"65535\"}}!",
      "EUen": "{{fun_0003_0001 arg=\"0x070B\"}}Hey, thanks! {{delay3}}But don't bring me {{color id=\"0\"}}too big\na horse{{color id=\"65535\"}}... Won't be able to ride it!\nNo, I need a {{color id=\"0\"}}suitably sized horse{{color id=\"65535\"}}!",
      "EUes": "{{fun_0003_0001 arg=\"0x070B\"}}¡Hala, qué pedazo de {{color id=\"0\"}}caballo{{color id=\"65535\"}} me traes!{{delay3}}\nNo sé yo si sería capaz de controlar\na esta bestia.\n¿Podrías traerme uno que sea\nde {{color id=\"0\"}}tamaño normal{{color id=\"65535\"}}?",
      "EUfr": "{{fun_0003_0001 arg=\"0x070B\"}}Ouah, merci ! {{delay3}}Ce serait impec si le {{color id=\"0\"}}cheval{{color id=\"65535\"}}\n était {{color id=\"0\"}}à ma taille{{color id=\"65535\"}} !",
      "EUit": "{{fun_0003_0001 arg=\"0x070B\"}}Grazie!{{delay3}} Però io non riesco a cavalcare\n{{color id=\"0\"}}cavalli troppo grandi{{color id=\"65535\"}}. Mi raccomando,\ncerca un {{color id=\"0\"}}cavallo normale{{color id=\"65535\"}}.",
      "EUnl": "{{fun_0003_0001 arg=\"0x070B\"}}Bedankt!{{delay3}} Het {{color id=\"0\"}}paard{{color id=\"65535\"}} moet overigens niet\nte groot voor me zijn, dus breng me een\n{{color id=\"0\"}}paard {{color id=\"65535\"}}op {{color id=\"0\"}}mijn maat{{color id=\"65535\"}}, alsjeblieft.",
      "EUru": "{{fun_0003_0001 arg=\"0x070B\"}}Заранее спасибо!{{delay3}} Только не приводи\nслишком большую.{{delay1}} Мне нужна лошадь\n{{color id=\"0\"}}нормального размера{{color id=\"65535\"}}.",
      "JPja": "{{fun_0003_0001 arg=\"0x070B\"}}ありがとう！ {{delay3}}ただ あまり{{color id=\"0\"}}{{ruby charSpan=\"1\" value=\"おお\"}}大きな{{ruby charSpan=\"1\" value=\"うま\"}}馬{{color id=\"65535\"}}だと{{ruby charSpan=\"1\" value=\"わたし\"}}私には\n{{ruby charSpan=\"1\" value=\"の\"}}乗りこなせないので{{color id=\"0\"}}{{ruby charSpan=\"2\" value=\"てきど\"}}適度なサイズの{{ruby charSpan=\"1\" value=\"うま\"}}馬{{color id=\"65535\"}}を{{ruby charSpan=\"1\" value=\"たの\"}}頼みます",
      "KRko": "{{fun_0003_0001 arg=\"0x070B\"}}고마워요! {{delay3}}하지만 너무 {{color id=\"0\"}}큰 말{{color id=\"65535\"}}은 제가 탈 수\n없으니 {{color id=\"0\"}}적당한 사이즈의 말{{color id=\"65535\"}}로 부탁드려요",
      "TWzh": "{{fun_0003_0001 arg=\"0x070B\"}}謝謝！{{delay3}}只是我騎不了{{color id=\"0\"}}體型太大的馬{{color id=\"65535\"}}，\n所以麻煩你找匹{{color id=\"0\"}}體型適中的馬{{color id=\"65535\"}}。",
      "USen": "{{fun_0003_0001 arg=\"0x070B\"}}Hey, thanks! {{delay3}}But don't bring me {{color id=\"0\"}}too big\na horse{{color id=\"65535\"}}... Won't be able to ride it!\nNo, I need a {{color id=\"0\"}}suitably sized horse{{color id=\"65535\"}}!",
      "USes": "{{fun_0003_0001 arg=\"0x070B\"}}¡Gracias!{{delay2}} Pero oye, no me traigas uno\n{{color id=\"0\"}}muy grande{{color id=\"65535\"}} o no podré controlarlo,\n¿sabes? Que sea de {{color id=\"0\"}}tamaño normal{{color id=\"65535\"}}.",
      "USfr": "{{fun_0003_0001 arg=\"0x070B\"}}Ouah, merci! {{delay3}}Ce serait génial si\nle {{color id=\"0\"}}cheval {{color id=\"65535\"}}était {{color id=\"0\"}}à ma taille{{color id=\"65535\"}}!"
    }
  },
  {
    "label": "Talk11",
    "attribute": "0xBE010000",
    "locale": {
      "CNzh": "{{fun_0003_0001 arg=\"0x0110\"}}哎呀哎呀……{{delay1}}你替我牵{{color id=\"0\"}}马{{color id=\"65535\"}}来了！{{delay1}}\n只是这匹马对我来说实在太大……\n{{fun_0003_0001 arg=\"0x0001\"}}难得你都替我把{{color id=\"0\"}}马{{color id=\"65535\"}}牵来了，真是抱歉，\n还是找匹我能骑的{{color id=\"0\"}}普通马匹{{color id=\"65535\"}}，再让给我吧……",
      "EUde": "{{fun_0003_0001 arg=\"0x0110\"}}Du hast ein {{color id=\"0\"}}Pferd{{color id=\"65535\"}} mitgebracht!{{delay1}}\nAber es ist ein wenig zu groß für mich...{{pageBreak}}{{fun_0003_0001 arg=\"0x0001\"}}Ich will deine Freundlichkeit wirklich\nnicht überstrapazieren, aber kannst du\nmir eines in {{color id=\"0\"}}Normalgröße{{color id=\"65535\"}} bringen?",
      "EUen": "{{fun_0003_0001 arg=\"0x0110\"}}Hey, hey! {{delay1}}You brought a {{color id=\"0\"}}horse{{color id=\"65535\"}}!{{delay1}}\nBut it's a little too big for me to ride...\n\n{{fun_0003_0001 arg=\"0x0001\"}}Sorry to say this after all the nice\nhorse-bringing you just did, but could\nyou please find me a {{color id=\"0\"}}normal horse{{color id=\"65535\"}}?",
      "EUes": "{{fun_0003_0001 arg=\"0x0110\"}}¡Saludos! {{delay1}}Veo que has traído un {{color id=\"0\"}}caballo{{color id=\"65535\"}},\n¡muchas gracias!{{delay1}} Aunque diría que este\nes demasiado grande...\n{{fun_0003_0001 arg=\"0x0001\"}}De verdad que te agradezco el esfuerzo,\nrubiales, pero ¿no podrías traerme uno\nde {{color id=\"0\"}}tamaño normal{{color id=\"65535\"}}?",
      "EUfr": "{{fun_0003_0001 arg=\"0x0110\"}}Hé, voyez-vous ça ! Tu m'as ramené un\n{{color id=\"0\"}}cheval{{color id=\"65535\"}}...{{delay1}} gigantesque ! Désolé, mais ça\nva pas le faire. Il est trop grand, gamin.\n{{fun_0003_0001 arg=\"0x0001\"}}C'était gentil, hein, mais si tu pouvais\nrefaire la même avec {{color id=\"0\"}}un cheval normal{{color id=\"65535\"}},\ntu serais vraiment un ange !",
      "EUit": "{{fun_0003_0001 arg=\"0x0110\"}}Che bello!{{delay1}} Mi hai portato un {{color id=\"0\"}}cavallo{{color id=\"65535\"}}!{{delay1}}\nPerò è un po' troppo grande per me...\n\n{{fun_0003_0001 arg=\"0x0001\"}}Dopo tutto il tuo impegno, mi dispiace\ntanto rifiutare questo {{color id=\"0\"}}cavallo{{color id=\"65535\"}}, ma puoi\nportarmene uno {{color id=\"0\"}}normale{{color id=\"65535\"}}?",
      "EUnl": "{{fun_0003_0001 arg=\"0x0110\"}}Héhé,{{delay1}} je hebt een {{color id=\"0\"}}paard{{color id=\"65535\"}} meegebracht!\nHelaas is dit {{color id=\"0\"}}paard{{color id=\"65535\"}} veel te groot voor\nmij...\n{{fun_0003_0001 arg=\"0x0001\"}}Dat was superaardig van je, maar zou je\nme een {{color id=\"0\"}}paard{{color id=\"65535\"}} kunnen brengen dat wat\nmeer bij mijn gestalte past?",
      "EUru": "{{fun_0003_0001 arg=\"0x0110\"}}Цок-цок-цок!{{delay1}} Ты привел {{color id=\"0\"}}лошадь{{color id=\"65535\"}}!{{delay1}}\nТолько она для меня великовата...{{pageBreak}}{{fun_0003_0001 arg=\"0x0001\"}}Извини, что достаю, но ты не\nмог бы поймать мне {{color id=\"0\"}}лошадь\nнормального размера{{color id=\"65535\"}}?",
      "JPja": "{{fun_0003_0001 arg=\"0x0110\"}}やあやあ {{delay1}}{{color id=\"0\"}}{{ruby charSpan=\"1\" value=\"うま\"}}馬{{color id=\"65535\"}}を{{ruby charSpan=\"1\" value=\"つ\"}}連れてきてくれたのですね！{{delay1}}\nただちょっと {{ruby charSpan=\"1\" value=\"わたし\"}}私が{{ruby charSpan=\"1\" value=\"の\"}}乗るには{{ruby charSpan=\"1\" value=\"おお\"}}大きすぎますね…\n{{fun_0003_0001 arg=\"0x0001\"}}{{color id=\"0\"}}{{ruby charSpan=\"1\" value=\"うま\"}}馬{{color id=\"65535\"}}を{{ruby charSpan=\"1\" value=\"つ\"}}連れてきてくれたのに {{ruby charSpan=\"1\" value=\"もう\"}}申し{{ruby charSpan=\"1\" value=\"わけ\"}}訳ありませんが\n{{ruby charSpan=\"1\" value=\"わたし\"}}私が{{ruby charSpan=\"1\" value=\"の\"}}乗れるような{{color id=\"0\"}}{{ruby charSpan=\"2\" value=\"ふつう\"}}普通の{{ruby charSpan=\"1\" value=\"うま\"}}馬{{color id=\"65535\"}}を{{ruby charSpan=\"1\" value=\"ゆず\"}}譲ってください…",
      "KRko": "{{fun_0003_0001 arg=\"0x0110\"}}우와, {{delay1}}{{color id=\"0\"}}말{{color id=\"65535\"}}을 데리고 와 주셨군요!{{delay1}}\n하지만 제가 타기엔 조금 큰 것 같아요…\n{{fun_0003_0001 arg=\"0x0001\"}}모처럼 {{color id=\"0\"}}말{{color id=\"65535\"}}을 데리고 와 주셨는데 죄송하지만\n제가 탈 수 있을 만한 {{color id=\"0\"}}평범한 말{{color id=\"65535\"}}로 부탁드려요…",
      "TWzh": "{{fun_0003_0001 arg=\"0x0110\"}}哎呀哎呀……{{delay1}}你替我把馬牽來了！{{delay1}}\n只是這匹馬對我來說實在太大……\n{{fun_0003_0001 arg=\"0x0001\"}}難得你都替我把{{color id=\"0\"}}馬{{color id=\"65535\"}}牽來了，真是抱歉，\n還是找匹我能騎的{{color id=\"0\"}}普通馬匹{{color id=\"65535\"}}，再讓給我吧……",
      "USen": "{{fun_0003_0001 arg=\"0x0110\"}}Hey, hey! {{delay1}}You brought a {{color id=\"0\"}}horse{{color id=\"65535\"}}!{{delay1}}\nBut it's a little too big for me to ride...\n\n{{fun_0003_0001 arg=\"0x0001\"}}Sorry to say this after all the nice\nhorse-bringing you just did, but could\nyou please find me a {{color id=\"0\"}}normal horse{{color id=\"65535\"}}?",
      "USes": "{{fun_0003_0001 arg=\"0x0110\"}}¡Saludos! {{delay1}}Veo que traes un {{color id=\"0\"}}caballo{{color id=\"65535\"}},\n¡muchas gracias!{{delay1}} Aunque diría que\neste es demasiado grande...\n{{fun_0003_0001 arg=\"0x0001\"}}De verdad que te agradezco el esfuerzo,\ngüerito, pero ¿no podrías traerme uno\nde {{color id=\"0\"}}tamaño normal{{color id=\"65535\"}}?",
      "USfr": "{{fun_0003_0001 arg=\"0x0110\"}}Hé, voyez-vous ça! Tu m'as ramené un\n{{color id=\"0\"}}cheval{{color id=\"65535\"}}...{{delay1}} gigantesque! Désolé, mais ça\nva pas le faire. Il est trop grand, le jeune.\n{{fun_0003_0001 arg=\"0x0001\"}}C'était gentil, hein, mais si tu pouvais\nrevenir avec {{color id=\"0\"}}un cheval normal{{color id=\"65535\"}},\ntu serais vraiment un ange!"
    }
  },
  {
    "label": "Talk12",
    "attribute": "0xDC010000",
    "locale": {
      "CNzh": "{{fun_0003_0001 arg=\"0x070A\"}}哎呀哎呀……{{delay1}}真是太感激了！{{delay2}}\n那我就按照约定，用{{color id=\"0\"}}300卢比{{color id=\"65535\"}}收购那匹{{color id=\"0\"}}马{{color id=\"65535\"}}！",
      "EUde": "{{fun_0003_0001 arg=\"0x070A\"}}Vielen Dank! {{delay2}}Und hier sind wie\nabgemacht {{color id=\"0\"}}300 Rubine {{color id=\"65535\"}}für das {{color id=\"0\"}}Pferd{{color id=\"65535\"}}!",
      "EUen": "{{fun_0003_0001 arg=\"0x070A\"}}Hey, yeah, {{delay1}}thanks so much!{{delay2}}\nHere's the {{color id=\"0\"}}300 rupees {{color id=\"65535\"}}I promised you\nas fair payment for this {{color id=\"0\"}}horse{{color id=\"65535\"}}!",
      "EUes": "{{fun_0003_0001 arg=\"0x070A\"}}¡Pues muchas gracias!{{delay3}} Aquí tienes\nlas {{color id=\"0\"}}300 rupias{{color id=\"65535\"}} que habíamos acordado.",
      "EUfr": "{{fun_0003_0001 arg=\"0x070A\"}}Hé, mais c'est génial ! {{delay1}}Merci, hein, t'es\nle meilleur !{{delay2}} Tiens, comme convenu,\nvoilà {{color id=\"0\"}}300 rubis {{color id=\"65535\"}}pour ton {{color id=\"0\"}}cheval{{color id=\"65535\"}}.",
      "EUit": "{{fun_0003_0001 arg=\"0x070A\"}}Oh oh! {{delay1}}Grazie, sei proprio gentile!{{delay2}}\nEcco qua le {{color id=\"0\"}}300 rupie{{color id=\"65535\"}} che ti avevo\npromesso in cambio del {{color id=\"0\"}}cavallo{{color id=\"65535\"}}!",
      "EUnl": "{{fun_0003_0001 arg=\"0x070A\"}}Héhé!{{delay1}} Bedankt... Hier heb je {{color id=\"0\"}}300 rupees{{color id=\"65535\"}}\nvoor het {{color id=\"0\"}}paard{{color id=\"65535\"}}, zoals beloofd!",
      "EUru": "{{fun_0003_0001 arg=\"0x070A\"}}Цок-цок!{{delay1}} Спасибо большое!{{delay1}}\nВот, как и договаривались,\nдержи {{color id=\"0\"}}300 рупий {{color id=\"65535\"}}за {{color id=\"0\"}}лошадь{{color id=\"65535\"}}!",
      "JPja": "{{fun_0003_0001 arg=\"0x070A\"}}やあやあ {{delay1}}それはありがたい！{{delay2}}\nでは {{ruby charSpan=\"2\" value=\"やくそく\"}}約束{{ruby charSpan=\"1\" value=\"どお\"}}通り{{color id=\"0\"}}300ルピー{{color id=\"65535\"}}で{{color id=\"0\"}}{{ruby charSpan=\"1\" value=\"うま\"}}馬{{color id=\"65535\"}}を{{ruby charSpan=\"1\" value=\"か\"}}買い{{ruby charSpan=\"1\" value=\"と\"}}取ります！",
      "KRko": "{{fun_0003_0001 arg=\"0x070A\"}}우와, {{delay1}}정말 고마워요!{{delay2}}\n그럼 약속대로 {{color id=\"0\"}}300루피{{color id=\"65535\"}}에 {{color id=\"0\"}}말{{color id=\"65535\"}}을 살게요!",
      "TWzh": "{{fun_0003_0001 arg=\"0x070A\"}}哎呀哎呀……{{delay1}}真是太感激了！{{delay2}}\n那我就按照約定，用{{color id=\"0\"}}300盧比{{color id=\"65535\"}}收購那匹{{color id=\"0\"}}馬{{color id=\"65535\"}}！",
      "USen": "{{fun_0003_0001 arg=\"0x070A\"}}Hey, yeah, {{delay1}}thanks so much!{{delay2}}\nHere's the {{color id=\"0\"}}300 rupees {{color id=\"65535\"}}I promised you\nas fair payment for this {{color id=\"0\"}}horse{{color id=\"65535\"}}!",
      "USes": "{{fun_0003_0001 arg=\"0x070A\"}}¡Pues muchas gracias!{{pageBreak}}{{size value=\"80\"}}Qué fácil fue...{{pageBreak}}{{size value=\"100\"}}Aquí tienes las {{color id=\"0\"}}300 rupias{{color id=\"65535\"}}\nque habíamos acordado.",
      "USfr": "{{fun_0003_0001 arg=\"0x070A\"}}Hé, mais c'est génial! {{delay1}}Merci, hein, t'es\nle meilleur!{{delay2}} Tiens, comme convenu,\nvoilà {{color id=\"0\"}}300 rubis {{color id=\"65535\"}}pour ton {{color id=\"0\"}}cheval{{color id=\"65535\"}}."
    }
  },
  {
    "label": "Talk13",
    "attribute": "0xFA010000",
    "locale": {
      "CNzh": "{{fun_0003_0001 arg=\"0x0B10\"}}你的{{color id=\"0\"}}马{{color id=\"65535\"}}……我知道这样很强人所难，还是拜托你！{{delay2}}\n能否将那匹{{color id=\"0\"}}马{{color id=\"65535\"}}以{{color id=\"0\"}}300卢比{{color id=\"65535\"}}的价格让给我？{{fun_0001_0004 arg=\"0x040005000001\"}}",
      "EUde": "{{fun_0003_0001 arg=\"0x0B10\"}}Also, äh...{{delay2}} Würdest du mir das {{color id=\"0\"}}Pferd{{color id=\"65535\"}} für\n{{color id=\"0\"}}300 Rubine{{color id=\"65535\"}} überlassen?{{fun_0001_0004 arg=\"0x040005000001\"}}",
      "EUen": "{{fun_0003_0001 arg=\"0x0B10\"}}So that {{color id=\"0\"}}horse{{color id=\"65535\"}}... Hey, I know this is asking\na lot!{{delay2}} But could I buy that {{color id=\"0\"}}horse{{color id=\"65535\"}} for \n{{color id=\"0\"}}300 rupees{{color id=\"65535\"}}?{{fun_0001_0004 arg=\"0x040005000001\"}}",
      "EUes": "{{fun_0003_0001 arg=\"0x0B10\"}}Oye, ese {{color id=\"0\"}}caballo{{color id=\"65535\"}} que tienes no está\nnada mal, rubiales...{{delay2}} ¿Me lo venderías\npor {{color id=\"0\"}}300 rupias{{color id=\"65535\"}}?{{fun_0001_0004 arg=\"0x040005000001\"}}",
      "EUfr": "{{fun_0003_0001 arg=\"0x0B10\"}}Dis, ton {{color id=\"0\"}}cheval{{color id=\"65535\"}}, là... Tu vas peut-être\ntrouver que j'abuse, mais... {{delay2}}Tu me le\nvendrais pas ? Je te l'achète {{color id=\"0\"}}300 rubis {{color id=\"65535\"}}!{{fun_0001_0004 arg=\"0x040005000001\"}}",
      "EUit": "{{fun_0003_0001 arg=\"0x0B10\"}}So che ti sto chiedendo un favore\nenorme... ma puoi darmi quel {{color id=\"0\"}}cavallo{{color id=\"65535\"}}?{{delay2}}\nTe lo pago {{color id=\"0\"}}300 rupie{{color id=\"65535\"}}!{{fun_0001_0004 arg=\"0x040005000001\"}}",
      "EUnl": "{{fun_0003_0001 arg=\"0x0B10\"}}Dat {{color id=\"0\"}}paard{{color id=\"65535\"}}... en ik vraag nu misschien wel\nte veel, maar...{{delay2}} wil je het aan mij\nverkopen voor {{color id=\"0\"}}300 rupees{{color id=\"65535\"}}?{{fun_0001_0004 arg=\"0x040005000001\"}}",
      "EUru": "{{fun_0003_0001 arg=\"0x0B10\"}}Твоя {{color id=\"0\"}}лошадь{{color id=\"65535\"}}...{{delay2}} Слушай, я знаю,\nэто несколько неожиданно...{{delay3}}\nПродай мне ее за {{color id=\"0\"}}300 рупий{{color id=\"65535\"}}!{{fun_0001_0004 arg=\"0x040005000001\"}}",
      "JPja": "{{fun_0003_0001 arg=\"0x0B10\"}}あなたのその{{color id=\"0\"}}{{ruby charSpan=\"1\" value=\"うま\"}}馬{{color id=\"65535\"}}… {{ruby charSpan=\"2\" value=\"むり\"}}無理を{{ruby charSpan=\"2\" value=\"しょうち\"}}承知でお{{ruby charSpan=\"1\" value=\"ねが\"}}願いします！{{delay2}}\nその{{color id=\"0\"}}{{ruby charSpan=\"1\" value=\"うま\"}}馬{{color id=\"65535\"}}を {{color id=\"0\"}}300ルピー{{color id=\"65535\"}}で{{ruby charSpan=\"1\" value=\"ゆず\"}}譲ってもらえませんか？{{fun_0001_0004 arg=\"0x040005000001\"}}",
      "KRko": "{{fun_0003_0001 arg=\"0x0B10\"}}당신의 그 {{color id=\"0\"}}말{{color id=\"65535\"}}… 무리한 부탁인 건 알지만 부디!{{delay2}}\n그 {{color id=\"0\"}}말{{color id=\"65535\"}}을 {{color id=\"0\"}}300루피{{color id=\"65535\"}}에 팔아 주실 수 없을까요?{{fun_0001_0004 arg=\"0x040005000001\"}}",
      "TWzh": "{{fun_0003_0001 arg=\"0x0B10\"}}你那匹{{color id=\"0\"}}馬{{color id=\"65535\"}}……我知道很強人所難，還是拜託你！{{delay2}}\n能否將那匹{{color id=\"0\"}}馬{{color id=\"65535\"}}以{{color id=\"0\"}}300盧比{{color id=\"65535\"}}的價格讓給我？{{fun_0001_0004 arg=\"0x040005000001\"}}",
      "USen": "{{fun_0003_0001 arg=\"0x0B10\"}}So that {{color id=\"0\"}}horse{{color id=\"65535\"}}... Hey, I know this is asking\na lot!{{delay2}} But could I buy that {{color id=\"0\"}}horse{{color id=\"65535\"}} for \n{{color id=\"0\"}}300 rupees{{color id=\"65535\"}}?{{fun_0001_0004 arg=\"0x040005000001\"}}",
      "USes": "{{fun_0003_0001 arg=\"0x0B10\"}}Oye, güero, ese {{color id=\"0\"}}caballo{{color id=\"65535\"}} que tienes no\nestá nada mal...{{delay2}} ¿Me lo venderías por\n{{color id=\"0\"}}300 rupias{{color id=\"65535\"}}?{{fun_0001_0004 arg=\"0x040005000001\"}}",
      "USfr": "{{fun_0003_0001 arg=\"0x0B10\"}}Dis, ton {{color id=\"0\"}}cheval{{color id=\"65535\"}}, là... Tu vas peut-être\ntrouver que j'abuse, mais... {{delay2}}Tu me le\nvendrais pas? Je te l'achète {{color id=\"0\"}}300 rubis{{color id=\"65535\"}}!{{fun_0001_0004 arg=\"0x040005000001\"}}"
    }
  },
  {
    "label": "Talk14",
    "attribute": "0x18020000",
    "locale": {
      "CNzh": "{{fun_0003_0001 arg=\"0x0110\"}}哎呀哎呀……{{delay1}}你帮我把{{color id=\"0\"}}马{{color id=\"65535\"}}牵过来啦！{{delay1}}\n可是这匹马好可怕……\n{{fun_0003_0001 arg=\"0x0001\"}}难得帮我把{{color id=\"0\"}}马{{color id=\"65535\"}}牵来了，真是抱歉，\n还请找匹适合当我搭档的{{color id=\"0\"}}普通马匹{{color id=\"65535\"}}，再让给我吧。",
      "EUde": "{{fun_0003_0001 arg=\"0x0110\"}}Du hast ein {{color id=\"0\"}}Pferd{{color id=\"65535\"}} mitgebracht!{{delay1}}\nAber es ist mir ein bisschen unheimlich...{{pageBreak}}{{fun_0003_0001 arg=\"0x0001\"}}Ich will deine Freundlichkeit wirklich\nnicht überstrapazieren, aber kannst du\nmir ein...{{delay2}} {{color id=\"0\"}}normales Pferd{{color id=\"65535\"}} bringen?",
      "EUen": "{{fun_0003_0001 arg=\"0x0110\"}}Hey, hey! {{delay1}}You brought a {{color id=\"0\"}}horse{{color id=\"65535\"}}!{{delay1}}\nBut it's kind of really scary...\n\n{{fun_0003_0001 arg=\"0x0001\"}}Sorry to say this after all the great\nhorse-bringing you just did, but could\nyou please find me a {{color id=\"0\"}}normal horse{{color id=\"65535\"}}?",
      "EUes": "{{fun_0003_0001 arg=\"0x0110\"}}Anda, rubiales, {{delay1}}¡si me traes un {{color id=\"0\"}}caballo{{color id=\"65535\"}}!{{delay1}}\nO algo.{{delay1}}.{{delay1}}.{{delay1}} El pobre está en los huesos.{{pageBreak}}{{fun_0003_0001 arg=\"0x0001\"}}Oye, te lo agradezco, pero necesito\nun {{color id=\"0\"}}caballo{{color id=\"65535\"}} que esté un poco más...{{delay1}}\nya sabes, vivo.",
      "EUfr": "{{fun_0003_0001 arg=\"0x0110\"}}Hé, voyez-vous ça ! Tu m'as ramené un\n{{color id=\"0\"}}cheval{{color id=\"65535\"}}...{{delay1}} Mais, euh...{{delay1}} il fait limite peur,\nnon ?\n{{fun_0003_0001 arg=\"0x0001\"}}C'était gentil, hein, mais si tu pouvais\nrefaire la même avec {{color id=\"0\"}}un cheval normal{{color id=\"65535\"}},\ntu serais vraiment un ange !",
      "EUit": "{{fun_0003_0001 arg=\"0x0110\"}}Che bello!{{delay1}} Mi hai portato un {{color id=\"0\"}}cavallo{{color id=\"65535\"}}!{{delay1}}\nPerò questo fa un po' paura...\n\n{{fun_0003_0001 arg=\"0x0001\"}}Dopo tutto il tuo impegno, mi dispiace\ntanto rifiutare questo {{color id=\"0\"}}cavallo{{color id=\"65535\"}}, ma puoi\nportarmene uno {{color id=\"0\"}}normale{{color id=\"65535\"}}?",
      "EUnl": "{{fun_0003_0001 arg=\"0x0110\"}}Héhé,{{delay1}} je hebt een {{color id=\"0\"}}paard{{color id=\"65535\"}} meegebracht!\nHelaas is dit {{color id=\"0\"}}paard{{color id=\"65535\"}} veel te griezelig voor\nmij...\n{{fun_0003_0001 arg=\"0x0001\"}}Dat was superaardig van je, maar zou je\nme een {{color id=\"0\"}}paard{{color id=\"65535\"}} kunnen brengen dat wat\nmeer... {{color id=\"0\"}}normaal {{color id=\"65535\"}}is?",
      "EUru": "{{fun_0003_0001 arg=\"0x0110\"}}Цок-цок-цок!{{delay1}} Ты привел\n{{color id=\"0\"}}лошадь{{color id=\"65535\"}}!{{delay1}} Ну и страшила...{{pageBreak}}{{fun_0003_0001 arg=\"0x0001\"}}Извини, что достаю, но ты не мог\nбы поймать мне {{color id=\"0\"}}обычную лошадь{{color id=\"65535\"}}?",
      "JPja": "{{fun_0003_0001 arg=\"0x0110\"}}やあやあ {{delay1}}{{color id=\"0\"}}{{ruby charSpan=\"1\" value=\"うま\"}}馬{{color id=\"65535\"}}を{{ruby charSpan=\"1\" value=\"つ\"}}連れてきてくれたのですね！{{delay1}}\nしかし なにやら{{ruby charSpan=\"1\" value=\"おそ\"}}恐ろしい{{ruby charSpan=\"1\" value=\"うま\"}}馬ですね…\n{{fun_0003_0001 arg=\"0x0001\"}}{{color id=\"0\"}}{{ruby charSpan=\"1\" value=\"うま\"}}馬{{color id=\"65535\"}}を{{ruby charSpan=\"1\" value=\"つ\"}}連れてきてくれたのに {{ruby charSpan=\"1\" value=\"もう\"}}申し{{ruby charSpan=\"1\" value=\"わけ\"}}訳ありませんが\n{{ruby charSpan=\"1\" value=\"わたし\"}}私の{{ruby charSpan=\"2\" value=\"あいぼう\"}}相棒にふさわしい{{color id=\"0\"}}{{ruby charSpan=\"2\" value=\"ふつう\"}}普通の{{ruby charSpan=\"1\" value=\"うま\"}}馬{{color id=\"65535\"}}を{{ruby charSpan=\"1\" value=\"ゆず\"}}譲ってください",
      "KRko": "{{fun_0003_0001 arg=\"0x0110\"}}우와, {{delay1}}{{color id=\"0\"}}말{{color id=\"65535\"}}을 데리고 와 주셨군요!{{delay1}}\n하지만 뭔가 무시무시한 말이네요…\n{{fun_0003_0001 arg=\"0x0001\"}}모처럼 {{color id=\"0\"}}말{{color id=\"65535\"}}을 데리고 와 주셨는데 죄송하지만\n제 파트너로 어울리는 {{color id=\"0\"}}평범한 말{{color id=\"65535\"}}로 부탁드려요",
      "TWzh": "{{fun_0003_0001 arg=\"0x0110\"}}哎呀哎呀……{{delay1}}你替我牽{{color id=\"0\"}}馬{{color id=\"65535\"}}來了！{{delay1}}\n可是這匹馬好可怕……\n{{fun_0003_0001 arg=\"0x0001\"}}難得你都替我把{{color id=\"0\"}}馬{{color id=\"65535\"}}牽來了，真是抱歉，\n還是找匹適合當我夥伴的{{color id=\"0\"}}普通馬匹{{color id=\"65535\"}}，再讓給我吧。",
      "USen": "{{fun_0003_0001 arg=\"0x0110\"}}Hey, hey! {{delay1}}You brought a {{color id=\"0\"}}horse{{color id=\"65535\"}}!{{delay1}}\nBut it's kind of really scary...\n\n{{fun_0003_0001 arg=\"0x0001\"}}Sorry to say this after all the great\nhorse-bringing you just did, but could\nyou please find me a {{color id=\"0\"}}normal horse{{color id=\"65535\"}}?",
      "USes": "{{fun_0003_0001 arg=\"0x0110\"}}¡Güerito!{{delay1}} ¡Me trajiste un {{color id=\"0\"}}caballo{{color id=\"65535\"}}!{{delay1}}\nO algo...{{delay2}} El pobre está en los huesos.{{pageBreak}}{{fun_0003_0001 arg=\"0x0001\"}}Mira, te lo agradezco, pero necesito\nun {{color id=\"0\"}}caballo{{color id=\"65535\"}} que esté un poco más...{{delay1}}\nPues vivo, ¿no?",
      "USfr": "{{fun_0003_0001 arg=\"0x0110\"}}Hé, voyez-vous ça! Tu m'as ramené un\n{{color id=\"0\"}}cheval{{color id=\"65535\"}}...{{delay1}} Mais, euh...{{delay1}} il fait limite peur,\nnon?\n{{fun_0003_0001 arg=\"0x0001\"}}C'était gentil, hein, mais si tu pouvais\nrevenir avec {{color id=\"0\"}}un cheval normal{{color id=\"65535\"}},\ntu serais vraiment un ange!"
    }
  },
  {
    "label": "Talk15",
    "attribute": "0x36020000",
    "locale": {
      "CNzh": "{{fun_0003_0001 arg=\"0x0A15\"}}哎呀哎呀，你替我牵{{delay1}}{{color id=\"0\"}}马{{color id=\"65535\"}}来了……{{delay1}}呃！{{delay2}}\n那只动物不是{{color id=\"0\"}}马{{color id=\"65535\"}}啊！麻烦你牵{{color id=\"0\"}}马{{color id=\"65535\"}}过来！",
      "EUde": "{{fun_0003_0001 arg=\"0x0A15\"}}Du hast ein {{color id=\"0\"}}Pferd{{color id=\"65535\"}} mitge...{{delay2}}\nMoment mal!{{delay1}} Das ist kein {{color id=\"0\"}}Pferd{{color id=\"65535\"}}!{{delay1}}\nBitte bring mir ein {{color id=\"0\"}}Pferd{{color id=\"65535\"}}!",
      "EUen": "{{fun_0003_0001 arg=\"0x0A15\"}}Hey, hey! {{delay1}}You brought a {{color id=\"0\"}}horse{{color id=\"65535\"}}...{{color id=\"0\"}} {{color id=\"65535\"}}{{delay1}}\nWait a sec!{{delay2}} That's not a {{color id=\"0\"}}horse {{color id=\"65535\"}}at all!\nBring me a {{color id=\"0\"}}HORSE{{color id=\"65535\"}}! Please!",
      "EUes": "{{fun_0003_0001 arg=\"0x0A15\"}}¡Hombre, rubiales! {{delay1}}¿Me has traído un\ncaba...?{{delay1}} ¡Eh! Eso no es un {{color id=\"0\"}}caballo{{color id=\"65535\"}},\n¿me tomas por ciego?\nTráeme un {{color id=\"0\"}}caballo{{color id=\"65535\"}} de verdad, anda.",
      "EUfr": "{{fun_0003_0001 arg=\"0x0A15\"}}Hé, {{delay1}}tu m'as ramené un {{color id=\"0\"}}cheval {{color id=\"65535\"}}!{{delay2}}\nOu pas... Désolé, mais ça va pas\nle faire.\nJe respecte les traditions, moi. Je monte\npas sur n'importe quelle bestiole ! C'est\nun {{color id=\"0\"}}cheval{{color id=\"65535\"}} ou rien.",
      "EUit": "{{fun_0003_0001 arg=\"0x0A15\"}}Che bello!{{delay1}} Mi hai portato un {{color id=\"0\"}}cav{{color id=\"65535\"}}...{{delay1}}!{{delay2}}\nUn momento, questo non è un {{color id=\"0\"}}cavallo{{color id=\"65535\"}}!\nSai com'è fatto un {{color id=\"0\"}}cavallo{{color id=\"65535\"}}?",
      "EUnl": "{{fun_0003_0001 arg=\"0x0A15\"}}Héhé,{{delay1}} je hebt een {{color id=\"0\"}}paard{{color id=\"65535\"}} meegebracht...\nWacht eens even!{{delay2}} Dat is helemaal geen\n{{color id=\"0\"}}paard{{color id=\"65535\"}}! Breng me alsjeblieft een {{color id=\"0\"}}paard{{color id=\"65535\"}}!",
      "EUru": "{{fun_0003_0001 arg=\"0x0A15\"}}Цок-цок-цок!{{delay1}} Ты привел {{color id=\"0\"}}лошадь{{color id=\"65535\"}}!{{delay1}}\nОй, это ведь не {{color id=\"0\"}}лошадь{{color id=\"65535\"}}.{{delay1}} Мне\nнужна {{color id=\"0\"}}лошадь{{color id=\"65535\"}}, понимаешь?",
      "JPja": "{{fun_0003_0001 arg=\"0x0A15\"}}やあやあ {{delay1}}{{color id=\"0\"}}{{ruby charSpan=\"1\" value=\"うま\"}}馬{{color id=\"65535\"}}を{{ruby charSpan=\"1\" value=\"つ\"}}連れてきて……{{delay1}} って！{{delay2}}\nその{{ruby charSpan=\"2\" value=\"どうぶつ\"}}動物は{{color id=\"0\"}}{{ruby charSpan=\"1\" value=\"うま\"}}馬{{color id=\"65535\"}}ではありませんね！{{color id=\"0\"}}{{ruby charSpan=\"1\" value=\"うま\"}}馬{{color id=\"65535\"}}をよろしく！",
      "KRko": "{{fun_0003_0001 arg=\"0x0A15\"}}우와, {{delay1}}{{color id=\"0\"}}말{{color id=\"65535\"}}을 데리고 와 주셨……{{delay1}} 헛!{{delay2}}\n그 동물은 {{color id=\"0\"}}말{{color id=\"65535\"}}이 아니잖아요! {{color id=\"0\"}}말{{color id=\"65535\"}}로 부탁해요!",
      "TWzh": "{{fun_0003_0001 arg=\"0x0A15\"}}哎呀哎呀，你替我牽{{delay1}}{{color id=\"0\"}}馬{{color id=\"65535\"}}來了……{{delay1}}呃！{{delay2}}\n那隻動物不是{{color id=\"0\"}}馬{{color id=\"65535\"}}啊！麻煩你牽{{color id=\"0\"}}馬{{color id=\"65535\"}}過來！",
      "USen": "{{fun_0003_0001 arg=\"0x0A15\"}}Hey, hey! {{delay1}}You brought a {{color id=\"0\"}}horse{{color id=\"65535\"}}...{{color id=\"0\"}} {{color id=\"65535\"}}{{delay1}}\nWait a sec!{{delay2}} That's not a {{color id=\"0\"}}horse {{color id=\"65535\"}}at all!\nBring me a {{color id=\"0\"}}HORSE{{color id=\"65535\"}}! Please!",
      "USes": "{{fun_0003_0001 arg=\"0x0A15\"}}¡Ese güero! {{delay1}}¿Me trajiste un caba...?{{delay1}}\n¡Eh! Eso no es un {{color id=\"0\"}}caballo{{color id=\"65535\"}}. Tráeme\nun {{color id=\"0\"}}caballo{{color id=\"65535\"}} de verdad, ¿no?",
      "USfr": "{{fun_0003_0001 arg=\"0x0A15\"}}Hé, {{delay1}}tu m'as ramené un {{color id=\"0\"}}cheval{{color id=\"65535\"}}!{{delay2}}\nOu pas... Désolé, mais ça va pas\nle faire.\nJe respecte les traditions, moi. Je monte\npas sur n'importe quelle bestiole!\nC'est un {{color id=\"0\"}}cheval{{color id=\"65535\"}} ou rien."
    }
  },
  {
    "label": "Near_00",
    "attribute": "0x54020000",
    "locale": {
      "CNzh": "哪里有好马……",
      "EUde": "Wo gibt's gute Pferde?",
      "EUen": "Must have a good horse...",
      "EUes": "Si tuviera un caballo...",
      "EUfr": "Il me faudrait un cheval...",
      "EUit": "Mi serve un cavallo...",
      "EUnl": "Waar vind ik een paard?",
      "EUru": "Хорошую бы лошадь...",
      "JPja": "どこかに{{ruby charSpan=\"1\" value=\"い\"}}良い{{ruby charSpan=\"1\" value=\"うま\"}}馬は…",
      "KRko": "어디 좋은 말 없나…",
      "TWzh": "哪裡有好馬……",
      "USen": "Must have a good horse...",
      "USes": "Si tuviera un caballo...",
      "USfr": "Il me faudrait un cheval..."
    }
  },
  {
    "label": "Near_01",
    "attribute": "0x72020000",
    "locale": {
      "CNzh": "哎呀……哎呀……哎呀……",
      "EUde": "Hey, hey...",
      "EUen": "Hey... Hey... Hey...",
      "EUes": "Eeeco... Eeeeco...",
      "EUfr": "Ouais, ouais, ouais...",
      "EUit": "Mumble mumble...",
      "EUnl": "Hé... hé... hé...",
      "EUru": "Цок-цок-цок...",
      "JPja": "やあ… やあ… やあ…",
      "KRko": "아… 아… 아…",
      "TWzh": "哎呀……哎呀……哎呀……",
      "USen": "Hey... Hey... Hey...",
      "USes": "Oyeee... Oyeee...",
      "USfr": "Ouais, ouais, ouais..."
    }
  }
]