[
  {
    "label": "Talk07",
    "attribute": "0x4C000000",
    "locale": {
      "CNzh": "{{fun_0003_0001 arg=\"0x0000\"}}今天的菜单是{{color id=\"2\"}}速速蔬菜浓汤{{color id=\"65535\"}}！\n\n{{fun_0003_0001 arg=\"0x0B00\"}}对于强身健体……？{{delay3}}\n\n{{fun_0003_0001 arg=\"0x0000\"}}好像很有效果。\n\n只要将{{color id=\"2\"}}速速胡萝卜{{color id=\"65535\"}}、{{color id=\"2\"}}岩盐{{color id=\"65535\"}}和{{color id=\"2\"}}鲜奶{{color id=\"65535\"}}{{delay1}}\n放进锅里慢慢炖煮就行了！{{delay3}}",
      "EUde": "{{fun_0003_0001 arg=\"0x0000\"}}Heute gibt's {{color id=\"2\"}}Spurt-{{wordInfo gender=\"2\" defArticle=\"1\" indefArticle=\"1\" isPlural=\"0\"}}Gemüsecremesuppe{{color id=\"65535\"}}.{{pageBreak}}{{fun_0003_0001 arg=\"0x0B00\"}}Sie ist sehr nahrhaft und macht flink!{{pageBreak}}{{fun_0003_0001 arg=\"0x0000\"}}Zumindest heißt es das...{{pageBreak}}Einfach {{color id=\"2\"}}{{wordInfo gender=\"2\" defArticle=\"1\" indefArticle=\"1\" isPlural=\"0\"}}Spurtkarotte{{color id=\"65535\"}}, {{color id=\"2\"}}{{wordInfo gender=\"3\" defArticle=\"4\" indefArticle=\"4\" isPlural=\"0\"}}Steinsalz {{color id=\"65535\"}}und\n{{color id=\"2\"}}frische Milch{{color id=\"65535\"}} in einen Topf, etwas kochen\nlassen und fertig!",
      "EUen": "{{fun_0003_0001 arg=\"0x0000\"}}Today's dinner is {{color id=\"2\"}}veggie cream soup{{color id=\"65535\"}}!\n\n\n{{fun_0003_0001 arg=\"0x0B00\"}}It's super nourishing and fortifying!\n\n\n{{fun_0003_0001 arg=\"0x0000\"}}Well, that's what they say, anyhow.\nIt must be true!\n\nAll you do is toss a {{color id=\"2\"}}swift carrot{{color id=\"65535\"}},\n{{color id=\"2\"}}rock salt{{color id=\"65535\"}}, and {{color id=\"2\"}}fresh milk {{color id=\"65535\"}}in a pot\nand stew it up. {{delay3}}Then, voilà! {{delay1}}So yummy!",
      "EUes": "{{fun_0003_0001 arg=\"0x0000\"}}¡Hoy cenaremos una {{color id=\"2\"}}sopa de verduras{{color id=\"65535\"}}\ncargada de vitaminas!{{pageBreak}}{{fun_0003_0001 arg=\"0x0B00\"}}Dicen que es bueno tomarla a menudo\nporque da mucha energía.{{pageBreak}}{{fun_0003_0001 arg=\"0x0000\"}}Se añade una {{color id=\"2\"}}{{wordInfo gender=\"2\" defArticle=\"1\" indefArticle=\"1\" isPlural=\"0\"}}zanahoria rauda{{color id=\"65535\"}},\nuna {{color id=\"2\"}}{{wordInfo gender=\"2\" defArticle=\"1\" indefArticle=\"1\" isPlural=\"0\"}}halita{{color id=\"65535\"}} y {{color id=\"2\"}}leche fresca{{color id=\"65535\"}} a la cacerola...{{delay1}}\n¡y ya está!",
      "EUfr": "{{fun_0003_0001 arg=\"0x0000\"}}On va manger du {{color id=\"2\"}}velouté de légumes\ntempo{{color id=\"65535\"}}, ce soir !\n\n{{fun_0003_0001 arg=\"0x0B00\"}}C'est très nutritritio... {{delay1}}Nutrito... \n{{delay1}}Très bon !{{delay3}}\n\n{{fun_0003_0001 arg=\"0x0000\"}}Enfin, à ce qu'y paraît.\n\n\nHmm... Il faut de la {{color id=\"2\"}}{{wordInfo gender=\"2\" defArticle=\"1\" indefArticle=\"1\" isPlural=\"0\"}}carotte tempo{{color id=\"65535\"}}, un\n{{color id=\"2\"}}{{wordInfo gender=\"1\" defArticle=\"0\" indefArticle=\"0\" isPlural=\"0\"}}cristal de sel{{color id=\"65535\"}}, une {{color id=\"2\"}}{{wordInfo gender=\"2\" defArticle=\"1\" indefArticle=\"1\" isPlural=\"0\"}}bouteille de lait frais{{color id=\"65535\"}},{{delay1}}\net y a plus qu'à laisser bien mijoter !{{delay3}}",
      "EUit": "{{fun_0003_0001 arg=\"0x0000\"}}Oggi per pranzo farò una\n{{color id=\"2\"}}vellutata di verdure sprint{{color id=\"65535\"}}!\n\n{{fun_0003_0001 arg=\"0x0B00\"}}COR-RO-BO-RAN-TE...{{delay3}}\n\n\n{{fun_0003_0001 arg=\"0x0000\"}}Possiamo definire così questo piatto.\n\n\nBasta mettere in un pentolone\nuna {{color id=\"2\"}}{{wordInfo gender=\"2\" defArticle=\"2\" indefArticle=\"2\" isPlural=\"0\"}}carota sprint{{color id=\"65535\"}}, del {{color id=\"2\"}}{{wordInfo gender=\"1\" defArticle=\"0\" indefArticle=\"7\" isPlural=\"0\"}}salgemma{{color id=\"65535\"}}\ne del {{color id=\"2\"}}latte fresco{{color id=\"65535\"}}{{delay1}} e cuocere per bene!",
      "EUnl": "{{fun_0003_0001 arg=\"0x0000\"}}Vandaag eten we {{color id=\"2\"}}groentecrèmesoep{{color id=\"65535\"}}.{{pageBreak}}{{fun_0003_0001 arg=\"0x0B00\"}}Ik hoorde dat {{color id=\"2\"}}groentecrèmesoep {{color id=\"65535\"}}heel\ngezond en voedzaam is!{{pageBreak}}{{fun_0003_0001 arg=\"0x0000\"}}Gooi {{color id=\"2\"}}sprintwortel{{color id=\"65535\"}}, {{color id=\"2\"}}zoutkristal{{color id=\"65535\"}} en\n{{color id=\"2\"}}verse melk{{color id=\"65535\"}} in een pan, even laten koken,\nen klaar is Kees!",
      "EUru": "{{fun_0003_0001 arg=\"0x0000\"}}Сегодня я приготовлю\n{{color id=\"2\"}}скорое лечо!{{color id=\"65535\"}}{{pageBreak}}{{fun_0003_0001 arg=\"0x0B00\"}}Это очень вкусное и полезное\nблюдо, и готовится просто!{{pageBreak}}{{fun_0003_0001 arg=\"0x0000\"}}Берешь {{color id=\"2\"}}прыть-морковь{{color id=\"65535\"}}, {{color id=\"2\"}}каменную\nсоль{{color id=\"65535\"}}, {{color id=\"2\"}}молоко{{color id=\"65535\"}} — и все в казан!",
      "JPja": "{{fun_0003_0001 arg=\"0x0000\"}}{{ruby charSpan=\"2\" value=\"きょう\"}}今日のごはんは\n{{color id=\"2\"}}ゴーゴー{{ruby charSpan=\"2\" value=\"やさい\"}}野菜クリームスープ{{color id=\"65535\"}}にするのです！\n{{fun_0003_0001 arg=\"0x0B00\"}}じ よ う き ょ う そ う…{{delay3}}\n\n{{fun_0003_0001 arg=\"0x0000\"}}というのに{{ruby charSpan=\"1\" value=\"い\"}}良いらしいのです\n\n{{color id=\"2\"}}ゴーゴーニンジン{{color id=\"65535\"}}と {{color id=\"2\"}}{{ruby charSpan=\"2\" value=\"がんえん\"}}岩塩{{color id=\"65535\"}}と {{color id=\"2\"}}フレッシュミルク{{color id=\"65535\"}}を{{delay1}}\nお{{ruby charSpan=\"1\" value=\"なべ\"}}鍋にいれて しっかり{{ruby charSpan=\"2\" value=\"にこ\"}}煮込むだけなのです！{{delay3}}",
      "KRko": "{{fun_0003_0001 arg=\"0x0000\"}}오늘 메뉴는\n{{color id=\"2\"}}고고 야채 크림수프{{color id=\"65535\"}}예요!\n{{fun_0003_0001 arg=\"0x0B00\"}}자 양 강 장…{{delay3}}\n\n{{fun_0003_0001 arg=\"0x0000\"}}이라는 거에 좋대요\n\n{{color id=\"2\"}}고고당근{{color id=\"65535\"}}이랑 {{color id=\"2\"}}암염{{color id=\"65535\"}}이랑 {{color id=\"2\"}}신선 우유{{color id=\"65535\"}}를{{delay1}}\n냄비에 넣고 푹 끓이면 끝이에요!{{delay3}}",
      "TWzh": "{{fun_0003_0001 arg=\"0x0000\"}}今天的菜色是\n{{color id=\"2\"}}速速蔬菜濃湯{{color id=\"65535\"}}！\n{{fun_0003_0001 arg=\"0x0B00\"}}對於強身健體……？{{delay3}}\n\n{{fun_0003_0001 arg=\"0x0000\"}}好像很有效果。\n\n只要將{{color id=\"2\"}}速速胡蘿蔔{{color id=\"65535\"}}、{{color id=\"2\"}}岩鹽{{color id=\"65535\"}}和{{color id=\"2\"}}鮮奶{{color id=\"65535\"}}{{delay1}}\n放進鍋裡慢慢燉煮就行了！{{delay3}}",
      "USen": "{{fun_0003_0001 arg=\"0x0000\"}}Today's dinner is {{color id=\"2\"}}veggie cream soup{{color id=\"65535\"}}!\n\n\n{{fun_0003_0001 arg=\"0x0B00\"}}It's super nourishing and fortifying!\n\n\n{{fun_0003_0001 arg=\"0x0000\"}}Well, that's what they say, anyhow.\nIt must be true!\n\nAll you do is toss a {{color id=\"2\"}}swift carrot{{color id=\"65535\"}},\n{{color id=\"2\"}}rock salt{{color id=\"65535\"}}, and {{color id=\"2\"}}fresh milk {{color id=\"65535\"}}in a pot\nand stew it up. {{delay3}}Then, voilà! {{delay1}}So yummy!",
      "USes": "{{fun_0003_0001 arg=\"0x0000\"}}¡Hoy cenaremos una {{color id=\"2\"}}sopa de verduras{{color id=\"65535\"}}\ncargada de vitaminas!{{pageBreak}}{{fun_0003_0001 arg=\"0x0B00\"}}Dicen que es bueno consumirla\nporque da mucha energía.{{pageBreak}}{{fun_0003_0001 arg=\"0x0000\"}}Se añade una {{color id=\"2\"}}{{wordInfo gender=\"2\" defArticle=\"1\" indefArticle=\"1\" isPlural=\"0\"}}zanahoria rauda{{color id=\"65535\"}},\nuna {{color id=\"2\"}}{{wordInfo gender=\"2\" defArticle=\"1\" indefArticle=\"1\" isPlural=\"0\"}}halita{{color id=\"65535\"}} y {{color id=\"2\"}}leche fresca{{color id=\"65535\"}} a la cacerola...{{delay1}}\n¡y ya está!",
      "USfr": "{{fun_0003_0001 arg=\"0x0000\"}}On va manger du {{color id=\"2\"}}velouté de légumes\ntempo{{color id=\"65535\"}}, ce soir!\n\n{{fun_0003_0001 arg=\"0x0B00\"}}C'est très nutritritio... {{delay1}}Nutrito... \n{{delay1}}Très bon!{{delay3}}\n\n{{fun_0003_0001 arg=\"0x0000\"}}Enfin, à ce qu'y paraît.\n\n\nHmm... Il faut de la {{color id=\"2\"}}{{wordInfo gender=\"2\" defArticle=\"1\" indefArticle=\"1\" isPlural=\"0\"}}carotte tempo{{color id=\"65535\"}}, un\n{{color id=\"2\"}}{{wordInfo gender=\"1\" defArticle=\"0\" indefArticle=\"0\" isPlural=\"0\"}}cristal de sel{{color id=\"65535\"}}, une {{color id=\"2\"}}{{wordInfo gender=\"2\" defArticle=\"1\" indefArticle=\"1\" isPlural=\"0\"}}bouteille de lait frais{{color id=\"65535\"}},{{delay1}}\net y a plus qu'à laisser bien mijoter!{{delay3}}"
    }
  },
  {
    "label": "Talk01",
    "attribute": "0x6C000000",
    "locale": {
      "CNzh": "{{fun_0003_0001 arg=\"0x0A1F\"}}{{size value=\"125\"}}啊！！{{size value=\"100\"}}{{delay3}}",
      "EUde": "{{fun_0003_0001 arg=\"0x0A1F\"}}{{size value=\"125\"}}Oh nein!{{size value=\"100\"}}{{delay3}}",
      "EUen": "{{fun_0003_0001 arg=\"0x0A1F\"}}{{size value=\"125\"}}...OH, NO!{{size value=\"100\"}}",
      "EUes": "{{fun_0003_0001 arg=\"0x0A1F\"}}{{size value=\"125\"}}¡¡¡Nooo!!!{{size value=\"100\"}}",
      "EUfr": "{{fun_0003_0001 arg=\"0x0A1F\"}}{{size value=\"125\"}}AAAH !{{size value=\"100\"}}{{delay3}}",
      "EUit": "{{fun_0003_0001 arg=\"0x0A1F\"}}{{size value=\"125\"}}Oh, no!{{size value=\"100\"}}{{delay3}}",
      "EUnl": "{{fun_0003_0001 arg=\"0x0A1F\"}}{{size value=\"125\"}}O nee!{{size value=\"100\"}}",
      "EUru": "{{fun_0003_0001 arg=\"0x0A1F\"}}{{size value=\"125\"}}Ой!{{size value=\"100\"}}",
      "JPja": "{{fun_0003_0001 arg=\"0x0A1F\"}}{{size value=\"125\"}}ああっ！！{{size value=\"100\"}}{{delay3}}",
      "KRko": "{{fun_0003_0001 arg=\"0x0A1F\"}}{{size value=\"125\"}}아앗!!{{size value=\"100\"}}{{delay3}}",
      "TWzh": "{{fun_0003_0001 arg=\"0x0A1F\"}}{{size value=\"125\"}}啊！！{{size value=\"100\"}}{{delay3}}",
      "USen": "{{fun_0003_0001 arg=\"0x0A1F\"}}{{size value=\"125\"}}...OH, NO!{{size value=\"100\"}}",
      "USes": "{{fun_0003_0001 arg=\"0x0A1F\"}}{{size value=\"125\"}}¡¡Nooo!!{{size value=\"100\"}}",
      "USfr": "{{fun_0003_0001 arg=\"0x0A1F\"}}{{size value=\"125\"}}AAAH!{{size value=\"100\"}}{{delay3}}"
    }
  },
  {
    "label": "Talk15",
    "attribute": "0x8C000000",
    "locale": {
      "CNzh": "{{fun_0003_0001 arg=\"0x0A01\"}}今天{{color id=\"2\"}}速速胡萝卜{{color id=\"65535\"}}{{delay1}}\n刚好用完了……",
      "EUde": "{{fun_0003_0001 arg=\"0x0A01\"}}Keine {{color id=\"2\"}}{{wordInfo gender=\"2\" defArticle=\"1\" indefArticle=\"1\" isPlural=\"0\"}}Spurtkarotten{{color id=\"65535\"}} mehr da...",
      "EUen": "{{fun_0003_0001 arg=\"0x0A01\"}}Koko is all out of {{color id=\"2\"}}swift carrots{{color id=\"65535\"}}!",
      "EUes": "{{fun_0003_0001 arg=\"0x0A01\"}}¡Ya no me queda ni una\nsola {{color id=\"2\"}}{{wordInfo gender=\"2\" defArticle=\"1\" indefArticle=\"1\" isPlural=\"0\"}}zanahoria rauda{{color id=\"65535\"}}!",
      "EUfr": "{{fun_0003_0001 arg=\"0x0A01\"}}Je n'ai plus du tout de{{delay1}} {{color id=\"2\"}}{{wordInfo gender=\"2\" defArticle=\"1\" indefArticle=\"1\" isPlural=\"0\"}}carotte tempo{{color id=\"65535\"}}...",
      "EUit": "{{fun_0003_0001 arg=\"0x0A01\"}}Non ho più nemmeno una {{color id=\"2\"}}{{wordInfo gender=\"2\" defArticle=\"2\" indefArticle=\"2\" isPlural=\"0\"}}carota sprint{{color id=\"65535\"}}...",
      "EUnl": "{{fun_0003_0001 arg=\"0x0A01\"}}Ik heb vandaag geen {{color id=\"2\"}}sprintwortels{{color id=\"65535\"}}\nmeer...",
      "EUru": "{{fun_0003_0001 arg=\"0x0A01\"}}У меня же нет {{color id=\"2\"}}прыть-моркови{{color id=\"65535\"}}!",
      "JPja": "{{fun_0003_0001 arg=\"0x0A01\"}}{{ruby charSpan=\"2\" value=\"きょう\"}}今日は {{color id=\"2\"}}ゴーゴーニンジン{{color id=\"65535\"}}を{{delay1}}\n{{ruby charSpan=\"1\" value=\"き\"}}切らしてたのです…",
      "KRko": "{{fun_0003_0001 arg=\"0x0A01\"}}오늘은 {{color id=\"2\"}}고고당근{{color id=\"65535\"}}이{{delay1}}\n다 떨어졌어요…",
      "TWzh": "{{fun_0003_0001 arg=\"0x0A01\"}}今天{{color id=\"2\"}}速速胡蘿蔔{{color id=\"65535\"}}{{delay1}}\n剛好用完了……",
      "USen": "{{fun_0003_0001 arg=\"0x0A01\"}}Koko is all out of {{color id=\"2\"}}swift carrots{{color id=\"65535\"}}!",
      "USes": "{{fun_0003_0001 arg=\"0x0A01\"}}¡Ya no me queda ni una\nsola {{color id=\"2\"}}{{wordInfo gender=\"2\" defArticle=\"1\" indefArticle=\"1\" isPlural=\"0\"}}zanahoria rauda{{color id=\"65535\"}}!",
      "USfr": "{{fun_0003_0001 arg=\"0x0A01\"}}Je n'ai plus du tout de{{delay1}} {{color id=\"2\"}}{{wordInfo gender=\"2\" defArticle=\"1\" indefArticle=\"1\" isPlural=\"0\"}}carotte tempo{{color id=\"65535\"}}..."
    }
  },
  {
    "label": "Talk08",
    "attribute": "0xAC000000",
    "locale": {
      "CNzh": "{{fun_0003_0001 arg=\"0x0900\"}}都和普莉珂约好\n要做{{color id=\"2\"}}速速蔬菜浓汤{{color id=\"65535\"}}了……{{fun_0001_0004 arg=\"0x000004000002\"}}",
      "EUde": "{{fun_0003_0001 arg=\"0x0900\"}}Ich habe Priko doch heute\n{{color id=\"2\"}}Spurt-{{wordInfo gender=\"2\" defArticle=\"1\" indefArticle=\"1\" isPlural=\"0\"}}Gemüsecremesuppe {{color id=\"65535\"}}versprochen!{{fun_0001_0004 arg=\"0x000004000002\"}}",
      "EUen": "{{fun_0003_0001 arg=\"0x0900\"}}But...Koko promised to make Cottla\nsome {{color id=\"2\"}}hasty veggie cream soup{{color id=\"65535\"}}...{{fun_0001_0004 arg=\"0x000004000002\"}}",
      "EUes": "{{fun_0003_0001 arg=\"0x0900\"}}Le había prometido a Rika que hoy\ncenaríamos {{color id=\"2\"}}sopa de verduras{{color id=\"65535\"}}...{{fun_0001_0004 arg=\"0x000004000002\"}}",
      "EUfr": "{{fun_0003_0001 arg=\"0x0900\"}}Mais j'ai promis à Pricota de lui faire\nun {{color id=\"2\"}}velouté de légumes tempo{{color id=\"65535\"}}...{{fun_0001_0004 arg=\"0x000004000002\"}}",
      "EUit": "{{fun_0003_0001 arg=\"0x0900\"}}Uffa, avevo promesso a Prisca che le\navrei preparato la {{color id=\"2\"}}vellutata di verdure\nsprint{{color id=\"65535\"}}...{{fun_0001_0004 arg=\"0x000004000002\"}}",
      "EUnl": "{{fun_0003_0001 arg=\"0x0900\"}}Ik ben helemaal door mijn {{color id=\"2\"}}sprintwortel{{color id=\"65535\"}}\nheen. Ik heb Cottla nog wel beloofd dat\nik {{color id=\"2\"}}groentecrèmesoep {{color id=\"65535\"}}zou maken...{{fun_0001_0004 arg=\"0x000004000002\"}}",
      "EUru": "{{fun_0003_0001 arg=\"0x0900\"}}А я обещала Коттле приготовить\n{{color id=\"2\"}}скорое лечо{{color id=\"65535\"}}...{{fun_0001_0004 arg=\"0x000004000002\"}}",
      "JPja": "{{fun_0003_0001 arg=\"0x0900\"}}プリコに {{color id=\"2\"}}ゴーゴー{{ruby charSpan=\"2\" value=\"やさい\"}}野菜クリームスープ{{color id=\"65535\"}}{{ruby charSpan=\"1\" value=\"つく\"}}作るって\nお{{ruby charSpan=\"2\" value=\"やくそく\"}}約束してたのに…{{fun_0001_0004 arg=\"0x000004000002\"}}",
      "KRko": "{{fun_0003_0001 arg=\"0x0900\"}}푸리코에게 {{color id=\"2\"}}고고 야채 크림수프{{color id=\"65535\"}}를\n만들어 주겠다고 약속했는데…{{fun_0001_0004 arg=\"0x000004000002\"}}",
      "TWzh": "{{fun_0003_0001 arg=\"0x0900\"}}都和普莉珂約好\n要做{{color id=\"2\"}}速速蔬菜濃湯{{color id=\"65535\"}}了……{{fun_0001_0004 arg=\"0x000004000002\"}}",
      "USen": "{{fun_0003_0001 arg=\"0x0900\"}}But...Koko promised to make Cottla\nsome {{color id=\"2\"}}hasty veggie cream soup{{color id=\"65535\"}}...{{fun_0001_0004 arg=\"0x000004000002\"}}",
      "USes": "{{fun_0003_0001 arg=\"0x0900\"}}Le había prometido a Vari que hoy\ncenaríamos {{color id=\"2\"}}sopa de verduras{{color id=\"65535\"}}...{{fun_0001_0004 arg=\"0x000004000002\"}}",
      "USfr": "{{fun_0003_0001 arg=\"0x0900\"}}Mais j'ai promis à Pricota de lui faire\nun {{color id=\"2\"}}velouté de légumes tempo{{color id=\"65535\"}}...{{fun_0001_0004 arg=\"0x000004000002\"}}"
    }
  },
  {
    "label": "0000",
    "attribute": "0xCC000000",
    "locale": {
      "CNzh": "我去帮你拿来",
      "EUde": "Ich hole dir welche.",
      "EUen": "I'll bring you some.",
      "EUes": "Te traeré alguna",
      "EUfr": "Je vais t'en rapporter.",
      "EUit": "Ci penso io.",
      "EUnl": "Ik zal voor je halen.",
      "EUru": "Я принесу!",
      "JPja": "{{ruby charSpan=\"1\" value=\"も\"}}持ってきてあげる",
      "KRko": "가져와 줄게",
      "TWzh": "我去替妳找來",
      "USen": "I'll bring you some.",
      "USes": "Yo te ayudo",
      "USfr": "Je vais t'en rapporter."
    }
  },
  {
    "label": "0004",
    "attribute": "0xCE000000",
    "locale": {
      "CNzh": "加油哦",
      "EUde": "Wird schon...",
      "EUen": "You'll live.",
      "EUes": "Ánimo",
      "EUfr": "Il va falloir faire sans.",
      "EUit": "Arrangiati.",
      "EUnl": "Even geduld.",
      "EUru": "Удачи",
      "JPja": "{{ruby charSpan=\"2\" value=\"がんば\"}}頑張ってね",
      "KRko": "힘 내",
      "TWzh": "加油喔",
      "USen": "You'll live.",
      "USes": "Ánimo",
      "USfr": "Il va falloir faire sans."
    }
  },
  {
    "label": "Talk09",
    "attribute": "0xD0000000",
    "locale": {
      "CNzh": "{{fun_0003_0001 arg=\"0x0700\"}}非常谢谢！{{delay1}}\n\n只要再准备1根{{color id=\"2\"}}速速胡萝卜{{color id=\"65535\"}}，\n就能做出这道料理了！\n珂珂娜会在这里等着你！{{delay1}}\n\n{{fun_0003_0001 arg=\"0x0000\"}}{{size value=\"80\"}}……只是天色变暗之后，\n珂珂娜就得放弃回家了……{{size value=\"100\"}}",
      "EUde": "{{fun_0003_0001 arg=\"0x0700\"}}Ich danke dir!{{delay1}} Ich brauche auch nur\n1 {{color id=\"2\"}}{{wordInfo gender=\"2\" defArticle=\"1\" indefArticle=\"1\" isPlural=\"0\"}}Spurtkarotte{{color id=\"65535\"}}!{{delay1}} Ich warte hier auf dich!{{pageBreak}}{{fun_0003_0001 arg=\"0x0000\"}}{{size value=\"80\"}}Außer wenn es dunkel wird...{{delay1}}\nDann gehe ich nach Hause...{{size value=\"100\"}}",
      "EUen": "{{fun_0003_0001 arg=\"0x0700\"}}Thank you! So much!\n\n\nOK, Koko just needs one {{color id=\"2\"}}swift carrot{{color id=\"65535\"}}!\nJust one and Koko can get cookin'!\nKoko will be waiting for you here!\n{{fun_0003_0001 arg=\"0x0000\"}}{{size value=\"80\"}}Though, once it gets dark out, Koko will have to\nhead home...{{size value=\"100\"}}",
      "EUes": "{{fun_0003_0001 arg=\"0x0700\"}}¿De verdad? ¡Qué bieeen!{{pageBreak}}Necesito solo una {{color id=\"2\"}}{{wordInfo gender=\"2\" defArticle=\"1\" indefArticle=\"1\" isPlural=\"0\"}}zanahoria rauda{{color id=\"65535\"}}\npara hacer la receta.{{pageBreak}}¡Aquí te espero! ¡No tardes mucho!{{delay1}}\n{{fun_0003_0001 arg=\"0x0000\"}}{{size value=\"80\"}}Si se hace de noche me iré a casa...{{size value=\"100\"}}",
      "EUfr": "{{fun_0003_0001 arg=\"0x0700\"}}Vrai de vrai ?! Merci !{{delay1}}\n\n\nJe n'ai besoin que d'une seule {{color id=\"2\"}}carotte\ntempo{{color id=\"65535\"}}, c'est tout ! Je t'attends ici,\nd'accord ?{{delay1}}\n{{fun_0003_0001 arg=\"0x0000\"}}{{size value=\"80\"}}Mais que jusqu'à la nuit, parce qu'après,\nil faut que je rentre à la maison...{{size value=\"100\"}}",
      "EUit": "{{fun_0003_0001 arg=\"0x0700\"}}Oh, grazie!{{delay1}}\n\n\nMi manca una sola {{color id=\"2\"}}{{wordInfo gender=\"2\" defArticle=\"2\" indefArticle=\"2\" isPlural=\"0\"}}carota sprint{{color id=\"65535\"}}\nper preparare la mia ricetta.\n\nTi aspetto qui!{{delay1}}\n\n\n{{fun_0003_0001 arg=\"0x0000\"}}{{size value=\"80\"}}Però quando fa buio me ne torno a casa, eh...{{size value=\"100\"}}",
      "EUnl": "{{fun_0003_0001 arg=\"0x0700\"}}Heel erg bedankt!{{pageBreak}}Ik heb één {{color id=\"2\"}}sprintwortel{{color id=\"65535\"}} nodig om mijn\ngerecht te maken. Ik wacht hier op je.{{pageBreak}}{{fun_0003_0001 arg=\"0x0000\"}}{{size value=\"80\"}}Maar zodra het donker wordt, ga ik naar huis,\nhoor...{{size value=\"100\"}}",
      "EUru": "{{fun_0003_0001 arg=\"0x0700\"}}Большое тебе спасибо!{{pageBreak}}Мне нужна всего одна\n{{color id=\"2\"}}прыть-морковка{{color id=\"65535\"}}!{{pageBreak}}Я буду ждать здесь.{{pageBreak}}{{fun_0003_0001 arg=\"0x0000\"}}{{size value=\"80\"}}Но когда стемнеет, пойду домой...{{size value=\"100\"}}",
      "JPja": "{{fun_0003_0001 arg=\"0x0700\"}}ありがとうございますです！{{delay1}}\n\nあとは {{color id=\"2\"}}ゴーゴーニンジン{{color id=\"65535\"}}が\n1{{ruby charSpan=\"1\" value=\"ぽん\"}}本あれば {{ruby charSpan=\"1\" value=\"つく\"}}作れるのです！\nココナは ここで{{ruby charSpan=\"1\" value=\"ま\"}}待っているです！{{delay1}}\n\n{{fun_0003_0001 arg=\"0x0000\"}}{{size value=\"80\"}}…{{ruby charSpan=\"1\" value=\"くら\"}}暗くなったらあきらめて\nお{{ruby charSpan=\"1\" value=\"うち\"}}家に{{ruby charSpan=\"1\" value=\"かえ\"}}帰るですけど…{{size value=\"100\"}}",
      "KRko": "{{fun_0003_0001 arg=\"0x0700\"}}고맙습니다!{{delay1}}\n\n이제 {{color id=\"2\"}}고고당근{{color id=\"65535\"}}이\n1개 있으면 만들 수 있어요!\n코코나는 여기서 기다릴게요!{{delay1}}\n\n{{fun_0003_0001 arg=\"0x0000\"}}{{size value=\"80\"}}…어두워지면 포기하고\n집에 돌아가겠지만요…{{size value=\"100\"}}",
      "TWzh": "{{fun_0003_0001 arg=\"0x0700\"}}非常謝謝！{{delay1}}\n\n只要再準備一根{{color id=\"2\"}}速速胡蘿蔔{{color id=\"65535\"}}，\n就能做出料理了！\n珂珂娜會在這裡等著！{{delay1}}\n\n{{fun_0003_0001 arg=\"0x0000\"}}{{size value=\"80\"}}……只是天色變暗之後，\n珂珂娜就得放棄回家了……{{size value=\"100\"}}",
      "USen": "{{fun_0003_0001 arg=\"0x0700\"}}Thank you! So much!\n\n\nOK, Koko just needs one {{color id=\"2\"}}swift carrot{{color id=\"65535\"}}!\nJust one and Koko can get cookin'!\nKoko will be waiting for you here!\n{{fun_0003_0001 arg=\"0x0000\"}}{{size value=\"80\"}}Though, once it gets dark out, Koko will have to\nhead home...{{size value=\"100\"}}",
      "USes": "{{fun_0003_0001 arg=\"0x0700\"}}¿De verdad? ¡Qué bieeen!{{pageBreak}}Necesito solo una {{color id=\"2\"}}{{wordInfo gender=\"2\" defArticle=\"1\" indefArticle=\"1\" isPlural=\"0\"}}zanahoria rauda{{color id=\"65535\"}}\npara hacer la receta.{{pageBreak}}¡Aquí te espero! ¡No tardes mucho!{{delay1}}\n{{fun_0003_0001 arg=\"0x0000\"}}{{size value=\"80\"}}Si se hace de noche me iré a casa...{{size value=\"100\"}}",
      "USfr": "{{fun_0003_0001 arg=\"0x0700\"}}Pour de vrai?! Merci!{{delay1}}\n\n\nJe n'ai besoin que d'une seule {{color id=\"2\"}}carotte\ntempo{{color id=\"65535\"}}, c'est tout! Je t'attends ici,\nd'accord {{delay1}}\n{{fun_0003_0001 arg=\"0x0000\"}}{{size value=\"80\"}}Mais que jusqu'à la nuit, parce qu'après,\nil faut que je rentre à la maison...{{size value=\"100\"}}"
    }
  },
  {
    "label": "Talk10",
    "attribute": "0xF0000000",
    "locale": {
      "CNzh": "{{fun_0003_0001 arg=\"0x0900\"}}……真是无情。",
      "EUde": "{{fun_0003_0001 arg=\"0x0900\"}}Das ist nicht sehr nett...",
      "EUen": "{{fun_0003_0001 arg=\"0x0900\"}}Oooh, that's cold...",
      "EUes": "{{fun_0003_0001 arg=\"0x0900\"}}Pues vale. Gracias por nada.",
      "EUfr": "{{fun_0003_0001 arg=\"0x0900\"}}Méchant... !",
      "EUit": "{{fun_0003_0001 arg=\"0x0900\"}}Antipatico...",
      "EUnl": "{{fun_0003_0001 arg=\"0x0900\"}}Dat vind ik niet erg aardig van je.",
      "EUru": "{{fun_0003_0001 arg=\"0x0900\"}}Ты мне даже не поможешь...",
      "JPja": "{{fun_0003_0001 arg=\"0x0900\"}}…つれないのです",
      "KRko": "{{fun_0003_0001 arg=\"0x0900\"}}…매정하세요",
      "TWzh": "{{fun_0003_0001 arg=\"0x0900\"}}……真是無情。",
      "USen": "{{fun_0003_0001 arg=\"0x0900\"}}Oooh, that's cold...",
      "USes": "{{fun_0003_0001 arg=\"0x0900\"}}Esperaba más de ti. Gracias por nada.",
      "USfr": "{{fun_0003_0001 arg=\"0x0900\"}}Méchant...!"
    }
  },
  {
    "label": "Talk03",
    "attribute": "0x10010000",
    "locale": {
      "CNzh": "{{fun_0003_0001 arg=\"0x0900\"}}都和普莉珂约好\n要做{{color id=\"2\"}}速速蔬菜浓汤{{color id=\"65535\"}}了……\n竟然忘了准备{{color id=\"2\"}}速速胡萝卜{{color id=\"65535\"}}……{{delay3}}\n\n明明得连同母亲大人的份一起努力才行……{{delay1}}\n珂珂娜真是个没用的姐姐……{{delay3}}",
      "EUde": "{{fun_0003_0001 arg=\"0x0900\"}}Ich habe Priko versprochen, ihr {{color id=\"2\"}}Spurt-\n{{wordInfo gender=\"2\" defArticle=\"1\" indefArticle=\"1\" isPlural=\"0\"}}Gemüsecremesuppe{{color id=\"65535\"}} zu kochen und dann\nvergessen, {{color id=\"2\"}}{{wordInfo gender=\"2\" defArticle=\"1\" indefArticle=\"1\" isPlural=\"0\"}}Spurtkarotten{{color id=\"65535\"}} zu besorgen...{{pageBreak}}Ich muss mich doch um sie kümmern...",
      "EUen": "{{fun_0003_0001 arg=\"0x0900\"}}Koko promised to make Cottla some\n{{color id=\"2\"}}hasty veggie cream soup{{color id=\"65535\"}}... {{delay3}}But silly\nKoko forgot the {{color id=\"2\"}}swift carrots{{color id=\"65535\"}}!\nKoko is supposed to take Mother's place\nfor Cottla...{{delay3}} Koko is a bad big sister...",
      "EUes": "{{fun_0003_0001 arg=\"0x0900\"}}Le prometí a Rika que hoy cenaríamos\n{{color id=\"2\"}}sopa de verduras{{color id=\"65535\"}},{{delay3}} pero no me queda\nninguna {{color id=\"2\"}}{{wordInfo gender=\"2\" defArticle=\"1\" indefArticle=\"1\" isPlural=\"0\"}}zanahoria rauda{{color id=\"65535\"}}.\nSe supone que ahora tengo que ser\ncomo una madre para ella...{{delay1}}\nJo, todo lo hago mal.",
      "EUfr": "{{fun_0003_0001 arg=\"0x0900\"}}J'ai promis à Pricota de lui faire du\n{{color id=\"2\"}}velouté de légumes tempo{{color id=\"65535\"}}... Et voilà que\nj'oublie d'acheter de la {{color id=\"2\"}}{{wordInfo gender=\"2\" defArticle=\"1\" indefArticle=\"1\" isPlural=\"0\"}}carotte tempo{{color id=\"65535\"}}...{{delay3}}\nJ'essaye de faire de mon mieux pour\nremplacer maman...{{delay1}} Mais je suis vraiment\ntrop nulle comme grande sœur...{{delay3}}",
      "EUit": "{{fun_0003_0001 arg=\"0x0900\"}}Avevo promesso a Prisca di prepararle\nuna {{color id=\"2\"}}vellutata di verdure sprint{{color id=\"65535\"}}, ma mi\nsono dimenticata le {{color id=\"2\"}}carote sprint{{color id=\"65535\"}}...{{delay3}}\nOra che non c'è più la mamma, devo\nmandare io avanti la famiglia...{{delay1}}\ne invece sono una buona a nulla!{{delay3}}",
      "EUnl": "{{fun_0003_0001 arg=\"0x0900\"}}Ik heb Cottla beloofd dat ik vandaag\n{{color id=\"2\"}}groentecrèmesoep {{color id=\"65535\"}}zou maken, maar ik\nben de {{color id=\"2\"}}sprintwortel{{color id=\"65535\"}} vergeten.\nIk zou een soort moeder voor haar\nmoeten zijn,{{delay1}} maar ik ben maar een\nslechte grote zus...",
      "EUru": "{{fun_0003_0001 arg=\"0x0900\"}}Я обещала Коттле приготовить\n{{color id=\"2\"}}скорое лечо{{color id=\"65535\"}}, но совсем забыла\nпро {{color id=\"2\"}}прыть-морковь{{color id=\"65535\"}}.{{pageBreak}}Так стараюсь заменить Коттле\nмаму, а ничего не получается...",
      "JPja": "{{fun_0003_0001 arg=\"0x0900\"}}プリコに {{color id=\"2\"}}ゴーゴー{{ruby charSpan=\"2\" value=\"やさい\"}}野菜クリームスープ{{color id=\"65535\"}}{{ruby charSpan=\"1\" value=\"つく\"}}作るって\nお{{ruby charSpan=\"2\" value=\"やくそく\"}}約束したのに…\n{{color id=\"2\"}}ゴーゴーニンジン{{color id=\"65535\"}}を {{ruby charSpan=\"1\" value=\"わす\"}}忘れるなんて…{{delay3}}\n\n{{ruby charSpan=\"2\" value=\"かあさま\"}}母様の{{ruby charSpan=\"1\" value=\"ぶん\"}}分まで {{ruby charSpan=\"2\" value=\"がんば\"}}頑張らないとなのに…{{delay1}}\nココナは ダメな{{ruby charSpan=\"1\" value=\"あね\"}}姉なのです…{{delay3}}",
      "KRko": "{{fun_0003_0001 arg=\"0x0900\"}}푸리코에게 {{color id=\"2\"}}고고 야채 크림수프{{color id=\"65535\"}}를\n만들어 주겠다고 약속했는데…\n{{color id=\"2\"}}고고당근{{color id=\"65535\"}}을 깜빡하다니…{{delay3}}\n\n어머니 몫까지 대신해야 하는데…{{delay1}}\n코코나는 못난 언니예요…{{delay3}}",
      "TWzh": "{{fun_0003_0001 arg=\"0x0900\"}}都和普莉珂約好\n要做{{color id=\"2\"}}速速蔬菜濃湯{{color id=\"65535\"}}了……\n竟然忘了準備{{color id=\"2\"}}速速胡蘿蔔{{color id=\"65535\"}}……{{delay3}}\n\n明明得連同母親大人的份一起努力才行……{{delay1}}\n珂珂娜真是個沒用的姊姊……{{delay3}}",
      "USen": "{{fun_0003_0001 arg=\"0x0900\"}}Koko promised to make Cottla some\n{{color id=\"2\"}}hasty veggie cream soup{{color id=\"65535\"}}... {{delay3}}But silly\nKoko forgot the {{color id=\"2\"}}swift carrots{{color id=\"65535\"}}!\nKoko is supposed to take Mother's place\nfor Cottla...{{delay3}} Koko is a bad big sister...",
      "USes": "{{fun_0003_0001 arg=\"0x0900\"}}Le prometí a Vari que hoy cenaríamos\n{{color id=\"2\"}}sopa de verduras{{color id=\"65535\"}},{{delay3}} pero no me queda\nninguna {{color id=\"2\"}}{{wordInfo gender=\"2\" defArticle=\"1\" indefArticle=\"1\" isPlural=\"0\"}}zanahoria rauda{{color id=\"65535\"}}.\nSe supone que ahora tengo que ser\ncomo una madre para ella...{{delay1}}\nAy, todo lo hago mal.",
      "USfr": "{{fun_0003_0001 arg=\"0x0900\"}}J'ai promis à Pricota de lui faire du\n{{color id=\"2\"}}velouté de légumes tempo{{color id=\"65535\"}}... En plus, j'ai\noublié d'acheter de la {{color id=\"2\"}}{{wordInfo gender=\"2\" defArticle=\"1\" indefArticle=\"1\" isPlural=\"0\"}}carotte tempo{{color id=\"65535\"}}...{{delay3}}\nJ'essaye de faire de mon mieux pour\nremplacer maman...{{delay1}} Mais je suis vraiment\ntrop nulle comme grande sœur...{{delay3}}"
    }
  },
  {
    "label": "Talk04",
    "attribute": "0x30010000",
    "locale": {
      "CNzh": "{{fun_0003_0001 arg=\"0x0900\"}}都和普莉珂约好\n要做{{color id=\"2\"}}速速蔬菜浓汤{{color id=\"65535\"}}了……\n竟然没有{{color id=\"2\"}}速速胡萝卜{{color id=\"65535\"}}……{{delay3}}\n\n明明得连同母亲大人的份一起努力才行……\n珂珂娜真是个没用的姐姐……{{delay3}}",
      "EUde": "{{fun_0003_0001 arg=\"0x0900\"}}Ich habe Priko versprochen, ihr {{color id=\"2\"}}Spurt-\n{{wordInfo gender=\"2\" defArticle=\"1\" indefArticle=\"1\" isPlural=\"0\"}}Gemüsecremesuppe{{color id=\"65535\"}} zu kochen und dann\nvergessen, {{color id=\"2\"}}{{wordInfo gender=\"2\" defArticle=\"1\" indefArticle=\"1\" isPlural=\"0\"}}Spurtkarotten{{color id=\"65535\"}} zu besorgen...{{pageBreak}}Ich muss mich doch um sie kümmern...",
      "EUen": "{{fun_0003_0001 arg=\"0x0900\"}}Koko promised to make Cottla some\n{{color id=\"2\"}}hasty veggie cream soup{{color id=\"65535\"}}... But Koko\nhas no swift carrots!\nKoko is supposed to be like a mother\nfor Cottla...{{delay3}} Koko is a bad big sister...",
      "EUes": "{{fun_0003_0001 arg=\"0x0900\"}}Le prometí a Rika que hoy cenaríamos\n{{color id=\"2\"}}sopa de verduras{{color id=\"65535\"}},{{delay3}} pero no me queda\nninguna {{color id=\"2\"}}{{wordInfo gender=\"2\" defArticle=\"1\" indefArticle=\"1\" isPlural=\"0\"}}zanahoria rauda{{color id=\"65535\"}}.\nSe supone que ahora soy su mamá...{{delay1}}\nJo, todo lo hago mal...",
      "EUfr": "{{fun_0003_0001 arg=\"0x0900\"}}J'ai promis à Pricota de lui faire\ndu {{color id=\"2\"}}velouté de légumes tempo{{color id=\"65535\"}}...\n\nMais je peux même pas en faire si\nj'ai pas de {{color id=\"2\"}}{{wordInfo gender=\"2\" defArticle=\"1\" indefArticle=\"1\" isPlural=\"0\"}}carotte tempo{{color id=\"65535\"}}...{{delay3}}\n\nJ'essaye de faire de mon mieux pour\nremplacer maman... Mais je suis vraiment\ntrop nulle comme grande sœur...{{delay3}}",
      "EUit": "{{fun_0003_0001 arg=\"0x0900\"}}Avevo promesso a Prisca di prepararle\nuna {{color id=\"2\"}}vellutata di verdure sprint{{color id=\"65535\"}}, ma mi\nsono dimenticata la {{color id=\"2\"}}carota sprint{{color id=\"65535\"}}...{{delay3}}\nOra che non c'è più la mamma, devo\nmandare io avanti la famiglia...{{delay1}}\ne invece sono una buona a nulla!{{delay3}}",
      "EUnl": "{{fun_0003_0001 arg=\"0x0900\"}}Ik heb Cottla beloofd dat ik vandaag\n{{color id=\"2\"}}groentecrèmesoep {{color id=\"65535\"}}zou maken, maar ik\nheb geen {{color id=\"2\"}}sprintwortel{{color id=\"65535\"}} meer.\nIk zou een soort moeder voor haar\nmoeten zijn,{{delay1}} maar ik ben maar een\nslechte grote zus...",
      "EUru": "{{fun_0003_0001 arg=\"0x0900\"}}Я обещала Коттле приготовить\n{{color id=\"2\"}}скорое лечо{{color id=\"65535\"}}, но у меня кончилась\n{{color id=\"2\"}}прыть-морковь{{color id=\"65535\"}}.{{pageBreak}}Так стараюсь заменить Коттле\nмаму, а ничего не получается...",
      "JPja": "{{fun_0003_0001 arg=\"0x0900\"}}プリコに {{color id=\"2\"}}ゴーゴー{{ruby charSpan=\"2\" value=\"やさい\"}}野菜クリームスープ{{color id=\"65535\"}}{{ruby charSpan=\"1\" value=\"つく\"}}作るって\n{{ruby charSpan=\"2\" value=\"やくそく\"}}約束したのに…\n{{color id=\"2\"}}ゴーゴーニンジン{{color id=\"65535\"}}が ないなんて…{{delay3}}\n\n{{ruby charSpan=\"2\" value=\"かあさま\"}}母様の{{ruby charSpan=\"1\" value=\"ぶん\"}}分まで {{ruby charSpan=\"2\" value=\"がんば\"}}頑張らないとなのに…\nココナは ダメな{{ruby charSpan=\"1\" value=\"あね\"}}姉なのです…{{delay3}}",
      "KRko": "{{fun_0003_0001 arg=\"0x0900\"}}푸리코에게 {{color id=\"2\"}}고고 야채 크림수프{{color id=\"65535\"}}를\n만들어 주겠다고 약속했는데…\n{{color id=\"2\"}}고고당근{{color id=\"65535\"}}이 없다니…{{delay3}}\n\n어머니 몫까지 대신해야 하는데…\n코코나는 못난 언니예요…{{delay3}}",
      "TWzh": "{{fun_0003_0001 arg=\"0x0900\"}}都和普莉珂約好\n要做{{color id=\"2\"}}速速蔬菜濃湯{{color id=\"65535\"}}了……\n竟然沒有{{color id=\"2\"}}速速胡蘿蔔{{color id=\"65535\"}}……{{delay3}}\n\n明明得連同母親大人的份一起努力才行……\n珂珂娜真是個沒用的姊姊……{{delay3}}",
      "USen": "{{fun_0003_0001 arg=\"0x0900\"}}Koko promised to make Cottla some\n{{color id=\"2\"}}hasty veggie cream soup{{color id=\"65535\"}}... But Koko\nhas no swift carrots!\nKoko is supposed to be like a mother\nfor Cottla...{{delay3}} Koko is a bad big sister...",
      "USes": "{{fun_0003_0001 arg=\"0x0900\"}}Le prometí a Vari que hoy cenaríamos\n{{color id=\"2\"}}sopa de verduras{{color id=\"65535\"}},{{delay3}} pero no me queda\nninguna {{color id=\"2\"}}{{wordInfo gender=\"2\" defArticle=\"1\" indefArticle=\"1\" isPlural=\"0\"}}zanahoria rauda.{{color id=\"65535\"}}\nSe supone que ahora soy su mamá...{{delay1}}\nAy, todo lo hago mal...",
      "USfr": "{{fun_0003_0001 arg=\"0x0900\"}}J'ai promis à Pricota de lui faire\ndu {{color id=\"2\"}}velouté de légumes tempo{{color id=\"65535\"}}...\n\nMais je peux même pas en faire si\nj'ai pas de {{color id=\"2\"}}{{wordInfo gender=\"2\" defArticle=\"1\" indefArticle=\"1\" isPlural=\"0\"}}carotte tempo{{color id=\"65535\"}}...{{delay3}}\n\nJ'essaye de faire de mon mieux pour\nremplacer maman... Mais je suis vraiment\ntrop nulle comme grande sœur...{{delay3}}"
    }
  },
  {
    "label": "Talk04_2",
    "attribute": "0x50010000",
    "locale": {
      "CNzh": "{{fun_0003_0001 arg=\"0x0413\"}}咦？\n\n{{fun_0003_0001 arg=\"0x0700\"}}{{size value=\"125\"}}咦咦咦咦咦？{{delay3}}{{size value=\"100\"}}\n\n有{{color id=\"2\"}}速速胡萝卜{{color id=\"65535\"}}的香味……{{fun_0001_0004 arg=\"0x020003000001\"}}",
      "EUde": "{{fun_0003_0001 arg=\"0x0413\"}}Halt...{{pageBreak}}{{fun_0003_0001 arg=\"0x0700\"}}{{size value=\"125\"}}Was ist das?{{size value=\"100\"}}{{pageBreak}}Ich rieche {{color id=\"2\"}}{{wordInfo gender=\"2\" defArticle=\"1\" indefArticle=\"1\" isPlural=\"0\"}}Spurtkarotten{{color id=\"65535\"}}...{{fun_0001_0004 arg=\"0x020003000001\"}}",
      "EUen": "{{fun_0003_0001 arg=\"0x0413\"}}...Huh?\n\n\n{{fun_0003_0001 arg=\"0x0700\"}}{{size value=\"125\"}}HUH?!{{size value=\"100\"}}\n\n\nKoko smells {{color id=\"2\"}}swift carrots{{color id=\"65535\"}}...{{fun_0001_0004 arg=\"0x020003000001\"}}",
      "EUes": "{{fun_0003_0001 arg=\"0x0413\"}}Eh, oye...{{pageBreak}}{{size value=\"125\"}}¡Un momento!{{size value=\"100\"}}{{pageBreak}}{{fun_0003_0001 arg=\"0x0700\"}}¿Eso que llevas en la alforja no es\nuna {{color id=\"2\"}}{{wordInfo gender=\"2\" defArticle=\"1\" indefArticle=\"1\" isPlural=\"0\"}}zanahoria rauda{{color id=\"65535\"}}?{{fun_0001_0004 arg=\"0x020003000001\"}}",
      "EUfr": "{{fun_0003_0001 arg=\"0x0413\"}}Hein ?\n\n\n{{fun_0003_0001 arg=\"0x0700\"}}{{size value=\"125\"}}Hééé !{{delay3}}{{size value=\"100\"}}\n\n\nJe sens une odeur de {{color id=\"2\"}}{{wordInfo gender=\"2\" defArticle=\"1\" indefArticle=\"1\" isPlural=\"0\"}}carotte tempo{{color id=\"65535\"}}...{{fun_0001_0004 arg=\"0x020003000001\"}}",
      "EUit": "{{fun_0003_0001 arg=\"0x0413\"}}Eh?!\n\n\n{{fun_0003_0001 arg=\"0x0700\"}}{{size value=\"125\"}}Eeeh?!{{delay3}}{{size value=\"100\"}}\n\n\nSento odore di {{color id=\"2\"}}{{wordInfo gender=\"2\" defArticle=\"2\" indefArticle=\"2\" isPlural=\"0\"}}carota sprint{{color id=\"65535\"}}!{{fun_0001_0004 arg=\"0x020003000001\"}}",
      "EUnl": "{{fun_0003_0001 arg=\"0x0413\"}}Hm?{{pageBreak}}{{fun_0003_0001 arg=\"0x0700\"}}{{size value=\"125\"}}Huuuhhh?{{pageBreak}}{{size value=\"100\"}}Ik ruik {{color id=\"2\"}}sprintwortels{{color id=\"65535\"}}...{{fun_0001_0004 arg=\"0x020003000001\"}}",
      "EUru": "{{fun_0003_0001 arg=\"0x0413\"}}Ой!{{pageBreak}}{{fun_0003_0001 arg=\"0x0700\"}}{{size value=\"125\"}}Это же...{{size value=\"100\"}}{{pageBreak}}Пахнет {{color id=\"2\"}}прыть-морковью{{color id=\"65535\"}}!{{fun_0001_0004 arg=\"0x020003000001\"}}",
      "JPja": "{{fun_0003_0001 arg=\"0x0413\"}}あれ？\n\n{{fun_0003_0001 arg=\"0x0700\"}}{{size value=\"125\"}}あれれれれ？{{delay3}}{{size value=\"100\"}}\n\n{{color id=\"2\"}}ゴーゴーニンジン{{color id=\"65535\"}}さんの カオリがするのです…{{fun_0001_0004 arg=\"0x020003000001\"}}",
      "KRko": "{{fun_0003_0001 arg=\"0x0413\"}}어라?\n\n{{fun_0003_0001 arg=\"0x0700\"}}{{size value=\"125\"}}어라라라라?{{delay3}}{{size value=\"100\"}}\n\n{{color id=\"2\"}}고고당근{{color id=\"65535\"}}씨의 냄새가 나요…{{fun_0001_0004 arg=\"0x020003000001\"}}",
      "TWzh": "{{fun_0003_0001 arg=\"0x0413\"}}咦？\n\n{{fun_0003_0001 arg=\"0x0700\"}}{{size value=\"125\"}}咦咦咦咦咦？{{delay3}}{{size value=\"100\"}}\n\n有{{color id=\"2\"}}速速胡蘿蔔{{color id=\"65535\"}}的香味……{{fun_0001_0004 arg=\"0x020003000001\"}}",
      "USen": "{{fun_0003_0001 arg=\"0x0413\"}}...Huh?\n\n\n{{fun_0003_0001 arg=\"0x0700\"}}{{size value=\"125\"}}HUH?!{{size value=\"100\"}}\n\n\nKoko smells {{color id=\"2\"}}swift carrots{{color id=\"65535\"}}...{{fun_0001_0004 arg=\"0x020003000001\"}}",
      "USes": "{{fun_0003_0001 arg=\"0x0413\"}}Eh, oye...{{pageBreak}}{{size value=\"125\"}}¡Un momento!{{size value=\"100\"}}{{pageBreak}}{{fun_0003_0001 arg=\"0x0700\"}}¿Eso que llevas en la alforja no es\nuna {{color id=\"2\"}}{{wordInfo gender=\"2\" defArticle=\"1\" indefArticle=\"1\" isPlural=\"0\"}}zanahoria rauda{{color id=\"65535\"}}?{{fun_0001_0004 arg=\"0x020003000001\"}}",
      "USfr": "{{fun_0003_0001 arg=\"0x0413\"}}Hein?\n\n\n{{fun_0003_0001 arg=\"0x0700\"}}{{size value=\"125\"}}Hééé!{{delay3}}{{size value=\"100\"}}\n\n\nJe sens une odeur de {{color id=\"2\"}}{{wordInfo gender=\"2\" defArticle=\"1\" indefArticle=\"1\" isPlural=\"0\"}}carotte tempo{{color id=\"65535\"}}...{{fun_0001_0004 arg=\"0x020003000001\"}}"
    }
  },
  {
    "label": "0002",
    "attribute": "0x70010000",
    "locale": {
      "CNzh": "送给珂珂娜",
      "EUde": "Bitte sehr!",
      "EUen": "This is for you.",
      "EUes": "Claro, es para ti",
      "EUfr": "Tiens, c'est pour toi.",
      "EUit": "Tieni, io ce l'ho!",
      "EUnl": "Alsjeblieft, Koko!",
      "EUru": "Вот, возьми",
      "JPja": "ココナにあげる",
      "KRko": "코코나에게 준다",
      "TWzh": "送給珂珂娜",
      "USen": "This is for you.",
      "USes": "Claro, es para ti",
      "USfr": "Tiens, c'est pour toi."
    }
  },
  {
    "label": "0003",
    "attribute": "0x72010000",
    "locale": {
      "CNzh": "我想是你的错觉",
      "EUde": "Reine Einbildung...",
      "EUen": "You're nuts.",
      "EUes": "Qué va",
      "EUfr": "Tu dois rêver.",
      "EUit": "È un'allucinazione.",
      "EUnl": "Ik weet van niets.",
      "EUru": "Тебе показалось",
      "JPja": "{{ruby charSpan=\"1\" value=\"き\"}}気のせいだと{{ruby charSpan=\"1\" value=\"おも\"}}思う",
      "KRko": "기분 탓일 거야",
      "TWzh": "我想是妳的錯覺",
      "USen": "You're nuts.",
      "USes": "Son figuraciones",
      "USfr": "Tu dois rêver."
    }
  },
  {
    "label": "Talk05",
    "attribute": "0x74010000",
    "locale": {
      "CNzh": "{{fun_0003_0001 arg=\"0x0700\"}}{{size value=\"125\"}}是{{color id=\"2\"}}速速胡萝卜{{color id=\"65535\"}}！{{delay3}}{{size value=\"100\"}}\n\n非常谢谢！{{delay3}}\n非常谢谢！{{delay3}}\n这样一来就能给普莉珂做饭了！{{delay1}}\n立马下厨吧！",
      "EUde": "{{fun_0003_0001 arg=\"0x0700\"}}{{size value=\"125\"}}Eine {{color id=\"2\"}}{{wordInfo gender=\"2\" defArticle=\"1\" indefArticle=\"1\" isPlural=\"0\"}}Spurtkarotte{{color id=\"65535\"}}!{{pageBreak}}{{size value=\"100\"}}Danke!{{delay1}} Vielen, vielen Dank!{{delay1}}\nJetzt kann ich für Priko kochen!{{delay1}}\nAuf geht's!",
      "EUen": "{{fun_0003_0001 arg=\"0x0700\"}}{{size value=\"125\"}}Is that...{{delay3}}a {{color id=\"2\"}}swift carrot{{color id=\"65535\"}}?!{{size value=\"100\"}}\n\n\nThank you so much!{{delay3}} So very much!\nNow Koko can make dinner for Cottla...{{delay1}}\nYeah! Time to get cookin'!",
      "EUes": "{{fun_0003_0001 arg=\"0x0700\"}}{{size value=\"125\"}}¡Una {{color id=\"2\"}}{{wordInfo gender=\"2\" defArticle=\"1\" indefArticle=\"1\" isPlural=\"0\"}}zanahoria rauda{{color id=\"65535\"}}!{{delay3}} ¡Vivaaaa!{{size value=\"100\"}}{{pageBreak}}¡Muchas muchas gracias!{{delay3}}\nAhora ya puedo cocinar la cena\nde mi hermanita.",
      "EUfr": "{{fun_0003_0001 arg=\"0x0700\"}}{{size value=\"125\"}}C'est une {{color id=\"2\"}}{{wordInfo gender=\"2\" defArticle=\"1\" indefArticle=\"1\" isPlural=\"0\"}}carotte tempo{{color id=\"65535\"}} !{{delay3}}{{size value=\"100\"}}\n\n\nMerci ! Merci ! Merci !{{delay3}} Trop, trop,\ntrop merciii !{{delay3}}\n\nJe vais pouvoir faire à manger pour\nPricota !{{delay1}} Allez, c'est parti !",
      "EUit": "{{fun_0003_0001 arg=\"0x0700\"}}{{size value=\"125\"}}Una {{color id=\"2\"}}{{wordInfo gender=\"2\" defArticle=\"2\" indefArticle=\"2\" isPlural=\"0\"}}carota sprint{{color id=\"65535\"}}!{{delay3}}{{size value=\"100\"}}\n\n\nGrazie mille!{{delay3}}\nMille milioni!{{delay3}}\n\nAdesso posso preparare da mangiare\nper Prisca!{{delay1}}\nAi fornelli!!!",
      "EUnl": "{{fun_0003_0001 arg=\"0x0700\"}}{{size value=\"125\"}}Een {{color id=\"2\"}}Sprintwortel{{color id=\"65535\"}}!{{pageBreak}}{{size value=\"100\"}}Dankjewel! Heel, heel erg bedankt! Ik\nkan eten maken voor Cottla! Aan de slag!",
      "EUru": "{{fun_0003_0001 arg=\"0x0700\"}}{{size value=\"125\"}}{{color id=\"2\"}}Прыть-морковка{{color id=\"65535\"}}!{{size value=\"100\"}}{{pageBreak}}Спасибо большое!{{delay1}}\nБольшое-пребольшое!{{pageBreak}}Теперь я могу приготовить\nКоттле то, что обещала!",
      "JPja": "{{fun_0003_0001 arg=\"0x0700\"}}{{size value=\"125\"}}{{color id=\"2\"}}ゴーゴーニンジン {{color id=\"65535\"}}なのです！{{delay3}}{{size value=\"100\"}}\n\nありがとうなのです！{{delay3}}\nありがとうなのです！{{delay3}}\nこれで プリコにごはんが {{ruby charSpan=\"1\" value=\"つく\"}}作れるです！{{delay1}}\nさっそく クッキングなのです！",
      "KRko": "{{fun_0003_0001 arg=\"0x0700\"}}{{size value=\"125\"}}{{color id=\"2\"}}고고당근{{color id=\"65535\"}}이에요!{{delay3}}{{size value=\"100\"}}\n\n고맙습니다!{{delay3}}\n고맙습니다!{{delay3}}\n이제 푸리코에게 밥을 만들어 줄 수 있어요!{{delay1}}\n얼른 요리해야겠어요!",
      "TWzh": "{{fun_0003_0001 arg=\"0x0700\"}}是{{size value=\"125\"}}{{color id=\"2\"}}速速胡蘿蔔{{color id=\"65535\"}}！{{delay3}}{{size value=\"100\"}}\n\n非常謝謝！{{delay3}}\n非常謝謝！{{delay3}}\n這麼一來就能替普莉珂做飯了！{{delay1}}\n立刻來下廚吧！",
      "USen": "{{fun_0003_0001 arg=\"0x0700\"}}{{size value=\"125\"}}Is that...{{delay3}}a {{color id=\"2\"}}swift carrot{{color id=\"65535\"}}?!{{size value=\"100\"}}\n\n\nThank you so much!{{delay3}} So very much!\nNow Koko can make dinner for Cottla...{{delay1}}\nYeah! Time to get cookin'!",
      "USes": "{{fun_0003_0001 arg=\"0x0700\"}}{{size value=\"125\"}}¡Una {{color id=\"2\"}}{{wordInfo gender=\"2\" defArticle=\"1\" indefArticle=\"1\" isPlural=\"0\"}}zanahoria rauda{{color id=\"65535\"}}!{{delay3}} ¡Vivaaaa!{{size value=\"100\"}}{{pageBreak}}¡Muchas muchas gracias!{{delay3}}\nAhora ya puedo cocinar la cena\nde mi hermanita.",
      "USfr": "{{fun_0003_0001 arg=\"0x0700\"}}{{size value=\"125\"}}C'est une {{color id=\"2\"}}{{wordInfo gender=\"2\" defArticle=\"1\" indefArticle=\"1\" isPlural=\"0\"}}carotte tempo{{color id=\"65535\"}}!{{delay3}}{{size value=\"100\"}}\n\n\nMerci! Merci! Merci!{{delay3}} Trop, trop,\ntrop merciii!{{delay3}}\n\nJe vais pouvoir faire à manger pour\nPricota!{{delay1}} Allez, c'est parti!"
    }
  },
  {
    "label": "Talk12",
    "attribute": "0x94010000",
    "locale": {
      "CNzh": "{{fun_0003_0001 arg=\"0x0700\"}}料理很成功！{{delay3}}\n\n不嫌弃的话，请收下这个！\n\n这一份是给大哥哥的！",
      "EUde": "{{fun_0003_0001 arg=\"0x0700\"}}Ich muss sagen, das ist mir wirklich gut\ngelungen!{{delay3}} Hier, bitte! {{delay1}}Dein Anteil!",
      "EUen": "{{fun_0003_0001 arg=\"0x0700\"}}Ooooh, it came out perfect!{{delay3}}\n\n\nHere, please have some!\nKoko's treat!",
      "EUes": "{{fun_0003_0001 arg=\"0x0700\"}}Ji, ji, ¡ha quedado bastante rica!{{delay3}}\nEste plato es para ti.",
      "EUfr": "{{fun_0003_0001 arg=\"0x0700\"}}Et voilà, j'ai fini ! Ça a l'air réussi !{{delay3}}\n\n\nTiens, c'est pour toi ! C'est mon cadeau !",
      "EUit": "{{fun_0003_0001 arg=\"0x0700\"}}È venuta benissimo!{{delay3}}\n\n\nCe n'è anche per te, se ti va!\n\n\nFacciamo a metà!",
      "EUnl": "{{fun_0003_0001 arg=\"0x0700\"}}O, het is perfect! Hier, neem ook een\nportie!",
      "EUru": "{{fun_0003_0001 arg=\"0x0700\"}}Ой как хорошо получилось!{{pageBreak}}Возьми, пожалуйста!{{delay1}} Угощаю!",
      "JPja": "{{fun_0003_0001 arg=\"0x0700\"}}{{ruby charSpan=\"2\" value=\"じょうず\"}}上手に できたのです！{{delay3}}\n\nよかったら\nコレ どうぞなのです！\nおすそ{{ruby charSpan=\"1\" value=\"わ\"}}分けなのです！",
      "KRko": "{{fun_0003_0001 arg=\"0x0700\"}}잘 만들어졌어요!{{delay3}}\n\n괜찮으시면\n이거 받으세요!\n나누어 드릴게요!",
      "TWzh": "{{fun_0003_0001 arg=\"0x0700\"}}料理很成功！{{delay3}}\n\n不嫌棄的話，\n請收下這個！\n這一份是分給大哥哥的！",
      "USen": "{{fun_0003_0001 arg=\"0x0700\"}}Ooooh, it came out perfect!{{delay3}}\n\n\nHere, please have some!\nKoko's treat!",
      "USes": "{{fun_0003_0001 arg=\"0x0700\"}}Ji, ji, ¡quedó bastante rica!{{delay3}}\nEste plato es para ti.",
      "USfr": "{{fun_0003_0001 arg=\"0x0700\"}}Et voilà, j'ai fini! Ça a l'air réussi!{{delay3}}\n\n\nTiens, c'est pour toi! C'est mon cadeau!"
    }
  },
  {
    "label": "Talk13",
    "attribute": "0xB4010000",
    "locale": {
      "CNzh": "{{color id=\"2\"}}{{fun_0003_0001 arg=\"0x0700\"}}{{color id=\"65535\"}}珂珂娜要做出各种料理，\n成为和母亲大人一样的烹饪高手！",
      "EUde": "{{fun_0003_0001 arg=\"0x0700\"}}Ich werde weiterkochen, bis ich eine\nso gute Köchin wie Mutter bin!",
      "EUen": "{{color id=\"2\"}}{{fun_0003_0001 arg=\"0x0700\"}}{{color id=\"65535\"}}Koko wants to try cooking different\nthings so Koko can be a great chef,\njust like Mother!",
      "EUes": "{{fun_0003_0001 arg=\"0x0700\"}}Quiero aprender a cocinar muuuuchos\nplatos y ser tan buena cocinera como\nmi mamá.",
      "EUfr": "{{fun_0003_0001 arg=\"0x0700\"}}À force de faire plein de bons plats,\nje vais être forte en cuisine comme\nma maman !",
      "EUit": "{{color id=\"2\"}}{{fun_0003_0001 arg=\"0x0700\"}}{{color id=\"65535\"}}Voglio imparare a cucinare bene come\nla mia mamma!",
      "EUnl": "{{fun_0003_0001 arg=\"0x0700\"}}Ik wil van alles proberen te koken en net\nzo goed worden als mijn moeder!",
      "EUru": "{{fun_0003_0001 arg=\"0x0700\"}}Мама очень вкусно готовила!{{delay1}}\nЯ тоже когда-нибудь так научусь!",
      "JPja": "{{color id=\"2\"}}{{fun_0003_0001 arg=\"0x0700\"}}{{color id=\"65535\"}}{{ruby charSpan=\"2\" value=\"いろいろ\"}}色々お{{ruby charSpan=\"2\" value=\"りょうり\"}}料理を{{ruby charSpan=\"1\" value=\"つく\"}}作って\n{{ruby charSpan=\"2\" value=\"かあさま\"}}母様みたいな お{{ruby charSpan=\"2\" value=\"りょうり\"}}料理{{ruby charSpan=\"2\" value=\"じょうず\"}}上手さんになるのです！",
      "KRko": "{{color id=\"2\"}}{{fun_0003_0001 arg=\"0x0700\"}}{{color id=\"65535\"}}여러 요리를 만들어\n어머니처럼 요리에 능숙해질 거예요!",
      "TWzh": "{{color id=\"2\"}}{{fun_0003_0001 arg=\"0x0700\"}}{{color id=\"65535\"}}珂珂娜要做出各種料理，\n跟母親大人一樣成為烹飪高手！",
      "USen": "{{color id=\"2\"}}{{fun_0003_0001 arg=\"0x0700\"}}{{color id=\"65535\"}}Koko wants to try cooking different\nthings so Koko can be a great chef,\njust like Mother!",
      "USes": "{{fun_0003_0001 arg=\"0x0700\"}}Quiero aprender a cocinar muuuchos\nplatos y ser tan buena cocinera como\nmi mamá.",
      "USfr": "{{fun_0003_0001 arg=\"0x0700\"}}À force de faire plein de bons plats,\nje vais être forte en cuisine comme\nma maman!"
    }
  },
  {
    "label": "Near00",
    "attribute": "0xD4010000",
    "locale": {
      "CNzh": "嗯～",
      "EUde": "Aha...",
      "EUen": "Hrmmm...",
      "EUes": "Hum...",
      "EUfr": "Hmm...",
      "EUit": "Uhm...",
      "EUnl": "Hrmmm...",
      "EUru": "Хм...",
      "JPja": "う～ん…",
      "KRko": "으~음…",
      "TWzh": "嗯～",
      "USen": "Hrmmm...",
      "USes": "Hum...",
      "USfr": "Hmm..."
    }
  }
]