[
  {
    "label": "Talk01",
    "attribute": "0x54000000",
    "locale": {
      "CNzh": "…{{delay1}}…{{delay3}}\n\n{{fun_0003_0001 arg=\"0x0800\"}}等、{{delay1}}等等，你谁啊！\n这么晚还跑进女生的闺房……{{delay3}}\n{{fun_0003_0001 arg=\"0x0000\"}}…{{delay1}}…{{delay1}}哎呀？{{delay3}}\n\n{{fun_0003_0001 arg=\"0x0A00\"}}那不是{{color id=\"2\"}}希卡之石{{color id=\"65535\"}}吗？{{delay3}}\n\n难不成你就是奶奶口中……{{delay2}}\n大灾厄时的……{{delay2}}剑士大人？\n{{fun_0003_0001 arg=\"0x0000\"}}这样啊～{{delay3}}\n我还以为肯定是个老头子呢……{{delay2}}\n不过对我们这些年轻人来说，\n根本无法想象大灾厄那时有多惨烈……{{delay3}}\n{{fun_0003_0001 arg=\"0x0406\"}}……看你一愣一愣的，\n该不会连你也想象不到吧？",
      "EUde": "...{{delay1}} ...{{delay3}}{{pageBreak}}{{fun_0003_0001 arg=\"0x0800\"}}Du schleichst dich einfach so in das\nZimmer eines Mädchens?{{delay1}} Um diese\nZeit? {{delay1}}Das ist ja wohl...\n{{fun_0003_0001 arg=\"0x0000\"}}...{{delay1}} ...{{delay1}}Nanu?{{pageBreak}}{{fun_0003_0001 arg=\"0x0A00\"}}Ist das etwa ein {{color id=\"2\"}}Shiekah-Stein{{color id=\"65535\"}}?{{delay3}}\nDann...{{pageBreak}}Dann musst du ja der Ritter sein, der\ngegen die Große Verheerung gekämpft\nhat! {{delay2}}Großmutter hat davon erzählt.\n{{fun_0003_0001 arg=\"0x0000\"}}Lass dich mal ansehen...{{delay3}} Ich hätte jetzt\neinen superalten Typen erwartet!{{pageBreak}}Verheerung hier, Verheerung da...{{delay1}}\nFür die Alten gibt's kein spannenderes\nThema...{{pageBreak}}So richtig verstehe ich ja nicht, was\ndamals alles abgelaufen ist.{{pageBreak}}{{fun_0003_0001 arg=\"0x0406\"}}Und so verwirrt, wie du aus der Wäsche\nschaust, scheinst du auch nicht viel\ndamit anfangen zu können!",
      "EUen": "...{{delay3}}\n\n\n{{fun_0003_0001 arg=\"0x0800\"}}Hey! {{delay1}}Who do you think you are?!{{delay3}}\nDon't you think it's rude to barge\ninto a lady's room at night?\n{{fun_0003_0001 arg=\"0x0000\"}}...{{delay3}}Huh?\n\n\n{{fun_0003_0001 arg=\"0x0A00\"}}Isn't that {{delay3}}a {{color id=\"2\"}}Sheikah Slate{{color id=\"65535\"}}?\n\n\nCould it be {{delay2}}that you're the legendary\nswordsman grandma told me about?\n{{delay2}}The one from the Great Calamity?!\n{{fun_0003_0001 arg=\"0x0000\"}}Huh.{{delay3}} I thought you'd be A LOT older.\n{{delay2}}Honestly, it's hard for someone as young\nas me to imagine the Great Calamity...\n{{fun_0003_0001 arg=\"0x0406\"}}But...judging by the look on your face,\nI suppose it's hard for you to imagine\nit too?",
      "EUes": "{{fun_0003_0001 arg=\"0x0800\"}}¡Pero bueno! ¿No sabes que es muy\ndescortés entrar en la habitación de\nuna chica sin invitación?{{delay3}}\n{{fun_0003_0001 arg=\"0x0000\"}}Un momento...{{pageBreak}}{{fun_0003_0001 arg=\"0x0A00\"}}¿Eso no es una {{color id=\"2\"}}{{wordInfo gender=\"2\" defArticle=\"1\" indefArticle=\"1\" isPlural=\"0\"}}piedra sheikah{{color id=\"65535\"}}?{{delay3}}\n¿Acaso eres el espadachín legendario\ndel que tanto me ha hablado la abuela?\n{{fun_0003_0001 arg=\"0x0000\"}}Vaya...{{delay3}} Siempre pensé que serías un\nseñor mayor arrugado como una pasa,{{delay2}}\n¡pero eres más joven que yo!{{pageBreak}}A los que no vivimos el cataclismo,\nnos cuesta imaginarnos cómo fue\nesa época.\n{{fun_0003_0001 arg=\"0x0406\"}}Por la cara que pones, veo que\nestás tan perdido como yo.",
      "EUfr": ".{{delay1}}.{{delay1}}.{{delay3}}\n\n\n{{fun_0003_0001 arg=\"0x0800\"}}DIS DONC, TOI ! Tu n'as pas honte\nd'entrer dans la chambre d'une dame\nà une heure pareille ?{{delay3}}\n{{fun_0003_0001 arg=\"0x0000\"}}Oh, mais...{{delay3}}\n\n\n{{fun_0003_0001 arg=\"0x0A00\"}}C'est la {{color id=\"2\"}}tablette sheikah {{color id=\"65535\"}}que tu as là ?{{delay3}}\n\n\nSerais-tu le héros dont Grand-mère m'a\nparlé ? Le chevalier légendaire{{delay2}} du Grand\nFléau,{{delay2}} ou quelque chose comme ça ?\n{{fun_0003_0001 arg=\"0x0000\"}}Eh ben ça alors !{{delay3}} C'est drôle, je me\nserais attendue à ce que tu sois plus\nvieux que ça, en fait...{{delay2}}\nNous, les jeunes, on comprend pas\nvraiment ce que les anciens racontent\nquand ils parlent du « Grand Fléau »...{{delay3}}\n{{fun_0003_0001 arg=\"0x0406\"}}Mais à voir ta tête, j'ai pas l'impression\nque tu sois plus au courant que moi !",
      "EUit": "...{{delay1}} ...{{delay3}}\n\n\n{{fun_0003_0001 arg=\"0x0800\"}}Ehi!{{delay1}} Ma ti sembra il caso di importunare\nuna ragazza in camera sua a quest'ora?!{{delay3}}\n\n{{fun_0003_0001 arg=\"0x0000\"}}...{{delay1}} ... Eh?{{delay3}}\n\n\n{{fun_0003_0001 arg=\"0x0A00\"}}Ma quella è la {{color id=\"2\"}}tavoletta Sheikah{{color id=\"65535\"}}?!{{delay3}}\n\n\nAllora sei tu l'eroe {{delay2}}della grande calamità{{delay2}}\ndi cui parla sempre mia nonna?!\n\n{{fun_0003_0001 arg=\"0x0000\"}}Assurdo!{{delay3}} Mi sono sempre immaginata\nun vecchietto...{{delay2}}\n\nSai, per noi giovani tutta questa storia\ndella grande calamità non è facile\nda capire...{{delay3}}\n{{fun_0003_0001 arg=\"0x0406\"}}E a giudicare dalla faccia che hai,\nanche tu mi sembri un po' confuso...",
      "EUnl": "...{{delay1}} ...{{delay1}} ...{{pageBreak}}{{fun_0003_0001 arg=\"0x0800\"}}Hé! {{delay1}}Wat onbeleefd om een dame op dit\ntijdstip lastig te vallen!{{delay3}}{{pageBreak}}{{fun_0003_0001 arg=\"0x0000\"}}Huh?{{pageBreak}}{{fun_0003_0001 arg=\"0x0A00\"}}Dat is toch de {{color id=\"2\"}}Sheikah-steen{{color id=\"65535\"}}?{{pageBreak}}Ben jij de legendarische zwaardvechter\nwaar oma me over heeft verteld?{{pageBreak}}{{fun_0003_0001 arg=\"0x0000\"}}Wauw!{{delay3}} Ik dacht altijd dat je een oude\nkerel zou zijn...{{pageBreak}}Jongelui zoals wij snappen nooit wat ze\nbedoelen met 'grote ramp'...{{pageBreak}}{{fun_0003_0001 arg=\"0x0406\"}}En ik zie aan je gezicht dat jij ook geen\nidee hebt.",
      "EUru": "...{{pageBreak}}{{fun_0003_0001 arg=\"0x0800\"}}Эй, ты что!{{delay1}} Нельзя же врываться\nв такой час к порядочной девушке!{{pageBreak}}{{fun_0003_0001 arg=\"0x0000\"}}...{{pageBreak}}Погоди-ка!{{pageBreak}}{{fun_0003_0001 arg=\"0x0A00\"}}Это у тебя что, {{color id=\"2\"}}Камень шиика{{color id=\"65535\"}}?!{{pageBreak}}Неужели ты тот самый герой времен\nВеликого Бедствия?!{{delay1}} Мне бабушка\nпро тебя рассказывала!{{pageBreak}}{{fun_0003_0001 arg=\"0x0000\"}}Хм, а ты хорошо сохранился.{{delay1}} Знаешь,\nя с трудом представляю себе Великое\nБедствие.{{pageBreak}}{{fun_0003_0001 arg=\"0x0406\"}}Хотя, судя по твоему лицу, ты тоже\nего себе с трудом представляешь!",
      "JPja": "…{{delay1}}…{{delay3}}\n\n{{fun_0003_0001 arg=\"0x0800\"}}ちょっ…{{delay1}} ちょっと アンタ{{ruby charSpan=\"1\" value=\"だれ\"}}誰よ！\nこんな{{ruby charSpan=\"2\" value=\"じかん\"}}時間にレディーの{{ruby charSpan=\"2\" value=\"へや\"}}部屋に{{ruby charSpan=\"1\" value=\"く\"}}来るなんて…{{delay3}}\n{{fun_0003_0001 arg=\"0x0000\"}}…{{delay1}}…{{delay1}}あれ？{{delay3}}\n\n{{fun_0003_0001 arg=\"0x0A00\"}}それって{{color id=\"2\"}}シーカーストーン{{color id=\"65535\"}}じゃない？{{delay3}}\n\nまさかアナタがおばあちゃんが{{ruby charSpan=\"1\" value=\"い\"}}言ってた{{delay2}}\n{{ruby charSpan=\"3\" value=\"だいやくさい\"}}大厄災の…{{delay2}} あの{{ruby charSpan=\"3\" value=\"けんしさま\"}}剣士様ってこと？\n{{fun_0003_0001 arg=\"0x0000\"}}へぇ～{{delay3}}\nもっとおじいちゃんかと{{ruby charSpan=\"1\" value=\"おも\"}}思ってた…{{delay2}}\nまぁ {{ruby charSpan=\"2\" value=\"わたしたち\"}}私達みたいな{{ruby charSpan=\"2\" value=\"わかもの\"}}若者にとっては\n{{ruby charSpan=\"3\" value=\"だいやくさい\"}}大厄災って{{ruby charSpan=\"1\" value=\"い\"}}言われてもピンとこないんだけど…{{delay3}}\n{{fun_0003_0001 arg=\"0x0406\"}}…って そのぽかんとした{{ruby charSpan=\"1\" value=\"かお\"}}顔\nもしかしてアナタもピンときてないの？",
      "KRko": "…{{delay1}}…{{delay3}}\n\n{{fun_0003_0001 arg=\"0x0800\"}}잠…{{delay1}} 잠깐, 당신 누구야!\n이런 시간에 숙녀의 방을 찾아오다니…{{delay3}}\n{{fun_0003_0001 arg=\"0x0000\"}}…{{delay1}}…{{delay1}}어라?{{delay3}}\n\n{{fun_0003_0001 arg=\"0x0A00\"}}그거 {{color id=\"2\"}}시커 스톤 {{color id=\"65535\"}}아니야?{{delay3}}\n\n설마 당신이 할머니께서 말씀하시던{{delay2}}\n대재앙의…{{delay2}} 그 검사님?\n{{fun_0003_0001 arg=\"0x0000\"}}헤에~{{delay3}}\n좀 더 아저씨일 거라 생각했는데…{{delay2}}\n뭐어, 우리 같은 젊은 사람들한텐\n대재앙이라 해도 감이 잘 안 오지만…{{delay3}}\n{{fun_0003_0001 arg=\"0x0406\"}}…뭐야, 그 멍한 얼굴은\n설마 당신도 감이 안 오는 거야?",
      "TWzh": "…{{delay1}}…{{delay3}}\n\n{{fun_0003_0001 arg=\"0x0800\"}}等、{{delay1}}等等，你誰啊！\n這麼晚還跑進女生的閨房……{{delay3}}\n{{fun_0003_0001 arg=\"0x0000\"}}…{{delay1}}…{{delay1}}哎呀？{{delay3}}\n\n{{fun_0003_0001 arg=\"0x0A00\"}}那不是{{color id=\"2\"}}希卡之石{{color id=\"65535\"}}嗎？{{delay3}}\n\n難不成你就是奶奶口中……{{delay2}}\n大災厄那時的……{{delay2}}劍士大人？\n{{fun_0003_0001 arg=\"0x0000\"}}這樣啊～{{delay3}}\n我還以為肯定是個老頭子呢……{{delay2}}\n不過對我們這些年輕人來說，\n根本無法想像大災厄那時有多慘烈……{{delay3}}\n{{fun_0003_0001 arg=\"0x0406\"}}……看你一楞一楞的，\n該不會連你也想像不到吧？",
      "USen": "...{{delay3}}\n\n\n{{fun_0003_0001 arg=\"0x0800\"}}Hey! {{delay1}}Who do you think you are?!{{delay3}}\nDon't you think it's rude to barge\ninto a lady's room at night?\n{{fun_0003_0001 arg=\"0x0000\"}}...{{delay3}}Huh?\n\n\n{{fun_0003_0001 arg=\"0x0A00\"}}Isn't that {{delay3}}a {{color id=\"2\"}}Sheikah Slate{{color id=\"65535\"}}?\n\n\nCould it be {{delay2}}that you're the legendary\nswordsman grandma told me about?\n{{delay2}}The one from the Great Calamity?!\n{{fun_0003_0001 arg=\"0x0000\"}}Huh.{{delay3}} I thought you'd be A LOT older.\n{{delay2}}Honestly, it's hard for someone as young\nas me to imagine the Great Calamity...\n{{fun_0003_0001 arg=\"0x0406\"}}But...judging by the look on your face,\nI suppose it's hard for you to imagine\nit too?",
      "USes": "{{fun_0003_0001 arg=\"0x0800\"}}¡Oye! ¿No sabes que es de mala\neducación entrar así en la\nhabitación de una chica?{{delay3}}\n{{fun_0003_0001 arg=\"0x0000\"}}Un segundo...{{delay3}}{{pageBreak}}{{fun_0003_0001 arg=\"0x0A00\"}}¿Eso no es una {{color id=\"2\"}}{{wordInfo gender=\"2\" defArticle=\"1\" indefArticle=\"1\" isPlural=\"0\"}}tableta sheikah{{color id=\"65535\"}}?{{delay3}}\nEntonces... El héroe del que me\nhablaba la abuela... ¿Eres tú?\n{{fun_0003_0001 arg=\"0x0000\"}}¡Qué emoción!{{delay3}}\nSiempre me lo imaginé como un señor\nmayor.{{delay2}} En fin, yo soy Lasli; ¡encantada!{{delay3}}{{pageBreak}}{{fun_0003_0001 arg=\"0x0000\"}}La gente joven, como tú o como yo,\nsolo ha oído hablar del cataclismo\nen cuentos.\n{{fun_0003_0001 arg=\"0x0406\"}}Aunque, por la cara que pones, creería\nque jamás has oído nada sobre el tema.",
      "USfr": ".{{delay1}}.{{delay1}}.{{delay3}}\n\n\n{{fun_0003_0001 arg=\"0x0800\"}}DIS DONC, TOI! Tu n'as pas honte\nd'entrer dans la chambre d'une dame\nà une heure pareille?{{delay3}}\n{{fun_0003_0001 arg=\"0x0000\"}}Oh, mais...{{delay3}}\n\n\n{{fun_0003_0001 arg=\"0x0A00\"}}C'est la {{color id=\"2\"}}tablette Sheikah {{color id=\"65535\"}}que tu as là?{{delay3}}\n\n\nSerais-tu le héros dont Grand-mère m'a\nparlé? Le chevalier légendaire{{delay2}} du Grand\nFléau,{{delay2}} ou quelque chose comme ça?\n{{fun_0003_0001 arg=\"0x0000\"}}Eh ben, ça alors!{{delay3}} C'est drôle, je me\nserais attendue à ce que tu sois plus\nvieux que ça, en fait...{{delay2}}\nNous, les jeunes, on comprend pas\nvraiment ce que les anciens racontent\nquand ils parlent du « Grand Fléau »...{{delay3}}\n{{fun_0003_0001 arg=\"0x0406\"}}Mais à voir ta tête, j'ai pas l'impression\nque tu es plus au courant que moi!"
    }
  },
  {
    "label": "Talk26",
    "attribute": "0x74000000",
    "locale": {
      "CNzh": "{{fun_0003_0001 arg=\"0x0A00\"}}{{size value=\"80\"}}……骗、骗人的吧……？{{delay3}}{{size value=\"100\"}}\n\n{{fun_0003_0001 arg=\"0x0000\"}}不过……{{delay3}}\n世上本来就充满令人想象不到的事……{{delay3}}\n我叫拉兹莉。\n跟姐姐珂拉丽一起在村里经营传统服饰店。\n方便的话，来店里看看吧。",
      "EUde": "{{fun_0003_0001 arg=\"0x0A00\"}}{{size value=\"80\"}}Wie kann denn das sein!?{{delay3}}{{pageBreak}}{{size value=\"100\"}}{{fun_0003_0001 arg=\"0x0000\"}}Aber gut...{{delay1}} Die Welt ist voll von Dingen,\ndie irgendwie ungreifbar sind...{{delay3}}{{pageBreak}}Ich heiße Himba!{{delay1}} Zusammen mit meiner\nSchwester Clari habe ich im Dorf eine\nBoutique.{{pageBreak}}Schau doch mal vorbei, wenn du Lust\nhast!",
      "EUen": "{{fun_0003_0001 arg=\"0x0A00\"}}...{{size value=\"80\"}}Seriously?{{delay3}}{{size value=\"100\"}}\n\n\n{{fun_0003_0001 arg=\"0x0000\"}}Well...{{delay3}}I suppose there are a lot of\ncrazy things in this world that are\nhard to grasp.\nOh, my name's Lasli. I run a clothing\nshop in the village with my older sister,\nClaree. You should stop by sometime.",
      "EUes": "{{fun_0003_0001 arg=\"0x0A00\"}}{{size value=\"80\"}}Aunque tú no tienes excusa...{{size value=\"100\"}}{{pageBreak}}{{fun_0003_0001 arg=\"0x0000\"}}En fin, supongo que hay muchas cosas\nen este mundo que son difíciles de\nimaginar.{{delay3}}\nMe llamo Lasli, por cierto. Regento\nuna sastrería junto a mi hermana\nDania. Podrías pasarte alguna vez.",
      "EUfr": "{{fun_0003_0001 arg=\"0x0A00\"}}{{size value=\"80\"}}Un peu à la ramasse, le héros...{{delay3}}\n\n\n{{fun_0003_0001 arg=\"0x0000\"}}{{size value=\"100\"}}Après tout,{{delay3}} c'est vrai qu'il n'est pas\ntoujours facile de s'y retrouver dans\ntoutes ces vieilles histoires !{{delay3}}\nAu fait, je m'appelle Amboise ! Ma sœur\nCanni et moi tenons la boutique de\nvêtements du village.\nTu devrais aller y faire un tour, un de\nces jours !",
      "EUit": "{{fun_0003_0001 arg=\"0x0A00\"}}... {{size value=\"80\"}}andiamo bene!{{delay3}}{{size value=\"100\"}}\n\n\n{{fun_0003_0001 arg=\"0x0000\"}}Beh,{{delay3}} il mondo è tutto una gran\nconfusione, dopotutto...{{delay3}}\n\nComunque io sono Lasli e insieme a mia\nsorella Clari gestisco una boutique qui\nal villaggio.\nVieni a trovarci quando hai tempo.",
      "EUnl": "{{fun_0003_0001 arg=\"0x0A00\"}}{{size value=\"80\"}}Hoe kan dat nou?{{pageBreak}}{{size value=\"100\"}}{{fun_0003_0001 arg=\"0x0000\"}}Nou ja...{{delay3}} Er zijn wel meer rare dingen die\nmoeilijk voor te stellen zijn...{{pageBreak}}Ik ben Lasli en ik beheer samen met\nmijn oudere zus Claree de kledingwinkel.\nWaarom kom je niet eens langs?",
      "EUru": "{{fun_0003_0001 arg=\"0x0A00\"}}{{size value=\"80\"}}Правда?{{size value=\"100\"}}{{pageBreak}}{{fun_0003_0001 arg=\"0x0000\"}}Ну да ладно, в мире много всего,\nчто сложно себе представить...{{pageBreak}}Меня зовут Ласли.{{delay1}} У нас с сестрой\nсвой магазинчик одежды.{{delay1}} Ее, кстати,\nКлари зовут.{{pageBreak}}Заходи, если будет время!",
      "JPja": "{{fun_0003_0001 arg=\"0x0A00\"}}{{size value=\"80\"}}…ウ ウソでしょ…？{{delay3}}{{size value=\"100\"}}\n\n{{fun_0003_0001 arg=\"0x0000\"}}まあ…{{delay3}}\n{{ruby charSpan=\"1\" value=\"よ\"}}世の{{ruby charSpan=\"1\" value=\"なか\"}}中ピンとこないことだらけだもんね…{{delay3}}\n{{ruby charSpan=\"1\" value=\"わたし\"}}私 ラズリっての\n{{ruby charSpan=\"1\" value=\"あね\"}}姉のクラリと{{ruby charSpan=\"2\" value=\"いっしょ\"}}一緒に{{ruby charSpan=\"1\" value=\"むら\"}}村で{{ruby charSpan=\"3\" value=\"ごふくや\"}}呉服屋やってるんだ\nよかったら のぞいてってよ",
      "KRko": "{{fun_0003_0001 arg=\"0x0A00\"}}{{size value=\"80\"}}…노, 농담이지…?{{delay3}}{{size value=\"100\"}}\n\n{{fun_0003_0001 arg=\"0x0000\"}}뭐어…{{delay3}}\n세상 일이란 게 감이 안 오는 일들 뿐이지…{{delay3}}\n난 라즈리라고 해\n언니인 클라리와 마을에서 포목점을 하고 있어\n괜찮으면 한 번 들렀다 가",
      "TWzh": "{{fun_0003_0001 arg=\"0x0A00\"}}{{size value=\"80\"}}……騙、騙人的吧……？{{delay3}}{{size value=\"100\"}}\n\n{{fun_0003_0001 arg=\"0x0000\"}}不過……{{delay3}}\n世上本來就充滿令人想像不到的事……{{delay3}}\n我叫拉茲莉。\n跟姊姊珂拉麗一起在村裡經營傳統服飾店。\n方便的話，就來店裡看看吧。",
      "USen": "{{fun_0003_0001 arg=\"0x0A00\"}}...{{size value=\"80\"}}Seriously?{{delay3}}{{size value=\"100\"}}\n\n\n{{fun_0003_0001 arg=\"0x0000\"}}Well...{{delay3}}I suppose there are a lot of\ncrazy things in this world that are\nhard to grasp.\nOh, my name's Lasli. I run a clothing\nshop in the village with my older sister,\nClaree. You should stop by sometime.",
      "USes": "{{fun_0003_0001 arg=\"0x0A00\"}}{{size value=\"80\"}}Aunque tú no tienes excusa...{{size value=\"100\"}}{{pageBreak}}{{fun_0003_0001 arg=\"0x0000\"}}En fin, supongo que hay muchas cosas\nen este mundo que son difíciles de\nimaginar.{{delay3}}\nMe llamo Lasli, por cierto. Atiendo\nuna sastrería junto a mi hermana\nDania. Pasa por ahí cuando gustes.",
      "USfr": "{{fun_0003_0001 arg=\"0x0A00\"}}{{size value=\"80\"}}Pas trop au courant, le héros...{{delay3}}\n\n\n{{fun_0003_0001 arg=\"0x0000\"}}{{size value=\"100\"}}Après tout,{{delay3}} c'est vrai qu'il n'est pas\ntoujours facile de s'y retrouver dans\ntoutes ces vieilles histoires!{{delay3}}\nAu fait, je m'appelle Amboise! Ma sœur\nCanni et moi tenons la boutique de\nvêtements du village.\nTu devrais aller y faire un tour,\nun de ces jours!"
    }
  },
  {
    "label": "Talk13",
    "attribute": "0x94000000",
    "locale": {
      "CNzh": "{{fun_0003_0001 arg=\"0x0900\"}}唉……\n\n走夜路很危险，所以我都是直接回家，\n连最喜欢的{{color id=\"0\"}}萤火虫{{color id=\"65535\"}}也没能欣赏。\n每天都只能重复一样的事……\n\n{{fun_0003_0001 arg=\"0x0000\"}}至少让很多很多{{color id=\"0\"}}萤火虫{{color id=\"65535\"}}\n来这里玩也好啊……",
      "EUde": "{{fun_0003_0001 arg=\"0x0900\"}}Hach...{{pageBreak}}Alle sagen, nachts wäre es so gefährlich\ndraußen...{{delay1}} Ich kann gar nicht mehr meine\ngeliebten{{color id=\"0\"}} Glühwürmchen{{color id=\"65535\"}} beobachten.{{pageBreak}}Jeder Tag fühlt sich genau wie der\ndavor an...{{pageBreak}}{{fun_0003_0001 arg=\"0x0000\"}}Ich wünschte, die {{color id=\"0\"}}Glühwürmchen{{color id=\"65535\"}} würden\nmich hier besuchen...",
      "EUen": "{{fun_0003_0001 arg=\"0x0900\"}}*sigh*\n\n\nThey say the roads are dangerous at\nnight, so I have to come straight home\nwithout searching for {{color id=\"0\"}}fireflies{{color id=\"65535\"}}...\nI miss them so much. And the night sky...\nNow it's the same tired thing every night.\nI'm so sick of it...\n{{fun_0003_0001 arg=\"0x0000\"}}If only the {{color id=\"0\"}}fireflies {{color id=\"65535\"}}would come to play\nhere so I could still see them...",
      "EUes": "{{fun_0003_0001 arg=\"0x0900\"}}Menudo rollo...{{pageBreak}}La abuela me obliga a volver a casa\nantes de que oscurezca porque dice\nque las calles son peligrosas de noche.{{pageBreak}}Pero así nunca puedo ver las {{color id=\"0\"}}luciérnagas{{color id=\"65535\"}}\nque salen por la aldea.{{pageBreak}}{{fun_0003_0001 arg=\"0x0000\"}}Ojalá pudiera tenerlas en casa...",
      "EUfr": "{{fun_0003_0001 arg=\"0x0900\"}}Ah... Il ne fait plus bon traîner dehors,\nla nuit, c'est trop dangereux.\n\nRésultat, je ne peux plus aller admirer\nles {{color id=\"0\"}}lucioles{{color id=\"65535\"}}. Quel ennui...\n\n{{fun_0003_0001 arg=\"0x0000\"}}Si seulement elles pouvaient venir\njusqu'à moi, pour changer !",
      "EUit": "{{fun_0003_0001 arg=\"0x0900\"}}Oh...\n\n\nTutti dicono che le strade sono\npericolose di notte, quindi sono tornata\na casa senza guardare le {{color id=\"0\"}}lucciole{{color id=\"65535\"}}.\n{{fun_0003_0001 arg=\"0x0000\"}}Sarebbe bello se ci fossero delle\n{{color id=\"0\"}}lucciole {{color id=\"65535\"}}qui con me...",
      "EUnl": "{{fun_0003_0001 arg=\"0x0900\"}}Ze zeggen dat het 's nachts gevaarlijk is\nen dat ik gelijk naar huis moet komen. Ik\nmag niet eens naar {{color id=\"0\"}}vuurvliegjes{{color id=\"65535\"}} kijken.\nHet is elke dag hetzelfde liedje en ik ben\nhet beu...{{pageBreak}}{{fun_0003_0001 arg=\"0x0000\"}}Kwamen de {{color id=\"0\"}}vuurvliegjes{{color id=\"65535\"}} maar hier\nspelen...",
      "EUru": "{{fun_0003_0001 arg=\"0x0900\"}}Эх...{{pageBreak}}Все твердят, что по ночам стало\nопасно гулять.{{delay1}} Я раньше любила\nловить {{color id=\"0\"}}светлячков{{color id=\"65535\"}}.{{pageBreak}}Мне их так не хватает...{{delay1}} И по небу,\nусеянному звездами, скучаю...{{delay1}} Тоска.{{pageBreak}}{{fun_0003_0001 arg=\"0x0000\"}}Ах, если бы {{color id=\"0\"}}светлячки {{color id=\"65535\"}}сами\nприлетели ко мне...",
      "JPja": "{{fun_0003_0001 arg=\"0x0900\"}}はぁ…\n\n{{ruby charSpan=\"2\" value=\"よみち\"}}夜道は{{ruby charSpan=\"2\" value=\"きけん\"}}危険だっていうから\n{{ruby charSpan=\"2\" value=\"だいす\"}}大好きな{{color id=\"0\"}}ホタル{{color id=\"65535\"}}も{{ruby charSpan=\"1\" value=\"なが\"}}眺めずに{{ruby charSpan=\"1\" value=\"かえ\"}}帰ってきてるけど\n{{ruby charSpan=\"4\" value=\"まいにちまいにち\"}}毎日毎日 {{ruby charSpan=\"1\" value=\"おんな\"}}同じことの{{ruby charSpan=\"1\" value=\"く\"}}繰り{{ruby charSpan=\"1\" value=\"かえ\"}}返し…\n\n{{fun_0003_0001 arg=\"0x0000\"}}せめて{{color id=\"0\"}}ホタル{{color id=\"65535\"}}がたくさん\nここに{{ruby charSpan=\"1\" value=\"あそ\"}}遊びに{{ruby charSpan=\"1\" value=\"き\"}}来てくれたらなぁ…",
      "KRko": "{{fun_0003_0001 arg=\"0x0900\"}}하아…\n\n밤길은 위험하다고들 하니\n좋아하는 {{color id=\"0\"}}반딧불이{{color id=\"65535\"}}도 못 보고 돌아오고\n매일 매일이 같은 일상의 반복이야…\n\n{{fun_0003_0001 arg=\"0x0000\"}}하다못해 {{color id=\"0\"}}반딧불이{{color id=\"65535\"}}가 잔뜩\n이곳에 놀러 와 준다면…",
      "TWzh": "{{fun_0003_0001 arg=\"0x0900\"}}唉……\n\n走夜路很危險，所以我一向直接回家，\n連最喜歡的{{color id=\"0\"}}螢火蟲{{color id=\"65535\"}}也沒能欣賞，\n每天都只能重複一樣的事……\n\n{{fun_0003_0001 arg=\"0x0000\"}}至少讓很多很多{{color id=\"0\"}}螢火蟲{{color id=\"65535\"}}\n來這裡玩也好啊……",
      "USen": "{{fun_0003_0001 arg=\"0x0900\"}}*sigh*\n\n\nThey say the roads are dangerous at\nnight, so I have to come straight home\nwithout searching for {{color id=\"0\"}}fireflies{{color id=\"65535\"}}...\nI miss them so much. And the night sky...\nNow it's the same tired thing every night.\nI'm so sick of it...\n{{fun_0003_0001 arg=\"0x0000\"}}If only the {{color id=\"0\"}}fireflies {{color id=\"65535\"}}would come to play\nhere so I could still see them...",
      "USes": "{{fun_0003_0001 arg=\"0x0900\"}}Qué lata...{{pageBreak}}La abuela nos obliga a volver a casa\nantes de que oscurezca porque dice\nque las calles son peligrosas de noche.{{pageBreak}}Pero así nunca puedo ver las {{color id=\"0\"}}luciérnagas{{color id=\"65535\"}}\nque salen por la aldea.{{pageBreak}}{{fun_0003_0001 arg=\"0x0000\"}}Ojalá pudiera tenerlas en casa...",
      "USfr": "{{fun_0003_0001 arg=\"0x0900\"}}Ah... Il ne fait plus bon traîner dehors,\nla nuit, c'est trop dangereux.\n\nRésultat, je ne peux plus aller admirer\nles {{color id=\"0\"}}lucioles{{color id=\"65535\"}}. Quel ennui...\n\n{{fun_0003_0001 arg=\"0x0000\"}}Si seulement elles pouvaient venir\njusqu'à moi, pour changer!"
    }
  },
  {
    "label": "Talk07",
    "attribute": "0xB4000000",
    "locale": {
      "CNzh": "{{fun_0003_0001 arg=\"0x0900\"}}唉……能不能让很多很多{{delay3}}{{color id=\"0\"}}萤火虫{{color id=\"65535\"}}\n来我家玩呢……",
      "EUde": "{{fun_0003_0001 arg=\"0x0900\"}}Ach...{{delay3}} Ich wünschte, ein paar\n{{color id=\"0\"}}Glühwürmchen {{color id=\"65535\"}}würden zu mir kommen...",
      "EUen": "{{fun_0003_0001 arg=\"0x0900\"}}*sigh* {{delay3}}I wish those {{color id=\"0\"}}fireflies {{color id=\"65535\"}}would come\nplay near my house...",
      "EUes": "{{fun_0003_0001 arg=\"0x0900\"}}Ay...{{delay3}} Me encantaría que las {{color id=\"0\"}}luciérnagas{{color id=\"65535\"}}\nvinieran a visitarme algún día...",
      "EUfr": "{{fun_0003_0001 arg=\"0x0900\"}}Ah...{{delay3}} Si seulement les {{color id=\"0\"}}lucioles {{color id=\"65535\"}}venaient\nme rendre visite à la maison !",
      "EUit": "{{fun_0003_0001 arg=\"0x0900\"}}Oh...{{delay3}} Come sarebbe bello se tante\n{{color id=\"0\"}}lucciole {{color id=\"65535\"}}venissero a giocare da me!",
      "EUnl": "{{fun_0003_0001 arg=\"0x0900\"}}O...{{delay3}} Ik wou dat al die {{color id=\"0\"}}vuurvliegjes{{color id=\"65535\"}} bij mij\nthuis kwamen spelen.",
      "EUru": "{{fun_0003_0001 arg=\"0x0900\"}}Ах, если бы {{color id=\"0\"}}светлячки {{color id=\"65535\"}}сами\nприлетели ко мне...",
      "JPja": "{{fun_0003_0001 arg=\"0x0900\"}}あーあ…{{delay3}} {{color id=\"0\"}}ホタル{{color id=\"65535\"}}がうちに\nたくさん{{ruby charSpan=\"1\" value=\"き\"}}来てくれないかなぁ…",
      "KRko": "{{fun_0003_0001 arg=\"0x0900\"}}아~아…{{delay3}} {{color id=\"0\"}}반딧불이{{color id=\"65535\"}}가 우리 집에\n잔뜩 와 주지 않으려나…",
      "TWzh": "{{fun_0003_0001 arg=\"0x0900\"}}唉……能不能讓很多很多{{delay3}}{{color id=\"0\"}}螢火蟲{{color id=\"65535\"}}\n來我家玩呢……",
      "USen": "{{fun_0003_0001 arg=\"0x0900\"}}*sigh* {{delay3}}I wish those {{color id=\"0\"}}fireflies {{color id=\"65535\"}}would come\nplay near my house...",
      "USes": "{{fun_0003_0001 arg=\"0x0900\"}}Ay...{{delay3}} Me encantaría que las {{color id=\"0\"}}luciérnagas{{color id=\"65535\"}}\nvinieran a visitarme algún día...",
      "USfr": "{{fun_0003_0001 arg=\"0x0900\"}}Ah...{{delay3}} Si seulement les {{color id=\"0\"}}lucioles {{color id=\"65535\"}}venaient\nme rendre visite à la maison!"
    }
  },
  {
    "label": "Talk09",
    "attribute": "0xD4000000",
    "locale": {
      "CNzh": "{{fun_0003_0001 arg=\"0x0700\"}}{{size value=\"125\"}}哇！{{delay3}}{{size value=\"100\"}}\n\n这么多{{color id=\"0\"}}萤火虫{{color id=\"65535\"}}！{{delay3}}",
      "EUde": "{{fun_0003_0001 arg=\"0x0700\"}}{{size value=\"125\"}}Wow!{{delay3}}{{pageBreak}}{{size value=\"100\"}}So viele {{color id=\"0\"}}Glühwürmchen{{color id=\"65535\"}}!{{delay3}}",
      "EUen": "{{fun_0003_0001 arg=\"0x0700\"}}...{{size value=\"125\"}}Oh! {{delay3}}Wow!{{size value=\"100\"}}\n\nLook at all those {{color id=\"0\"}}fireflies{{color id=\"65535\"}}!",
      "EUes": "{{fun_0003_0001 arg=\"0x0700\"}}{{size value=\"125\"}}¡Andaaa!{{size value=\"100\"}}{{pageBreak}}¡Cuántas {{color id=\"0\"}}luciérnagas{{color id=\"65535\"}}!",
      "EUfr": "{{fun_0003_0001 arg=\"0x0700\"}}{{size value=\"125\"}}Quelle féérie !{{delay3}}{{size value=\"100\"}}\n\n\nRegarde ces jolies {{color id=\"0\"}}lucioles {{color id=\"65535\"}}!{{delay3}}",
      "EUit": "{{fun_0003_0001 arg=\"0x0700\"}}{{size value=\"125\"}}Oooh!{{size value=\"100\"}}{{delay3}}\n\n\nQuante {{color id=\"0\"}}lucciole{{color id=\"65535\"}}!{{delay3}}",
      "EUnl": "{{fun_0003_0001 arg=\"0x0700\"}}{{size value=\"125\"}}O!{{delay3}}{{size value=\"100\"}}\nMoet je al die {{color id=\"0\"}}vuurvliegjes{{color id=\"65535\"}} eens zien!",
      "EUru": "{{fun_0003_0001 arg=\"0x0700\"}}{{size value=\"125\"}}Ах!{{size value=\"100\"}}{{pageBreak}}Сколько {{color id=\"0\"}}светлячков{{color id=\"65535\"}}!",
      "JPja": "{{fun_0003_0001 arg=\"0x0700\"}}{{size value=\"125\"}}わぁ！{{delay3}}{{size value=\"100\"}}\n\n{{color id=\"0\"}}ホタル{{color id=\"65535\"}}がこんなに！{{delay3}}",
      "KRko": "{{fun_0003_0001 arg=\"0x0700\"}}{{size value=\"125\"}}와아!{{delay3}}{{size value=\"100\"}}\n\n{{color id=\"0\"}}반딧불이{{color id=\"65535\"}}가 이렇게나 많이!{{delay3}}",
      "TWzh": "{{fun_0003_0001 arg=\"0x0700\"}}{{size value=\"125\"}}哇！{{delay3}}{{size value=\"100\"}}\n\n這麼多{{color id=\"0\"}}螢火蟲{{color id=\"65535\"}}！{{delay3}}",
      "USen": "{{fun_0003_0001 arg=\"0x0700\"}}...{{size value=\"125\"}}Oh! {{delay3}}Wow!{{size value=\"100\"}}\n\nLook at all those {{color id=\"0\"}}fireflies{{color id=\"65535\"}}!",
      "USes": "{{fun_0003_0001 arg=\"0x0700\"}}{{size value=\"125\"}}¡Miraaa!{{size value=\"100\"}}{{pageBreak}}¡Cuántas {{color id=\"0\"}}luciérnagas{{color id=\"65535\"}}!",
      "USfr": "{{fun_0003_0001 arg=\"0x0700\"}}{{size value=\"125\"}}Quelle féérie!{{delay3}}{{size value=\"100\"}}\n\n\nRegarde ces jolies {{color id=\"0\"}}lucioles{{color id=\"65535\"}}!{{delay3}}"
    }
  },
  {
    "label": "Talk20",
    "attribute": "0xF4000000",
    "locale": {
      "CNzh": "{{fun_0003_0001 arg=\"0x0100\"}}谢谢……虽然只能用这种方式道谢，{{delay3}}\n但还是请收下拉兹莉的心意！",
      "EUde": "{{fun_0003_0001 arg=\"0x0100\"}}Danke...{{delay1}} Das ist alles, womit ich mich\nrevanchieren kann.{{delay3}} Aber es kommt von\nHerzen!",
      "EUen": "{{fun_0003_0001 arg=\"0x0100\"}}Thank you... This is all I have to offer,\nbut please accept it with my gratitude!",
      "EUes": "{{fun_0003_0001 arg=\"0x0100\"}}Has tenido un detalle precioso,\n¡muchas gracias!{{pageBreak}}No puedo ofrecerte mucho a cambio,{{delay3}}\npero espero que esto te sirva.",
      "EUfr": "{{fun_0003_0001 arg=\"0x0100\"}}Merci beaucoup ! Tiens, prends ça !\nCe n'est pas grand-chose, mais je te\nl'offre du fond du cœur !{{delay3}}",
      "EUit": "{{fun_0003_0001 arg=\"0x0100\"}}Grazie... vorrei darti questo per\nringraziarti!",
      "EUnl": "{{fun_0003_0001 arg=\"0x0100\"}}Bedankt... Ik heb niet veel om je te\ngeven,{{delay3}} maar ik geef het je met plezier!",
      "EUru": "{{fun_0003_0001 arg=\"0x0100\"}}Спасибо огромное!{{delay3}} Пожалуйста,\nвозьми это — от чистого сердца!",
      "JPja": "{{fun_0003_0001 arg=\"0x0100\"}}ありがとう… こんなことしかできないけど{{delay3}}\nラズリの{{ruby charSpan=\"2\" value=\"きも\"}}気持ち{{ruby charSpan=\"1\" value=\"う\"}}受け{{ruby charSpan=\"1\" value=\"と\"}}取って！",
      "KRko": "{{fun_0003_0001 arg=\"0x0100\"}}고마워… 이런 것밖에 해 줄 수 없지만{{delay3}}\n라즈리의 마음이니 받아 줘!",
      "TWzh": "{{fun_0003_0001 arg=\"0x0100\"}}謝謝……雖然只能用這種方式道謝，{{delay3}}\n但還是請收下拉茲莉的心意！",
      "USen": "{{fun_0003_0001 arg=\"0x0100\"}}Thank you... This is all I have to offer,\nbut please accept it with my gratitude!",
      "USes": "{{fun_0003_0001 arg=\"0x0100\"}}Tuviste un detalle precioso,\n¡muchas gracias!{{pageBreak}}No puedo ofrecerte mucho a cambio,{{delay3}}\npero espero que esto te sirva.",
      "USfr": "{{fun_0003_0001 arg=\"0x0100\"}}Merci beaucoup! Tiens, prends ça!\nCe n'est pas grand-chose, mais je te\nl'offre du fond du cœur!{{delay3}}"
    }
  },
  {
    "label": "Talk14",
    "attribute": "0x14010000",
    "locale": {
      "CNzh": "{{fun_0003_0001 arg=\"0x0100\"}}一闪一闪地……\n真的好漂亮……{{fun_0001_0004 arg=\"0x000001000002\"}}",
      "EUde": "{{fun_0003_0001 arg=\"0x0100\"}}Sie leuchten so schön...{{delay1}}\nWas für eine Pracht!{{fun_0001_0004 arg=\"0x000001000002\"}}",
      "EUen": "{{fun_0003_0001 arg=\"0x0100\"}}They glow so prettily...\nIt's magical...{{fun_0001_0004 arg=\"0x000001000002\"}}",
      "EUes": "{{fun_0003_0001 arg=\"0x0100\"}}Mira cómo brillan...\nSon tan hermosas...{{fun_0001_0004 arg=\"0x000001000002\"}}",
      "EUfr": "{{fun_0003_0001 arg=\"0x0100\"}}Je ne me lasserai jamais de ce\nspectacle... Elles sont si belles !{{fun_0001_0004 arg=\"0x000001000002\"}}",
      "EUit": "{{fun_0003_0001 arg=\"0x0100\"}}Come luccicano!\nChe belle!{{fun_0001_0004 arg=\"0x000001000002\"}}",
      "EUnl": "{{fun_0003_0001 arg=\"0x0100\"}}Ze gloeien zo fel... Het is zo mooi...{{fun_0001_0004 arg=\"0x000001000002\"}}",
      "EUru": "{{fun_0003_0001 arg=\"0x0100\"}}Как они светятся!..{{delay1}} Такие красивые...{{fun_0001_0004 arg=\"0x000001000002\"}}",
      "JPja": "{{fun_0003_0001 arg=\"0x0100\"}}キラキラ{{ruby charSpan=\"1\" value=\"かがや\"}}輝いて…\n{{ruby charSpan=\"2\" value=\"ほんとう\"}}本当にキレイ…{{fun_0001_0004 arg=\"0x000001000002\"}}",
      "KRko": "{{fun_0003_0001 arg=\"0x0100\"}}반짝반짝 빛나서…\n정말 예뻐…{{fun_0001_0004 arg=\"0x000001000002\"}}",
      "TWzh": "{{fun_0003_0001 arg=\"0x0100\"}}一閃一閃地……\n真的好漂亮……{{fun_0001_0004 arg=\"0x000001000002\"}}",
      "USen": "{{fun_0003_0001 arg=\"0x0100\"}}They glow so prettily...\nIt's magical...{{fun_0001_0004 arg=\"0x000001000002\"}}",
      "USes": "{{fun_0003_0001 arg=\"0x0100\"}}Mira cómo brillan...\nSon tan hermosas...{{fun_0001_0004 arg=\"0x000001000002\"}}",
      "USfr": "{{fun_0003_0001 arg=\"0x0100\"}}Je ne me lasserai jamais de ce\nspectacle... Elles sont si belles!{{fun_0001_0004 arg=\"0x000001000002\"}}"
    }
  },
  {
    "label": "0000",
    "attribute": "0x34010000",
    "locale": {
      "CNzh": "你也不输它们",
      "EUde": "Du bist schöner!",
      "EUen": "You're pretty too.",
      "EUes": "Tú lo eres más",
      "EUfr": "Pas autant que toi !",
      "EUit": "Come te!",
      "EUnl": "Jij bent ook mooi.",
      "EUru": "Ты тоже красивая",
      "JPja": "{{ruby charSpan=\"1\" value=\"ま\"}}負けてないよ",
      "KRko": "너도 그래",
      "TWzh": "妳也不輸牠們",
      "USen": "You're pretty too.",
      "USes": "Tú lo eres más",
      "USfr": "Pas autant que toi!"
    }
  },
  {
    "label": "0001",
    "attribute": "0x36010000",
    "locale": {
      "CNzh": "萤火虫寿命很短",
      "EUde": "Dafür leben sie kurz.",
      "EUen": "They don't live long.",
      "EUes": "Pero no viven mucho",
      "EUfr": "Pas pour longtemps.",
      "EUit": "Ma vivono poco...",
      "EUnl": "Ze leven maar kort...",
      "EUru": "Их жизнь коротка...",
      "JPja": "{{ruby charSpan=\"3\" value=\"じゅみょうみじか\"}}寿命短いよ",
      "KRko": "얼마 못 살 걸",
      "TWzh": "壽命很短喔",
      "USen": "They don't live long.",
      "USes": "Pero no viven mucho",
      "USfr": "Pas pour longtemps."
    }
  },
  {
    "label": "Talk17",
    "attribute": "0x38010000",
    "locale": {
      "CNzh": "{{fun_0003_0001 arg=\"0x0109\"}}呵呵……{{delay3}}\n谢谢你！",
      "EUde": "{{fun_0003_0001 arg=\"0x0109\"}}Da...{{delay2}} Danke...",
      "EUen": "{{fun_0003_0001 arg=\"0x0109\"}}Heehee! {{delay3}}Thanks!",
      "EUes": "{{fun_0003_0001 arg=\"0x0109\"}}{{size value=\"80\"}}Ay...{{delay2}} Qué cosas dices...{{size value=\"100\"}}",
      "EUfr": "{{fun_0003_0001 arg=\"0x0109\"}}{{delay3}}Oh...{{delay2}} Euh... merci.",
      "EUit": "{{fun_0003_0001 arg=\"0x0109\"}}M... {{delay3}}Mi fai arrossire...",
      "EUnl": "{{fun_0003_0001 arg=\"0x0109\"}}Haha...{{delay2}} Dank je!",
      "EUru": "{{fun_0003_0001 arg=\"0x0109\"}}Хи-хи!{{delay1}} Спасибо.",
      "JPja": "{{fun_0003_0001 arg=\"0x0109\"}}うふっ… {{delay3}}\nありがと！",
      "KRko": "{{fun_0003_0001 arg=\"0x0109\"}}우훗… {{delay3}}\n고마워!",
      "TWzh": "{{fun_0003_0001 arg=\"0x0109\"}}呵呵……{{delay3}}\n謝謝你！",
      "USen": "{{fun_0003_0001 arg=\"0x0109\"}}Heehee! {{delay3}}Thanks!",
      "USes": "{{fun_0003_0001 arg=\"0x0109\"}}{{size value=\"80\"}}Ay...{{delay2}} Qué cosas dices...{{size value=\"100\"}}",
      "USfr": "{{fun_0003_0001 arg=\"0x0109\"}}{{delay3}}Oh...{{delay2}} Euh... merci."
    }
  },
  {
    "label": "Talk18",
    "attribute": "0x58010000",
    "locale": {
      "CNzh": "{{fun_0003_0001 arg=\"0x0800\"}}真受不了！男人就是这样……{{delay3}}",
      "EUde": "{{fun_0003_0001 arg=\"0x0800\"}}Müssen Männer immer alles ruinieren?{{delay3}}",
      "EUen": "{{fun_0003_0001 arg=\"0x0800\"}}Ugh! {{delay3}}Boys are SO unromantic...",
      "EUes": "{{fun_0003_0001 arg=\"0x0800\"}}He visto agujas de coser más románticas\nque tú...",
      "EUfr": "{{fun_0003_0001 arg=\"0x0800\"}}Vous, les hommes ! Il faut toujours\nque vous gâchiez tout !{{delay3}}",
      "EUit": "{{fun_0003_0001 arg=\"0x0800\"}}Come sei poco romantico...{{delay3}}",
      "EUnl": "{{fun_0003_0001 arg=\"0x0800\"}}Jongens zijn zo onromantisch...",
      "EUru": "{{fun_0003_0001 arg=\"0x0800\"}}Ну вот зачем было это говорить?!",
      "JPja": "{{fun_0003_0001 arg=\"0x0800\"}}ほんっと！ これだから{{ruby charSpan=\"1\" value=\"おとこ\"}}男は…{{delay3}}",
      "KRko": "{{fun_0003_0001 arg=\"0x0800\"}}에잇! 이래서 남자는…{{delay3}}",
      "TWzh": "{{fun_0003_0001 arg=\"0x0800\"}}真受不了！男人就是這樣……{{delay3}}",
      "USen": "{{fun_0003_0001 arg=\"0x0800\"}}Ugh! {{delay3}}Boys are SO unromantic...",
      "USes": "{{fun_0003_0001 arg=\"0x0800\"}}He visto agujas de coser más románticas\nque tú...",
      "USfr": "{{fun_0003_0001 arg=\"0x0800\"}}Vous, les hommes! Il faut toujours\nque vous gâchiez tout!{{delay3}}"
    }
  },
  {
    "label": "Talk10",
    "attribute": "0x78010000",
    "locale": {
      "CNzh": "{{fun_0003_0001 arg=\"0x0700\"}}哇～谢谢你～！！{{delay3}}\n\n{{fun_0003_0001 arg=\"0x0B00\"}}可是……\n只有这几只感觉有点寂寞……\n{{fun_0003_0001 arg=\"0x0000\"}}毕竟这些萤火虫很快就会消失……{{delay3}}\n可以的话，希望能在天亮前找来更多萤火虫。",
      "EUde": "{{fun_0003_0001 arg=\"0x0700\"}}Wow, danke!{{delay3}}{{pageBreak}}{{fun_0003_0001 arg=\"0x0B00\"}}Aber...{{delay1}} Ich wünschte, es wären mehr...{{pageBreak}}{{fun_0003_0001 arg=\"0x0000\"}}Sie werden morgen nicht mehr hier sein,\nalso...{{delay3}} Kannst du heute Nacht noch ein\npaar mehr herbringen?",
      "EUen": "{{fun_0003_0001 arg=\"0x0700\"}}Oh! {{delay3}}Thank you!\n\n\n{{fun_0003_0001 arg=\"0x0B00\"}}But...I'm afraid there aren't enough.\n{{delay3}}There are so few, they disappear\ntoo quickly to enjoy.\n{{fun_0003_0001 arg=\"0x0000\"}}It would be nice if you could find more\nbefore morning...",
      "EUes": "{{fun_0003_0001 arg=\"0x0700\"}}¡Oh! ¡Qué bonitas!{{delay3}}\n{{fun_0003_0001 arg=\"0x0B00\"}}Aunque has traído tan pocas que\nasí no hay quien las disfrute.\n{{fun_0003_0001 arg=\"0x0000\"}}¡Desaparecen enseguida!{{delay3}} Sería genial\nsi la próxima vez pudieras atrapar\nunas cuantas más.",
      "EUfr": "{{fun_0003_0001 arg=\"0x0700\"}}Oh, merci beaucoup !{{delay3}}\n\n\n{{fun_0003_0001 arg=\"0x0B00\"}}Mais ce serait plus joli s'il y en avait\nun peu plus, non ?\n\n{{fun_0003_0001 arg=\"0x0000\"}}Et elles disparaissent si vite...{{delay3}}\nÇa me ferait vraiment plaisir que tu m'en\napportes encore avant le lever du soleil...",
      "EUit": "{{fun_0003_0001 arg=\"0x0700\"}}Oooh! Grazie!{{delay3}}\n\n\n{{fun_0003_0001 arg=\"0x0B00\"}}Però...\nPuoi fare di meglio, secondo me.\n\n{{fun_0003_0001 arg=\"0x0000\"}}Purtroppo se ne vanno via subito.{{delay3}}\nNon riesci a trovarne un po' di più\nprima che spunti il sole?",
      "EUnl": "{{fun_0003_0001 arg=\"0x0700\"}}O, dank je!{{pageBreak}}{{fun_0003_0001 arg=\"0x0B00\"}}Maar... dit zijn er nog niet genoeg...{{pageBreak}}{{fun_0003_0001 arg=\"0x0000\"}}Ze verdwijnen zo snel... Het zou leuk zijn\nals je er voor de ochtend nog meer kon\nvinden.",
      "EUru": "{{fun_0003_0001 arg=\"0x0700\"}}Ах, спасибо!{{pageBreak}}{{fun_0003_0001 arg=\"0x0B00\"}}Но хотелось бы увидеть больше.{{pageBreak}}{{fun_0003_0001 arg=\"0x0000\"}}Утром их уже не будет...{{delay1}} Может,\nпоймаешь еще, пока не рассвело?",
      "JPja": "{{fun_0003_0001 arg=\"0x0700\"}}わ～ ありがと～！！{{delay3}}\n\n{{fun_0003_0001 arg=\"0x0B00\"}}でも…\nこれだけじゃちょっとさみしいかな…\n{{fun_0003_0001 arg=\"0x0000\"}}この{{ruby charSpan=\"2\" value=\"こたち\"}}子達はすぐいなくなっちゃうから…{{delay3}}\nできれば{{ruby charSpan=\"1\" value=\"あさ\"}}朝までにもっと{{ruby charSpan=\"1\" value=\"み\"}}見つけてきてほしいな",
      "KRko": "{{fun_0003_0001 arg=\"0x0700\"}}와~ 고마워~!!{{delay3}}\n\n{{fun_0003_0001 arg=\"0x0B00\"}}하지만…\n이 정도로는 좀 쓸쓸할지도…\n{{fun_0003_0001 arg=\"0x0000\"}}이 애들은 금방 없어지니까…{{delay3}}\n가능하면 아침까지 좀 더 찾아와 줬으면 좋겠어",
      "TWzh": "{{fun_0003_0001 arg=\"0x0700\"}}哇～謝謝你～！！{{delay3}}\n\n{{fun_0003_0001 arg=\"0x0B00\"}}可是……\n只有這幾隻感覺有點寂寞……\n{{fun_0003_0001 arg=\"0x0000\"}}畢竟這些螢火蟲很快就會消失……{{delay3}}\n可以的話，希望能在天亮前找來更多螢火蟲。",
      "USen": "{{fun_0003_0001 arg=\"0x0700\"}}Oh! {{delay3}}Thank you!\n\n\n{{fun_0003_0001 arg=\"0x0B00\"}}But...I'm afraid there aren't enough.\n{{delay3}}There are so few, they disappear\ntoo quickly to enjoy.\n{{fun_0003_0001 arg=\"0x0000\"}}It would be nice if you could find more\nbefore morning...",
      "USes": "{{fun_0003_0001 arg=\"0x0700\"}}¡Oh! ¡Qué bonitas!{{delay3}}\n{{fun_0003_0001 arg=\"0x0B00\"}}Aunque has traído tan pocas que\nasí no hay quien las disfrute.\n{{fun_0003_0001 arg=\"0x0000\"}}¡Desaparecen enseguida!{{delay3}} Sería genial\nsi la próxima vez pudieras atrapar\nunas cuantas más.",
      "USfr": "{{fun_0003_0001 arg=\"0x0700\"}}Oh, merci beaucoup!{{delay3}}\n\n\n{{fun_0003_0001 arg=\"0x0B00\"}}Mais ce serait plus joli s'il y en avait\nun peu plus, non?\n\n{{fun_0003_0001 arg=\"0x0000\"}}Et elles disparaissent si vite...{{delay3}}\nÇa me ferait vraiment plaisir que tu m'en\napportes encore avant le lever du soleil..."
    }
  },
  {
    "label": "Talk11",
    "attribute": "0x98010000",
    "locale": {
      "CNzh": "{{fun_0003_0001 arg=\"0x0700\"}}咦？你的袋子是不是在发光？{{delay3}}\n莫非你帮我捉到{{color id=\"0\"}}萤火虫{{color id=\"65535\"}}了？{{size value=\"80\"}}\n{{fun_0003_0001 arg=\"0x0000\"}}不过我现在有点忙……\n待会到我家碰头……{{delay3}}好吗……{{size value=\"100\"}}",
      "EUde": "{{fun_0003_0001 arg=\"0x0700\"}}Nanu? Was leuchtet denn da in\ndeiner Tasche?{{delay3}} Sag bloß, du hast\n{{color id=\"0\"}}Glühwürmchen {{color id=\"65535\"}}für mich gefangen?{{pageBreak}}{{size value=\"80\"}}{{fun_0003_0001 arg=\"0x0000\"}}Ich bin gerade beschäftigt...\nAber komm doch später zu mir nach Hause...{{delay3}}\nJa?{{size value=\"100\"}}",
      "EUen": "{{fun_0003_0001 arg=\"0x0700\"}}Hm? Your pouch is...glowing? {{size value=\"80\"}}{{delay3}}{{size value=\"100\"}}Could it\nbe you brought me some {{color id=\"0\"}}fireflies{{color id=\"65535\"}}?{{size value=\"80\"}}\n\n{{fun_0003_0001 arg=\"0x0000\"}}I'm actually crazy busy right now...{{delay2}}\nMaybe you could come by my house later?{{size value=\"100\"}}",
      "EUes": "{{fun_0003_0001 arg=\"0x0700\"}}¿Por qué te brilla la alforja? ¡No me\ndigas que has traído {{color id=\"0\"}}luciérnagas{{color id=\"65535\"}}!{{pageBreak}}{{fun_0003_0001 arg=\"0x0000\"}}{{size value=\"80\"}}Te lo agradezco, pero ahora mismo estoy un pelín\nocupada.{{delay3}} ¿Por qué no te pasas por mi casa luego?{{size value=\"100\"}}",
      "EUfr": "{{fun_0003_0001 arg=\"0x0700\"}}Oh ! Qu'est-ce qui brille comme ça, dans\nta sacoche ? {{delay2}}Tu as trouvé des {{color id=\"0\"}}lucioles {{color id=\"65535\"}}?{{size value=\"80\"}}{{delay3}}\n\n{{fun_0003_0001 arg=\"0x0000\"}}Je suis un peu occupée pour le moment,\nmais passe chez moi ce soir,{{delay3}} d'accord ?{{size value=\"100\"}}",
      "EUit": "{{fun_0003_0001 arg=\"0x0700\"}}Ehi, ma la tua borsa sbrilluccica!\nNon mi dire che mi hai portato\nle {{color id=\"0\"}}lucciole{{color id=\"65535\"}}!{{size value=\"80\"}}{{delay3}}\n{{fun_0003_0001 arg=\"0x0000\"}}Però adesso ho un po' da fare...\nMe le porti dopo a casa? {{delay3}}Dai...{{size value=\"100\"}}",
      "EUnl": "{{fun_0003_0001 arg=\"0x0700\"}}Huh? Je tas gloeit... Heb je soms\n{{color id=\"0\"}}vuurvliegjes{{color id=\"65535\"}} bij je?{{pageBreak}}{{size value=\"80\"}}{{fun_0003_0001 arg=\"0x0000\"}}Ik heb het nogal druk... Kom later bij me thuis\nlangs...{{delay3}} Als je wilt...{{size value=\"100\"}}",
      "EUru": "{{fun_0003_0001 arg=\"0x0700\"}}Что это у тебя светится?{{delay1}}\nТы наловил {{color id=\"0\"}}светлячков{{color id=\"65535\"}}?!{{pageBreak}}{{size value=\"80\"}}{{fun_0003_0001 arg=\"0x0000\"}}Я сейчас немного занята.{{delay1}} Можешь\nпозже принести их ко мне домой?{{size value=\"100\"}}",
      "JPja": "{{fun_0003_0001 arg=\"0x0700\"}}あれ？ ポーチ{{ruby charSpan=\"1\" value=\"ひか\"}}光ってない？{{delay3}}\nもしかして{{color id=\"0\"}}ホタル{{color id=\"65535\"}}{{ruby charSpan=\"1\" value=\"つか\"}}捕まえてきてくれたの？{{size value=\"80\"}}\n{{fun_0003_0001 arg=\"0x0000\"}}{{ruby charSpan=\"1\" value=\"いま\"}}今 ちょっと{{ruby charSpan=\"1\" value=\"いそが\"}}忙しいから…\n{{ruby charSpan=\"1\" value=\"あと\"}}後で{{ruby charSpan=\"1\" value=\"わたし\"}}私の{{ruby charSpan=\"1\" value=\"いえ\"}}家で… {{delay3}}ね…{{size value=\"100\"}}",
      "KRko": "{{fun_0003_0001 arg=\"0x0700\"}}어라? 주머니가 빛나고 있잖아?{{delay3}}\n혹시 {{color id=\"0\"}}반딧불이{{color id=\"65535\"}}를 잡아 와 준 거야?{{size value=\"80\"}}\n{{fun_0003_0001 arg=\"0x0000\"}}지금은 좀 바쁘니까…\n나중에 우리 집에서… {{delay3}}알겠지…?{{size value=\"100\"}}",
      "TWzh": "{{fun_0003_0001 arg=\"0x0700\"}}咦？你的袋子是不是在發光？{{delay3}}\n莫非你幫我捉到{{color id=\"0\"}}螢火蟲{{color id=\"65535\"}}了？{{size value=\"80\"}}\n{{fun_0003_0001 arg=\"0x0000\"}}不過我現在有點忙……\n待會到我家碰頭……{{delay3}}好嗎……{{size value=\"100\"}}",
      "USen": "{{fun_0003_0001 arg=\"0x0700\"}}Hm? Your pouch is...glowing? {{size value=\"80\"}}{{delay3}}{{size value=\"100\"}}Could it\nbe you brought me some {{color id=\"0\"}}fireflies{{color id=\"65535\"}}?{{size value=\"80\"}}\n\n{{fun_0003_0001 arg=\"0x0000\"}}I'm actually crazy busy right now...{{delay2}}\nMaybe you could come by my house later?{{size value=\"100\"}}",
      "USes": "{{fun_0003_0001 arg=\"0x0700\"}}¿Y estos insectos? ¡No me digas\nque me trajiste {{color id=\"0\"}}luciérnagas{{color id=\"65535\"}}!{{pageBreak}}{{fun_0003_0001 arg=\"0x0000\"}}{{size value=\"80\"}}Te lo agradezco, pero ahora mismo estoy un poco\nocupada.{{delay3}} ¿Por qué no pasas por mi casa luego?{{size value=\"100\"}}",
      "USfr": "{{fun_0003_0001 arg=\"0x0700\"}}Oh! Qu'est-ce qui brille comme ça, dans\nta sacoche? {{delay2}}Tu as trouvé des {{color id=\"0\"}}lucioles{{color id=\"65535\"}}?{{size value=\"80\"}}{{delay3}}\n\n{{fun_0003_0001 arg=\"0x0000\"}}Je suis un peu occupée pour le moment,\nmais passe chez moi ce soir,{{delay3}} d'accord?{{size value=\"100\"}}"
    }
  },
  {
    "label": "Talk23",
    "attribute": "0xB8010000",
    "locale": {
      "CNzh": "{{fun_0003_0001 arg=\"0x0900\"}}今天也好累～\n\n我想先歇口气，\n有事等我到家再说，好吗？",
      "EUde": "{{fun_0003_0001 arg=\"0x0900\"}}Puh, ich bin fix und fertig.{{pageBreak}}Lass mich erst mal zur Ruhe kommen.{{delay1}}\nKomm doch später noch mal vorbei,\nwenn ich zu Hause bin.",
      "EUen": "{{fun_0003_0001 arg=\"0x0900\"}}Ahhhh, I'm sooo tired! I'm eager to relax,\nso maybe we can chat at my place?",
      "EUes": "{{fun_0003_0001 arg=\"0x0900\"}}Ahora no tengo ganas de hablar,\nestoy cansada de tanto trabajar.{{pageBreak}}Pásate en un rato por mi casa\ny seré toda oídos.",
      "EUfr": "{{fun_0003_0001 arg=\"0x0900\"}}Je suis éreintée !\n\n\nIl faut vraiment que je me repose.\nJe vais rentrer chez moi, on pourra\nparler là-bas si tu veux bien ?",
      "EUit": "{{fun_0003_0001 arg=\"0x0900\"}}Anche oggi ho sgobbato...\n\n\nAdesso vorrei riposarmi un po', quindi\nvieni a parlarmi quando arrivo a casa.",
      "EUnl": "{{fun_0003_0001 arg=\"0x0900\"}}Ik ben zo moe. Ik wil even uitrusten, dus\nmisschien kun je met me komen praten\nals ik thuis ben.",
      "EUru": "{{fun_0003_0001 arg=\"0x0900\"}}Как же я устала.{{pageBreak}}Дай мне дойти до дома и немного\nотдохнуть.{{delay1}} Поговорим там, ладно?",
      "JPja": "{{fun_0003_0001 arg=\"0x0900\"}}{{ruby charSpan=\"2\" value=\"きょう\"}}今日も{{ruby charSpan=\"1\" value=\"つか\"}}疲れたぁ～\n\nちょっと{{ruby charSpan=\"1\" value=\"お\"}}落ち{{ruby charSpan=\"1\" value=\"つ\"}}着きたいから\n{{ruby charSpan=\"1\" value=\"よう\"}}用があるなら お{{ruby charSpan=\"2\" value=\"うちつ\"}}家着いてからでいい？",
      "KRko": "{{fun_0003_0001 arg=\"0x0900\"}}오늘도 지쳤어~\n\n좀 쉬고 싶어서 그런데\n볼일이 있으면 집에서 해도 괜찮을까?",
      "TWzh": "{{fun_0003_0001 arg=\"0x0900\"}}今天也好累～\n\n我想先喘口氣，\n有事等我到家再說，好嗎？",
      "USen": "{{fun_0003_0001 arg=\"0x0900\"}}Ahhhh, I'm sooo tired! I'm eager to relax,\nso maybe we can chat at my place?",
      "USes": "{{fun_0003_0001 arg=\"0x0900\"}}Ahora no tengo ganas de hablar,\nestoy cansada de tanto trabajar.{{pageBreak}}Pasa en un rato por mi casa\ny seré toda oídos.",
      "USfr": "{{fun_0003_0001 arg=\"0x0900\"}}Je suis éreintée!\n\n\nIl faut vraiment que je me repose.\nJe vais rentrer chez moi, on pourra\nparler là-bas si tu veux bien?"
    }
  },
  {
    "label": "Talk24",
    "attribute": "0xD8010000",
    "locale": {
      "CNzh": "{{fun_0003_0001 arg=\"0x0700\"}}咦？你的袋子是不是在发光？{{delay3}}\n莫非你帮我捉到{{color id=\"0\"}}萤火虫{{color id=\"65535\"}}了？{{size value=\"80\"}}\n{{fun_0003_0001 arg=\"0x0000\"}}{{size value=\"100\"}}我才刚回到家……{{delay3}}\n先等我歇口气再说……",
      "EUde": "{{fun_0003_0001 arg=\"0x0700\"}}Nanu? Was leuchtet denn da in deiner\nTasche? {{delay1}}Hast du etwa {{color id=\"0\"}}Glühwürmchen{{color id=\"65535\"}}\nfür mich gefangen?\n{{fun_0003_0001 arg=\"0x0000\"}}Aber ich bin gerade erst nach Hause\ngekommen...{{delay3}} Lass mich doch kurz\ndurchatmen, ja?",
      "EUen": "{{fun_0003_0001 arg=\"0x0700\"}}Hm? Is your pouch...glowing? {{size value=\"80\"}}{{delay3}}{{size value=\"100\"}}Could it\nbe you caught some {{color id=\"0\"}}fireflies{{color id=\"65535\"}}?{{size value=\"80\"}}{{size value=\"100\"}}\n\n{{fun_0003_0001 arg=\"0x0000\"}}I just got home, so...{{delay3}}can you please give\nme a moment to settle in?",
      "EUes": "{{fun_0003_0001 arg=\"0x0700\"}}¿Y ese brillo que sale de tu alforja?{{delay3}}\n¡Anda! ¿Has conseguido atrapar\nalgunas {{color id=\"0\"}}luciérnagas{{color id=\"65535\"}}?{{pageBreak}}{{fun_0003_0001 arg=\"0x0000\"}}Te lo agradezco, pero acabo de llegar a\ncasa y quiero descansar un poco.{{delay3}}\nDame unos minutos, ¿vale?",
      "EUfr": "{{fun_0003_0001 arg=\"0x0700\"}}Oh ! Qu'est-ce qui brille comme ça, dans\nta sacoche ? {{delay2}}Tu as trouvé des {{color id=\"0\"}}lucioles {{color id=\"65535\"}}?{{delay3}}\n\n{{fun_0003_0001 arg=\"0x0000\"}}C'est merveilleux, mais...{{delay3}} je viens à\npeine de rentrer, alors donne-moi juste\nle temps de me poser, d'accord ?",
      "EUit": "{{fun_0003_0001 arg=\"0x0700\"}}Ehi, ma la tua borsa sbrilluccica!\nNon mi dire che mi hai portato\nle {{color id=\"0\"}}lucciole{{color id=\"65535\"}}!{{delay3}}\n{{fun_0003_0001 arg=\"0x0000\"}}Però sono appena rientrata...{{delay3}}\nFammi riprendere fiato un attimo...",
      "EUnl": "{{fun_0003_0001 arg=\"0x0700\"}}Um... Zie ik daar iets gloeien? Heb je\ntoevallig {{color id=\"0\"}}vuurvliegjes{{color id=\"65535\"}} gevangen?{{pageBreak}}{{fun_0003_0001 arg=\"0x0000\"}}Ik ben net thuis,{{delay3}} dus ik moet even op\nadem komen...",
      "EUru": "{{fun_0003_0001 arg=\"0x0700\"}}Что это у тебя светится?{{delay1}}\nТы наловил {{color id=\"0\"}}светлячков{{color id=\"65535\"}}?!{{pageBreak}}{{fun_0003_0001 arg=\"0x0000\"}}Я только что домой зашла.{{delay1}}\nДай немного дух переведу.",
      "JPja": "{{fun_0003_0001 arg=\"0x0700\"}}あれ？ ポーチ{{ruby charSpan=\"1\" value=\"ひか\"}}光ってない？{{delay3}}\nもしかして{{color id=\"0\"}}ホタル{{color id=\"65535\"}}{{ruby charSpan=\"1\" value=\"つか\"}}捕まえてきてくれたの？{{size value=\"80\"}}\n{{fun_0003_0001 arg=\"0x0000\"}}{{size value=\"100\"}}{{ruby charSpan=\"1\" value=\"いま\"}}今 {{ruby charSpan=\"1\" value=\"かえ\"}}帰ったばかりだから…{{delay3}}\nひと{{ruby charSpan=\"1\" value=\"いき\"}}息つくまで ちょっと{{ruby charSpan=\"1\" value=\"ま\"}}待ってて…",
      "KRko": "{{fun_0003_0001 arg=\"0x0700\"}}어라? 주머니가 빛나고 있잖아?{{delay3}}\n혹시 {{color id=\"0\"}}반딧불이{{color id=\"65535\"}}를 잡아 와 준 거야?{{size value=\"80\"}}\n{{fun_0003_0001 arg=\"0x0000\"}}{{size value=\"100\"}}지금 막 돌아온 참이니까…{{delay3}}\n한숨 돌릴 때까지 잠시 기다려 줘…",
      "TWzh": "{{fun_0003_0001 arg=\"0x0700\"}}咦？你的袋子是不是在發光？{{delay3}}\n莫非你幫我捉到{{color id=\"0\"}}螢火蟲{{color id=\"65535\"}}了？{{size value=\"80\"}}\n{{fun_0003_0001 arg=\"0x0000\"}}{{size value=\"100\"}}我才剛回到家……{{delay3}}\n先等我喘口氣再說……",
      "USen": "{{fun_0003_0001 arg=\"0x0700\"}}Hm? Is your pouch...glowing? {{size value=\"80\"}}{{delay3}}{{size value=\"100\"}}Could it\nbe you caught some {{color id=\"0\"}}fireflies{{color id=\"65535\"}}?{{size value=\"80\"}}{{size value=\"100\"}}\n\n{{fun_0003_0001 arg=\"0x0000\"}}I just got home, so...{{delay3}}can you please give\nme a moment to settle in?",
      "USes": "{{fun_0003_0001 arg=\"0x0700\"}}¿Y ese brillo que sale de tu alforja?{{delay3}}\n¡No me digas! ¿En serio pudiste atrapar\nalgunas {{color id=\"0\"}}luciérnagas{{color id=\"65535\"}}?{{pageBreak}}{{fun_0003_0001 arg=\"0x0000\"}}Te lo agradezco, pero acabo de llegar a\ncasa y quiero descansar un poco.{{delay3}}\nDame unos minutos, ¿está bien?",
      "USfr": "{{fun_0003_0001 arg=\"0x0700\"}}Oh! Qu'est-ce qui brille comme ça, dans\nta sacoche?{{delay2}} Tu as trouvé des {{color id=\"0\"}}lucioles{{color id=\"65535\"}}?{{delay3}}\n\n{{fun_0003_0001 arg=\"0x0000\"}}C'est merveilleux, mais...{{delay3}} je viens à\npeine de rentrer, alors donne-moi juste\nle temps de me poser, d'accord?"
    }
  },
  {
    "label": "Talk12",
    "attribute": "0xF8010000",
    "locale": {
      "CNzh": "{{fun_0003_0001 arg=\"0x0700\"}}咦？你的袋子是不是在发光？{{delay3}}\n莫非……你替我捉来了吗？\n让我看！让我看！！",
      "EUde": "{{fun_0003_0001 arg=\"0x0700\"}}Nanu? Was leuchtet denn da in deiner\nTasche?{{delay1}} Hast du die etwa für mich\ngefangen?\nHol sie raus!{{delay1}} Hol sie raus!",
      "EUen": "{{fun_0003_0001 arg=\"0x0700\"}}Huh? That glowing... {{delay3}}Could it be you\ncaught some?! Show me, show me!",
      "EUes": "{{fun_0003_0001 arg=\"0x0700\"}}Oye, ¿sabes que tu alforja está\nbrillando?{{delay3}} ¡Oh! No me digas que son...{{pageBreak}}¡A ver, a ver!",
      "EUfr": "{{fun_0003_0001 arg=\"0x0700\"}}Oh ! Qu'est-ce qui brille comme ça, dans\nta sacoche ?{{delay1}} Tu as trouvé des {{color id=\"0\"}}lucioles {{color id=\"65535\"}}?\n\nMontre-moi ! Montre-moi !",
      "EUit": "{{fun_0003_0001 arg=\"0x0700\"}}Ehi, ma la tua borsa sbrilluccica!\nNon mi dire che mi hai portato\nle {{color id=\"0\"}}lucciole{{color id=\"65535\"}}!\nVedere vedere vedere!",
      "EUnl": "{{fun_0003_0001 arg=\"0x0700\"}}Huh? Gloeien die insecten? Heb je er\neen paar gevangen?{{delay3}} Laat zien, laat zien!",
      "EUru": "{{fun_0003_0001 arg=\"0x0700\"}}Что это у тебя в сумке светится?{{delay1}}\nТы наловил {{color id=\"0\"}}светлячков{{color id=\"65535\"}}?!{{delay1}}\nПокажи!{{delay1}} Покажи скорее!",
      "JPja": "{{fun_0003_0001 arg=\"0x0700\"}}あれ？ ポーチ{{ruby charSpan=\"1\" value=\"ひか\"}}光ってない？{{delay3}}\nもしかして… {{ruby charSpan=\"1\" value=\"つか\"}}捕まえてきてくれたの？\n{{ruby charSpan=\"1\" value=\"み\"}}見せて！ {{ruby charSpan=\"1\" value=\"み\"}}見せて！！",
      "KRko": "{{fun_0003_0001 arg=\"0x0700\"}}어라? 주머니가 빛나고 있잖아?{{delay3}}\n혹시… 잡아 와 준 거야?\n보여 줘! 보여 줘!!",
      "TWzh": "{{fun_0003_0001 arg=\"0x0700\"}}咦？你的袋子是不是在發光？{{delay3}}\n莫非……你替我捉來了嗎？\n讓我看！讓我看！！",
      "USen": "{{fun_0003_0001 arg=\"0x0700\"}}Huh? That glowing... {{delay3}}Could it be you\ncaught some?! Show me, show me!",
      "USes": "{{fun_0003_0001 arg=\"0x0700\"}}Oh, estos insectos que brillan...{{delay1}}\nNo me digas que son...{{pageBreak}}¡A ver, a ver!",
      "USfr": "{{fun_0003_0001 arg=\"0x0700\"}}Oh! Qu'est-ce qui brille comme ça, dans\nta sacoche?{{delay1}} Tu as trouvé des {{color id=\"0\"}}lucioles{{color id=\"65535\"}}?\n\nMontre-moi! Montre-moi!"
    }
  },
  {
    "label": "Talk21",
    "attribute": "0x18020000",
    "locale": {
      "CNzh": "{{fun_0003_0001 arg=\"0x0700\"}}你特地为拉兹莉\n带了{{color id=\"0\"}}萤火虫{{color id=\"65535\"}}过来对不对？\n给我看看！给我看看！！",
      "EUde": "{{fun_0003_0001 arg=\"0x0700\"}}Hast du etwa {{color id=\"0\"}}Glühwürmchen{{color id=\"65535\"}} nur für mich\nmitgebracht?{{pageBreak}}Hol sie raus!{{delay1}} Hol sie raus!",
      "EUen": "{{fun_0003_0001 arg=\"0x0700\"}}You brought some {{color id=\"0\"}}fireflies{{color id=\"65535\"}} for me,\ndidn't you?! Show me, show me!",
      "EUes": "{{fun_0003_0001 arg=\"0x0700\"}}¡Ay, qué nervios! ¡Estoy impaciente\npor ver las {{color id=\"0\"}}luciérnagas{{color id=\"65535\"}}!{{pageBreak}}¡Enséñamelas, por favor!",
      "EUfr": "{{fun_0003_0001 arg=\"0x0700\"}}Tu m'as apporté des {{color id=\"0\"}}lucioles{{color id=\"65535\"}}, j'en\nsuis sûre !\n\nJe t'en prie, montre-les-moi !",
      "EUit": "{{fun_0003_0001 arg=\"0x0700\"}}Mi hai portato le {{color id=\"0\"}}lucciole{{color id=\"65535\"}}, vero?{{pageBreak}}Vedere vedere vedere!",
      "EUnl": "{{fun_0003_0001 arg=\"0x0700\"}}Je hebt {{color id=\"0\"}}vuurvliegjes{{color id=\"65535\"}} voor me\nmeegebracht, of niet?\nLaat zien, laat zien!",
      "EUru": "{{fun_0003_0001 arg=\"0x0700\"}}Ты наловил для меня {{color id=\"0\"}}светлячков{{color id=\"65535\"}}?!{{delay1}}\nПокажи! Покажи скорее!",
      "JPja": "{{fun_0003_0001 arg=\"0x0700\"}}ラズリのために\n{{color id=\"0\"}}ホタル{{color id=\"65535\"}}{{ruby charSpan=\"1\" value=\"も\"}}持ってきてくれたんでしょ？\n{{ruby charSpan=\"1\" value=\"み\"}}見せて！ {{ruby charSpan=\"1\" value=\"み\"}}見せて！！",
      "KRko": "{{fun_0003_0001 arg=\"0x0700\"}}라즈리를 위해\n{{color id=\"0\"}}반딧불이{{color id=\"65535\"}}를 가져와 준 거지?\n보여 줘! 보여줘!!",
      "TWzh": "{{fun_0003_0001 arg=\"0x0700\"}}你特地為拉茲莉\n帶了{{color id=\"0\"}}螢火蟲{{color id=\"65535\"}}過來對不對？\n讓我看！讓我看！！",
      "USen": "{{fun_0003_0001 arg=\"0x0700\"}}You brought some {{color id=\"0\"}}fireflies{{color id=\"65535\"}} for me,\ndidn't you?! Show me, show me!",
      "USes": "{{fun_0003_0001 arg=\"0x0700\"}}¡Ay, qué nervios! ¡Estoy impaciente\npor ver las {{color id=\"0\"}}luciérnagas{{color id=\"65535\"}}!{{pageBreak}}¡Enséñamelas, por favor!",
      "USfr": "{{fun_0003_0001 arg=\"0x0700\"}}Tu m'as apporté des {{color id=\"0\"}}lucioles{{color id=\"65535\"}}, j'en\nsuis sûre!\n\nJe t'en prie, montre-les-moi!"
    }
  },
  {
    "label": "Near00",
    "attribute": "0x38020000",
    "locale": {
      "CNzh": "萤火虫～快来～",
      "EUde": "Kommt, Glühwürmchen!",
      "EUen": "Hello, firefly...",
      "EUes": "Ven, luciérnaga...",
      "EUfr": "Par ici, les lucioles !",
      "EUit": "Luccioleee!",
      "EUnl": "Kom hier, vuurvliegje.",
      "EUru": "Светлячок!",
      "JPja": "ホ～タル こい",
      "KRko": "반딧불이야, 안녕",
      "TWzh": "螢火蟲～快來～",
      "USen": "Hello, firefly...",
      "USes": "Ven, luciérnaga...",
      "USfr": "Par ici, les lucioles!"
    }
  },
  {
    "label": "Near01",
    "attribute": "0x58020000",
    "locale": {
      "CNzh": "萤火虫～快来～",
      "EUde": "Kommt, Glühwürmchen!",
      "EUen": "Hello, firefly...",
      "EUes": "Ven, luciernaguita.",
      "EUfr": "Par ici, les lucioles !",
      "EUit": "Luccioleee!",
      "EUnl": "Kom hier, vuurvliegje.",
      "EUru": "Светлячок!",
      "JPja": "ホ～タル こい",
      "KRko": "반딧불이야, 안녕",
      "TWzh": "螢火蟲～快來～",
      "USen": "Hello, firefly...",
      "USes": "Ven, luciernaguita.",
      "USfr": "Par ici, les lucioles!"
    }
  }
]