[
  {
    "label": "Talk00",
    "attribute": "0x60000000",
    "locale": {
      "CNzh": "{{fun_0003_0001 arg=\"0x0000\"}}姐姐在煮饭～\n普莉珂好闲～{{fun_0001_0004 arg=\"0x040005000001\"}}",
      "EUde": "{{fun_0003_0001 arg=\"0x0000\"}}Schwester kocht!\nPriko hat Langeweile!{{fun_0001_0004 arg=\"0x040005000001\"}}",
      "EUen": "{{fun_0003_0001 arg=\"0x0000\"}}When's food?! I'm BORED!{{fun_0001_0004 arg=\"0x040005000001\"}}",
      "EUes": "{{fun_0003_0001 arg=\"0x0000\"}}¿Cuándo eztará lizta la comida?\nMe abuuuuurro...{{fun_0001_0004 arg=\"0x040005000001\"}}",
      "EUfr": "{{fun_0003_0001 arg=\"0x0000\"}}Nono ! Quand est-ce qu'on mange ?\nJ'm'ennuiiiiiie...{{fun_0001_0004 arg=\"0x040005000001\"}}",
      "EUit": "{{fun_0003_0001 arg=\"0x0000\"}}Che faaameee!\nChe noiaaa.{{fun_0001_0004 arg=\"0x040005000001\"}}",
      "EUnl": "{{fun_0003_0001 arg=\"0x0000\"}}Wanneer eten we? Ik verveeeel me.{{fun_0001_0004 arg=\"0x040005000001\"}}",
      "EUru": "{{fun_0003_0001 arg=\"0x0000\"}}Сестренка готовит кушать,\nа я ничего не делаю!{{fun_0001_0004 arg=\"0x040005000001\"}}",
      "JPja": "{{fun_0003_0001 arg=\"0x0000\"}}{{ruby charSpan=\"1\" value=\"ねえ\"}}姉ちゃま ごはんー\nプリコ おひまー{{fun_0001_0004 arg=\"0x040005000001\"}}",
      "KRko": "{{fun_0003_0001 arg=\"0x0000\"}}언니 밥~\n푸리코 심심해~{{fun_0001_0004 arg=\"0x040005000001\"}}",
      "TWzh": "{{fun_0003_0001 arg=\"0x0000\"}}姊姊在煮飯～\n普莉珂好閒～{{fun_0001_0004 arg=\"0x040005000001\"}}",
      "USen": "{{fun_0003_0001 arg=\"0x0000\"}}When's food?! I'm BORED!{{fun_0001_0004 arg=\"0x040005000001\"}}",
      "USes": "{{fun_0003_0001 arg=\"0x0000\"}}¿Cuándo va a eztar lizta la comida?\nMe abuuuuurro...{{fun_0001_0004 arg=\"0x040005000001\"}}",
      "USfr": "{{fun_0003_0001 arg=\"0x0000\"}}Nono! Quand est-ce qu'on mange?\nJ'm'ennuiiiiiie...{{fun_0001_0004 arg=\"0x040005000001\"}}"
    }
  },
  {
    "label": "Talk10",
    "attribute": "0x80000000",
    "locale": {
      "CNzh": "{{fun_0003_0001 arg=\"0x0700\"}}{{size value=\"125\"}}好啊～！{{size value=\"100\"}}\n\n玩什么～？\n玩什么～？{{fun_0001_0005 arg=\"0x0000010002000002\"}}",
      "EUde": "{{fun_0003_0001 arg=\"0x0700\"}}{{size value=\"125\"}}In Ordnung!{{size value=\"100\"}}\n\n\nWas spielen wir?\nWas spielen wir?{{fun_0001_0005 arg=\"0x0000010002000002\"}}",
      "EUen": "{{fun_0003_0001 arg=\"0x0700\"}}{{size value=\"125\"}}YAAAY!{{size value=\"100\"}}\nWhat'll it be?\nWhat'll it be?{{fun_0001_0005 arg=\"0x0000010002000002\"}}",
      "EUes": "{{fun_0003_0001 arg=\"0x0700\"}}{{size value=\"125\"}}¡Vaaale!{{size value=\"100\"}}{{pageBreak}}¿A qué vámoz a jugar? ¿A qué?{{fun_0001_0005 arg=\"0x0000010002000002\"}}",
      "EUfr": "{{fun_0003_0001 arg=\"0x0700\"}}{{size value=\"125\"}}Youpiiii !{{size value=\"100\"}}\n\n\nOn joue à quoi ? On joue à quoi ?{{fun_0001_0005 arg=\"0x0000010002000002\"}}",
      "EUit": "{{fun_0003_0001 arg=\"0x0700\"}}{{size value=\"125\"}}Vabbeeeneee!{{size value=\"100\"}}\n\n\nA che gioco giochiamo?\nDai! A che gioco giochiamo?{{fun_0001_0005 arg=\"0x0000010002000002\"}}",
      "EUnl": "{{fun_0003_0001 arg=\"0x0700\"}}{{size value=\"125\"}}Oooké!{{pageBreak}}{{size value=\"100\"}}Wat gaan we doen?\nWat gaan we doen?{{fun_0001_0005 arg=\"0x0000010002000002\"}}",
      "EUru": "{{fun_0003_0001 arg=\"0x0700\"}}{{size value=\"125\"}}Ура-а!{{size value=\"100\"}}{{pageBreak}}А во что? Во что?{{fun_0001_0005 arg=\"0x0000010002000002\"}}",
      "JPja": "{{fun_0003_0001 arg=\"0x0700\"}}{{size value=\"125\"}}いーよー！{{size value=\"100\"}}\n\n{{ruby charSpan=\"1\" value=\"なに\"}}何するー？\n{{ruby charSpan=\"1\" value=\"なに\"}}何するー？{{fun_0001_0005 arg=\"0x0000010002000002\"}}",
      "KRko": "{{fun_0003_0001 arg=\"0x0700\"}}{{size value=\"125\"}}좋~아~!{{size value=\"100\"}}\n\n뭐 할 거야~?\n뭐 할 거야~?{{fun_0001_0005 arg=\"0x0000010002000002\"}}",
      "TWzh": "{{fun_0003_0001 arg=\"0x0700\"}}{{size value=\"125\"}}好啊～！{{size value=\"100\"}}\n\n玩什麼～？\n玩什麼～？{{fun_0001_0005 arg=\"0x0000010002000002\"}}",
      "USen": "{{fun_0003_0001 arg=\"0x0700\"}}{{size value=\"125\"}}YAAAY!{{size value=\"100\"}}\nWhat'll it be?\nWhat'll it be?{{fun_0001_0005 arg=\"0x0000010002000002\"}}",
      "USes": "{{fun_0003_0001 arg=\"0x0700\"}}{{size value=\"125\"}}¡Yupííí!{{size value=\"100\"}}{{pageBreak}}¿Qué vamoz a hacer? ¿Qué?{{fun_0001_0005 arg=\"0x0000010002000002\"}}",
      "USfr": "{{fun_0003_0001 arg=\"0x0700\"}}{{size value=\"125\"}}Youpiiii!{{size value=\"100\"}}\n\n\nOn joue à quoi?\nOn joue à quoi?{{fun_0001_0005 arg=\"0x0000010002000002\"}}"
    }
  },
  {
    "label": "0000",
    "attribute": "0xA0000000",
    "locale": {
      "CNzh": "躲猫猫",
      "EUde": "Verstecken!",
      "EUen": "Hide-and-seek!",
      "EUes": "Al escondite",
      "EUfr": "À cache-cache !",
      "EUit": "Nascondino!",
      "EUnl": "Verstoppertje.",
      "EUru": "В прятки",
      "JPja": "かくれんぼ",
      "KRko": "숨바꼭질",
      "TWzh": "躲貓貓",
      "USen": "Hide-and-seek!",
      "USes": "Jugar a las escondidas",
      "USfr": "À la cachette!"
    }
  },
  {
    "label": "0001",
    "attribute": "0xA2000000",
    "locale": {
      "CNzh": "鬼抓人",
      "EUde": "Nachlaufen!",
      "EUen": "Tag!",
      "EUes": "Al pillapilla",
      "EUfr": "À chat !",
      "EUit": "T'acchiappo!",
      "EUnl": "Tikkertje.",
      "EUru": "В салочки",
      "JPja": "おいかけっこ",
      "KRko": "술래잡기",
      "TWzh": "鬼抓人",
      "USen": "Tag!",
      "USes": "Te persigo",
      "USfr": "À la tague!"
    }
  },
  {
    "label": "0002",
    "attribute": "0xA4000000",
    "locale": {
      "CNzh": "不玩",
      "EUde": "Nichts.",
      "EUen": "I can't play right now.",
      "EUes": "No quiero jugar",
      "EUfr": "À rien du tout !",
      "EUit": "Non mi va.",
      "EUnl": "Niet spelen.",
      "EUru": "Я передумал",
      "JPja": "しない",
      "KRko": "안 한다",
      "TWzh": "不玩",
      "USen": "I can't play right now.",
      "USes": "No quiero jugar",
      "USfr": "À rien du tout!"
    }
  },
  {
    "label": "0004",
    "attribute": "0xA6000000",
    "locale": {
      "CNzh": "要一起玩吗？",
      "EUde": "Willst du spielen?",
      "EUen": "Wanna play?",
      "EUes": "¿Juegas conmigo?",
      "EUfr": "Tu joues avec moi ?",
      "EUit": "Vuoi giocare?",
      "EUnl": "Wil je spelen?",
      "EUru": "Хочешь поиграть?",
      "JPja": "{{ruby charSpan=\"2\" value=\"いっしょ\"}}一緒に{{ruby charSpan=\"1\" value=\"あそ\"}}遊ぶ？",
      "KRko": "같이 놀래?",
      "TWzh": "要一起玩嗎？",
      "USen": "Wanna play?",
      "USes": "¿Juegas conmigo?",
      "USfr": "Tu joues avec moi?"
    }
  },
  {
    "label": "0005",
    "attribute": "0xA8000000",
    "locale": {
      "CNzh": "再见",
      "EUde": "Tschüss.",
      "EUen": "See ya later.",
      "EUes": "¡Nos vemos!",
      "EUfr": "À plus tard !",
      "EUit": "Ciao ciao!",
      "EUnl": "Tot later!",
      "EUru": "Пока!",
      "JPja": "またね",
      "KRko": "또 보자",
      "TWzh": "再見",
      "USen": "See ya later.",
      "USes": "¡Nos vemos!",
      "USfr": "À plus tard!"
    }
  },
  {
    "label": "Talk01",
    "attribute": "0xAA000000",
    "locale": {
      "CNzh": "{{fun_0003_0001 arg=\"0x0700\"}}{{size value=\"125\"}}好啊～！{{size value=\"100\"}}\n\n{{fun_0003_0001 arg=\"0x0000\"}}普莉珂要藏起来～\n\n可是，一到吃晚饭的时间，\n就要回去找姐姐～",
      "EUde": "{{fun_0003_0001 arg=\"0x0700\"}}{{size value=\"125\"}}In Ordnung!{{size value=\"100\"}}\n\n\n{{fun_0003_0001 arg=\"0x0000\"}}Priko versteckt sich!\n\n\nAber wenn es Zeit fürs Abendbrot ist,\ngehe ich zur Schwester!",
      "EUen": "{{fun_0003_0001 arg=\"0x0700\"}}{{size value=\"125\"}}YAAAAY!{{delay1}}{{size value=\"100\"}}\n\n\n{{fun_0003_0001 arg=\"0x0000\"}}I'll go hiiiide!\n\n\nBut I've gotta go home to Sis\nwhen it's dinnertime, OK?",
      "EUes": "{{fun_0003_0001 arg=\"0x0700\"}}{{size value=\"125\"}}¡Chachi!{{size value=\"100\"}}{{pageBreak}}{{fun_0003_0001 arg=\"0x0000\"}}¡Yo me ezconderé!{{pageBreak}}Pero cuando zea hora de cenar, iré\ncorriendo a ver a mi hermanita,\n¿vale?",
      "EUfr": "{{fun_0003_0001 arg=\"0x0700\"}}{{size value=\"125\"}}Trooop bien !{{size value=\"100\"}}\n\n\n{{fun_0003_0001 arg=\"0x0000\"}}C'est moi qui me cache-cache !\n\n\nMais je rentre voir Nono quand c'est\nl'heure de manger, d'accord ?",
      "EUit": "{{fun_0003_0001 arg=\"0x0700\"}}{{size value=\"125\"}}Ceeerto!{{size value=\"100\"}}\n\n\n{{fun_0003_0001 arg=\"0x0000\"}}Io mi nascondo! Tu stai sotto!\n\n\nPerò all'ora della pappa torno\na casa dalla mia sorellona, eh!",
      "EUnl": "{{fun_0003_0001 arg=\"0x0700\"}}{{size value=\"125\"}}Okidoki!{{pageBreak}}{{size value=\"100\"}}{{fun_0003_0001 arg=\"0x0000\"}}Ik ga me verstoppen!{{pageBreak}}Maar als het etenstijd is, ga ik naar het\nhuis van mijn zus, oké?",
      "EUru": "{{fun_0003_0001 arg=\"0x0700\"}}{{size value=\"125\"}}Ура-а!{{size value=\"100\"}}{{pageBreak}}{{fun_0003_0001 arg=\"0x0000\"}}Чур, я прячусь!{{pageBreak}}Но вечером я пойду домой!{{delay1}}\nСестренка приготовит ужин!",
      "JPja": "{{fun_0003_0001 arg=\"0x0700\"}}{{size value=\"125\"}}いーよー！{{size value=\"100\"}}\n\n{{fun_0003_0001 arg=\"0x0000\"}}プリコ {{ruby charSpan=\"1\" value=\"かく\"}}隠れるー\n\nでも {{ruby charSpan=\"1\" value=\"よる\"}}夜ゴハンになったら\n{{ruby charSpan=\"1\" value=\"ねえ\"}}姉ちゃまのとこ {{ruby charSpan=\"1\" value=\"かえ\"}}帰るー",
      "KRko": "{{fun_0003_0001 arg=\"0x0700\"}}{{size value=\"125\"}}좋~아~!{{size value=\"100\"}}\n\n{{fun_0003_0001 arg=\"0x0000\"}}푸리코 잘 숨어~\n\n그치만 저녁 시간이 되면\n언니한테 돌아갈 거야~",
      "TWzh": "{{fun_0003_0001 arg=\"0x0700\"}}{{size value=\"125\"}}好啊～！{{size value=\"100\"}}\n\n{{fun_0003_0001 arg=\"0x0000\"}}普莉珂要躲起來～\n\n可是，一到吃晚飯的時間，\n就要回去找姊姊～",
      "USen": "{{fun_0003_0001 arg=\"0x0700\"}}{{size value=\"125\"}}YAAAAY!{{delay1}}{{size value=\"100\"}}\n\n\n{{fun_0003_0001 arg=\"0x0000\"}}I'll go hiiiide!\n\n\nBut I've gotta go home to Sis\nwhen it's dinnertime, OK?",
      "USes": "{{fun_0003_0001 arg=\"0x0700\"}}{{size value=\"125\"}}¡Bravooo!{{size value=\"100\"}}{{pageBreak}}{{fun_0003_0001 arg=\"0x0000\"}}¡Yo me ezconderé primero!{{pageBreak}}Pero cuando zea hora de cenar iré\ncorriendo a ver a mi hermanita,\n¿oízte?",
      "USfr": "{{fun_0003_0001 arg=\"0x0700\"}}{{size value=\"125\"}}Trooop cool!{{size value=\"100\"}}\n\n\n{{fun_0003_0001 arg=\"0x0000\"}}C'est moi qui me cache!\n\n\nMais je rentre voir Nono quand c'est\nl'heure de manger, d'accord?"
    }
  },
  {
    "label": "Talk07",
    "attribute": "0xCA000000",
    "locale": {
      "CNzh": "{{fun_0003_0001 arg=\"0x0700\"}}{{size value=\"125\"}}好啊～！{{size value=\"100\"}}\n\n{{fun_0003_0001 arg=\"0x0000\"}}普莉珂快跑～\n\n可是，一到吃晚饭的时间，\n就要回去找姐姐～",
      "EUde": "{{fun_0003_0001 arg=\"0x0700\"}}{{size value=\"125\"}}In Ordnung!{{size value=\"100\"}}\n\n\n{{fun_0003_0001 arg=\"0x0000\"}}Priko läuft vor dir weg!\n\n\nAber wenn es Zeit fürs Abendbrot ist,\ngehe ich zur Schwester!",
      "EUen": "{{fun_0003_0001 arg=\"0x0700\"}}{{size value=\"125\"}}YAAAAY!{{size value=\"100\"}}\n\n\n{{fun_0003_0001 arg=\"0x0000\"}}I'll start running!\n\n\nBut I've gotta go home to Sis\nwhen it's dinnertime, OK?",
      "EUes": "{{fun_0003_0001 arg=\"0x0700\"}}{{size value=\"125\"}}¡Chachi!{{size value=\"100\"}}{{pageBreak}}{{fun_0003_0001 arg=\"0x0000\"}}¡Yo tendré que ezcapar!{{pageBreak}}Pero cuando zea hora de cenar, iré\ncorriendo a ver a mi hermanita,\n¿vale?",
      "EUfr": "{{fun_0003_0001 arg=\"0x0700\"}}{{size value=\"125\"}}Trooop bien !{{size value=\"100\"}}\n\n\n{{fun_0003_0001 arg=\"0x0000\"}}Alors c'est toi le chat !\n\n\nMais je rentre voir Nono quand c'est\nl'heure de manger, d'accord ?",
      "EUit": "{{fun_0003_0001 arg=\"0x0700\"}}{{size value=\"125\"}}Ceeerto!{{size value=\"100\"}}\n\n\n{{fun_0003_0001 arg=\"0x0000\"}}Io scappo e tu mi acchiappi!\n\n\nPerò all'ora della pappa torno\na casa dalla mia sorellona, eh!",
      "EUnl": "{{fun_0003_0001 arg=\"0x0700\"}}{{size value=\"125\"}}Okidoki!{{pageBreak}}{{size value=\"100\"}}{{fun_0003_0001 arg=\"0x0000\"}}Jij bent hem!{{pageBreak}}Maar als het etenstijd is, ga ik naar het\nhuis van mijn zus, oké?",
      "EUru": "{{fun_0003_0001 arg=\"0x0700\"}}{{size value=\"125\"}}Ура-а!{{size value=\"100\"}}{{pageBreak}}{{fun_0003_0001 arg=\"0x0000\"}}Чур, я убегаю!{{pageBreak}}Но вечером я пойду домой!{{delay1}}\nСестренка приготовит ужин!",
      "JPja": "{{fun_0003_0001 arg=\"0x0700\"}}{{size value=\"125\"}}いーよー！{{size value=\"100\"}}\n\n{{fun_0003_0001 arg=\"0x0000\"}}プリコ {{ruby charSpan=\"1\" value=\"に\"}}逃げるー\n\nでも {{ruby charSpan=\"1\" value=\"よる\"}}夜ゴハンになったら\n{{ruby charSpan=\"1\" value=\"ねえ\"}}姉ちゃまのとこ {{ruby charSpan=\"1\" value=\"かえ\"}}帰るー",
      "KRko": "{{fun_0003_0001 arg=\"0x0700\"}}{{size value=\"125\"}}좋~아~!{{size value=\"100\"}}\n\n{{fun_0003_0001 arg=\"0x0000\"}}푸리코 도망갈게~\n\n그치만 저녁 시간이 되면\n언니한테 돌아갈 거야~",
      "TWzh": "{{fun_0003_0001 arg=\"0x0700\"}}{{size value=\"125\"}}好啊～！{{size value=\"100\"}}\n\n{{fun_0003_0001 arg=\"0x0000\"}}普莉珂要當人～\n\n可是，一到吃晚飯的時間，\n就要回去找姊姊～",
      "USen": "{{fun_0003_0001 arg=\"0x0700\"}}{{size value=\"125\"}}YAAAAY!{{size value=\"100\"}}\n\n\n{{fun_0003_0001 arg=\"0x0000\"}}I'll start running!\n\n\nBut I've gotta go home to Sis\nwhen it's dinnertime, OK?",
      "USes": "{{fun_0003_0001 arg=\"0x0700\"}}{{size value=\"125\"}}¡Bravooo!{{size value=\"100\"}}{{pageBreak}}{{fun_0003_0001 arg=\"0x0000\"}}¡No voy a dejar que me atrapez!{{pageBreak}}Pero cuando sea hora de cenar iré\ncorriendo a ver a mi hermanita, ¿eh?",
      "USfr": "{{fun_0003_0001 arg=\"0x0700\"}}{{size value=\"125\"}}Trooop cool!{{size value=\"100\"}}\n\n\n{{fun_0003_0001 arg=\"0x0000\"}}Alors, c'est toi la tague!\n\n\nMais je rentre voir Nono quand c'est\nl'heure de manger, d'accord?"
    }
  },
  {
    "label": "Talk02",
    "attribute": "0xEA000000",
    "locale": {
      "CNzh": "{{fun_0003_0001 arg=\"0x0000\"}}普莉珂被找到了～！\n\n{{fun_0003_0001 arg=\"0x0700\"}}{{size value=\"125\"}}不过，真好玩～！！{{size value=\"100\"}}\n\n这是普莉珂的宝物～\n送给大哥哥～！",
      "EUde": "{{fun_0003_0001 arg=\"0x0000\"}}Du hast Priko gefunden!\n\n\n{{fun_0003_0001 arg=\"0x0700\"}}{{size value=\"125\"}}Aber es hat Spaß gemacht!{{size value=\"100\"}}\n\n\nDas hier ist Prikos Schatz!\nHier, für dich!",
      "EUen": "{{fun_0003_0001 arg=\"0x0000\"}}Boo! You found me!\n\n\n{{fun_0003_0001 arg=\"0x0700\"}}{{size value=\"125\"}}THAT WAS SO FUN, THOUGH!{{size value=\"100\"}}\n\n\nThis is my secret treasure...\nBut here, you can have it!",
      "EUes": "{{fun_0003_0001 arg=\"0x0000\"}}¡Ay, me haz encontrado!{{pageBreak}}{{fun_0003_0001 arg=\"0x0700\"}}{{size value=\"125\"}}¡PERO HA MOLADO MUCHO!{{size value=\"100\"}}{{pageBreak}}Ezte ez mi tezoro zecreto,\n¡pero te dejo que te lo quédez!",
      "EUfr": "{{fun_0003_0001 arg=\"0x0000\"}}Oh, tu m'as trouvée...\n\n\n{{fun_0003_0001 arg=\"0x0700\"}}{{size value=\"125\"}}MAIS C'ÉTAIT TROOOP BIEN !{{size value=\"100\"}}\n\n\nRegarde, c'est mon trésor à moi toute\nseule ! Mais toi t'es gentil, alors je te\nle donne.",
      "EUit": "{{fun_0003_0001 arg=\"0x0000\"}}Mi hai trovata!\n\n\n{{fun_0003_0001 arg=\"0x0700\"}}{{size value=\"125\"}}CHE SPASSOOO!{{size value=\"100\"}}\n\n\nQuesto è il mio tesoro segreto.\nPrendilo tu!",
      "EUnl": "{{fun_0003_0001 arg=\"0x0000\"}}Je hebt me gevonden!{{pageBreak}}{{fun_0003_0001 arg=\"0x0700\"}}{{size value=\"125\"}}MAAR DAT WAS LEUK!{{size value=\"100\"}}{{pageBreak}}Dit is mijn geheime schat... Maar jij mag\nhem hebben!",
      "EUru": "{{fun_0003_0001 arg=\"0x0000\"}}Ты меня нашел!{{pageBreak}}{{fun_0003_0001 arg=\"0x0700\"}}{{size value=\"125\"}}Обожаю прятки!{{size value=\"100\"}}{{pageBreak}}У меня есть настоящее\nсокровище.{{delay1}} Вот, возьми!",
      "JPja": "{{fun_0003_0001 arg=\"0x0000\"}}プリコ {{ruby charSpan=\"1\" value=\"み\"}}見つかったー！\n\n{{fun_0003_0001 arg=\"0x0700\"}}{{size value=\"125\"}}でも たのしかったー！！{{size value=\"100\"}}\n\nこれ プリコの{{ruby charSpan=\"2\" value=\"たからもの\"}}宝物ー\nあげるー！",
      "KRko": "{{fun_0003_0001 arg=\"0x0000\"}}푸리코 들켰다~!\n\n{{fun_0003_0001 arg=\"0x0700\"}}{{size value=\"125\"}}그치만 재밌었어~!!{{size value=\"100\"}}\n\n이거 푸리코 보물~\n줄게~!",
      "TWzh": "{{fun_0003_0001 arg=\"0x0000\"}}普莉珂被找到了～！\n\n{{fun_0003_0001 arg=\"0x0700\"}}{{size value=\"125\"}}不過，真好玩～！！{{size value=\"100\"}}\n\n這是普莉珂的寶物～\n送給大哥哥～！",
      "USen": "{{fun_0003_0001 arg=\"0x0000\"}}Boo! You found me!\n\n\n{{fun_0003_0001 arg=\"0x0700\"}}{{size value=\"125\"}}THAT WAS SO FUN, THOUGH!{{size value=\"100\"}}\n\n\nThis is my secret treasure...\nBut here, you can have it!",
      "USes": "{{fun_0003_0001 arg=\"0x0000\"}}¡Ay, me encontraztez!{{pageBreak}}{{fun_0003_0001 arg=\"0x0700\"}}{{size value=\"125\"}}¡PERO ME DIVERTÍ MUCHOOO!{{size value=\"100\"}}{{pageBreak}}Ezte es mi tezoro zecreto,\n¡pero te dejo que te lo quédez!",
      "USfr": "{{fun_0003_0001 arg=\"0x0000\"}}Oh, tu m'as trouvée...\n\n\n{{fun_0003_0001 arg=\"0x0700\"}}{{size value=\"125\"}}MAIS C'ÉTAIT TROOOP GÉNIAL!{{size value=\"100\"}}\n\n\nRegarde, c'est mon trésor à moi toute\nseule! Mais toi t'es gentil, alors je te\nle donne."
    }
  },
  {
    "label": "Talk03",
    "attribute": "0x0A010000",
    "locale": {
      "CNzh": "{{fun_0003_0001 arg=\"0x0900\"}}……可是普莉珂\n现在很闲呀～",
      "EUde": "{{fun_0003_0001 arg=\"0x0900\"}}Aber Priko ist doch langweilig!",
      "EUen": "{{fun_0003_0001 arg=\"0x0900\"}}But...I'm bored...",
      "EUes": "{{fun_0003_0001 arg=\"0x0900\"}}¿Aunque ezté muuuy aburrida?",
      "EUfr": "{{fun_0003_0001 arg=\"0x0900\"}}Mais maintenant, je m'ennuie encore...",
      "EUit": "{{fun_0003_0001 arg=\"0x0900\"}}Però che noia. Mi scoccio!",
      "EUnl": "{{fun_0003_0001 arg=\"0x0900\"}}Hoewel...\nIk verveel me?",
      "EUru": "{{fun_0003_0001 arg=\"0x0900\"}}Я так хотела поиграть...",
      "JPja": "{{fun_0003_0001 arg=\"0x0900\"}}…プリコ\nお{{ruby charSpan=\"1\" value=\"ひま\"}}暇なのに？",
      "KRko": "{{fun_0003_0001 arg=\"0x0900\"}}…푸리코\n심심한데?",
      "TWzh": "{{fun_0003_0001 arg=\"0x0900\"}}……可是普莉珂\n現在很閒耶～",
      "USen": "{{fun_0003_0001 arg=\"0x0900\"}}But...I'm bored...",
      "USes": "{{fun_0003_0001 arg=\"0x0900\"}}¿Aunque ezté muuuy aburrida?",
      "USfr": "{{fun_0003_0001 arg=\"0x0900\"}}Mais maintenant, je m'ennuie encore..."
    }
  },
  {
    "label": "Talk05",
    "attribute": "0x2A010000",
    "locale": {
      "CNzh": "{{fun_0003_0001 arg=\"0x0413\"}}咦～？\n行李还是满的？{{delay3}}\n{{fun_0003_0001 arg=\"0x0900\"}}这样的话，普莉珂的这个咸咸又硬硬的东西\n就不能送给大哥哥了……",
      "EUde": "{{fun_0003_0001 arg=\"0x0413\"}}Nanu?\nNoch immer kein Platz in deiner Tasche?{{delay3}}{{pageBreak}}{{fun_0003_0001 arg=\"0x0900\"}}Dann kann Priko dir nichts Hartes\ngeben...",
      "EUen": "{{fun_0003_0001 arg=\"0x0413\"}}Huh? {{delay3}}Your pockets are all filled up!\n\n\n{{fun_0003_0001 arg=\"0x0900\"}}Now I can't give you my\nsalty crunchers...",
      "EUes": "{{fun_0003_0001 arg=\"0x0413\"}}¡Tiénez loz bolzílloz llénoz a tope!{{delay3}}\n{{fun_0003_0001 arg=\"0x0900\"}}Azí no podraz guardar mi tezoro...",
      "EUfr": "{{fun_0003_0001 arg=\"0x0413\"}}Hé, mais t'as trop d'affaires dans ton\npetit sac !{{delay3}}\n\n{{fun_0003_0001 arg=\"0x0900\"}}T'as pas la place pour mon trésor...",
      "EUit": "{{fun_0003_0001 arg=\"0x0413\"}}Ohi!\nQuante cose che hai, sei pieno!{{delay3}}\n\n{{fun_0003_0001 arg=\"0x0900\"}}Così non ti posso dare il mio tesoro\nbellissimissimo!",
      "EUnl": "{{fun_0003_0001 arg=\"0x0413\"}}Hé! Je hebt geen ruimte meer!{{pageBreak}}{{fun_0003_0001 arg=\"0x0900\"}}Zo kan ik je mijn schat niet geven...",
      "EUru": "{{fun_0003_0001 arg=\"0x0413\"}}Ой, у тебя в сумке нет места.{{pageBreak}}{{fun_0003_0001 arg=\"0x0900\"}}Значит, я не могу отдать\nтебе свое сокровище...",
      "JPja": "{{fun_0003_0001 arg=\"0x0413\"}}あれー？\nまだ お{{ruby charSpan=\"2\" value=\"にもつ\"}}荷物いっぱい？{{delay3}}\n{{fun_0003_0001 arg=\"0x0900\"}}プリコの しょっぱいカチカチ\nあげられない…",
      "KRko": "{{fun_0003_0001 arg=\"0x0413\"}}어라~?\n아직 짐이 가득?{{delay3}}\n{{fun_0003_0001 arg=\"0x0900\"}}푸리코가 짭짤한 딱딱이\n주려고 했는데…",
      "TWzh": "{{fun_0003_0001 arg=\"0x0413\"}}咦～？\n行李還是滿的？{{delay3}}\n{{fun_0003_0001 arg=\"0x0900\"}}那普莉珂的這個鹹鹹又硬硬的寶物\n就不能送給大哥哥了……",
      "USen": "{{fun_0003_0001 arg=\"0x0413\"}}Huh? {{delay3}}Your pockets are all filled up!\n\n\n{{fun_0003_0001 arg=\"0x0900\"}}Now I can't give you my\nsalty crunchers...",
      "USes": "{{fun_0003_0001 arg=\"0x0413\"}}¡Tiénez loz bolzílloz llénoz, llénoz!{{delay3}}\n{{fun_0003_0001 arg=\"0x0900\"}}Azí no podraz guardar mi tezoro...",
      "USfr": "{{fun_0003_0001 arg=\"0x0413\"}}Hé, mais t'as trop d'affaires\ndans ton petit sac!{{delay3}}\n\n{{fun_0003_0001 arg=\"0x0900\"}}T'as pas de place pour mon trésor..."
    }
  },
  {
    "label": "Talk06",
    "attribute": "0x4A010000",
    "locale": {
      "CNzh": "{{fun_0003_0001 arg=\"0x0000\"}}大哥哥清过行李了？\n\n{{fun_0003_0001 arg=\"0x0700\"}}那么普莉珂的这个硬硬的东西\n就送给大哥哥啦！",
      "EUde": "{{fun_0003_0001 arg=\"0x0000\"}}Hast du deine Tasche ausgemistet?{{pageBreak}}{{fun_0003_0001 arg=\"0x0700\"}}Dann kriegst du jetzt von Priko was\nganz Hartes!",
      "EUen": "{{fun_0003_0001 arg=\"0x0000\"}}Did you make room?\n\n\n{{fun_0003_0001 arg=\"0x0700\"}}Yay! Now I can give you my\nsalty crunchers!",
      "EUes": "{{fun_0003_0001 arg=\"0x0000\"}}¿Ya tiénez zitio?{{pageBreak}}{{fun_0003_0001 arg=\"0x0700\"}}¡Entóncez puedo darte mi tezoro!",
      "EUfr": "{{fun_0003_0001 arg=\"0x0000\"}}Ça y est, t'as fait de la place dans\ntes affaires ?\n\n{{fun_0003_0001 arg=\"0x0700\"}}Trop bien, tu peux avoir mon trésor !",
      "EUit": "{{fun_0003_0001 arg=\"0x0000\"}}Hai fatto un po' di ordine?\n\n\n{{fun_0003_0001 arg=\"0x0700\"}}Bravo, allora ti regalo il mio tesoro\nbellissimissimo!",
      "EUnl": "{{fun_0003_0001 arg=\"0x0000\"}}Heb je weer ruimte gemaakt?{{pageBreak}}{{fun_0003_0001 arg=\"0x0700\"}}Dan kan ik je mijn schat geven!",
      "EUru": "{{fun_0003_0001 arg=\"0x0000\"}}Ой, ты освободил место\nдля моего сокровища!{{pageBreak}}{{fun_0003_0001 arg=\"0x0700\"}}Вот, возьми!",
      "JPja": "{{fun_0003_0001 arg=\"0x0000\"}}お{{ruby charSpan=\"2\" value=\"にもつ\"}}荷物お{{ruby charSpan=\"2\" value=\"かたづ\"}}片付けした？\n\n{{fun_0003_0001 arg=\"0x0700\"}}じゃあ プリコのカチカチ\nあげるー！",
      "KRko": "{{fun_0003_0001 arg=\"0x0000\"}}짐 정리했어?\n\n{{fun_0003_0001 arg=\"0x0700\"}}그럼 푸리코가 딱딱이\n줄게~!",
      "TWzh": "{{fun_0003_0001 arg=\"0x0000\"}}大哥哥清過行李了？\n\n{{fun_0003_0001 arg=\"0x0700\"}}那普莉珂的這個硬硬的寶物\n就送給大哥哥！",
      "USen": "{{fun_0003_0001 arg=\"0x0000\"}}Did you make room?\n\n\n{{fun_0003_0001 arg=\"0x0700\"}}Yay! Now I can give you my\nsalty crunchers!",
      "USes": "{{fun_0003_0001 arg=\"0x0000\"}}¿Ya tiénez ezpacio?{{pageBreak}}{{fun_0003_0001 arg=\"0x0700\"}}¡Entóncez puedo darte mi tezoro!",
      "USfr": "{{fun_0003_0001 arg=\"0x0000\"}}Ça y est, t'as fait de la place\ndans tes affaires?\n\n{{fun_0003_0001 arg=\"0x0700\"}}Trop bien, tu peux avoir mon trésor!"
    }
  },
  {
    "label": "Talk13",
    "attribute": "0x6A010000",
    "locale": {
      "CNzh": "{{fun_0003_0001 arg=\"0x0700\"}}要再来跟普莉珂玩哦～！",
      "EUde": "{{fun_0003_0001 arg=\"0x0700\"}}Spiel bald wieder mit Priko!",
      "EUen": "{{fun_0003_0001 arg=\"0x0700\"}}Come play with me again sometime!",
      "EUes": "{{fun_0003_0001 arg=\"0x0700\"}}¡A ver cuándo volvémoz a jugar júntoz!",
      "EUfr": "{{fun_0003_0001 arg=\"0x0700\"}}Tu reviendras jouer avec moi, hein oui ?",
      "EUit": "{{fun_0003_0001 arg=\"0x0700\"}}Torni a giocare con me?!",
      "EUnl": "{{fun_0003_0001 arg=\"0x0700\"}}Kom nog een keer met me spelen!",
      "EUru": "{{fun_0003_0001 arg=\"0x0700\"}}Давай потом еще поиграем!",
      "JPja": "{{fun_0003_0001 arg=\"0x0700\"}}また プリコとあそぼーね！",
      "KRko": "{{fun_0003_0001 arg=\"0x0700\"}}또 푸리코랑 놀~자!",
      "TWzh": "{{fun_0003_0001 arg=\"0x0700\"}}要再來跟普莉珂玩喔～！",
      "USen": "{{fun_0003_0001 arg=\"0x0700\"}}Come play with me again sometime!",
      "USes": "{{fun_0003_0001 arg=\"0x0700\"}}¡A ver cuándo volvemoz a jugar juntoz!",
      "USfr": "{{fun_0003_0001 arg=\"0x0700\"}}Tu reviendras jouer avec moi, hein oui?"
    }
  },
  {
    "label": "Talk08",
    "attribute": "0x8A010000",
    "locale": {
      "CNzh": "{{fun_0003_0001 arg=\"0x0900\"}}普莉珂被抓到了～！\n\n{{fun_0003_0001 arg=\"0x0700\"}}{{size value=\"125\"}}不过，真好玩～！！{{size value=\"100\"}}\n\n这是普莉珂的宝物～\n送给大哥哥～！",
      "EUde": "{{fun_0003_0001 arg=\"0x0900\"}}Priko hat verloren!\n\n\n{{fun_0003_0001 arg=\"0x0700\"}}{{size value=\"125\"}}Aber es hat Spaß gemacht!{{size value=\"100\"}}\n\n\nDas hier ist Prikos Schatz!\nHier, für dich!",
      "EUen": "{{fun_0003_0001 arg=\"0x0900\"}}Boo! You caught me!\n\n\n{{fun_0003_0001 arg=\"0x0700\"}}{{size value=\"125\"}}THAT WAS SO FUN THOUGH!{{size value=\"100\"}}\n\n\nThis is my secret treasure...\nBut here, you can have it!",
      "EUes": "{{fun_0003_0001 arg=\"0x0900\"}}¡Ay, me haz pillado!{{pageBreak}}{{fun_0003_0001 arg=\"0x0700\"}}{{size value=\"125\"}}¡PERO HA MOLADO MUCHO!{{size value=\"100\"}}{{pageBreak}}Ezte ez mi tezoro zecreto,\n¡pero te dejo que te lo quédez!",
      "EUfr": "{{fun_0003_0001 arg=\"0x0900\"}}Oooh, tu m'as attrapée...\n\n\n{{fun_0003_0001 arg=\"0x0700\"}}{{size value=\"125\"}}MAIS C'ÉTAIT TROOOP BIEN !{{size value=\"100\"}}\n\n\nRegarde, c'est mon trésor à moi toute\nseule ! Mais toi t'es gentil, alors je te\nle donne.",
      "EUit": "{{fun_0003_0001 arg=\"0x0900\"}}Mi hai presa!\n\n\n{{fun_0003_0001 arg=\"0x0700\"}}{{size value=\"125\"}}CHE SPASSOOO!{{size value=\"100\"}}\n\n\nQuesto è il mio tesoro segreto.\nPrendilo tu!",
      "EUnl": "{{fun_0003_0001 arg=\"0x0900\"}}Je hebt me getikt!{{pageBreak}}{{fun_0003_0001 arg=\"0x0700\"}}{{size value=\"125\"}}MAAR DAT WAS LEUK!{{size value=\"100\"}}{{pageBreak}}Dit is mijn geheime schat... Maar jij mag\nhem hebben!",
      "EUru": "{{fun_0003_0001 arg=\"0x0900\"}}Я попалась...{{pageBreak}}{{fun_0003_0001 arg=\"0x0700\"}}{{size value=\"125\"}}Обожаю салочки!{{size value=\"100\"}}{{pageBreak}}У меня есть настоящее\nсокровище.{{delay1}} Вот, возьми!",
      "JPja": "{{fun_0003_0001 arg=\"0x0900\"}}プリコ つかまったー！\n\n{{fun_0003_0001 arg=\"0x0700\"}}{{size value=\"125\"}}でも たのしかったー！！{{size value=\"100\"}}\n\nこれ プリコの{{ruby charSpan=\"2\" value=\"たからもの\"}}宝物ー\nあげるー！",
      "KRko": "{{fun_0003_0001 arg=\"0x0900\"}}푸리코 잡혔어~!\n\n{{fun_0003_0001 arg=\"0x0700\"}}{{size value=\"125\"}}그치만 재밌었어~!!{{size value=\"100\"}}\n\n이거 푸리코 보물~\n줄게~!",
      "TWzh": "{{fun_0003_0001 arg=\"0x0900\"}}普莉珂被抓到了～！\n\n{{fun_0003_0001 arg=\"0x0700\"}}{{size value=\"125\"}}不過，真好玩～！！{{size value=\"100\"}}\n\n這是普莉珂的寶物～\n送給大哥哥～！",
      "USen": "{{fun_0003_0001 arg=\"0x0900\"}}Boo! You caught me!\n\n\n{{fun_0003_0001 arg=\"0x0700\"}}{{size value=\"125\"}}THAT WAS SO FUN THOUGH!{{size value=\"100\"}}\n\n\nThis is my secret treasure...\nBut here, you can have it!",
      "USes": "{{fun_0003_0001 arg=\"0x0900\"}}¡Ay, me encontraztez!{{pageBreak}}{{fun_0003_0001 arg=\"0x0700\"}}{{size value=\"125\"}}¡PERO ME GUSTÓ MUCHOOO!{{size value=\"100\"}}{{pageBreak}}Ezte ez mi tesoro zecreto,\n¡pero te dejo que te lo quedez!",
      "USfr": "{{fun_0003_0001 arg=\"0x0900\"}}Oooh, tu m'as attrapée...\n\n\n{{fun_0003_0001 arg=\"0x0700\"}}{{size value=\"125\"}}MAIS C'ÉTAIT TROOOP GÉNIAL!{{size value=\"100\"}}\n\n\nRegarde, c'est mon trésor à moi toute\nseule! Mais toi t'es gentil, alors je te\nle donne."
    }
  },
  {
    "label": "Talk11",
    "attribute": "0xAA010000",
    "locale": {
      "CNzh": "{{fun_0003_0001 arg=\"0x0700\"}}硬硬的～",
      "EUde": "{{fun_0003_0001 arg=\"0x0700\"}}Das ist steinhart!",
      "EUen": "{{fun_0003_0001 arg=\"0x0700\"}}Crunchy crunchables!",
      "EUes": "{{fun_0003_0001 arg=\"0x0700\"}}Eztá duro como una piedra.",
      "EUfr": "{{fun_0003_0001 arg=\"0x0700\"}}Attention, hein ! Ça fait mal aux dents !",
      "EUit": "{{fun_0003_0001 arg=\"0x0700\"}}È bellissimissimo!",
      "EUnl": "{{fun_0003_0001 arg=\"0x0700\"}}Het is heel hard.",
      "EUru": "{{fun_0003_0001 arg=\"0x0700\"}}Оно очень твердое!",
      "JPja": "{{fun_0003_0001 arg=\"0x0700\"}}カチカチー",
      "KRko": "{{fun_0003_0001 arg=\"0x0700\"}}딱딱이~",
      "TWzh": "{{fun_0003_0001 arg=\"0x0700\"}}硬硬的～",
      "USen": "{{fun_0003_0001 arg=\"0x0700\"}}Crunchy crunchables!",
      "USes": "{{fun_0003_0001 arg=\"0x0700\"}}Eztá duro como una piedra.",
      "USfr": "{{fun_0003_0001 arg=\"0x0700\"}}Attention, hein!\nÇa fait mal aux dents!"
    }
  },
  {
    "label": "Talk12",
    "attribute": "0xCA010000",
    "locale": {
      "CNzh": "{{fun_0003_0001 arg=\"0x0413\"}}咦～？\n行李很满？{{delay3}}\n{{fun_0003_0001 arg=\"0x0900\"}}这样的话，普莉珂的这个咸咸又硬硬的东西\n就不能送给大哥哥了……",
      "EUde": "{{fun_0003_0001 arg=\"0x0413\"}}Oh!\nDeine Tasche ist voll?{{delay3}}{{pageBreak}}{{fun_0003_0001 arg=\"0x0900\"}}Dann kann Priko dir nichts Hartes\ngeben...",
      "EUen": "{{fun_0003_0001 arg=\"0x0413\"}}Huh?{{delay3}} You're outta room?\n\n\n{{fun_0003_0001 arg=\"0x0900\"}}But that means...I can't give you\nmy salty crunchers...",
      "EUes": "{{fun_0003_0001 arg=\"0x0413\"}}¡No tiénez nada de zitio!{{pageBreak}}{{fun_0003_0001 arg=\"0x0900\"}}Entóncez no puedo darte mi tezoro...",
      "EUfr": "{{fun_0003_0001 arg=\"0x0413\"}}Quoi ? T'as plus de place ?{{delay3}}\n\n\n{{fun_0003_0001 arg=\"0x0900\"}}Je peux pas te donner mon trésor à moi\ntoute seule, alors...",
      "EUit": "{{fun_0003_0001 arg=\"0x0413\"}}Ohi!\nQuante cose che hai, sei pieno!{{delay3}}\n\n{{fun_0003_0001 arg=\"0x0900\"}}Così non ti posso dare il mio tesoro\nbellissimissimo!",
      "EUnl": "{{fun_0003_0001 arg=\"0x0413\"}}Hé! Je hebt geen ruimte meer!{{pageBreak}}{{fun_0003_0001 arg=\"0x0900\"}}Zo kan ik je mijn zoutkristal niet geven...",
      "EUru": "{{fun_0003_0001 arg=\"0x0413\"}}Ой, у тебя в сумке нет места.{{pageBreak}}{{fun_0003_0001 arg=\"0x0900\"}}Значит, я не могу отдать\nтебе свое сокровище...",
      "JPja": "{{fun_0003_0001 arg=\"0x0413\"}}あれー？\nお{{ruby charSpan=\"2\" value=\"にもつ\"}}荷物いっぱい？{{delay3}}\n{{fun_0003_0001 arg=\"0x0900\"}}プリコの しょっぱいカチカチ\nあげられない…",
      "KRko": "{{fun_0003_0001 arg=\"0x0413\"}}어라~\n짐이 가득?{{delay3}}\n{{fun_0003_0001 arg=\"0x0900\"}}푸리코가 짭짤한 딱딱이\n주려고 했는데…",
      "TWzh": "{{fun_0003_0001 arg=\"0x0413\"}}咦～？\n行李很滿耶？{{delay3}}\n{{fun_0003_0001 arg=\"0x0900\"}}那普莉珂的這個鹹鹹又硬硬的寶物\n不能送給大哥哥了……",
      "USen": "{{fun_0003_0001 arg=\"0x0413\"}}Huh?{{delay3}} You're outta room?\n\n\n{{fun_0003_0001 arg=\"0x0900\"}}But that means...I can't give you\nmy salty crunchers...",
      "USes": "{{fun_0003_0001 arg=\"0x0413\"}}¡No tiénez nada de ezpacio!{{pageBreak}}{{fun_0003_0001 arg=\"0x0900\"}}Entóncez no puedo darte mi tezoro...",
      "USfr": "{{fun_0003_0001 arg=\"0x0413\"}}Quoi? T'as plus de place?{{delay3}}\n\n\n{{fun_0003_0001 arg=\"0x0900\"}}Je peux pas te donner mon trésor\nà moi toute seule, alors..."
    }
  },
  {
    "label": "Talk09",
    "attribute": "0xEA010000",
    "locale": {
      "CNzh": "{{fun_0003_0001 arg=\"0x0700\"}}亮晶晶～\n送给大哥哥～！",
      "EUde": "{{fun_0003_0001 arg=\"0x0700\"}}Du kriegst was Glänzendes!",
      "EUen": "{{fun_0003_0001 arg=\"0x0700\"}}Here, you can have this shiny thing!",
      "EUes": "{{fun_0003_0001 arg=\"0x0700\"}}¡Te daré ezta coza que brilla tanto!",
      "EUfr": "{{fun_0003_0001 arg=\"0x0700\"}}Tiens, je te donne ce truc qui brille !",
      "EUit": "{{fun_0003_0001 arg=\"0x0700\"}}Ti regalo il mio tesoro luccicoso!",
      "EUnl": "{{fun_0003_0001 arg=\"0x0700\"}}Hier, je mag dit glimding hebben!",
      "EUru": "{{fun_0003_0001 arg=\"0x0700\"}}Возьми вот эту блестяшку!",
      "JPja": "{{fun_0003_0001 arg=\"0x0700\"}}ピカピカー\nあげるー！",
      "KRko": "{{fun_0003_0001 arg=\"0x0700\"}}반짝이~\n줄게~!",
      "TWzh": "{{fun_0003_0001 arg=\"0x0700\"}}亮晶晶～\n送給大哥哥～！",
      "USen": "{{fun_0003_0001 arg=\"0x0700\"}}Here, you can have this shiny thing!",
      "USes": "{{fun_0003_0001 arg=\"0x0700\"}}¡Te daré ezta coza que brilla tanto!",
      "USfr": "{{fun_0003_0001 arg=\"0x0700\"}}C'est moi qui ai cuisiné toute seule!"
    }
  },
  {
    "label": "Talk14",
    "attribute": "0x0A020000",
    "locale": {
      "CNzh": "{{fun_0003_0001 arg=\"0x0413\"}}咦～？\n行李很满呀？{{delay3}}\n{{fun_0003_0001 arg=\"0x0900\"}}普莉珂难得想把自己的宝物\n送给大哥哥……",
      "EUde": "{{fun_0003_0001 arg=\"0x0413\"}}Oh!\nDeine Tasche ist voll?{{delay3}}{{pageBreak}}{{fun_0003_0001 arg=\"0x0900\"}}Dann kann Priko dir nicht ihren Schatz\ngeben...",
      "EUen": "{{fun_0003_0001 arg=\"0x0413\"}}Huh? {{delay3}}Your pouch is full?\n\n\n{{fun_0003_0001 arg=\"0x0900\"}}But now I can't give you my treasure!",
      "EUes": "{{fun_0003_0001 arg=\"0x0413\"}}Uy... Tiénez la alforja llena.{{pageBreak}}{{fun_0003_0001 arg=\"0x0900\"}}¡No puedo darte mi tezoro!",
      "EUfr": "{{fun_0003_0001 arg=\"0x0413\"}}Mais elle est déjà toute remplie,\nta sacoche !{{delay3}}\n\n{{fun_0003_0001 arg=\"0x0900\"}}Tant pis, t'auras pas mon trésor.",
      "EUit": "{{fun_0003_0001 arg=\"0x0413\"}}Ohi!\nQuante cose che hai, sei pieno!{{delay3}}\n\n{{fun_0003_0001 arg=\"0x0900\"}}Così non ti posso dare il mio tesoro\nbellissimissimo!",
      "EUnl": "{{fun_0003_0001 arg=\"0x0413\"}}Huh? Heb je geen ruimte meer?{{pageBreak}}{{fun_0003_0001 arg=\"0x0900\"}}Ik wilde je nog wel mijn schat geven...",
      "EUru": "{{fun_0003_0001 arg=\"0x0413\"}}Ой, у тебя в сумке нет места.{{pageBreak}}{{fun_0003_0001 arg=\"0x0900\"}}Значит, я не могу отдать\nтебе свое сокровище...",
      "JPja": "{{fun_0003_0001 arg=\"0x0413\"}}あれー？\nお{{ruby charSpan=\"2\" value=\"にもつ\"}}荷物いっぱい？{{delay3}}\n{{fun_0003_0001 arg=\"0x0900\"}}せっかく プリコの{{ruby charSpan=\"2\" value=\"たからもの\"}}宝物\nあげようと{{ruby charSpan=\"1\" value=\"おも\"}}思ってたのに…",
      "KRko": "{{fun_0003_0001 arg=\"0x0413\"}}어라~?\n짐이 가득?{{delay3}}\n{{fun_0003_0001 arg=\"0x0900\"}}푸리코가 보물\n주려고 했는데…",
      "TWzh": "{{fun_0003_0001 arg=\"0x0413\"}}咦～？\n行李很滿耶？{{delay3}}\n{{fun_0003_0001 arg=\"0x0900\"}}普莉珂難得想把自己的寶物\n送給大哥哥……",
      "USen": "{{fun_0003_0001 arg=\"0x0413\"}}Huh? {{delay3}}Your pouch is full?\n\n\n{{fun_0003_0001 arg=\"0x0900\"}}But now I can't give you my treasure!",
      "USes": "{{fun_0003_0001 arg=\"0x0413\"}}Uy... Tiénez la alforja llena.{{pageBreak}}{{fun_0003_0001 arg=\"0x0900\"}}¡No puedo darte mi tezoro!",
      "USfr": "{{fun_0003_0001 arg=\"0x0413\"}}Mais elle est déjà toute remplie,\nta sacoche!{{delay3}}\n\n{{fun_0003_0001 arg=\"0x0900\"}}Tant pis, t'auras pas mon trésor."
    }
  },
  {
    "label": "Near00",
    "attribute": "0x2A020000",
    "locale": {
      "CNzh": "快来追～快来追～",
      "EUde": "Nachlaufen!",
      "EUen": "Run, run!",
      "EUes": "¡A correr, a correr!",
      "EUfr": "Vite, vite, vite !",
      "EUit": "Non mi prendi!",
      "EUnl": "Rennen, rennen!",
      "EUru": "Салочки!",
      "JPja": "かけっこ かけっこ～",
      "KRko": "달리기 달리기~",
      "TWzh": "快來追～快來追～",
      "USen": "Run, run!",
      "USes": "¡A correr, a correr!",
      "USfr": "Vite, vite, vite!"
    }
  },
  {
    "label": "Near01_kakekko",
    "attribute": "0x4A020000",
    "locale": {
      "CNzh": "快来追～快来追～",
      "EUde": "Nachlaufen!",
      "EUen": "Run, run!",
      "EUes": "¡Carreraaaaa!",
      "EUfr": "Vite, vite, vite !",
      "EUit": "Non mi prendi!",
      "EUnl": "Rennen, rennen!",
      "EUru": "Салочки!",
      "JPja": "かけっこ かけっこ～",
      "KRko": "달리기 달리기~",
      "TWzh": "快來追～快來追～",
      "USen": "Run, run!",
      "USes": "¡Carreraaaaa!",
      "USfr": "Vite, vite, vite!"
    }
  },
  {
    "label": "Near01_kakurenbo",
    "attribute": "0x6A020000",
    "locale": {
      "CNzh": "普莉珂躲起来～",
      "EUde": "Ab, ins Versteck!",
      "EUen": "I'ma hide!",
      "EUes": "¡Me ezconderé!",
      "EUfr": "Faut se cacher !",
      "EUit": "Non mi trovi!",
      "EUnl": "Ik ga me verstoppen!",
      "EUru": "Обожаю прятки!",
      "JPja": "プリコ{{ruby charSpan=\"1\" value=\"かく\"}}隠れる～",
      "KRko": "푸리코 잘 숨어~",
      "TWzh": "普莉珂躲起來～",
      "USen": "I'ma hide!",
      "USes": "¡Me ezconderé!",
      "USfr": "Faut se cacher!"
    }
  }
]