[
  {
    "label": "Npc_kokiri002_R_Talk000",
    "attribute": "0x70000000",
    "locale": {
      "CNzh": "{{fun_0003_0001 arg=\"0x0013\"}}……{{delay1}}……{{delay1}}……谜？{{pageBreak}}{{fun_0004_0001 arg=\"0x20CD\"}}呼～啊……{{delay1}}\n不小心睡着了谜……\n{{fun_0003_0001 arg=\"0x0B19\"}}既然你找到了老朽，这就表示……{{delay2}}\n你想挑战{{color id=\"0\"}}究极的试练{{color id=\"65535\"}}谜？{{fun_0001_0004 arg=\"0x000001000001\"}}",
      "EUde": "{{fun_0003_0001 arg=\"0x0013\"}}...{{delay1}}...{{delay1}}...\nWas'n?{{pageBreak}}{{fun_0004_0001 arg=\"0x20CD\"}}Gääähn...{{delay1}}\nIch bin wohl eingenickt...{{pageBreak}}{{fun_0003_0001 arg=\"0x0B19\"}}Willst du dich etwa der {{color id=\"0\"}}Prüfung der\nKrogs{{color id=\"65535\"}} stellen?{{fun_0001_0004 arg=\"0x000001000001\"}}",
      "EUen": "{{fun_0003_0001 arg=\"0x0013\"}}...{{delay1}}Hmmmm?{{pageBreak}}{{fun_0004_0001 arg=\"0x20CD\"}}*yawn*{{delay1}}\nAnd I was having such a nice dream...\n\n{{fun_0003_0001 arg=\"0x0B19\"}}Wait, if you're here...{{delay2}} Does this mean\nyou want to face the {{color id=\"0\"}}ultimate trial{{color id=\"65535\"}}?{{fun_0001_0004 arg=\"0x000001000001\"}}",
      "EUes": "{{fun_0003_0001 arg=\"0x0013\"}}Zzz...{{delay1}} zzz...{{delay1}} ¿Eeeh?{{pageBreak}}{{fun_0004_0001 arg=\"0x20CD\"}}Ay, qué sueño...{{pageBreak}}Había cerrado un segundito los ojos\npara descansar la vista y me he quedado\ncomo un tronco.\n{{fun_0003_0001 arg=\"0x0B19\"}}Ahora que caigo...{{delay2}} Si estás hablando\nconmigo, es porque quieres enfrentarte\na la {{color id=\"0\"}}prueba definitiva{{color id=\"65535\"}}.{{fun_0001_0004 arg=\"0x000001000001\"}}",
      "EUfr": "{{fun_0003_0001 arg=\"0x0013\"}}.{{delay1}}.{{delay1}}. ?\n\n\n{{fun_0004_0001 arg=\"0x20CD\"}}Hmmhaaa...{{delay1}} Oh là là... Mes yeux se sont\nfermés tout seuls...\n\n{{fun_0003_0001 arg=\"0x0B19\"}}Si tu es venu à moi...{{delay2}} c'est que tu\nveux subir l'{{color id=\"0\"}}épreuve ultime{{color id=\"65535\"}} ?{{fun_0001_0004 arg=\"0x000001000001\"}}",
      "EUit": "{{fun_0003_0001 arg=\"0x0013\"}}... ...{{delay1}} ... ... {{delay1}}... ...{{pageBreak}}{{fun_0004_0001 arg=\"0x20CD\"}}Che sonno...ccio...{{delay1}}\nMi ero appisolato...\n\n{{fun_0003_0001 arg=\"0x0B19\"}}Se sei venuto da me...{{delay2}} significa che vuoi\naffrontare la {{color id=\"0\"}}prova finale{{color id=\"65535\"}}, o no...ccio?{{fun_0001_0004 arg=\"0x000001000001\"}}",
      "EUnl": "{{fun_0003_0001 arg=\"0x0013\"}}Hmm?{{pageBreak}}{{fun_0004_0001 arg=\"0x20CD\"}}Haaaaaahhh...{{delay1}} Ik was per ongeluk in\nslaap gevallen...{{pageBreak}}{{fun_0003_0001 arg=\"0x0B19\"}}Wacht, als je mij hebt gevonden...{{delay2}} Wil je\nsoms de {{color id=\"0\"}}ultieme proef{{color id=\"65535\"}} ondergaan?{{fun_0001_0004 arg=\"0x000001000001\"}}",
      "EUru": "{{fun_0003_0001 arg=\"0x0013\"}}...{{pageBreak}}{{fun_0004_0001 arg=\"0x20CD\"}}Уо-а-а...{{delay1}} Хорошо вздремнул.{{pageBreak}}{{fun_0003_0001 arg=\"0x0B19\"}}А ты зачем пришел?{{delay1}} Неужто хочешь\nпройти {{color id=\"0\"}}главное испытание{{color id=\"65535\"}}?{{fun_0001_0004 arg=\"0x000001000001\"}}",
      "JPja": "{{fun_0003_0001 arg=\"0x0013\"}}……{{delay1}}……{{delay1}}……ゾ？{{pageBreak}}{{fun_0004_0001 arg=\"0x20CD\"}}ふぁ～あ…{{delay1}}\nついつい{{ruby charSpan=\"1\" value=\"ね\"}}寝てしまいましたですゾ…\n{{fun_0003_0001 arg=\"0x0B19\"}}このわしを {{ruby charSpan=\"1\" value=\"み\"}}見つけたということは…{{delay2}}\n{{color id=\"0\"}}{{ruby charSpan=\"2\" value=\"きゅうきょく\"}}究極のしれん{{color id=\"65535\"}}に {{ruby charSpan=\"2\" value=\"ちょうせん\"}}挑戦するのですゾナ？{{fun_0001_0004 arg=\"0x000001000001\"}}",
      "KRko": "{{fun_0003_0001 arg=\"0x0013\"}}……{{delay1}}……{{delay1}}……께끼?{{pageBreak}}{{fun_0004_0001 arg=\"0x20CD\"}}흐아~암…{{delay1}}\n나도 모르게 잠들어 버렸께끼…\n{{fun_0003_0001 arg=\"0x0B19\"}}이 나를 찾았다는 건…{{delay2}}\n{{color id=\"0\"}}궁극의 시련{{color id=\"65535\"}}에 도전하겠다는 거께끼?{{fun_0001_0004 arg=\"0x000001000001\"}}",
      "TWzh": "{{fun_0003_0001 arg=\"0x0013\"}}……{{delay1}}……{{delay1}}……吶？{{pageBreak}}{{fun_0004_0001 arg=\"0x20CD\"}}呼～啊……{{delay1}}\n不小心睡著了吶……\n{{fun_0003_0001 arg=\"0x0B19\"}}既然你找到了老朽，這就表示……{{delay2}}\n你想挑戰{{color id=\"0\"}}究極的考驗{{color id=\"65535\"}}吶？{{fun_0001_0004 arg=\"0x000001000001\"}}",
      "USen": "{{fun_0003_0001 arg=\"0x0013\"}}...{{delay1}}Hmmmm?{{pageBreak}}{{fun_0004_0001 arg=\"0x20CD\"}}*yawn*{{delay1}}\nAnd I was having such a nice dream...\n\n{{fun_0003_0001 arg=\"0x0B19\"}}Wait, if you're here...{{delay2}} Does this mean\nyou want to face the {{color id=\"0\"}}ultimate trial{{color id=\"65535\"}}?{{fun_0001_0004 arg=\"0x000001000001\"}}",
      "USes": "{{fun_0003_0001 arg=\"0x0013\"}}Zzz...{{delay1}} zzz...{{delay1}} ¿Eeeh?{{pageBreak}}{{fun_0004_0001 arg=\"0x20CD\"}}Ay, qué sueño...{{pageBreak}}Solo iba a cerrar un segundito los\nojos para descansar la vista, y ya\nveo que me quedé bien dormido.\n{{fun_0003_0001 arg=\"0x0B19\"}}Ahora que me fijo...{{delay2}} Si estás hablando\nconmigo, ¿es porque quieres enfrentarte\na la {{color id=\"0\"}}prueba definitiva{{color id=\"65535\"}}?{{fun_0001_0004 arg=\"0x000001000001\"}}",
      "USfr": "{{fun_0003_0001 arg=\"0x0013\"}}.{{delay1}}.{{delay1}}.?\n\n\n{{fun_0004_0001 arg=\"0x20CD\"}}Hmmhaaa...{{delay1}} Oh là là... Mes yeux se sont\nfermés tout seuls...\n\n{{fun_0003_0001 arg=\"0x0B19\"}}Si tu es venu à moi...{{delay2}} c'est que tu\nveux subir l'{{color id=\"0\"}}épreuve ultime{{color id=\"65535\"}}?{{fun_0001_0004 arg=\"0x000001000001\"}}"
    }
  },
  {
    "label": "Npc_kokiri002_R_Talk010",
    "attribute": "0x8C000000",
    "locale": {
      "CNzh": "{{fun_0003_0001 arg=\"0x0022\"}}呼～啊……{{delay1}}\n你想挑战看看{{color id=\"0\"}}究极的试练{{color id=\"65535\"}}谜？{{fun_0001_0004 arg=\"0x000001000001\"}}",
      "EUde": "{{fun_0003_0001 arg=\"0x0022\"}}Gääähn...{{delay1}} Willst du dich an der\n{{color id=\"0\"}}ultimativen Prüfung{{color id=\"65535\"}} versuchen?{{fun_0001_0004 arg=\"0x000001000001\"}}",
      "EUen": "{{fun_0003_0001 arg=\"0x0022\"}}*yawn*{{delay1}}\nAre you here for the {{color id=\"0\"}}ultimate trial{{color id=\"65535\"}}?{{fun_0001_0004 arg=\"0x000001000001\"}}",
      "EUes": "{{fun_0003_0001 arg=\"0x0022\"}}Ay, qué modorra...{{pageBreak}}Dime, ¿acaso quieres enfrentarte\na la {{color id=\"0\"}}prueba definitiva{{color id=\"65535\"}}?{{fun_0001_0004 arg=\"0x000001000001\"}}",
      "EUfr": "{{fun_0003_0001 arg=\"0x0022\"}}Hmmhaaa...{{delay1}} Tu veux subir l'{{color id=\"0\"}}épreuve\nultime{{color id=\"65535\"}} ?{{fun_0001_0004 arg=\"0x000001000001\"}}",
      "EUit": "{{fun_0003_0001 arg=\"0x0022\"}}Che sonno...ccio!{{delay1}} Sei forse qui per\naffrontare la {{color id=\"0\"}}prova finale{{color id=\"65535\"}}?{{fun_0001_0004 arg=\"0x000001000001\"}}",
      "EUnl": "{{fun_0003_0001 arg=\"0x0022\"}}Haaahhhh...{{delay1}} Wilde je de {{color id=\"0\"}}ultieme proef{{color id=\"65535\"}}\nondergaan?{{fun_0001_0004 arg=\"0x000001000001\"}}",
      "EUru": "{{fun_0003_0001 arg=\"0x0022\"}}Уо-а-а!{{delay1}} Хочешь пройти\n{{color id=\"0\"}}главное испытание{{color id=\"65535\"}}?{{fun_0001_0004 arg=\"0x000001000001\"}}",
      "JPja": "{{fun_0003_0001 arg=\"0x0022\"}}ふぁ～あ…{{delay1}}\n{{color id=\"0\"}}{{ruby charSpan=\"2\" value=\"きゅうきょく\"}}究極のしれん{{color id=\"65535\"}}に {{ruby charSpan=\"2\" value=\"ちょうせん\"}}挑戦してみるゾナ？{{fun_0001_0004 arg=\"0x000001000001\"}}",
      "KRko": "{{fun_0003_0001 arg=\"0x0022\"}}흐아~암…{{delay1}}\n{{color id=\"0\"}}궁극의 시련{{color id=\"65535\"}}에 도전해 볼께끼?{{fun_0001_0004 arg=\"0x000001000001\"}}",
      "TWzh": "{{fun_0003_0001 arg=\"0x0022\"}}呼～啊……{{delay1}}\n你想挑戰看看{{color id=\"0\"}}究極的考驗{{color id=\"65535\"}}吶？{{fun_0001_0004 arg=\"0x000001000001\"}}",
      "USen": "{{fun_0003_0001 arg=\"0x0022\"}}*yawn*{{delay1}}\nAre you here for the {{color id=\"0\"}}ultimate trial{{color id=\"65535\"}}?{{fun_0001_0004 arg=\"0x000001000001\"}}",
      "USes": "{{fun_0003_0001 arg=\"0x0022\"}}{{size value=\"80\"}}Ay, qué sueño...{{size value=\"100\"}}{{pageBreak}}Dime, ¿acaso quieres enfrentarte\na la {{color id=\"0\"}}prueba definitiva{{color id=\"65535\"}}?{{fun_0001_0004 arg=\"0x000001000001\"}}",
      "USfr": "{{fun_0003_0001 arg=\"0x0022\"}}Hmmhaaa...{{delay1}} Tu veux subir l'{{color id=\"0\"}}épreuve\nultime{{color id=\"65535\"}}?{{fun_0001_0004 arg=\"0x000001000001\"}}"
    }
  },
  {
    "label": "0000",
    "attribute": "0xA8000000",
    "locale": {
      "CNzh": "我要挑战",
      "EUde": "Aber klar!",
      "EUen": "I'll try it!",
      "EUes": "¡Así es!",
      "EUfr": "Je suis prêt !",
      "EUit": "Esatto!",
      "EUnl": "Ik wil het proberen!",
      "EUru": "Очень хочу!",
      "JPja": "{{ruby charSpan=\"2\" value=\"ちょうせん\"}}挑戦する",
      "KRko": "도전할래",
      "TWzh": "我要挑戰",
      "USen": "I'll try it!",
      "USes": "¡Así es!",
      "USfr": "Je suis prêt!"
    }
  },
  {
    "label": "0001",
    "attribute": "0xAA000000",
    "locale": {
      "CNzh": "现在不太方便……",
      "EUde": "Nicht jetzt...",
      "EUen": "Not right now...",
      "EUes": "La verdad es que no",
      "EUfr": "Plus tard...",
      "EUit": "No, ora no...",
      "EUnl": "Nu even niet...",
      "EUru": "В другой раз...",
      "JPja": "{{ruby charSpan=\"1\" value=\"いま\"}}今はちょっと…",
      "KRko": "지금은 좀…",
      "TWzh": "現在不太方便……",
      "USen": "Not right now...",
      "USes": "La verdad es que no",
      "USfr": "Plus tard..."
    }
  },
  {
    "label": "Npc_kokiri002_R_Talk020",
    "attribute": "0xAC000000",
    "locale": {
      "CNzh": "{{fun_0003_0001 arg=\"0x0612\"}}谜谜……{{delay1}}咳咳！\n那么，{{color id=\"0\"}}究极的试练{{color id=\"65535\"}}……{{delay1}}即刻开始谜！\n请根据老朽的提示，\n将东西拿到这里谜。",
      "EUde": "{{fun_0003_0001 arg=\"0x0612\"}}Zeit für Rätsel!{{delay1}} Hrm...\nBeginnen wir mit der {{color id=\"0\"}}ultimativen Prüfung{{color id=\"65535\"}}!{{pageBreak}}Folge meinen Hinweisen und bringe mir\ndas gesuchte Objekt!",
      "EUen": "{{fun_0003_0001 arg=\"0x0612\"}}*ahem*{{delay2}}\nThe {{color id=\"0\"}}ultimate trial{{color id=\"65535\"}}...{{delay1}}has begun!\n\nI'll tell you a riddle about an object.\nYour job is to solve the riddle and\nbring me the correct object.\nHere comes your first riddle!",
      "EUes": "{{fun_0003_0001 arg=\"0x0612\"}}¡Bieeen! ¡Vamos a jugar a los acertijos!{{pageBreak}}Ejem. Quiero decir... ¡Que dé comienzo\nsin más demora la {{color id=\"0\"}}prueba definitiva{{color id=\"65535\"}}!{{pageBreak}}Te voy a pedir objetos en forma de\nacertijo. Tendrás que descifrarlo y\ntraerme lo que te pido.",
      "EUfr": "{{fun_0003_0001 arg=\"0x0612\"}}Hmhm...{{delay1}} Hem. Que l'{{color id=\"0\"}}épreuve ultime{{color id=\"65535\"}}...\n{{delay1}}commence !\n\nTu dois m'apporter les objets qui\ncorrespondent aux indices que je\nvais te donner.",
      "EUit": "{{fun_0003_0001 arg=\"0x0612\"}}L'indovinello del giorno...ccio! {{delay1}}Ehm!\nAllora diamo inizio alla... {{delay1}}{{color id=\"0\"}}prova finale{{color id=\"65535\"}}!\n\nTieni a mente l'indizio che ti do\ne portami l'oggetto di cui parlato ti ho!",
      "EUnl": "{{fun_0003_0001 arg=\"0x0612\"}}Tijd voor raadsels!{{delay1}} Ahum.\nDe {{color id=\"0\"}}ultieme proef{{color id=\"65535\"}} begint...{{delay1}} nu!{{pageBreak}}Gebruik mijn hints om het voorwerp\nwaarover ik spreek naar me toe te\nbrengen.",
      "EUru": "{{fun_0003_0001 arg=\"0x0612\"}}Ну что ж, пришло время загадок...{{delay1}}\nНачинаем {{color id=\"0\"}}главное испытание{{color id=\"65535\"}}!{{pageBreak}}Правила такие: я загадываю тебе\nзагадку, а ты приносишь мне\nзагаданный предмет.",
      "JPja": "{{fun_0003_0001 arg=\"0x0612\"}}ゾナゾナ… {{delay1}}コホン\nでは {{color id=\"0\"}}{{ruby charSpan=\"2\" value=\"きゅうきょく\"}}究極のしれん{{color id=\"65535\"}}… {{delay1}}はじめるゾナ！\nわしがいう {{ruby charSpan=\"1\" value=\"て\"}}手がかりを{{ruby charSpan=\"1\" value=\"もと\"}}元に\n{{ruby charSpan=\"2\" value=\"げんぶつ\"}}現物を ここへ{{ruby charSpan=\"1\" value=\"も\"}}持ってくるゾナ",
      "KRko": "{{fun_0003_0001 arg=\"0x0612\"}}께끼께끼… {{delay1}}어흠\n그럼 {{color id=\"0\"}}궁극의 시련{{color id=\"65535\"}}… {{delay1}}시작하께끼!\n내가 말하는 단서를 바탕으로\n정답을 이곳으로 가지고 와께끼",
      "TWzh": "{{fun_0003_0001 arg=\"0x0612\"}}吶吶……{{delay1}}咳咳！\n那麼，{{color id=\"0\"}}究極的考驗{{color id=\"65535\"}}……{{delay1}}即刻開始吶！\n請根據老朽的提示，\n將東西拿到這裡來吶。",
      "USen": "{{fun_0003_0001 arg=\"0x0612\"}}*ahem*{{delay2}}\nThe {{color id=\"0\"}}ultimate trial{{color id=\"65535\"}}...{{delay1}}has begun!\n\nI'll tell you a riddle about an object.\nYour job is to solve the riddle and\nbring me the correct object.\nHere comes your first riddle!",
      "USes": "{{fun_0003_0001 arg=\"0x0612\"}}¡Bieeen! ¡Vamos a jugar a los acertijos!{{delay2}}\n¡Que dé comienzo la {{color id=\"0\"}}prueba definitiva{{color id=\"65535\"}}!{{pageBreak}}Te voy a pedir objetos en forma de\nacertijo. Tendrás que descifrarlo y\ntraerme lo que te pido.",
      "USfr": "{{fun_0003_0001 arg=\"0x0612\"}}Hmhm...{{delay1}} Hem. Que l'{{color id=\"0\"}}épreuve ultime{{color id=\"65535\"}}...\n{{delay1}}commence!\n\nTu dois m'apporter les objets qui\ncorrespondent aux indices que je\nvais te donner."
    }
  },
  {
    "label": "Npc_kokiri002_R_Talk030",
    "attribute": "0xC8000000",
    "locale": {
      "CNzh": "{{fun_0003_0001 arg=\"0x070A\"}}呵呵呵！\n你害怕了吗！",
      "EUde": "{{fun_0003_0001 arg=\"0x070A\"}}Fuhuhuhu!\nHast du Angst?",
      "EUen": "{{fun_0003_0001 arg=\"0x070A\"}}Fahaha!\nDid I intimidate you?",
      "EUes": "{{fun_0003_0001 arg=\"0x070A\"}}¡Uy, uy, uy! ¿Te echas atrás?",
      "EUfr": "{{fun_0003_0001 arg=\"0x070A\"}}Huahuahua ! Je t'intimide, c'est ça ?",
      "EUit": "{{fun_0003_0001 arg=\"0x070A\"}}Hihihi!\nTi ho spaventato?",
      "EUnl": "{{fun_0003_0001 arg=\"0x070A\"}}Hahaha! Ben je bang?",
      "EUru": "{{fun_0003_0001 arg=\"0x070A\"}}Хи-хи-хи!{{delay1}} Струсил!",
      "JPja": "{{fun_0003_0001 arg=\"0x070A\"}}ふぁふぁふぁ\nおじけづいたか！",
      "KRko": "{{fun_0003_0001 arg=\"0x070A\"}}핫핫핫\n겁먹은 거냐!",
      "TWzh": "{{fun_0003_0001 arg=\"0x070A\"}}呵呵呵！\n你害怕了嗎！",
      "USen": "{{fun_0003_0001 arg=\"0x070A\"}}Fahaha!\nDid I intimidate you?",
      "USes": "{{fun_0003_0001 arg=\"0x070A\"}}¡Uy, uy, uy! ¿Te echas atrás?",
      "USfr": "{{fun_0003_0001 arg=\"0x070A\"}}Huahuahua! Je t'intimide, c'est ça?"
    }
  },
  {
    "label": "Npc_kokiri002_R_Talk040",
    "attribute": "0xE4000000",
    "locale": {
      "CNzh": "{{fun_0003_0001 arg=\"0x0000\"}}你是知道谜？{{delay2}}\n还是不知道谜？\n把正确答案放在叶子上，\n老朽就会跳舞谜！",
      "EUde": "{{fun_0003_0001 arg=\"0x0000\"}}Hast du das Rätsel gelöst?{{delay2}}\nOder doch nicht?{{pageBreak}}Wenn du die richtige Antwort auf dem\nBlatt platzierst, dann tanze ich für dich!",
      "EUen": "{{fun_0003_0001 arg=\"0x0000\"}}Have you figured it out?{{delay2}} I'm guessing\nyou're more stumped than the base of\na felled tree!\nIf you place the right object on the leaf,\nI'll dance for you!",
      "EUes": "{{fun_0003_0001 arg=\"0x0000\"}}¿Lo has averiguado?{{delay2}}\n¿No logras descifrarlo?{{pageBreak}}Si dejas la respuesta sobre la hoja,\n¡bailaré para ti! Es decir, bailaré,\ntanto si quieres mirar como si no.",
      "EUfr": "{{fun_0003_0001 arg=\"0x0000\"}}Trouveras-tu la réponse ?{{delay2}}\nTrouveras-tu pas ?\n\nSi l'objet que tu poses sur la feuille\nest la bonne réponse, je danserai !",
      "EUit": "{{fun_0003_0001 arg=\"0x0000\"}}Hai capito oppure no...ccio?\n\n\nSe ciò che metti sulla foglia è il giusto\noggetto, io ti farò un bel balletto!",
      "EUnl": "{{fun_0003_0001 arg=\"0x0000\"}}Heb je het uitgevogeld?{{delay2}} Snap je er geen\nbiet van? Leg het antwoord op dit blad\nen ik zal een dansje voor je doen!",
      "EUru": "{{fun_0003_0001 arg=\"0x0000\"}}Знаешь?{{delay1}} Не знаешь?{{pageBreak}}Если положишь то, что загадано,\nна лист, я для тебя станцую!",
      "JPja": "{{fun_0003_0001 arg=\"0x0000\"}}わかったゾナ？{{delay2}}\nわからないゾナ？\n{{ruby charSpan=\"2\" value=\"せいかい\"}}正解を {{ruby charSpan=\"1\" value=\"は\"}}葉の{{ruby charSpan=\"1\" value=\"うえ\"}}上に{{ruby charSpan=\"1\" value=\"お\"}}置いたら\n{{ruby charSpan=\"1\" value=\"おど\"}}踊ってやるゾナ！",
      "KRko": "{{fun_0003_0001 arg=\"0x0000\"}}알께끼?{{delay2}}\n모르께끼?\n정답을 잎사귀 위에 올려놓으면\n춤춰 줄께끼!",
      "TWzh": "{{fun_0003_0001 arg=\"0x0000\"}}你是知道吶？{{delay2}}\n還是不知道吶？\n把正確答案放在葉子上，\n老朽就會跳舞吶！",
      "USen": "{{fun_0003_0001 arg=\"0x0000\"}}Have you figured it out?{{delay2}} I'm guessing\nyou're more stumped than the base of\na felled tree!\nIf you place the right object on the leaf,\nI'll dance for you!",
      "USes": "{{fun_0003_0001 arg=\"0x0000\"}}¿Ya lo averiguaste?{{delay2}}\n¿No logras descifrarlo?{{pageBreak}}Si dejas la respuesta sobre la hoja,\n¡bailaré para ti! Es decir, bailaré y\ntú puedes mirar si quieres.",
      "USfr": "{{fun_0003_0001 arg=\"0x0000\"}}Trouveras-tu la réponse?{{delay2}}\nTrouveras-tu pas?\n\nSi l'objet que tu poses sur la feuille\nest la bonne réponse, je danserai!"
    }
  },
  {
    "label": "Npc_kokiri002_R_Talk500",
    "attribute": "0x00010000",
    "locale": {
      "CNzh": "{{fun_0003_0001 arg=\"0x0700\"}}{{color id=\"0\"}}又小，{{delay1}}又红，{{delay1}}又圆，{{delay1}}又爽口，{{delay1}}又甜美！{{color id=\"65535\"}}\n{{delay2}}猜猜是什么谜？",
      "EUde": "{{fun_0003_0001 arg=\"0x0700\"}}{{color id=\"0\"}}Knackig{{color id=\"65535\"}}, {{delay1}}{{color id=\"0\"}}rot{{color id=\"65535\"}}, {{delay1}}{{color id=\"0\"}}rund{{color id=\"65535\"}} {{delay1}}und {{color id=\"0\"}}süß{{color id=\"65535\"}}...{{delay2}}\nÜberleg geschwind und bring mir dies!",
      "EUen": "{{fun_0003_0001 arg=\"0x0700\"}}{{color id=\"0\"}}Small{{color id=\"65535\"}}, {{color id=\"0\"}}{{delay1}}red{{color id=\"65535\"}}, {{color id=\"0\"}}{{delay1}}round{{color id=\"65535\"}}, {{color id=\"0\"}}{{delay1}}and sweet{{color id=\"65535\"}}!{{delay2}}\nBring me one of this simple treat!",
      "EUes": "{{fun_0003_0001 arg=\"0x0700\"}}¡Allá va!{{pageBreak}}{{color id=\"0\"}}Pequeña y roja, {{delay1}}dulce y redonda.{{color id=\"65535\"}}{{delay1}}\n¡Tráeme una ahora!",
      "EUfr": "{{fun_0003_0001 arg=\"0x0700\"}}Qu'est-ce qui est {{color id=\"0\"}}petit{{color id=\"65535\"}}...{{delay1}} {{color id=\"0\"}}rouge{{color id=\"65535\"}}...{{delay1}} {{color id=\"0\"}}rond{{color id=\"65535\"}}...{{delay1}}\n{{color id=\"0\"}}croquant{{color id=\"65535\"}}...{{delay1}} et{{delay2}} {{color id=\"0\"}}sucré{{color id=\"65535\"}} ?",
      "EUit": "{{fun_0003_0001 arg=\"0x0700\"}}È {{color id=\"0\"}}piccola{{color id=\"65535\"}},{{delay1}} {{color id=\"0\"}}rossa{{color id=\"65535\"}},{{delay1}} {{color id=\"0\"}}rotonda{{color id=\"65535\"}}{{delay1}} e di una\n{{color id=\"0\"}}croccante {{delay1}}dolcezza{{color id=\"65535\"}}.{{delay2}} Che cos'è?",
      "EUnl": "{{fun_0003_0001 arg=\"0x0700\"}}{{color id=\"0\"}}Klein{{color id=\"65535\"}},{{delay1}} {{color id=\"0\"}}rood{{color id=\"65535\"}},{{delay1}} {{color id=\"0\"}}rond{{color id=\"65535\"}}, {{color id=\"0\"}}krokant{{color id=\"65535\"}} en {{color id=\"0\"}}zoet{{color id=\"65535\"}}! Wat\nzou het zijn?",
      "EUru": "{{fun_0003_0001 arg=\"0x0700\"}}Что {{color id=\"0\"}}маленькое,{{delay1}} красное,{{delay1}}\nкруглое{{delay1}} и сладкое{{color id=\"65535\"}}?",
      "JPja": "{{fun_0003_0001 arg=\"0x0700\"}}{{color id=\"0\"}}{{ruby charSpan=\"1\" value=\"ちい\"}}小さくて {{delay1}}{{ruby charSpan=\"1\" value=\"あか\"}}赤くて {{delay1}}まあるくて {{delay1}}シャリっとした{{delay1}}\nあまーい{{color id=\"65535\"}}の {{delay2}}なーんゾナ？",
      "KRko": "{{fun_0003_0001 arg=\"0x0700\"}}{{color id=\"0\"}}작고 {{delay1}}빨갛고 {{delay1}}둥글고 {{delay1}}아삭하고{{delay1}}\n달콤~한 {{color id=\"65535\"}}건 {{delay2}}뭐~께끼?",
      "TWzh": "{{fun_0003_0001 arg=\"0x0700\"}}{{color id=\"0\"}}小小的、{{delay1}}紅紅的、{{delay1}}圓圓的、{{delay1}}清脆爽口、{{delay1}}\n滋味甜美──{{color id=\"65535\"}}{{delay2}}這是什麼吶？",
      "USen": "{{fun_0003_0001 arg=\"0x0700\"}}{{color id=\"0\"}}Small{{color id=\"65535\"}}, {{color id=\"0\"}}{{delay1}}red{{color id=\"65535\"}}, {{color id=\"0\"}}{{delay1}}round{{color id=\"65535\"}}, {{color id=\"0\"}}{{delay1}}and sweet{{color id=\"65535\"}}!{{delay2}}\nBring me one of this simple treat!",
      "USes": "{{fun_0003_0001 arg=\"0x0700\"}}{{color id=\"0\"}}Pequeñas y dulces, redondas y rojas.\nSi subes al árbol, tal vez las recojas.{{color id=\"65535\"}}",
      "USfr": "{{fun_0003_0001 arg=\"0x0700\"}}Qu'est-ce qui est {{color id=\"0\"}}petit{{color id=\"65535\"}}...{{delay1}} {{color id=\"0\"}}rouge{{color id=\"65535\"}}...{{delay1}} {{color id=\"0\"}}rond{{color id=\"65535\"}}...{{delay1}}\n{{color id=\"0\"}}croquant{{color id=\"65535\"}}...{{delay1}} et{{delay2}} {{color id=\"0\"}}sucré{{color id=\"65535\"}}?"
    }
  },
  {
    "label": "Npc_kokiri002_S010_Talk500",
    "attribute": "0x1C010000",
    "locale": {
      "CNzh": "{{fun_0003_0001 arg=\"0x0700\"}}卡卡利科村的名产！\n{{color id=\"0\"}}坚硬的蔬菜{{color id=\"65535\"}}，猜猜是什么谜？",
      "EUde": "{{fun_0003_0001 arg=\"0x0700\"}}Aus Kakariko eine Spezialität gar fein!{{delay1}}\nEin Gemüse, {{color id=\"0\"}}hart wie Stein{{color id=\"65535\"}}!{{delay1}}\nNa, was könnte das sein?",
      "EUen": "{{fun_0003_0001 arg=\"0x0700\"}}Kakariko Village's specialty fruit!\nIts {{color id=\"0\"}}rock-hard{{color id=\"65535\"}} flesh is quite resolute!",
      "EUes": "{{fun_0003_0001 arg=\"0x0700\"}}{{color id=\"0\"}}¡Como un roble es esta hortaliza\ny de la aldea Kakariko es típica!{{color id=\"65535\"}}",
      "EUfr": "{{fun_0003_0001 arg=\"0x0700\"}}Quel {{color id=\"0\"}}légume bien robuste{{color id=\"65535\"}} est originaire\ndu village de Cocorico ?",
      "EUit": "{{fun_0003_0001 arg=\"0x0700\"}}È la specialità del villaggio Calbarico!\nÈ un {{color id=\"0\"}}ortaggio dalla scorza dura{{color id=\"65535\"}}.\nChe cos'è?",
      "EUnl": "{{fun_0003_0001 arg=\"0x0700\"}}Een van de specialiteiten van Kakariko!\nVan deze {{color id=\"0\"}}groente{{color id=\"65535\"}} word je {{color id=\"0\"}}hard{{color id=\"65535\"}}!",
      "EUru": "{{fun_0003_0001 arg=\"0x0700\"}}Гордость деревни Какарико!{{delay1}}\nОчень {{color id=\"0\"}}твердая{{color id=\"65535\"}} гордость!",
      "JPja": "{{fun_0003_0001 arg=\"0x0700\"}}カカリコ{{ruby charSpan=\"1\" value=\"むら\"}}村{{ruby charSpan=\"2\" value=\"めいさん\"}}名産！\n{{color id=\"0\"}}カッチコチの{{ruby charSpan=\"2\" value=\"やさい\"}}野菜{{color id=\"65535\"}}って なーんゾナ？",
      "KRko": "{{fun_0003_0001 arg=\"0x0700\"}}카카리코 마을 특산품!\n{{color id=\"0\"}}튼튼한 야채{{color id=\"65535\"}}는 뭐~께끼?",
      "TWzh": "{{fun_0003_0001 arg=\"0x0700\"}}卡卡利科村的名產！\n{{color id=\"0\"}}硬邦邦的蔬菜{{color id=\"65535\"}}是什麼吶？",
      "USen": "{{fun_0003_0001 arg=\"0x0700\"}}Kakariko Village's specialty fruit!\nIts {{color id=\"0\"}}rock-hard{{color id=\"65535\"}} flesh is quite resolute!",
      "USes": "{{fun_0003_0001 arg=\"0x0700\"}}{{color id=\"0\"}}Su cáscara es firme, su interior está rico.\nVerás que abunda en la aldea Kakariko.{{color id=\"65535\"}}",
      "USfr": "{{fun_0003_0001 arg=\"0x0700\"}}Quel {{color id=\"0\"}}légume bien robuste{{color id=\"65535\"}} est originaire\ndu village de Cocorico?"
    }
  },
  {
    "label": "Npc_kokiri002_S020_Talk500",
    "attribute": "0x38010000",
    "locale": {
      "CNzh": "{{fun_0003_0001 arg=\"0x0700\"}}生长在炎热之地，{{delay1}}{{color id=\"0\"}}烹饪后会暖暖的蘑菇\n{{delay2}}{{color id=\"65535\"}}猜猜是什么谜？",
      "EUde": "{{fun_0003_0001 arg=\"0x0700\"}}Dieser {{color id=\"0\"}}Pilz{{color id=\"65535\"}} wächst bei Hitze gut,{{delay1}}\nkochst du ihn, {{color id=\"0\"}}wärmt dich seine Glut{{color id=\"65535\"}}.{{delay1}}\nSchon eine Idee?",
      "EUen": "{{fun_0003_0001 arg=\"0x0700\"}}{{color id=\"0\"}}This sultry shroom will warm your bones{{color id=\"65535\"}}.\nIt makes its home in warmer zones.",
      "EUes": "{{fun_0003_0001 arg=\"0x0700\"}}{{color id=\"0\"}}Esta seta de clima cálido{{delay1}}\nte ayudará cuando estés helado.{{color id=\"65535\"}}",
      "EUfr": "{{fun_0003_0001 arg=\"0x0700\"}}Quel {{color id=\"0\"}}champi{{color id=\"65535\"}} pousse dans les régions\nchaudes{{delay1}} et {{color id=\"0\"}}pimente{{delay2}}{{color id=\"65535\"}} les plats qui en\n{{color id=\"0\"}}contiennent{{color id=\"65535\"}} ?",
      "EUit": "{{fun_0003_0001 arg=\"0x0700\"}}È un {{delay1}}{{color id=\"0\"}}fungo{{color id=\"65535\"}} che cresce nei posti caldi\ne {{color id=\"0\"}}riscalda{{color id=\"65535\"}} se mangiato dopo essere stato\n{{color id=\"0\"}}cotto{{delay2}}{{color id=\"65535\"}}. Che cos'è?",
      "EUnl": "{{fun_0003_0001 arg=\"0x0700\"}}Een {{color id=\"0\"}}zwam{{color id=\"65535\"}} die groeit in een warm klimaat\nen je {{color id=\"0\"}}opwarmt in gekookte staat{{color id=\"65535\"}}. Wat is\nhet?",
      "EUru": "{{fun_0003_0001 arg=\"0x0700\"}}Какой {{color id=\"0\"}}гриб{{color id=\"65535\"}} растет в теплых местах\nи {{color id=\"0\"}}согревает, если добавить в блюдо{{color id=\"65535\"}}?",
      "JPja": "{{fun_0003_0001 arg=\"0x0700\"}}{{ruby charSpan=\"1\" value=\"あつ\"}}暑いところにある {{delay1}}{{color id=\"0\"}}{{ruby charSpan=\"2\" value=\"りょうり\"}}料理すると\nポカポカするダケのもの{{delay2}} {{color id=\"65535\"}}なーんゾナ？",
      "KRko": "{{fun_0003_0001 arg=\"0x0700\"}}더운 곳에 있고 {{delay1}}{{color id=\"0\"}}요리하면\n따뜻해지는 버섯은{{delay2}} {{color id=\"65535\"}}뭐~께끼?",
      "TWzh": "{{fun_0003_0001 arg=\"0x0700\"}}生長在炎熱的地方，{{delay1}}{{color id=\"0\"}}做成料理後，\n會讓身體暖呼呼的菇類{{delay2}}{{color id=\"65535\"}}是什麼吶？",
      "USen": "{{fun_0003_0001 arg=\"0x0700\"}}{{color id=\"0\"}}This sultry shroom will warm your bones{{color id=\"65535\"}}.\nIt makes its home in warmer zones.",
      "USes": "{{fun_0003_0001 arg=\"0x0700\"}}{{color id=\"0\"}}Hongo que crece en climas templados,{{delay1}}\nte quita el frío si te quedas helado.{{color id=\"65535\"}}",
      "USfr": "{{fun_0003_0001 arg=\"0x0700\"}}Quel {{color id=\"0\"}}champi{{color id=\"65535\"}} pousse dans les régions\nchaudes{{delay1}} et {{color id=\"0\"}}pimente{{delay2}}{{color id=\"65535\"}} les plats qui en\n{{color id=\"0\"}}contiennent{{color id=\"65535\"}}?"
    }
  },
  {
    "label": "Npc_kokiri002_S030_Talk500",
    "attribute": "0x54010000",
    "locale": {
      "CNzh": "{{fun_0003_0001 arg=\"0x0700\"}}{{color id=\"0\"}}吃了就不怕电击的鳟鱼！{{delay2}}{{color id=\"65535\"}}\n猜猜是什么谜？",
      "EUde": "{{fun_0003_0001 arg=\"0x0700\"}}{{color id=\"0\"}}Ein SCHOCKierend starker Geselle,\ndoch nicht verzagen, fang die...{{delay1}}{{color id=\"65535\"}}{{delay2}}\nNa, weißt du's?",
      "EUen": "{{fun_0003_0001 arg=\"0x0700\"}}{{color id=\"0\"}}Its scales and tail will zap you, no doubt{{color id=\"65535\"}}!\nThis shocking swimmer is called a...{{delay3}}fish.",
      "EUes": "{{fun_0003_0001 arg=\"0x0700\"}}{{color id=\"0\"}}Trucha parece, electro es.{{delay2}} Quien no\nlo adivine, tonto es.{{color id=\"65535\"}}",
      "EUfr": "{{fun_0003_0001 arg=\"0x0700\"}}Quelle {{color id=\"0\"}}truite{{color id=\"65535\"}} rend{{delay2}} {{color id=\"0\"}}plus résistant aux\nchocs électriques{{color id=\"65535\"}} ?",
      "EUit": "{{fun_0003_0001 arg=\"0x0700\"}}È un tipo di {{color id=\"0\"}}pesce{{color id=\"65535\"}} che permette di\n{{color id=\"0\"}}resistere {{color id=\"65535\"}}alle {{color id=\"0\"}}scariche elettriche{{color id=\"65535\"}}!{{delay2}} Che\ncos'è?",
      "EUnl": "{{fun_0003_0001 arg=\"0x0700\"}}{{color id=\"0\"}}Schokkend sterk! Maar deze forel is de\nmoeite van het vangen waard!{{color id=\"65535\"}} Waar heb \nik het over?",
      "EUru": "{{fun_0003_0001 arg=\"0x0700\"}}Что {{color id=\"0\"}}скользкое, мокрое,\nэлектрическое и плавает{{color id=\"65535\"}}?",
      "JPja": "{{fun_0003_0001 arg=\"0x0700\"}}{{color id=\"0\"}}ビリビリに{{ruby charSpan=\"1\" value=\"つよ\"}}強くなっちゃいマス！{{delay2}}{{color id=\"65535\"}}\nなーんゾナ？",
      "KRko": "{{fun_0003_0001 arg=\"0x0700\"}}{{color id=\"0\"}}찌릿찌릿에 강해지는 송어!{{delay2}}{{color id=\"65535\"}}\n뭐~께끼?",
      "TWzh": "{{fun_0003_0001 arg=\"0x0700\"}}{{color id=\"0\"}}吃了就不怕觸電的鱒魚！{{delay2}}{{color id=\"65535\"}}\n是什麼吶？",
      "USen": "{{fun_0003_0001 arg=\"0x0700\"}}{{color id=\"0\"}}Its scales and tail will zap you, no doubt{{color id=\"65535\"}}!\nThis shocking swimmer is called a...{{delay3}}fish.",
      "USes": "{{fun_0003_0001 arg=\"0x0700\"}}{{color id=\"0\"}}Magnífico pez de cuerpo aislante,{{delay1}}\ntráeme uno para seguir adelante.{{color id=\"65535\"}}",
      "USfr": "{{fun_0003_0001 arg=\"0x0700\"}}Quelle {{color id=\"0\"}}truite{{color id=\"65535\"}} rend{{delay2}} {{color id=\"0\"}}plus résistant\naux décharges électriques{{color id=\"65535\"}}?"
    }
  },
  {
    "label": "Npc_kokiri002_S040_Talk500",
    "attribute": "0x70010000",
    "locale": {
      "CNzh": "{{fun_0003_0001 arg=\"0x0700\"}}{{color id=\"0\"}}似爪非爪，足中帝王！{{color id=\"65535\"}}{{delay2}}\n猜猜是什么谜？",
      "EUde": "{{fun_0003_0001 arg=\"0x0700\"}}Bring zu mir, wonach ich rufe!\nBesiege ein Monster zu diesem {{color id=\"0\"}}Behufe{{color id=\"65535\"}}!{{delay1}}\nAlles klar?",
      "EUen": "{{fun_0003_0001 arg=\"0x0700\"}}If stepped on by this, you will go poof!\n{{color id=\"0\"}}It starts with an H and ends with an oof{{color id=\"65535\"}}!",
      "EUes": "{{fun_0003_0001 arg=\"0x0700\"}}{{color id=\"0\"}}Si quieres saber quién soy, escucha:{{delay2}}\n¿cuál es el único pez con uña?{{color id=\"65535\"}}",
      "EUfr": "{{fun_0003_0001 arg=\"0x0700\"}}{{color id=\"0\"}}Ça a beau être un ongle{{color id=\"65535\"}}, ça n'y\nressemble pas vraiment. Mais\nqu'est-ce que ça peut bien être ?",
      "EUit": "{{fun_0003_0001 arg=\"0x0700\"}}{{color id=\"0\"}}Potrebbe essere un'unghia{{color id=\"65535\"}}, ma non\nle somiglia. {{delay2}}Che cos'è?",
      "EUnl": "{{fun_0003_0001 arg=\"0x0700\"}}{{color id=\"0\"}}Ik heb dringend beHOEFte aan dit\nvoorwerp.{{color id=\"65535\"}} {{delay2}}Wat zou het zijn?",
      "EUru": "{{fun_0003_0001 arg=\"0x0700\"}}От топота {{color id=\"0\"}}чего{{color id=\"65535\"}} пыль по полю летит?",
      "JPja": "{{fun_0003_0001 arg=\"0x0700\"}}{{color id=\"0\"}}ツメはツメでも ヒのついたツメ{{color id=\"65535\"}}は{{delay2}}\nなーんゾナ？",
      "KRko": "{{fun_0003_0001 arg=\"0x0700\"}}{{color id=\"0\"}}굽은 굽인데 발이 달린 굽{{color id=\"65535\"}}은{{delay2}}\n뭐~께끼?",
      "TWzh": "{{fun_0003_0001 arg=\"0x0700\"}}{{color id=\"0\"}}似爪非爪，足中帝王{{color id=\"65535\"}}……{{delay2}}\n是什麼吶？",
      "USen": "{{fun_0003_0001 arg=\"0x0700\"}}If stepped on by this, you will go poof!\n{{color id=\"0\"}}It starts with an H and ends with an oof{{color id=\"65535\"}}!",
      "USes": "{{fun_0003_0001 arg=\"0x0700\"}}{{color id=\"0\"}}Si se la quitas al dueño,\nharás que te gruña.{{delay1}}\n¿Cuál es el único pez...{{delay2}} con uña?{{color id=\"65535\"}}",
      "USfr": "{{fun_0003_0001 arg=\"0x0700\"}}{{color id=\"0\"}}Ça a beau être un ongle{{color id=\"65535\"}}, ça n'y\nressemble pas vraiment. Mais\nqu'est-ce que ça peut bien être?"
    }
  },
  {
    "label": "Npc_kokiri002_F_Talk000",
    "attribute": "0x8C010000",
    "locale": {
      "CNzh": "{{fun_0003_0001 arg=\"0x0022\"}}………………谜？{{delay1}}\n呼～啊……",
      "EUde": "{{fun_0003_0001 arg=\"0x0022\"}}...Hm?{{delay1}}\nGäääähn...",
      "EUen": "{{fun_0003_0001 arg=\"0x0022\"}}...Hrmm?{{delay1}}\n*yawn*",
      "EUes": "{{fun_0003_0001 arg=\"0x0022\"}}Zzz...{{delay1}} zzz...{{delay1}} ¿Eeeh?{{pageBreak}}Ay, qué modorra...",
      "EUfr": "{{fun_0003_0001 arg=\"0x0022\"}}... ?{{delay1}} Hmmhaaa...",
      "EUit": "{{fun_0003_0001 arg=\"0x0022\"}}... ... ...?{{delay1}}\nChe sonno...ccio...",
      "EUnl": "{{fun_0003_0001 arg=\"0x0022\"}}Hrm?{{delay1}} Haaaahhh...",
      "EUru": "{{fun_0003_0001 arg=\"0x0022\"}}М-м?{{delay1}} Уо-а-а!",
      "JPja": "{{fun_0003_0001 arg=\"0x0022\"}}………………ゾ？{{delay1}}\nふぁ～あ…",
      "KRko": "{{fun_0003_0001 arg=\"0x0022\"}}………………께끼?{{delay1}}\n흐아~암…",
      "TWzh": "{{fun_0003_0001 arg=\"0x0022\"}}………………吶？{{delay1}}\n呼～啊……",
      "USen": "{{fun_0003_0001 arg=\"0x0022\"}}...Hrmm?{{delay1}}\n*yawn*",
      "USes": "{{fun_0003_0001 arg=\"0x0022\"}}Zzz...{{delay1}} zzz...{{delay1}} ¿Eeeh?{{pageBreak}}{{size value=\"80\"}}Ay, qué sueño...{{size value=\"100\"}}",
      "USfr": "{{fun_0003_0001 arg=\"0x0022\"}}...?{{delay1}} Hmmhaaa..."
    }
  },
  {
    "label": "Npc_kokiri002_F_Talk010",
    "attribute": "0xA8010000",
    "locale": {
      "CNzh": "{{fun_0003_0001 arg=\"0x0000\"}}把谜底带来后，\n放在那边的{{color id=\"0\"}}叶子{{color id=\"65535\"}}上谜。\n如果答对了，\n老朽就会跳舞谜！\n{{fun_0004_0001 arg=\"0x1FCD\"}}如果答错了……{{delay1}}呼……",
      "EUde": "{{fun_0003_0001 arg=\"0x0000\"}}Wenn du weißt, welches Objekt ich von\ndir haben möchte, leg es auf das {{color id=\"0\"}}Blatt{{color id=\"65535\"}}\nhier...\nWenn es das richtige ist, tanze ich für\ndich!{{pageBreak}}{{fun_0004_0001 arg=\"0x1FCD\"}}Wenn's falsch ist... {{delay1}}Zzz...",
      "EUen": "{{fun_0003_0001 arg=\"0x0000\"}}If you think you know the answer, place\nthe object on the {{color id=\"0\"}}leaf {{color id=\"65535\"}}there. {{delay2}}If you place\nthe right thing, I'll sing your praises!\n{{fun_0004_0001 arg=\"0x1FCD\"}}But if it's wrong...{{delay3}}\nZ{{delay1}}z{{delay1}}z{{delay1}}...",
      "EUes": "{{fun_0003_0001 arg=\"0x0000\"}}Si crees que has dado con la respuesta,\ncoloca el objeto en cuestión sobre\nesa {{color id=\"0\"}}hoja{{color id=\"65535\"}} de ahí.\nSi has acertado, ¡bailaré para ti!\n{{fun_0004_0001 arg=\"0x1FCD\"}}Y si te has equivocado...{{delay1}} Zzz...",
      "EUfr": "{{fun_0003_0001 arg=\"0x0000\"}}Pose sur cette {{color id=\"0\"}}feuille{{color id=\"65535\"}} l'objet qui\ncorrespond à l'indice.\n\nSi c'est la bonne réponse, je danserai.\n\n\n{{fun_0004_0001 arg=\"0x1FCD\"}}Mais si tu te trompes... je...{{delay1}} Zzz...",
      "EUit": "{{fun_0003_0001 arg=\"0x0000\"}}Quando la risposta hai trovato, cerca e\nporta da me la cosa che t'ho domandato.\n\nSe ciò che metti sulla {{color id=\"0\"}}foglia {{color id=\"65535\"}}è il giusto\noggetto, io ti farò un bel balletto!\n\n{{fun_0004_0001 arg=\"0x1FCD\"}}Se è sbagliata... {{delay1}}Zzz...",
      "EUnl": "{{fun_0003_0001 arg=\"0x0000\"}}Als je het antwoord weet, plaats het\nvoorwerp dan op dit {{color id=\"0\"}}blad{{color id=\"65535\"}} hier.{{pageBreak}}Als het goed is, doe ik een dansje voor\nje. {{fun_0004_0001 arg=\"0x1FCD\"}}Als het fout is...{{delay1}} zzz...",
      "EUru": "{{fun_0003_0001 arg=\"0x0000\"}}Когда поймешь, что я загадал,\nположи это на {{color id=\"0\"}}лист{{color id=\"65535\"}}.{{pageBreak}}Угадаешь — станцую...{{pageBreak}}{{fun_0004_0001 arg=\"0x1FCD\"}}Не угадаешь...{{delay1}} Хр-р-р...",
      "JPja": "{{fun_0003_0001 arg=\"0x0000\"}}{{ruby charSpan=\"1\" value=\"こた\"}}答えのものを {{ruby charSpan=\"1\" value=\"も\"}}持ってきたら\nそこの{{color id=\"0\"}}{{ruby charSpan=\"1\" value=\"は\"}}葉{{color id=\"65535\"}}の{{ruby charSpan=\"1\" value=\"うえ\"}}上に{{ruby charSpan=\"1\" value=\"お\"}}置くゾナ\n{{ruby charSpan=\"1\" value=\"ただ\"}}正しいものを{{ruby charSpan=\"1\" value=\"お\"}}置いたら\n{{ruby charSpan=\"1\" value=\"おど\"}}踊ってやるゾナ\n{{fun_0004_0001 arg=\"0x1FCD\"}}{{ruby charSpan=\"2\" value=\"まちが\"}}間違ったものだったら…… {{delay1}}ぐう",
      "KRko": "{{fun_0003_0001 arg=\"0x0000\"}}대답을 가져왔다면\n거기 있는 {{color id=\"0\"}}잎사귀 {{color id=\"65535\"}}위에 올려놔께끼\n정답이라면\n춤춰 줄께끼\n{{fun_0004_0001 arg=\"0x1FCD\"}}오답이라면…… {{delay1}}쿠울",
      "TWzh": "{{fun_0003_0001 arg=\"0x0000\"}}把答案帶來後，\n放在那邊的{{color id=\"0\"}}葉子{{color id=\"65535\"}}上吶。\n如果答對了，\n老朽就會跳舞吶！\n{{fun_0004_0001 arg=\"0x1FCD\"}}如果答錯了……{{delay1}}呼……",
      "USen": "{{fun_0003_0001 arg=\"0x0000\"}}If you think you know the answer, place\nthe object on the {{color id=\"0\"}}leaf {{color id=\"65535\"}}there. {{delay2}}If you place\nthe right thing, I'll sing your praises!\n{{fun_0004_0001 arg=\"0x1FCD\"}}But if it's wrong...{{delay3}}\nZ{{delay1}}z{{delay1}}z{{delay1}}...",
      "USes": "{{fun_0003_0001 arg=\"0x0000\"}}En cuanto creas conocer la respuesta,\ncoloca el objeto en cuestión sobre\nesa {{color id=\"0\"}}hoja{{color id=\"65535\"}} de ahí.\nSi aciertas, ¡bailaré para ti!\n{{fun_0004_0001 arg=\"0x1FCD\"}}Y si te equivocas...{{delay1}} ya verás.",
      "USfr": "{{fun_0003_0001 arg=\"0x0000\"}}Pose sur cette {{color id=\"0\"}}feuille{{color id=\"65535\"}} l'objet qui\ncorrespond à l'indice.\n\nSi c'est la bonne réponse, je danserai.\n\n\n{{fun_0004_0001 arg=\"0x1FCD\"}}Mais si tu te trompes... je...{{delay1}} Zzz..."
    }
  },
  {
    "label": "Npc_kokiri002_F_Talk020",
    "attribute": "0xC4010000",
    "locale": {
      "CNzh": "{{size value=\"125\"}}{{fun_0003_0001 arg=\"0x071A\"}}没错谜！{{delay1}}没错谜！{{pageBreak}}{{fun_0004_0001 arg=\"0x08CD\"}}答对了谜！{{delay1}}跳舞吧谜！{{size value=\"100\"}}",
      "EUde": "{{size value=\"125\"}}{{fun_0003_0001 arg=\"0x071A\"}}Richtig! {{delay1}}Das ist es!{{pageBreak}}{{fun_0004_0001 arg=\"0x08CD\"}}Gut gemacht! {{delay1}}Und ich tanze!{{size value=\"100\"}}",
      "EUen": "{{size value=\"125\"}}{{fun_0003_0001 arg=\"0x071A\"}}That's it! {{delay1}}THAT'S IT!{{pageBreak}}{{fun_0004_0001 arg=\"0x08CD\"}}You got it!{{size value=\"100\"}}",
      "EUes": "{{fun_0003_0001 arg=\"0x071A\"}}{{size value=\"125\"}}¡Era eso! {{delay1}}¡Justamente!{{pageBreak}}{{fun_0004_0001 arg=\"0x08CD\"}}¡Has acertado!{{pageBreak}}¡Viva!{{size value=\"100\"}}",
      "EUfr": "{{size value=\"125\"}}{{fun_0003_0001 arg=\"0x071A\"}}Nom{{delay1}} d'une noix !!!\n\n\n{{fun_0004_0001 arg=\"0x08CD\"}}La danse{{delay1}} de la bonne réponse !{{size value=\"100\"}}",
      "EUit": "{{size value=\"125\"}}{{fun_0003_0001 arg=\"0x071A\"}}COSA?{{delay1}} No... ccio posso credere!{{size value=\"100\"}}{{pageBreak}}{{fun_0004_0001 arg=\"0x08CD\"}}Eccoti il balletto {{delay1}}per il giusto oggetto!",
      "EUnl": "{{size value=\"125\"}}{{fun_0003_0001 arg=\"0x071A\"}}DAT IS HET!{{size value=\"100\"}}{{delay1}}{{size value=\"125\"}} Dat IS het!{{size value=\"100\"}}{{pageBreak}}{{size value=\"125\"}}{{fun_0004_0001 arg=\"0x08CD\"}}Dat klopt!{{size value=\"100\"}}{{delay1}}{{size value=\"125\"}} Tijd om te dansen!{{size value=\"100\"}}",
      "EUru": "{{size value=\"125\"}}{{fun_0003_0001 arg=\"0x071A\"}}Правильно!{{delay1}} Правильно!{{pageBreak}}{{fun_0004_0001 arg=\"0x08CD\"}}Молодец!{{delay1}} Танцуем!!!{{size value=\"100\"}}",
      "JPja": "{{size value=\"125\"}}{{fun_0003_0001 arg=\"0x071A\"}}それゾナ！ {{delay1}}それゾナ！{{pageBreak}}{{fun_0004_0001 arg=\"0x08CD\"}}{{ruby charSpan=\"2\" value=\"せいかい\"}}正解ゾナ！ {{delay1}}{{ruby charSpan=\"1\" value=\"おど\"}}踊るゾナ！{{size value=\"100\"}}",
      "KRko": "{{size value=\"125\"}}{{fun_0003_0001 arg=\"0x071A\"}}맞아께끼! {{delay1}}맞아께끼!{{pageBreak}}{{fun_0004_0001 arg=\"0x08CD\"}}정답께끼! {{delay1}}춤춰께끼!{{size value=\"100\"}}",
      "TWzh": "{{size value=\"125\"}}{{fun_0003_0001 arg=\"0x071A\"}}沒錯吶！{{delay1}}沒錯吶！{{pageBreak}}{{fun_0004_0001 arg=\"0x08CD\"}}答對了吶！{{delay1}}來跳舞吶！{{size value=\"100\"}}",
      "USen": "{{size value=\"125\"}}{{fun_0003_0001 arg=\"0x071A\"}}That's it! {{delay1}}THAT'S IT!{{pageBreak}}{{fun_0004_0001 arg=\"0x08CD\"}}You got it!{{size value=\"100\"}}",
      "USes": "{{size value=\"125\"}}{{fun_0003_0001 arg=\"0x071A\"}}¡Era eso! {{delay1}}¡Justamente!{{pageBreak}}{{fun_0004_0001 arg=\"0x08CD\"}}¡Acertaste!{{pageBreak}}Ahora bailaré para ti.{{size value=\"100\"}}",
      "USfr": "{{size value=\"125\"}}{{fun_0003_0001 arg=\"0x071A\"}}Nom{{delay1}} d'une noix!!!\n\n\n{{fun_0004_0001 arg=\"0x08CD\"}}La danse{{delay1}} de la bonne réponse!{{size value=\"100\"}}"
    }
  },
  {
    "label": "Npc_kokiri002_F_Talk021",
    "attribute": "0xE0010000",
    "locale": {
      "CNzh": "{{fun_0003_0001 arg=\"0x0000\"}}……咳咳！{{delay2}}\n那么，接着是下一题谜！",
      "EUde": "{{fun_0003_0001 arg=\"0x0000\"}}Nun gut...{{delay2}}\nHier das nächste Rätsel!",
      "EUen": "{{fun_0003_0001 arg=\"0x0000\"}}*ahem*{{delay2}}\nThe next riddle is...",
      "EUes": "{{fun_0003_0001 arg=\"0x0000\"}}Ejem, ejem.{{delay2}} Procedo a recitarte\nel siguiente acertijo, entonces.",
      "EUfr": "{{fun_0003_0001 arg=\"0x0000\"}}Hem.{{delay2}} Question suivante !",
      "EUit": "{{fun_0003_0001 arg=\"0x0000\"}}Ehm...{{delay2}} Ora passiamo al prossimo\nindovinello.",
      "EUnl": "{{fun_0003_0001 arg=\"0x0000\"}}Ahum...{{delay2}} Hier komt het volgende raadsel.",
      "EUru": "{{fun_0003_0001 arg=\"0x0000\"}}Кхм-кхм.{{delay1}} Итак, следующая загадка.",
      "JPja": "{{fun_0003_0001 arg=\"0x0000\"}}…コホン{{delay2}}\nでは {{ruby charSpan=\"1\" value=\"つぎ\"}}次のお{{ruby charSpan=\"1\" value=\"だい\"}}題を{{ruby charSpan=\"1\" value=\"だ\"}}出すゾナ！",
      "KRko": "{{fun_0003_0001 arg=\"0x0000\"}}…어흠{{delay2}}\n그럼 다음 문제를 내께끼!",
      "TWzh": "{{fun_0003_0001 arg=\"0x0000\"}}……咳咳！{{delay2}}\n那麼，接著是下一題吶！",
      "USen": "{{fun_0003_0001 arg=\"0x0000\"}}*ahem*{{delay2}}\nThe next riddle is...",
      "USes": "{{fun_0003_0001 arg=\"0x0000\"}}Eje, ejem.{{delay2}} Procedo a recitarte\nel siguiente acertijo, entonces.",
      "USfr": "{{fun_0003_0001 arg=\"0x0000\"}}Hem.{{delay2}} Question suivante!"
    }
  },
  {
    "label": "Npc_kokiri002_F_Talk022",
    "attribute": "0xFC010000",
    "locale": {
      "CNzh": "{{fun_0003_0001 arg=\"0x0000\"}}这是最后一题谜！{{delay1}}\n做好准备答题谜！",
      "EUde": "{{fun_0003_0001 arg=\"0x0000\"}}Dies ist das letzte!{{delay1}}\nIch hoffe, du bist bereit!",
      "EUen": "{{fun_0003_0001 arg=\"0x0000\"}}This is the last riddle!{{delay1}}\nPrepare yourself!",
      "EUes": "{{fun_0003_0001 arg=\"0x0000\"}}¡Ojo, que es el último!{{delay1}} ¿Preparado?{{delay1}}\n¡Presta atención!",
      "EUfr": "{{fun_0003_0001 arg=\"0x0000\"}}Oh... Celle-ci sera la dernière !{{delay1}}\nPrépare-toi au pire !",
      "EUit": "{{fun_0003_0001 arg=\"0x0000\"}}Questo è l'ultimo!{{delay1}}\nAttenzione, attenzione!",
      "EUnl": "{{fun_0003_0001 arg=\"0x0000\"}}Dit is het laatste raadsel, dus zet je\nschrap!",
      "EUru": "{{fun_0003_0001 arg=\"0x0000\"}}Это последняя!{{delay1}} Приготовься!",
      "JPja": "{{fun_0003_0001 arg=\"0x0000\"}}これが {{ruby charSpan=\"2\" value=\"さいご\"}}最後のお{{ruby charSpan=\"1\" value=\"だい\"}}題ゾナ！{{delay1}}\n{{ruby charSpan=\"1\" value=\"こころ\"}}心して かかるゾナ！",
      "KRko": "{{fun_0003_0001 arg=\"0x0000\"}}이게 마지막 문제께끼!{{delay1}}\n마음 단단히 먹어께끼!",
      "TWzh": "{{fun_0003_0001 arg=\"0x0000\"}}這是最後一題吶！{{delay1}}\n做好準備小心答題吶！",
      "USen": "{{fun_0003_0001 arg=\"0x0000\"}}This is the last riddle!{{delay1}}\nPrepare yourself!",
      "USes": "{{fun_0003_0001 arg=\"0x0000\"}}¿Preparado para el último acertijo?{{delay1}}\n¡Pon mucha atención!",
      "USfr": "{{fun_0003_0001 arg=\"0x0000\"}}Oh... Celle-ci sera la dernière!{{delay1}}\nPrépare-toi au pire!"
    }
  },
  {
    "label": "Npc_kokiri002_F_Talk030",
    "attribute": "0x18020000",
    "locale": {
      "CNzh": "{{fun_0003_0001 arg=\"0x070A\"}}不愧是勇者大人谜！\n这是给你的奖励谜！",
      "EUde": "{{fun_0003_0001 arg=\"0x070A\"}}Ich wusste, du würdest es schaffen,\nwerter Held! {{delay1}}Hier ist deine Belohnung!",
      "EUen": "{{fun_0003_0001 arg=\"0x070A\"}}I knew you could do it, Mr. Hero!\nHere is your reward!",
      "EUes": "{{fun_0003_0001 arg=\"0x070A\"}}Sabía que estabas capacitado para\nsuperar el reto, señor héroe.{{pageBreak}}¡Aquí tienes tu merecida recompensa!",
      "EUfr": "{{fun_0003_0001 arg=\"0x070A\"}}Je savais que tu allais réussir,\nami Héros ! Tiens, tiens, prends\nta récompense !",
      "EUit": "{{fun_0003_0001 arg=\"0x070A\"}}Sapevo che ce l'avresti fatta, signor\nEroe! Ecco la tua ricompensa!",
      "EUnl": "{{fun_0003_0001 arg=\"0x070A\"}}Ik wist wel dat je het kon, meneer de\nheld! Hier is je beloning!",
      "EUru": "{{fun_0003_0001 arg=\"0x070A\"}}Я верил в тебя, дорогой\nгерой!{{delay1}} Вот твоя награда!",
      "JPja": "{{fun_0003_0001 arg=\"0x070A\"}}さすが ゆうしゃサマ ゾナ！\nほれ ご{{ruby charSpan=\"2\" value=\"ほうび\"}}褒美をあげるゾナ",
      "KRko": "{{fun_0003_0001 arg=\"0x070A\"}}역시 용사님께끼!\n자, 상을 줄께끼",
      "TWzh": "{{fun_0003_0001 arg=\"0x070A\"}}不愧是勇者大人吶！\n這是給你的獎勵吶！",
      "USen": "{{fun_0003_0001 arg=\"0x070A\"}}I knew you could do it, Mr. Hero!\nHere is your reward!",
      "USes": "{{fun_0003_0001 arg=\"0x070A\"}}Sabía que estabas capacitado para\nsuperar el reto, señor héroe.{{pageBreak}}¡Aquí tienes tu merecida recompensa!",
      "USfr": "{{fun_0003_0001 arg=\"0x070A\"}}Je savais que tu allais réussir,\nami Héros! Tiens, tiens, prends\nta récompense!"
    }
  },
  {
    "label": "Npc_kokiri002_F_Talk031",
    "attribute": "0x34020000",
    "locale": {
      "CNzh": "{{fun_0003_0001 arg=\"0x0B01\"}}{{anim2 type=\"Think_01\"}}谜……？{{delay2}}\n勇者大人已经有很多钻石了谜。\n{{fun_0003_0001 arg=\"0x0000\"}}本来想送你钻石\n作为猜谜的奖励谜……\n等你能收下时，再叫醒老朽谜。{{delay3}}\n……呼噜……",
      "EUde": "{{fun_0003_0001 arg=\"0x0B01\"}}{{anim2 type=\"Think_01\"}}Sieh an, sieh an...{{delay2}}\nDu hast schon sooo viele {{wordInfo gender=\"1\" defArticle=\"0\" indefArticle=\"0\" isPlural=\"0\"}}Diamanten...{{pageBreak}}{{fun_0003_0001 arg=\"0x0000\"}}Da kann ich dir gar keine mehr für das\nLösen des Rätsels geben.{{pageBreak}}Weck mich, wenn du Platz hast.{{delay3}}\nZzz...",
      "EUen": "{{fun_0003_0001 arg=\"0x0B01\"}}{{anim2 type=\"Think_01\"}}Hmm?{{delay2}} You are overflowing with\ndiamonds!\n\n{{fun_0003_0001 arg=\"0x0000\"}}I was gonna give you some diamonds\nfor solving my riddles, but...\n\nZ{{delay1}}z{{delay1}}z{{delay1}}z{{delay1}}z...",
      "EUes": "{{fun_0003_0001 arg=\"0x0B01\"}}{{anim2 type=\"Think_01\"}}¡Pero señor héroe!{{delay2}} ¡Si vas hasta\narriba de {{wordInfo gender=\"1\" defArticle=\"0\" indefArticle=\"0\" isPlural=\"0\"}}diamantes!{{pageBreak}}{{fun_0003_0001 arg=\"0x0000\"}}Y yo que tenía pensado darte uno por\nresolver los acertijos... Qué mal.{{pageBreak}}Bueno, en cuanto tengas un huequecito\nven a despertarme, ¿sí?{{delay3}} Zzz...",
      "EUfr": "{{fun_0003_0001 arg=\"0x0B01\"}}{{anim2 type=\"Think_01\"}}Tiens... ?{{delay2}}\n\n\nMais tu as déjà tout plein de diamants\nbruts, ami Héros.\n\n{{fun_0003_0001 arg=\"0x0000\"}}Dommage, moi qui en avais pour toi...\nTu n'as vraiment l'air d'en avoir besoin\npour le moment.\nReviens me voir quand tu auras plus de\nplace...{{delay3}} Zzz...",
      "EUit": "{{fun_0003_0001 arg=\"0x0B01\"}}{{anim2 type=\"Think_01\"}}Uhm?{{delay2}}\nSignor Eroe, hai troppi diamanti!\n\n{{fun_0003_0001 arg=\"0x0000\"}}Anche io te ne volevo regalare\ncome ricompensa... vieni a svegliarmi\nquando hai fatto un po' di spazio.{{delay3}}\nZzz...",
      "EUnl": "{{fun_0003_0001 arg=\"0x0B01\"}}{{anim2 type=\"Think_01\"}}Hmm?{{delay2}} Meneer de held bulkt al van de\ndiamanten...{{pageBreak}}{{fun_0003_0001 arg=\"0x0000\"}}Ik wilde je een paar diamanten geven\nvoor het oplossen van het raadsel...{{pageBreak}}Maak me maar wakker als je er weer plek\nvoor hebt.{{delay3}} Zzz...",
      "EUru": "{{fun_0003_0001 arg=\"0x0B01\"}}{{anim2 type=\"Think_01\"}}Ничего себе, сколько у тебя\nалмазов, дорогой герой!{{pageBreak}}{{fun_0003_0001 arg=\"0x0000\"}}Приходи, когда потратишь.{{delay1}} Хр-р-р...",
      "JPja": "{{fun_0003_0001 arg=\"0x0B01\"}}{{anim2 type=\"Think_01\"}}ゾナ…？{{delay2}}\nゆうしゃサマ ダイヤモンドいっぱいゾナ\n{{fun_0003_0001 arg=\"0x0000\"}}ナゾナゾのご{{ruby charSpan=\"2\" value=\"ほうび\"}}褒美に ダイヤモンドを\nあげようと {{ruby charSpan=\"1\" value=\"おも\"}}思ってたゾナ…\n{{ruby charSpan=\"1\" value=\"う\"}}受け{{ruby charSpan=\"1\" value=\"と\"}}取れるようになったら {{ruby charSpan=\"1\" value=\"お\"}}起こしてゾナ{{delay3}}\n……ぐう",
      "KRko": "{{fun_0003_0001 arg=\"0x0B01\"}}{{anim2 type=\"Think_01\"}}께끼…?{{delay2}}\n용사님, 다이아몬드가 가득께끼\n{{fun_0003_0001 arg=\"0x0000\"}}수수께끼의 상으로\n다이아몬드를 주려고 했께끼…\n받을 수 있게 되면 깨워 줘께끼{{delay3}}\n……쿠울",
      "TWzh": "{{fun_0003_0001 arg=\"0x0B01\"}}{{anim2 type=\"Think_01\"}}吶……？{{delay2}}\n勇者大人已經有很多鑽石了吶。\n{{fun_0003_0001 arg=\"0x0000\"}}本來想送你鑽石\n當猜謎的獎勵吶……\n等你能收下時，再叫醒老朽吶。{{delay3}}\n……呼嚕……",
      "USen": "{{fun_0003_0001 arg=\"0x0B01\"}}{{anim2 type=\"Think_01\"}}Hmm?{{delay2}} You are overflowing with\ndiamonds!\n\n{{fun_0003_0001 arg=\"0x0000\"}}I was gonna give you some diamonds\nfor solving my riddles, but...\n\nZ{{delay1}}z{{delay1}}z{{delay1}}z{{delay1}}z...",
      "USes": "{{fun_0003_0001 arg=\"0x0B01\"}}{{anim2 type=\"Think_01\"}}¡Pero señor héroe!{{delay2}} ¡Si vas hasta\narriba de {{wordInfo gender=\"1\" defArticle=\"0\" indefArticle=\"0\" isPlural=\"0\"}}diamantes!{{pageBreak}}{{fun_0003_0001 arg=\"0x0000\"}}Y yo que tenía pensado darte uno por\nresolver los acertijos... Qué mal.{{pageBreak}}Bueno, en cuanto tengas un huequecito\nven a despertarme, ¿sí?{{delay3}} Zzz...",
      "USfr": "{{fun_0003_0001 arg=\"0x0B01\"}}{{anim2 type=\"Think_01\"}}Tiens...?{{delay2}}\n\n\nMais tu as déjà tout plein de diamants\nbruts, ami Héros.\n\n{{fun_0003_0001 arg=\"0x0000\"}}Dommage, moi qui en avais pour toi...\nTu n'as vraiment pas l'air d'en avoir\nbesoin pour le moment.\nReviens me voir quand tu auras plus de\nplace...{{delay3}} Zzz..."
    }
  },
  {
    "label": "Npc_kokiri002_F_Talk040",
    "attribute": "0x50020000",
    "locale": {
      "CNzh": "{{fun_0003_0001 arg=\"0x0620\"}}谜题已经出完了谜……{{delay1}}\n是老朽输了谜，你真厉害谜。",
      "EUde": "{{fun_0003_0001 arg=\"0x0620\"}}Ich habe keine Rätsel mehr für dich...{{delay1}}\nDu hast meine Prüfung gemeistert, ich\nbin beeindruckt!",
      "EUen": "{{fun_0003_0001 arg=\"0x0620\"}}I'm fresh out of riddles.{{delay1}}\nYou've outwhittled me...\nVery impressive!",
      "EUes": "{{fun_0003_0001 arg=\"0x0620\"}}Me he quedado sin acertijos.{{delay1}}\nJamás pensé que llegaría el día\nen que alguien los resolvería todos.",
      "EUfr": "{{fun_0003_0001 arg=\"0x0620\"}}Je n'ai plus aucune devinette pour toi...{{delay1}}\nJ'ai perdu ! C'est pas rien de gagner\ncontre moi, tu sais !",
      "EUit": "{{fun_0003_0001 arg=\"0x0620\"}}No...ccio altri indovinelli...{{delay1}} Ho perso!\nNo...ccio posso credere! Non è da tutti!",
      "EUnl": "{{fun_0003_0001 arg=\"0x0620\"}}Ik heb geen raadsels meer...{{delay1}} Ik heb van\nje verloren... Indrukwekkend!",
      "EUru": "{{fun_0003_0001 arg=\"0x0620\"}}Загадок у меня больше нет.{{delay1}}\nТы прошел мое испытание.\nМолодец!",
      "JPja": "{{fun_0003_0001 arg=\"0x0620\"}}もう なぞなぞは{{ruby charSpan=\"1\" value=\"だ\"}}出し{{ruby charSpan=\"1\" value=\"つ\"}}尽くしてしまったゾナ…{{delay1}}\nワシの{{ruby charSpan=\"1\" value=\"ま\"}}負けゾナ {{ruby charSpan=\"1\" value=\"たい\"}}大したモンだゾナ",
      "KRko": "{{fun_0003_0001 arg=\"0x0620\"}}이제 수수께끼도 다 떨어졌께끼…{{delay1}}\n내가 졌께끼, 정말 대단께끼",
      "TWzh": "{{fun_0003_0001 arg=\"0x0620\"}}謎題已經出完了吶……{{delay1}}\n是老朽輸了吶，真厲害吶。",
      "USen": "{{fun_0003_0001 arg=\"0x0620\"}}I'm fresh out of riddles.{{delay1}}\nYou've outwhittled me...\nVery impressive!",
      "USes": "{{fun_0003_0001 arg=\"0x0620\"}}Vaya, me quedé sin acertijos.{{delay1}}\nJamás pensé que llegaría el día\nen que alguien los resolvería todos.",
      "USfr": "{{fun_0003_0001 arg=\"0x0620\"}}Je n'ai plus aucune devinette pour toi...{{delay1}}\nJ'ai perdu! C'est pas rien de gagner\ncontre moi, tu sais!"
    }
  },
  {
    "label": "Npc_kokiri002_F_Talk050",
    "attribute": "0x6C020000",
    "locale": {
      "CNzh": "{{size value=\"125\"}}{{fun_0004_0001 arg=\"0x09CD\"}}是{{color id=\"0\"}}苹果{{color id=\"65535\"}}谜！{{delay2}}是{{color id=\"0\"}}苹果{{color id=\"65535\"}}谜！！{{size value=\"100\"}}",
      "EUde": "{{size value=\"125\"}}{{fun_0004_0001 arg=\"0x09CD\"}}{{color id=\"0\"}}{{wordInfo gender=\"1\" defArticle=\"0\" indefArticle=\"0\" isPlural=\"0\"}}Apfel{{color id=\"65535\"}}! {{delay2}}{{color id=\"0\"}}{{wordInfo gender=\"1\" defArticle=\"0\" indefArticle=\"0\" isPlural=\"0\"}}Apfel{{color id=\"65535\"}}!{{size value=\"100\"}}",
      "EUen": "{{size value=\"125\"}}{{fun_0004_0001 arg=\"0x09CD\"}}{{color id=\"0\"}}Apple{{color id=\"65535\"}}!{{color id=\"0\"}}{{delay2}}{{color id=\"65535\"}} It's an {{color id=\"0\"}}apple{{color id=\"65535\"}}!{{size value=\"100\"}}",
      "EUes": "{{size value=\"125\"}}{{fun_0004_0001 arg=\"0x09CD\"}}¡Una {{color id=\"0\"}}{{wordInfo gender=\"2\" defArticle=\"1\" indefArticle=\"1\" isPlural=\"0\"}}manzana{{color id=\"65535\"}}! {{delay2}}¡Viva!{{size value=\"100\"}}",
      "EUfr": "{{size value=\"125\"}}{{fun_0004_0001 arg=\"0x09CD\"}}Une {{color id=\"0\"}}{{wordInfo gender=\"2\" defArticle=\"1\" indefArticle=\"1\" isPlural=\"0\"}}pomme{{color id=\"65535\"}} !!!{{delay2}} Une {{color id=\"0\"}}{{wordInfo gender=\"2\" defArticle=\"1\" indefArticle=\"1\" isPlural=\"0\"}}pomme{{color id=\"65535\"}} !!!{{size value=\"100\"}}",
      "EUit": "{{size value=\"125\"}}{{fun_0004_0001 arg=\"0x09CD\"}}Una {{color id=\"0\"}}{{wordInfo gender=\"2\" defArticle=\"2\" indefArticle=\"2\" isPlural=\"0\"}}mela{{color id=\"65535\"}}! {{delay2}}Una {{color id=\"0\"}}{{wordInfo gender=\"2\" defArticle=\"2\" indefArticle=\"2\" isPlural=\"0\"}}mela{{color id=\"65535\"}}!!!{{size value=\"100\"}}",
      "EUnl": "{{size value=\"125\"}}{{fun_0004_0001 arg=\"0x09CD\"}}{{color id=\"0\"}}Appel{{color id=\"65535\"}}! {{delay2}}{{color id=\"0\"}}Appel{{color id=\"65535\"}}!{{size value=\"100\"}}",
      "EUru": "{{size value=\"125\"}}{{fun_0004_0001 arg=\"0x09CD\"}}{{color id=\"0\"}}Яблоко!{{delay1}} Яблоко!{{color id=\"65535\"}}{{size value=\"100\"}}",
      "JPja": "{{size value=\"125\"}}{{fun_0004_0001 arg=\"0x09CD\"}}{{color id=\"0\"}}リンゴ{{color id=\"65535\"}}ゾナ！ {{delay2}}{{color id=\"0\"}}リンゴ{{color id=\"65535\"}}ゾナ！！{{size value=\"100\"}}",
      "KRko": "{{size value=\"125\"}}{{fun_0004_0001 arg=\"0x09CD\"}}{{color id=\"0\"}}사과{{color id=\"65535\"}}께끼! {{delay2}}{{color id=\"0\"}}사과{{color id=\"65535\"}}께끼!!{{size value=\"100\"}}",
      "TWzh": "{{size value=\"125\"}}{{fun_0004_0001 arg=\"0x09CD\"}}是{{color id=\"0\"}}蘋果{{color id=\"65535\"}}吶！{{delay2}}是{{color id=\"0\"}}蘋果{{color id=\"65535\"}}吶！！{{size value=\"100\"}}",
      "USen": "{{size value=\"125\"}}{{fun_0004_0001 arg=\"0x09CD\"}}{{color id=\"0\"}}Apple{{color id=\"65535\"}}!{{color id=\"0\"}}{{delay2}}{{color id=\"65535\"}} It's an {{color id=\"0\"}}apple{{color id=\"65535\"}}!{{size value=\"100\"}}",
      "USes": "{{size value=\"125\"}}{{fun_0004_0001 arg=\"0x09CD\"}}¡Una {{color id=\"0\"}}{{wordInfo gender=\"2\" defArticle=\"1\" indefArticle=\"1\" isPlural=\"0\"}}manzana{{color id=\"65535\"}}!{{size value=\"100\"}}",
      "USfr": "{{size value=\"125\"}}{{fun_0004_0001 arg=\"0x09CD\"}}Une {{color id=\"0\"}}{{wordInfo gender=\"2\" defArticle=\"1\" indefArticle=\"1\" isPlural=\"0\"}}pomme{{color id=\"65535\"}}!!!{{delay2}} Une {{color id=\"0\"}}{{wordInfo gender=\"2\" defArticle=\"1\" indefArticle=\"1\" isPlural=\"0\"}}pomme{{color id=\"65535\"}}!!!{{size value=\"100\"}}"
    }
  },
  {
    "label": "Npc_kokiri002_F_Talk051",
    "attribute": "0x88020000",
    "locale": {
      "CNzh": "{{size value=\"125\"}}{{fun_0004_0001 arg=\"0x09CD\"}}是{{color id=\"0\"}}铠甲南瓜{{color id=\"65535\"}}谜！！{{size value=\"100\"}}",
      "EUde": "{{size value=\"125\"}}{{fun_0004_0001 arg=\"0x09CD\"}}{{color id=\"0\"}}{{wordInfo gender=\"1\" defArticle=\"0\" indefArticle=\"0\" isPlural=\"0\"}}Rüstungskürbis{{color id=\"65535\"}}!{{size value=\"100\"}}",
      "EUen": "{{size value=\"125\"}}{{fun_0004_0001 arg=\"0x09CD\"}}{{color id=\"0\"}}Fortified pumpkin!{{color id=\"65535\"}}{{size value=\"100\"}}",
      "EUes": "{{size value=\"125\"}}{{fun_0004_0001 arg=\"0x09CD\"}}¡Una {{color id=\"0\"}}{{wordInfo gender=\"2\" defArticle=\"1\" indefArticle=\"1\" isPlural=\"0\"}}calabaza robusta{{color id=\"65535\"}}!{{size value=\"100\"}}",
      "EUfr": "{{size value=\"125\"}}{{fun_0004_0001 arg=\"0x09CD\"}} Une {{color id=\"0\"}}{{wordInfo gender=\"2\" defArticle=\"1\" indefArticle=\"1\" isPlural=\"0\"}}citrouille armo{{color id=\"65535\"}} !!!{{size value=\"100\"}}",
      "EUit": "{{size value=\"125\"}}{{fun_0004_0001 arg=\"0x09CD\"}}Una {{color id=\"0\"}}{{wordInfo gender=\"2\" defArticle=\"2\" indefArticle=\"2\" isPlural=\"0\"}}corazzucca{{color id=\"65535\"}}!!!{{size value=\"100\"}}",
      "EUnl": "{{size value=\"125\"}}{{fun_0004_0001 arg=\"0x09CD\"}}{{color id=\"0\"}}Pantserpompoen{{color id=\"65535\"}}!{{size value=\"100\"}}",
      "EUru": "{{size value=\"125\"}}{{fun_0004_0001 arg=\"0x09CD\"}}{{color id=\"0\"}}Латная тыква!{{color id=\"65535\"}}{{size value=\"100\"}}",
      "JPja": "{{size value=\"125\"}}{{fun_0004_0001 arg=\"0x09CD\"}}{{color id=\"0\"}}ヨロイカボチャ{{color id=\"65535\"}}ゾナ！！{{size value=\"100\"}}",
      "KRko": "{{size value=\"125\"}}{{fun_0004_0001 arg=\"0x09CD\"}}{{color id=\"0\"}}갑옷호박{{color id=\"65535\"}}께끼!!{{size value=\"100\"}}",
      "TWzh": "{{size value=\"125\"}}{{fun_0004_0001 arg=\"0x09CD\"}}是{{color id=\"0\"}}鎧甲南瓜{{color id=\"65535\"}}吶！！{{size value=\"100\"}}",
      "USen": "{{size value=\"125\"}}{{fun_0004_0001 arg=\"0x09CD\"}}{{color id=\"0\"}}Fortified pumpkin!{{color id=\"65535\"}}{{size value=\"100\"}}",
      "USes": "{{size value=\"125\"}}{{fun_0004_0001 arg=\"0x09CD\"}}¡Una {{color id=\"0\"}}{{wordInfo gender=\"2\" defArticle=\"1\" indefArticle=\"1\" isPlural=\"0\"}}calabaza robusta{{color id=\"65535\"}}!{{size value=\"100\"}}",
      "USfr": "{{size value=\"125\"}}{{fun_0004_0001 arg=\"0x09CD\"}} Une {{color id=\"0\"}}{{wordInfo gender=\"2\" defArticle=\"1\" indefArticle=\"1\" isPlural=\"0\"}}citrouille armo{{color id=\"65535\"}}!!!{{size value=\"100\"}}"
    }
  },
  {
    "label": "Npc_kokiri002_F_Talk052",
    "attribute": "0xA4020000",
    "locale": {
      "CNzh": "{{size value=\"125\"}}{{fun_0004_0001 arg=\"0x09CD\"}}是{{color id=\"0\"}}暖暖蘑菇{{color id=\"65535\"}}谜！！{{size value=\"100\"}}",
      "EUde": "{{size value=\"125\"}}{{fun_0004_0001 arg=\"0x09CD\"}}{{color id=\"0\"}}{{wordInfo gender=\"1\" defArticle=\"0\" indefArticle=\"0\" isPlural=\"0\"}}Glutling{{color id=\"65535\"}}!{{size value=\"100\"}}",
      "EUen": "{{size value=\"125\"}}{{fun_0004_0001 arg=\"0x09CD\"}}{{color id=\"0\"}}Sunshroom!{{color id=\"65535\"}}{{size value=\"100\"}}",
      "EUes": "{{size value=\"125\"}}{{fun_0004_0001 arg=\"0x09CD\"}}¡Una {{color id=\"0\"}}{{wordInfo gender=\"2\" defArticle=\"1\" indefArticle=\"1\" isPlural=\"0\"}}seta ígnea{{color id=\"65535\"}}!{{size value=\"100\"}}",
      "EUfr": "{{size value=\"125\"}}{{fun_0004_0001 arg=\"0x09CD\"}}Un {{color id=\"0\"}}{{wordInfo gender=\"1\" defArticle=\"0\" indefArticle=\"0\" isPlural=\"0\"}}champi piment{{color id=\"65535\"}} !!!{{size value=\"100\"}}",
      "EUit": "{{size value=\"125\"}}{{fun_0004_0001 arg=\"0x09CD\"}}Un {{color id=\"0\"}}{{wordInfo gender=\"1\" defArticle=\"0\" indefArticle=\"0\" isPlural=\"0\"}}caldoncello{{color id=\"65535\"}}!!!{{size value=\"100\"}}",
      "EUnl": "{{size value=\"125\"}}{{fun_0004_0001 arg=\"0x09CD\"}}{{color id=\"0\"}}Hittezwam{{color id=\"65535\"}}!{{size value=\"100\"}}",
      "EUru": "{{size value=\"125\"}}{{fun_0004_0001 arg=\"0x09CD\"}}{{color id=\"0\"}}Жаромор!{{color id=\"65535\"}}{{size value=\"100\"}}",
      "JPja": "{{size value=\"125\"}}{{fun_0004_0001 arg=\"0x09CD\"}}{{color id=\"0\"}}ポカポカダケ{{color id=\"65535\"}}ゾナ！！{{size value=\"100\"}}",
      "KRko": "{{size value=\"125\"}}{{fun_0004_0001 arg=\"0x09CD\"}}{{color id=\"0\"}}따끈따끈버섯{{color id=\"65535\"}}께끼!!{{size value=\"100\"}}",
      "TWzh": "{{size value=\"125\"}}{{fun_0004_0001 arg=\"0x09CD\"}}是{{color id=\"0\"}}暖暖蘑菇{{color id=\"65535\"}}吶！！{{size value=\"100\"}}",
      "USen": "{{size value=\"125\"}}{{fun_0004_0001 arg=\"0x09CD\"}}{{color id=\"0\"}}Sunshroom!{{color id=\"65535\"}}{{size value=\"100\"}}",
      "USes": "{{size value=\"125\"}}{{fun_0004_0001 arg=\"0x09CD\"}}¡Un {{color id=\"0\"}}{{wordInfo gender=\"1\" defArticle=\"0\" indefArticle=\"0\" isPlural=\"0\"}}hongo solar{{color id=\"65535\"}}!{{size value=\"100\"}}",
      "USfr": "{{size value=\"125\"}}{{fun_0004_0001 arg=\"0x09CD\"}}Un {{color id=\"0\"}}{{wordInfo gender=\"1\" defArticle=\"0\" indefArticle=\"0\" isPlural=\"0\"}}champi piment{{color id=\"65535\"}}!!!{{size value=\"100\"}}"
    }
  },
  {
    "label": "Npc_kokiri002_F_Talk053",
    "attribute": "0xC0020000",
    "locale": {
      "CNzh": "{{fun_0004_0001 arg=\"0x09CD\"}}{{size value=\"125\"}}是{{color id=\"0\"}}酥麻鳟鱼{{color id=\"65535\"}}谜！！{{size value=\"100\"}}",
      "EUde": "{{fun_0004_0001 arg=\"0x09CD\"}}{{size value=\"125\"}}{{color id=\"0\"}}{{wordInfo gender=\"2\" defArticle=\"1\" indefArticle=\"1\" isPlural=\"0\"}}Zitterforelle{{color id=\"65535\"}}!{{size value=\"100\"}}",
      "EUen": "{{fun_0004_0001 arg=\"0x09CD\"}}{{color id=\"0\"}}{{size value=\"125\"}}Voltfin trout!{{size value=\"100\"}}{{color id=\"65535\"}}",
      "EUes": "{{fun_0004_0001 arg=\"0x09CD\"}}{{size value=\"125\"}}¡Una {{color id=\"0\"}}{{wordInfo gender=\"2\" defArticle=\"1\" indefArticle=\"1\" isPlural=\"0\"}}trucha electro{{color id=\"65535\"}}!{{size value=\"100\"}}",
      "EUfr": "{{fun_0004_0001 arg=\"0x09CD\"}}{{size value=\"125\"}}Une {{color id=\"0\"}}{{wordInfo gender=\"2\" defArticle=\"1\" indefArticle=\"1\" isPlural=\"0\"}}truite volt{{color id=\"65535\"}} !!!{{size value=\"100\"}}",
      "EUit": "{{fun_0004_0001 arg=\"0x09CD\"}}{{size value=\"125\"}}Una {{color id=\"0\"}}{{wordInfo gender=\"2\" defArticle=\"2\" indefArticle=\"2\" isPlural=\"0\"}}trota scossa{{color id=\"65535\"}}!!!{{size value=\"100\"}}",
      "EUnl": "{{fun_0004_0001 arg=\"0x09CD\"}}{{size value=\"125\"}}{{color id=\"0\"}}Schokforel{{color id=\"65535\"}}!{{size value=\"100\"}}",
      "EUru": "{{size value=\"125\"}}{{fun_0004_0001 arg=\"0x09CD\"}}{{color id=\"0\"}}Грозовая форель!{{color id=\"65535\"}}{{size value=\"100\"}}",
      "JPja": "{{fun_0004_0001 arg=\"0x09CD\"}}{{size value=\"125\"}}{{color id=\"0\"}}ビリビリマス{{color id=\"65535\"}}ゾナ！！{{size value=\"100\"}}",
      "KRko": "{{fun_0004_0001 arg=\"0x09CD\"}}{{size value=\"125\"}}{{color id=\"0\"}}찌릿찌릿송어{{color id=\"65535\"}}께끼!!{{size value=\"100\"}}",
      "TWzh": "{{fun_0004_0001 arg=\"0x09CD\"}}{{size value=\"125\"}}是{{color id=\"0\"}}酥麻鱒魚{{color id=\"65535\"}}吶！！{{size value=\"100\"}}",
      "USen": "{{fun_0004_0001 arg=\"0x09CD\"}}{{color id=\"0\"}}{{size value=\"125\"}}Voltfin trout!{{size value=\"100\"}}{{color id=\"65535\"}}",
      "USes": "{{fun_0004_0001 arg=\"0x09CD\"}}{{size value=\"125\"}}¡Una {{color id=\"0\"}}{{wordInfo gender=\"2\" defArticle=\"1\" indefArticle=\"1\" isPlural=\"0\"}}trucha contracorriente{{color id=\"65535\"}}!{{size value=\"100\"}}",
      "USfr": "{{fun_0004_0001 arg=\"0x09CD\"}}{{size value=\"125\"}}Une {{color id=\"0\"}}{{wordInfo gender=\"2\" defArticle=\"1\" indefArticle=\"1\" isPlural=\"0\"}}truite volt{{color id=\"65535\"}}!!!{{size value=\"100\"}}"
    }
  },
  {
    "label": "Npc_kokiri002_F_Talk054",
    "attribute": "0xDC020000",
    "locale": {
      "CNzh": "{{size value=\"125\"}}{{fun_0004_0001 arg=\"0x09CD\"}}是{{color id=\"0\"}}莱尼尔的蹄子{{color id=\"65535\"}}谜！！{{size value=\"100\"}}",
      "EUde": "{{size value=\"125\"}}{{fun_0004_0001 arg=\"0x09CD\"}}{{color id=\"0\"}}{{wordInfo gender=\"1\" defArticle=\"0\" indefArticle=\"0\" isPlural=\"0\"}}Leunen-Huf{{color id=\"65535\"}}!{{size value=\"100\"}}",
      "EUen": "{{size value=\"125\"}}{{fun_0004_0001 arg=\"0x09CD\"}}{{color id=\"0\"}}Lynel hoof!{{color id=\"65535\"}}{{size value=\"100\"}}",
      "EUes": "{{size value=\"125\"}}{{fun_0004_0001 arg=\"0x09CD\"}}¡Una {{color id=\"0\"}}{{wordInfo gender=\"2\" defArticle=\"1\" indefArticle=\"1\" isPlural=\"0\"}}pezuña de centaleón{{color id=\"65535\"}}!{{size value=\"100\"}}",
      "EUfr": "{{size value=\"125\"}}{{fun_0004_0001 arg=\"0x09CD\"}}Un {{color id=\"0\"}}{{wordInfo gender=\"1\" defArticle=\"0\" indefArticle=\"0\" isPlural=\"0\"}}sabot de Lynel{{color id=\"65535\"}} !!!{{size value=\"100\"}}",
      "EUit": "{{size value=\"125\"}}{{fun_0004_0001 arg=\"0x09CD\"}}Uno {{color id=\"0\"}}{{wordInfo gender=\"1\" defArticle=\"1\" indefArticle=\"1\" isPlural=\"0\"}}zoccolo di lynel{{color id=\"65535\"}}!!!{{size value=\"100\"}}",
      "EUnl": "{{size value=\"125\"}}{{fun_0004_0001 arg=\"0x09CD\"}}{{color id=\"0\"}}Lynel-hoef{{color id=\"65535\"}}!{{size value=\"100\"}}",
      "EUru": "{{size value=\"125\"}}{{fun_0004_0001 arg=\"0x09CD\"}}{{color id=\"0\"}}Копыто левра!{{color id=\"65535\"}}{{size value=\"100\"}}",
      "JPja": "{{size value=\"125\"}}{{fun_0004_0001 arg=\"0x09CD\"}}{{color id=\"0\"}}ライネルのひづめ{{color id=\"65535\"}}ゾナ！！{{size value=\"100\"}}",
      "KRko": "{{size value=\"125\"}}{{fun_0004_0001 arg=\"0x09CD\"}}{{color id=\"0\"}}라이넬의 발굽{{color id=\"65535\"}}께끼!!{{size value=\"100\"}}",
      "TWzh": "{{size value=\"125\"}}{{fun_0004_0001 arg=\"0x09CD\"}}是{{color id=\"0\"}}萊尼爾的蹄子{{color id=\"65535\"}}吶！！{{size value=\"100\"}}",
      "USen": "{{size value=\"125\"}}{{fun_0004_0001 arg=\"0x09CD\"}}{{color id=\"0\"}}Lynel hoof!{{color id=\"65535\"}}{{size value=\"100\"}}",
      "USes": "{{size value=\"125\"}}{{fun_0004_0001 arg=\"0x09CD\"}}¡Una {{color id=\"0\"}}{{wordInfo gender=\"2\" defArticle=\"1\" indefArticle=\"1\" isPlural=\"0\"}}pezuña de centaleón{{color id=\"65535\"}}!{{size value=\"100\"}}",
      "USfr": "{{size value=\"125\"}}{{fun_0004_0001 arg=\"0x09CD\"}}Un {{color id=\"0\"}}{{wordInfo gender=\"1\" defArticle=\"0\" indefArticle=\"0\" isPlural=\"0\"}}sabot de Centaléo{{color id=\"65535\"}}!!!{{size value=\"100\"}}"
    }
  },
  {
    "label": "Npc_kokiri002_R_Near000",
    "attribute": "0xF8020000",
    "locale": {
      "CNzh": "{{fun_0004_0001 arg=\"0x1FCD\"}}嗯唔……谜……",
      "EUde": "{{fun_0004_0001 arg=\"0x1FCD\"}}Mmmmm...",
      "EUen": "{{fun_0004_0001 arg=\"0x1FCD\"}}Mmmm...",
      "EUes": "{{fun_0004_0001 arg=\"0x1FCD\"}}Qué sueño...",
      "EUfr": "{{fun_0004_0001 arg=\"0x1FCD\"}}Hmm... Dodo...",
      "EUit": "{{fun_0004_0001 arg=\"0x1FCD\"}}Mhm... Che sonno...ccio...",
      "EUnl": "{{fun_0004_0001 arg=\"0x1FCD\"}}Mmmm...",
      "EUru": "{{fun_0004_0001 arg=\"0x1FCD\"}}М-м-н-н...",
      "JPja": "{{fun_0004_0001 arg=\"0x1FCD\"}}むにゃゾナ…",
      "KRko": "{{fun_0004_0001 arg=\"0x1FCD\"}}음냐께끼…",
      "TWzh": "{{fun_0004_0001 arg=\"0x1FCD\"}}嗯唔……吶……",
      "USen": "{{fun_0004_0001 arg=\"0x1FCD\"}}Mmmm...",
      "USes": "{{fun_0004_0001 arg=\"0x1FCD\"}}Qué sueño...",
      "USfr": "{{fun_0004_0001 arg=\"0x1FCD\"}}Hmm... Dodo..."
    }
  }
]