[
  {
    "label": "talk_00",
    "attribute": "0x14000000",
    "locale": {
      "CNzh": "{{fun_0003_0001 arg=\"0x0017\"}}流至{{color id=\"2\"}}花柔莉亚湖{{color id=\"65535\"}}的瀑布很壮观吧～{{pageBreak}}那座{{color id=\"0\"}}大瀑布的上头{{color id=\"65535\"}}，\n似乎有个奇妙的东西。\n不过总觉得比之前还要小，\n光芒看起来也变得很微弱……{{delay2}}",
      "EUde": "{{fun_0003_0001 arg=\"0x0017\"}}Die Wasserfälle, die in den {{color id=\"2\"}}Floria-See{{color id=\"65535\"}}\nströmen, sind eine wahre Pracht, oder?{{pageBreak}}{{color id=\"0\"}}Oberhalb des großen Wasserfalls{{color id=\"65535\"}} ist\nirgendetwas Seltsames zu sehen...{{pageBreak}}Es ist allerdings schon etwas kleiner\ngeworden und leuchtet auch nicht mehr\nso stark...",
      "EUen": "{{color id=\"2\"}}{{fun_0003_0001 arg=\"0x0017\"}}{{color id=\"65535\"}}Don't you think the waterfall flowing\ndown from {{color id=\"2\"}}Lake Floria {{color id=\"65535\"}}is the very picture\nof perfection?{{pageBreak}}There is something strange at the {{color id=\"0\"}}top of\nthat waterfall{{color id=\"65535\"}}, though...\n\nAnd even though it has shrunken over\ntime, you can still see a faint glow.",
      "EUes": "{{fun_0003_0001 arg=\"0x0017\"}}¿No te parece formidable la catarata\nde agua que cae en el {{color id=\"2\"}}lago Faroria{{color id=\"65535\"}}?{{pageBreak}}Diría que hay algo misterioso {{color id=\"0\"}}en lo alto\nde esa cascada enorme{{color id=\"65535\"}}.{{pageBreak}}Aunque, con el paso del tiempo, su\ntamaño se ha reducido,{{delay2}} aún se puede\nver como brilla tenuemente.",
      "EUfr": "{{fun_0003_0001 arg=\"0x0017\"}}Le {{color id=\"2\"}}lac Faroria{{color id=\"65535\"}} et les flots qui s'y jettent\ndessinent selon moi une image parfaite.\n\nMais {{color id=\"0\"}}en haut de la chute{{color id=\"65535\"}}, on peut\napercevoir quelque chose que je\ndois qualifier de bizarre.\nOn dirait que sa taille décroît...\nCependant, on peut encore le\nvoir scintiller faiblement.",
      "EUit": "{{fun_0003_0001 arg=\"0x0017\"}}La cascata del {{color id=\"2\"}}lago di Floria{{color id=\"65535\"}} è\nbellissima, vero?{{pageBreak}}Su quella {{color id=\"0\"}}imponente cascata {{color id=\"65535\"}}c'è\nqualcosa di strano...\n\nAnche se col tempo si è fatto sempre\npiù piccolo e brilla flebilmente...{{delay2}}",
      "EUnl": "{{color id=\"2\"}}{{fun_0003_0001 arg=\"0x0017\"}}{{color id=\"65535\"}}Vind je de waterval bij het {{color id=\"2\"}}Floria-meer{{color id=\"65535\"}}\ngeen plaatje? {{color id=\"0\"}}Boven op de waterval{{color id=\"65535\"}} tref\nje iets vreemds aan...\nHoewel het in de loop der tijd is\ngekrompen, kun je het nog steeds zien...",
      "EUru": "{{fun_0003_0001 arg=\"0x0017\"}}Водопады на {{color id=\"2\"}}озере Флория{{color id=\"65535\"}}\nпросто божественные, правда?{{pageBreak}}{{color id=\"0\"}}Наверху большого водопада{{color id=\"65535\"}}\nесть что-то странное.{{pageBreak}}Правда, оно стало поменьше\nи светится уже не так ярко,\nкак раньше...",
      "JPja": "{{color id=\"2\"}}{{fun_0003_0001 arg=\"0x0017\"}}フロリア{{ruby charSpan=\"1\" value=\"こ\"}}湖{{color id=\"65535\"}}に{{ruby charSpan=\"1\" value=\"なが\"}}流れ{{ruby charSpan=\"1\" value=\"お\"}}落ちる{{ruby charSpan=\"1\" value=\"たき\"}}滝は{{ruby charSpan=\"2\" value=\"みごと\"}}見事だろう{{pageBreak}}あの{{color id=\"0\"}}{{ruby charSpan=\"1\" value=\"おお\"}}大きな{{ruby charSpan=\"1\" value=\"たき\"}}滝の{{ruby charSpan=\"1\" value=\"うえ\"}}上{{color id=\"65535\"}}に\n{{ruby charSpan=\"1\" value=\"なに\"}}何か{{ruby charSpan=\"2\" value=\"きみょう\"}}奇妙なものがあるんだ\nでも {{ruby charSpan=\"1\" value=\"なん\"}}何だか{{ruby charSpan=\"1\" value=\"まえ\"}}前より{{ruby charSpan=\"1\" value=\"ちい\"}}小さくなって ボンヤリと\n{{ruby charSpan=\"1\" value=\"ひか\"}}光ってるようにも {{ruby charSpan=\"1\" value=\"み\"}}見えるんだよなぁ…{{delay2}}",
      "KRko": "{{color id=\"2\"}}{{fun_0003_0001 arg=\"0x0017\"}}플로리아호{{color id=\"65535\"}}로 흘러 내리는 폭포 참 멋있어{{pageBreak}}저 {{color id=\"0\"}}큰 폭포 위{{color id=\"65535\"}}에\n기묘한 무언가가 있는데\n왠지 예전보다 작아지고 어렴풋이\n빛나는 것처럼 보인단 말이지…{{delay2}}",
      "TWzh": "{{fun_0003_0001 arg=\"0x0017\"}}流至{{color id=\"2\"}}花柔莉亞湖{{color id=\"65535\"}}的瀑布很壯觀吧～{{pageBreak}}那座{{color id=\"0\"}}大瀑布的上頭{{color id=\"65535\"}}，\n似乎有個奇妙的東西。\n不過總覺得比之前還要小，\n光芒看起來也變得很微弱……{{delay2}}",
      "USen": "{{color id=\"2\"}}{{fun_0003_0001 arg=\"0x0017\"}}{{color id=\"65535\"}}Don't you think the waterfall flowing\ndown from {{color id=\"2\"}}Lake Floria {{color id=\"65535\"}}is the very picture\nof perfection?{{pageBreak}}There is something strange at the {{color id=\"0\"}}top of\nthat waterfall{{color id=\"65535\"}}, though...\n\nAnd even though it has shrunken over\ntime, you can still see a faint glow.",
      "USes": "{{fun_0003_0001 arg=\"0x0017\"}}¿No te parece formidable la catarata\nde agua que cae en el {{color id=\"2\"}}lago Faroria{{color id=\"65535\"}}?{{pageBreak}}Diría que hay algo misterioso {{color id=\"0\"}}en lo alto\nde esa cascada enorme{{color id=\"65535\"}}.{{pageBreak}}Aunque, con el paso del tiempo, su\ntamaño se ha reducido,{{delay2}} aún se puede\nver cómo brilla tenuemente.",
      "USfr": "{{fun_0003_0001 arg=\"0x0017\"}}Le {{color id=\"2\"}}lac Faroria{{color id=\"65535\"}} et les flots qui s'y jettent\ndessinent selon moi une image parfaite.\n\nMais {{color id=\"0\"}}en haut de la chute{{color id=\"65535\"}}, on peut\napercevoir quelque chose que je\ndois qualifier de bizarre.\nOn dirait que sa taille décroît...\nCependant, on peut encore le\nvoir scintiller faiblement."
    }
  },
  {
    "label": "talk_01",
    "attribute": "0x40000000",
    "locale": {
      "CNzh": "{{fun_0003_0001 arg=\"0x0511\"}}嗯～是我多心了吗……{{delay2}}\n之前就是那样了吗？",
      "EUde": "{{fun_0003_0001 arg=\"0x0511\"}}Hm, vielleicht bilde ich mir das auch nur\nein...{{delay2}} Vielleicht hat es vorher auch schon\nso ausgesehen?",
      "EUen": "{{fun_0003_0001 arg=\"0x0511\"}}Maybe I'm just imagining things...{{delay2}}\nWas it like that the whole time?",
      "EUes": "{{fun_0003_0001 arg=\"0x0511\"}}O será cosa de mi imaginación...{{delay2}}\n¿Ha tenido siempre ese aspecto?",
      "EUfr": "{{fun_0003_0001 arg=\"0x0511\"}}Ou est-ce le fruit de mon imagination ?{{delay2}}\nJe me mets à douter de ma propre\nvision...",
      "EUit": "{{fun_0003_0001 arg=\"0x0511\"}}Sarà un'impressione?{{delay2}}\nÈ sempre stato così?",
      "EUnl": "{{fun_0003_0001 arg=\"0x0511\"}}Hm, misschien beeld ik het me wel in...{{delay2}}\nZag het er altijd al zo uit?",
      "EUru": "{{fun_0003_0001 arg=\"0x0511\"}}Хм, может, мне только кажется...{{delay1}}\nЧто же там на водопаде было?..",
      "JPja": "{{fun_0003_0001 arg=\"0x0511\"}}うーん {{ruby charSpan=\"1\" value=\"き\"}}気のせいかなぁ…{{delay2}}\n{{ruby charSpan=\"1\" value=\"まえ\"}}前から あんな{{ruby charSpan=\"1\" value=\"かん\"}}感じだったかなぁ？",
      "KRko": "{{fun_0003_0001 arg=\"0x0511\"}}으~음 기분 탓인가…{{delay2}}\n예전부터 저런 식이었나?",
      "TWzh": "{{fun_0003_0001 arg=\"0x0511\"}}嗯～是我多心了嗎……{{delay2}}\n之前就是那樣了嗎？",
      "USen": "{{fun_0003_0001 arg=\"0x0511\"}}Maybe I'm just imagining things...{{delay2}}\nWas it like that the whole time?",
      "USes": "{{fun_0003_0001 arg=\"0x0511\"}}O será cosa de mi imaginación...{{delay2}}\n¿Ha estado ahí desde siempre?",
      "USfr": "{{fun_0003_0001 arg=\"0x0511\"}}Ou est-ce le fruit de mon imagination?{{delay2}}\nJe me mets à douter de ma propre\nvision..."
    }
  },
  {
    "label": "talk_02",
    "attribute": "0x6C000000",
    "locale": {
      "CNzh": "{{fun_0004_0001 arg=\"0x1FCD\"}}Zzz……Zzz……",
      "EUde": "{{fun_0004_0001 arg=\"0x1FCD\"}}Zzz... Zzz...",
      "EUen": "{{fun_0004_0001 arg=\"0x1FCD\"}}Zzz...zzz...",
      "EUes": "{{fun_0004_0001 arg=\"0x1FCD\"}}Zzz... Zzz...",
      "EUfr": "{{fun_0004_0001 arg=\"0x1FCD\"}}Zzz... Zzz...",
      "EUit": "{{fun_0004_0001 arg=\"0x1FCD\"}}Zzz... Zzz...",
      "EUnl": "{{fun_0004_0001 arg=\"0x1FCD\"}}Zzz... Zzz...",
      "EUru": "{{fun_0004_0001 arg=\"0x1FCD\"}}Хр-р-р...",
      "JPja": "{{fun_0004_0001 arg=\"0x1FCD\"}}Zzz... Zzz...",
      "KRko": "{{fun_0004_0001 arg=\"0x1FCD\"}}Zzz... Zzz...",
      "TWzh": "{{fun_0004_0001 arg=\"0x1FCD\"}}Zzz……Zzz……",
      "USen": "{{fun_0004_0001 arg=\"0x1FCD\"}}Zzz...zzz...",
      "USes": "{{fun_0004_0001 arg=\"0x1FCD\"}}Zzz... Zzz...",
      "USfr": "{{fun_0004_0001 arg=\"0x1FCD\"}}Zzz... Zzz..."
    }
  }
]