[
  {
    "label": "near00",
    "attribute": "0x7C000000",
    "locale": {
      "CNzh": "神圣神具……",
      "EUde": "Das heilige Fragment...",
      "EUen": "A sacred article...",
      "EUes": "El objeto sagrado...",
      "EUfr": "Une offrande sacrée...",
      "EUit": "Tributo divino...",
      "EUnl": "Het heilige voorwerp...",
      "EUru": "Священная реликвия...",
      "JPja": "{{ruby charSpan=\"1\" value=\"せい\"}}聖なる{{ruby charSpan=\"2\" value=\"しんぐ\"}}神具…",
      "KRko": "성스러운 신의 도구…",
      "TWzh": "神聖神具……",
      "USen": "A sacred article...",
      "USes": "El objeto sagrado...",
      "USfr": "Une offrande sacrée..."
    }
  },
  {
    "label": "near01",
    "attribute": "0xA4000000",
    "locale": {
      "CNzh": "在力量之泉……",
      "EUde": "Die Quelle der Kraft...",
      "EUen": "To the Spring of Power...",
      "EUes": "La Fuente del Poder...",
      "EUfr": "La source de la Force...",
      "EUit": "La fonte della forza...",
      "EUnl": "Naar de Bron der Kracht.",
      "EUru": "Источник Силы...",
      "JPja": "{{ruby charSpan=\"1\" value=\"ちから\"}}力の{{ruby charSpan=\"1\" value=\"いずみ\"}}泉に…",
      "KRko": "힘의 샘에…",
      "TWzh": "在力量之泉……",
      "USen": "To the Spring of Power...",
      "USes": "La Fuente del Poder...",
      "USfr": "La source de la Force..."
    }
  },
  {
    "label": "near02",
    "attribute": "0xCC000000",
    "locale": {
      "CNzh": "公主殿下的……",
      "EUde": "Das Ritual der Prinzessin...",
      "EUen": "The princess's ritual...",
      "EUes": "El ritual de la princesa...",
      "EUfr": "Le rituel de la princesse...",
      "EUit": "Il rituale della principessa!",
      "EUnl": "Het ritueel van de prinses.",
      "EUru": "Ритуал принцессы...",
      "JPja": "{{ruby charSpan=\"2\" value=\"ひめさま\"}}姫様の…",
      "KRko": "공주님의…",
      "TWzh": "公主殿下的……",
      "USen": "The princess's ritual...",
      "USes": "El ritual de la princesa...",
      "USfr": "Le rituel de la princesse..."
    }
  },
  {
    "label": "0000",
    "attribute": "0xF4000000",
    "locale": {
      "CNzh": "你知道松达？",
      "EUde": "Kennst du Dumsda?",
      "EUen": "You know Hudson?",
      "EUes": "¿Conoces a Karid?",
      "EUfr": "Où est Grosaillieh ?",
      "EUit": "Conosci Miceda?",
      "EUnl": "Ken je Hudson?",
      "EUru": "Знаешь Топорду?",
      "JPja": "エノキダ{{ruby charSpan=\"1\" value=\"し\"}}知ってる？",
      "KRko": "허드슨 알아?",
      "TWzh": "你知道松達？",
      "USen": "You know Hudson?",
      "USes": "¿Conoces a Karid?",
      "USfr": "Où est Grosaillieh?"
    }
  },
  {
    "label": "0001",
    "attribute": "0xF6000000",
    "locale": {
      "CNzh": "关于这一带",
      "EUde": "Erzähl mir von hier.",
      "EUen": "This area?",
      "EUes": "Háblame de la zona",
      "EUfr": "Parle-moi du coin.",
      "EUit": "Che c'è qui?",
      "EUnl": "Dit gebied?",
      "EUru": "Окрестности...",
      "JPja": "この{{ruby charSpan=\"1\" value=\"あた\"}}辺りについて",
      "KRko": "이 주변에 대해",
      "TWzh": "關於這一帶",
      "USen": "This area?",
      "USes": "Háblame de la zona",
      "USfr": "Parle-moi du coin."
    }
  },
  {
    "label": "0002",
    "attribute": "0xF8000000",
    "locale": {
      "CNzh": "你是？",
      "EUde": "Wer bist du?",
      "EUen": "Who are you?",
      "EUes": "¿Quién eres?",
      "EUfr": "Qui es-tu ?",
      "EUit": "Chi sei?",
      "EUnl": "Wie ben jij?",
      "EUru": "Кто ты?",
      "JPja": "あなたって？",
      "KRko": "당신은?",
      "TWzh": "妳是？",
      "USen": "Who are you?",
      "USes": "¿Quién eres?",
      "USfr": "Qui es-tu?"
    }
  },
  {
    "label": "0003",
    "attribute": "0xFA000000",
    "locale": {
      "CNzh": "再见",
      "EUde": "Wiedersehen.",
      "EUen": "Good-bye.",
      "EUes": "¡Nos vemos!",
      "EUfr": "Au revoir.",
      "EUit": "Arrivederci.",
      "EUnl": "Tot ziens.",
      "EUru": "Пока",
      "JPja": "さようなら",
      "KRko": "안녕히",
      "TWzh": "再見",
      "USen": "Good-bye.",
      "USes": "Adiós",
      "USfr": "Au revoir."
    }
  },
  {
    "label": "0004",
    "attribute": "0xFC000000",
    "locale": {
      "CNzh": "关于远一点的地方",
      "EUde": "Was ist weiter weg?",
      "EUen": "Farther areas?",
      "EUes": "¿Qué hay más lejos?",
      "EUfr": "Il y a quoi plus loin ?",
      "EUit": "Dimmi di altre zone.",
      "EUnl": "En andere gebieden?",
      "EUru": "Что на севере?",
      "JPja": "ちょっと{{ruby charSpan=\"1\" value=\"とお\"}}遠くについて",
      "KRko": "조금 먼 곳에 대해",
      "TWzh": "關於遠一點的地方",
      "USen": "Farther areas?",
      "USes": "¿Sabes de otra zona?",
      "USfr": "Il y a quoi plus loin?"
    }
  },
  {
    "label": "talk00",
    "attribute": "0xFE000000",
    "locale": {
      "CNzh": "{{fun_0003_0001 arg=\"0x0613\"}}哎呀……",
      "EUde": "{{fun_0003_0001 arg=\"0x0613\"}}Oh...",
      "EUen": "{{fun_0003_0001 arg=\"0x0613\"}}Oh...",
      "EUes": "{{fun_0003_0001 arg=\"0x0613\"}}Oh...",
      "EUfr": "{{fun_0003_0001 arg=\"0x0613\"}}Tiens...",
      "EUit": "{{fun_0003_0001 arg=\"0x0613\"}}Oh...",
      "EUnl": "{{fun_0003_0001 arg=\"0x0613\"}}O...",
      "EUru": "{{fun_0003_0001 arg=\"0x0613\"}}Привет.",
      "JPja": "{{fun_0003_0001 arg=\"0x0613\"}}あら…",
      "KRko": "{{fun_0003_0001 arg=\"0x0613\"}}어머…",
      "TWzh": "{{fun_0003_0001 arg=\"0x0613\"}}哎呀……",
      "USen": "{{fun_0003_0001 arg=\"0x0613\"}}Oh...",
      "USes": "{{fun_0003_0001 arg=\"0x0613\"}}Oh...",
      "USfr": "{{fun_0003_0001 arg=\"0x0613\"}}Tiens..."
    }
  },
  {
    "label": "talk01",
    "attribute": "0x26010000",
    "locale": {
      "CNzh": "{{fun_0003_0001 arg=\"0x0B13\"}}嗯？{{delay1}}没在这一带看过你呢。\n\n{{fun_0003_0001 arg=\"0x0000\"}}竟然跑到这种世界尽头旅行，{{delay1}}\n你的兴趣也真奇怪。{{fun_0001_0004 arg=\"0x020003000001\"}}",
      "EUde": "{{fun_0003_0001 arg=\"0x0B13\"}}Hm? {{delay1}}Dich habe ich ja hier noch nie\ngesehen.{{pageBreak}}{{fun_0003_0001 arg=\"0x0000\"}}Ich muss sagen, dein Geschmack bei der\nWahl deiner Reiseziele ist schon etwas\nmerkwürdig.{{fun_0001_0004 arg=\"0x020003000001\"}}",
      "EUen": "{{fun_0003_0001 arg=\"0x0B13\"}}Hm? {{delay1}}I haven't seen you around here.\n\n\n{{fun_0003_0001 arg=\"0x0000\"}}Boy, you sure have strange tastes. {{delay1}}\nYou look like someone who has traveled\nwilly-nilly all over the world.{{fun_0001_0004 arg=\"0x020003000001\"}}",
      "EUes": "{{fun_0003_0001 arg=\"0x0B13\"}}Vaya, no te había visto nunca.{{pageBreak}}{{fun_0003_0001 arg=\"0x0000\"}}Pero veo que eres un viajero peculiar.{{delay1}}\n¡Pocos se atreven a viajar al fin\ndel mundo!{{fun_0001_0004 arg=\"0x020003000001\"}}",
      "EUfr": "{{fun_0003_0001 arg=\"0x0B13\"}}Hm ? {{delay1}}Tu n'es pas du coin, toi, si ?\n\n\n{{fun_0003_0001 arg=\"0x0000\"}}Tu dois être vraiment très curieux{{delay1}} pour\nvenir t'aventurer dans cette région\nreculée.{{fun_0001_0004 arg=\"0x020003000001\"}}",
      "EUit": "{{fun_0003_0001 arg=\"0x0B13\"}}Sì?{{delay1}} Sei nuovo da queste parti.\n\n\n{{fun_0003_0001 arg=\"0x0000\"}}Certo che devi avere qualcosa da\nnascondere...{{delay1}} altrimenti che ci sei\nvenuto a fare fin quaggiù?{{fun_0001_0004 arg=\"0x020003000001\"}}",
      "EUnl": "{{fun_0003_0001 arg=\"0x0B13\"}}Hm? {{delay1}}Ik heb jou hier nog niet eerder\ngezien.{{pageBreak}}{{fun_0003_0001 arg=\"0x0000\"}}Ik vind het wel vreemd, hoor, dat je zo\nkriskras de hele wereld afreist.{{fun_0001_0004 arg=\"0x020003000001\"}}",
      "EUru": "{{fun_0003_0001 arg=\"0x0B13\"}}Хм, ты путешественник?{{pageBreak}}{{fun_0003_0001 arg=\"0x0000\"}}В наших краях редко увидишь таких,\nкак ты.{{delay1}} Оно и понятно: смотреть\nв {{color id=\"2\"}}Аккале {{color id=\"65535\"}}не на что...{{fun_0001_0004 arg=\"0x020003000001\"}}",
      "JPja": "{{fun_0003_0001 arg=\"0x0B13\"}}ん？ {{delay1}}この{{ruby charSpan=\"1\" value=\"へん\"}}辺じゃ{{ruby charSpan=\"1\" value=\"み\"}}見ない{{ruby charSpan=\"1\" value=\"かお\"}}顔ね\n\n{{fun_0003_0001 arg=\"0x0000\"}}こんな{{ruby charSpan=\"2\" value=\"せかい\"}}世界の{{ruby charSpan=\"1\" value=\"は\"}}果てに{{ruby charSpan=\"2\" value=\"りょこう\"}}旅行なんて{{delay1}}\nあなたも{{ruby charSpan=\"2\" value=\"ものず\"}}物好きね{{fun_0001_0004 arg=\"0x020003000001\"}}",
      "KRko": "{{fun_0003_0001 arg=\"0x0B13\"}}응? {{delay1}}이 근처에선 못 보던 얼굴이네\n\n{{fun_0003_0001 arg=\"0x0000\"}}이런 세계의 끝으로 여행을 오다니{{delay1}}\n너도 참 유별나구나{{fun_0001_0004 arg=\"0x020003000001\"}}",
      "TWzh": "{{fun_0003_0001 arg=\"0x0B13\"}}嗯？{{delay1}}沒在這一帶看過你呢。\n\n{{fun_0003_0001 arg=\"0x0000\"}}竟然跑到這種世界盡頭旅行，{{delay1}}\n你的興趣也真奇怪。{{fun_0001_0004 arg=\"0x020003000001\"}}",
      "USen": "{{fun_0003_0001 arg=\"0x0B13\"}}Hm? {{delay1}}I haven't seen you around here.\n\n\n{{fun_0003_0001 arg=\"0x0000\"}}Boy, you sure have strange tastes. {{delay1}}\nYou look like someone who has traveled\nwilly-nilly all over the world.{{fun_0001_0004 arg=\"0x020003000001\"}}",
      "USes": "{{fun_0003_0001 arg=\"0x0B13\"}}No me suena tu cara.{{pageBreak}}{{fun_0003_0001 arg=\"0x0000\"}}Pero veo que eres un viajero peculiar.{{delay1}}\n¡Pocos se atreven a viajar al fin\ndel mundo!{{fun_0001_0004 arg=\"0x020003000001\"}}",
      "USfr": "{{fun_0003_0001 arg=\"0x0B13\"}}Hm? {{delay1}}Tu n'es pas du coin, toi, si?\n\n\n{{fun_0003_0001 arg=\"0x0000\"}}Tu dois être vraiment très curieux{{delay1}} pour\nvenir t'aventurer dans cette région\nreculée.{{fun_0001_0004 arg=\"0x020003000001\"}}"
    }
  },
  {
    "label": "talk02",
    "attribute": "0x4E010000",
    "locale": {
      "CNzh": "{{fun_0003_0001 arg=\"0x0004\"}}早上好。",
      "EUde": "{{fun_0003_0001 arg=\"0x0004\"}}Guten Morgen.",
      "EUen": "{{fun_0003_0001 arg=\"0x0004\"}}Good morning.",
      "EUes": "{{fun_0003_0001 arg=\"0x0004\"}}Buenos días, viajero.",
      "EUfr": "{{fun_0003_0001 arg=\"0x0004\"}}Bonjour.",
      "EUit": "{{fun_0003_0001 arg=\"0x0004\"}}Buongiorno.",
      "EUnl": "{{fun_0003_0001 arg=\"0x0004\"}}Goedemorgen.",
      "EUru": "{{fun_0003_0001 arg=\"0x0004\"}}Доброе утро.",
      "JPja": "{{fun_0003_0001 arg=\"0x0004\"}}おはよう",
      "KRko": "{{fun_0003_0001 arg=\"0x0004\"}}안녕",
      "TWzh": "{{fun_0003_0001 arg=\"0x0004\"}}早安。",
      "USen": "{{fun_0003_0001 arg=\"0x0004\"}}Good morning.",
      "USes": "{{fun_0003_0001 arg=\"0x0004\"}}Buenos días, viajero.",
      "USfr": "{{fun_0003_0001 arg=\"0x0004\"}}Bonjour."
    }
  },
  {
    "label": "talk03",
    "attribute": "0x76010000",
    "locale": {
      "CNzh": "{{fun_0003_0001 arg=\"0x0004\"}}你好。",
      "EUde": "{{fun_0003_0001 arg=\"0x0004\"}}Guten Tag.",
      "EUen": "{{fun_0003_0001 arg=\"0x0004\"}}Hello.",
      "EUes": "{{fun_0003_0001 arg=\"0x0004\"}}Hola, viajero.",
      "EUfr": "{{fun_0003_0001 arg=\"0x0004\"}}Bonjour.",
      "EUit": "{{fun_0003_0001 arg=\"0x0004\"}}Ciao.",
      "EUnl": "{{fun_0003_0001 arg=\"0x0004\"}}Hallo.",
      "EUru": "{{fun_0003_0001 arg=\"0x0004\"}}Здравствуй.",
      "JPja": "{{fun_0003_0001 arg=\"0x0004\"}}こんにちは",
      "KRko": "{{fun_0003_0001 arg=\"0x0004\"}}안녕",
      "TWzh": "{{fun_0003_0001 arg=\"0x0004\"}}你好。",
      "USen": "{{fun_0003_0001 arg=\"0x0004\"}}Hello.",
      "USes": "{{fun_0003_0001 arg=\"0x0004\"}}Hola, viajero.",
      "USfr": "{{fun_0003_0001 arg=\"0x0004\"}}Bonjour."
    }
  },
  {
    "label": "talk04",
    "attribute": "0x9E010000",
    "locale": {
      "CNzh": "{{fun_0003_0001 arg=\"0x0004\"}}晚上好。",
      "EUde": "{{fun_0003_0001 arg=\"0x0004\"}}Guten Abend.",
      "EUen": "{{fun_0003_0001 arg=\"0x0004\"}}Good evening.",
      "EUes": "{{fun_0003_0001 arg=\"0x0004\"}}¿Qué tal, viajero?",
      "EUfr": "{{fun_0003_0001 arg=\"0x0004\"}}Bonsoir.",
      "EUit": "{{fun_0003_0001 arg=\"0x0004\"}}Buonasera.",
      "EUnl": "{{fun_0003_0001 arg=\"0x0004\"}}Goedenavond.",
      "EUru": "{{fun_0003_0001 arg=\"0x0004\"}}Доброй ночи.",
      "JPja": "{{fun_0003_0001 arg=\"0x0004\"}}こんばんは",
      "KRko": "{{fun_0003_0001 arg=\"0x0004\"}}안녕",
      "TWzh": "{{fun_0003_0001 arg=\"0x0004\"}}晚安。",
      "USen": "{{fun_0003_0001 arg=\"0x0004\"}}Good evening.",
      "USes": "{{fun_0003_0001 arg=\"0x0004\"}}¿Cómo te va, viajero?",
      "USfr": "{{fun_0003_0001 arg=\"0x0004\"}}Bonsoir."
    }
  },
  {
    "label": "talk05",
    "attribute": "0xC6010000",
    "locale": {
      "CNzh": "{{fun_0003_0001 arg=\"0x0001\"}}我在全国各地旅行过，{{delay1}}\n不过最喜欢的还是{{color id=\"2\"}}阿卡莱地区{{color id=\"65535\"}}。",
      "EUde": "{{fun_0003_0001 arg=\"0x0001\"}}Ich war schon überall, aber in {{color id=\"2\"}}Akkala{{color id=\"65535\"}}\ngefällt es mir am besten.",
      "EUen": "{{fun_0003_0001 arg=\"0x0001\"}}I've traveled everywhere, but at the end\nof the day,{{delay1}} I like {{color id=\"2\"}}Akkala {{color id=\"65535\"}}best of all.",
      "EUes": "{{fun_0003_0001 arg=\"0x0001\"}}He estado en todas partes,{{delay1}} pero si\ntuviese que elegir, me quedaría con\nla región de {{color id=\"2\"}}Akkala{{color id=\"65535\"}}.",
      "EUfr": "{{fun_0003_0001 arg=\"0x0001\"}}J'ai visité tout le royaume,{{delay1}} mais il n'y a\npas à dire, l'endroit que je préfère, c'est\nla région d'{{color id=\"2\"}}Akkala{{color id=\"65535\"}}.",
      "EUit": "{{fun_0003_0001 arg=\"0x0001\"}}Io ho viaggiato ovunque,{{delay1}} ma in fin dei\nconti preferisco le {{color id=\"2\"}}Terre di Akkala{{color id=\"65535\"}}.",
      "EUnl": "{{fun_0003_0001 arg=\"0x0001\"}}Ik ben overal al geweest,{{delay1}} maar {{color id=\"2\"}}Akkala{{color id=\"65535\"}}\nbevalt me het best.",
      "EUru": "{{fun_0003_0001 arg=\"0x0001\"}}Я раньше тоже путешествовала,\nпока не осела в {{color id=\"2\"}}Аккале{{color id=\"65535\"}}.{{delay1}} Знаешь,\nмне здесь нравится.",
      "JPja": "{{fun_0003_0001 arg=\"0x0001\"}}{{ruby charSpan=\"2\" value=\"ぜんこく\"}}全国を{{ruby charSpan=\"2\" value=\"りょこう\"}}旅行したけど{{delay1}}\nなんだかんだで {{color id=\"2\"}}アッカレ{{ruby charSpan=\"2\" value=\"ちほう\"}}地方{{color id=\"65535\"}}が{{ruby charSpan=\"3\" value=\"いちばんす\"}}一番好き",
      "KRko": "{{fun_0003_0001 arg=\"0x0001\"}}전국을 여행했지만{{delay1}}\n누가 뭐래도 {{color id=\"2\"}}추낙 지방{{color id=\"65535\"}}이 제일 좋더라고",
      "TWzh": "{{fun_0003_0001 arg=\"0x0001\"}}我在全國各地旅行過，{{delay1}}\n不過最喜歡的還是{{color id=\"2\"}}阿卡萊地區{{color id=\"65535\"}}。",
      "USen": "{{fun_0003_0001 arg=\"0x0001\"}}I've traveled everywhere, but at the end\nof the day,{{delay1}} I like {{color id=\"2\"}}Akkala {{color id=\"65535\"}}best of all.",
      "USes": "{{fun_0003_0001 arg=\"0x0001\"}}He viajado por todas partes,{{delay1}} pero la\nregión de {{color id=\"2\"}}Akkala{{color id=\"65535\"}} es mi destino favorito.",
      "USfr": "{{fun_0003_0001 arg=\"0x0001\"}}J'ai visité tout le royaume,{{delay1}} mais il n'y a\npas à dire, l'endroit que je préfère, c'est\nla région d'{{color id=\"2\"}}Akkala{{color id=\"65535\"}}."
    }
  },
  {
    "label": "talk06",
    "attribute": "0xEE010000",
    "locale": {
      "CNzh": "{{fun_0003_0001 arg=\"0x0922\"}}你害我醒来了……{{delay3}}\n哎，算了。",
      "EUde": "{{fun_0003_0001 arg=\"0x0922\"}}Du hast mich geweckt...{{delay3}}\nNa, ist schon in Ordnung.",
      "EUen": "{{fun_0003_0001 arg=\"0x0922\"}}You woke me up...{{delay3}} I guess that's OK.",
      "EUes": "{{fun_0003_0001 arg=\"0x0922\"}}Me has despertado...{{pageBreak}}Supongo que da igual.",
      "EUfr": "{{fun_0003_0001 arg=\"0x0922\"}}Ah, tu m'as réveillée...{{delay3}} Enfin, ce n'est\npas grave.",
      "EUit": "{{fun_0003_0001 arg=\"0x0922\"}}Mi hai svegliato...{{delay3}}\nSpero che sia per un motivo importante.",
      "EUnl": "{{fun_0003_0001 arg=\"0x0922\"}}Je hebt me wakker gemaakt...{{delay3}} Nou ja, is\nniet erg.",
      "EUru": "{{fun_0003_0001 arg=\"0x0922\"}}Зачем разбудил?{{delay3}} Ну ладно, я не злюсь.",
      "JPja": "{{fun_0003_0001 arg=\"0x0922\"}}{{ruby charSpan=\"1\" value=\"め\"}}目が{{ruby charSpan=\"1\" value=\"さ\"}}覚めちゃったじゃない…{{delay3}}\nまぁ いいけどサ",
      "KRko": "{{fun_0003_0001 arg=\"0x0922\"}}깨 버렸잖아…{{delay3}}\n뭐어, 상관은 없지만",
      "TWzh": "{{fun_0003_0001 arg=\"0x0922\"}}你害我醒來了……{{delay3}}\n哎，算了。",
      "USen": "{{fun_0003_0001 arg=\"0x0922\"}}You woke me up...{{delay3}} I guess that's OK.",
      "USes": "{{fun_0003_0001 arg=\"0x0922\"}}Me despertaste...{{delay3}} Pero no pasa nada.",
      "USfr": "{{fun_0003_0001 arg=\"0x0922\"}}Ah, tu m'as réveillée...{{delay3}}\nEnfin, ce n'est pas grave."
    }
  },
  {
    "label": "talk07",
    "attribute": "0x16020000",
    "locale": {
      "CNzh": "{{fun_0003_0001 arg=\"0x0001\"}}所以说，若是这一带的事，{{delay1}}\n我想我大概都知道……",
      "EUde": "{{fun_0003_0001 arg=\"0x0001\"}}Deswegen kenne ich mich hier auch ganz\ngut aus.",
      "EUen": "{{fun_0003_0001 arg=\"0x0001\"}}That's why I'm pretty familiar{{delay1}} with stuff\naround here.",
      "EUes": "{{fun_0003_0001 arg=\"0x0001\"}}Por eso me conozco al dedillo\ntodo lo que hay que saber sobre\nesta región.",
      "EUfr": "{{fun_0003_0001 arg=\"0x0001\"}}Alors, ce n'est pas pour me vanter,{{delay1}}\nmais je connais les alentours comme ma\npoche...",
      "EUit": "{{fun_0003_0001 arg=\"0x0001\"}}Ecco perché conosco bene le zone\nqui attorno.{{delay1}}",
      "EUnl": "{{fun_0003_0001 arg=\"0x0001\"}}Daarom weet ik alles over deze\nomgeving.",
      "EUru": "{{fun_0003_0001 arg=\"0x0001\"}}Кстати, я хорошо знаю окрестности.",
      "JPja": "{{fun_0003_0001 arg=\"0x0001\"}}だから この{{ruby charSpan=\"1\" value=\"へん\"}}辺の{{ruby charSpan=\"1\" value=\"こと\"}}事なら{{delay1}}\n{{ruby charSpan=\"2\" value=\"ひととお\"}}一通り{{ruby charSpan=\"1\" value=\"し\"}}知ってるつもりだけど…",
      "KRko": "{{fun_0003_0001 arg=\"0x0001\"}}그러니 이 근처에 대해서라면{{delay1}}\n대강은 알고 있다 생각하는데…",
      "TWzh": "{{fun_0003_0001 arg=\"0x0001\"}}所以說，若是這一帶的事，{{delay1}}\n我想我大概都知道……",
      "USen": "{{fun_0003_0001 arg=\"0x0001\"}}That's why I'm pretty familiar{{delay1}} with stuff\naround here.",
      "USes": "{{fun_0003_0001 arg=\"0x0001\"}}Por eso la conozco mejor que muchos.",
      "USfr": "{{fun_0003_0001 arg=\"0x0001\"}}Alors, ce n'est pas pour me vanter,{{delay1}}\nmais je connais les alentours comme\nma poche..."
    }
  },
  {
    "label": "talk08",
    "attribute": "0x3E020000",
    "locale": {
      "CNzh": "{{fun_0003_0001 arg=\"0x0601\"}}有什么事想问吗？{{fun_0001_0008 arg=\"0x00003E004D0069006E0061006B006B00610072006500480061007400610067006F005F004E00500043003000300032005F0049006300680069006B006100720061000100000004000000030000000003\"}}",
      "EUde": "{{fun_0003_0001 arg=\"0x0601\"}}Wolltest du irgendetwas wissen?{{fun_0001_0008 arg=\"0x00003E004D0069006E0061006B006B00610072006500480061007400610067006F005F004E00500043003000300032005F0049006300680069006B006100720061000100000004000000030000000003\"}}",
      "EUen": "{{fun_0003_0001 arg=\"0x0601\"}}Is there something you wanna know?{{fun_0001_0008 arg=\"0x00003E004D0069006E0061006B006B00610072006500480061007400610067006F005F004E00500043003000300032005F0049006300680069006B006100720061000100000004000000030000000003\"}}",
      "EUes": "{{fun_0003_0001 arg=\"0x0601\"}}¿Querías algo, viajero?{{fun_0001_0008 arg=\"0x00003E004D0069006E0061006B006B00610072006500480061007400610067006F005F004E00500043003000300032005F0049006300680069006B006100720061000100000004000000030000000003\"}}",
      "EUfr": "{{fun_0003_0001 arg=\"0x0601\"}}Il y a quelque chose que tu veux\nme demander ?{{fun_0001_0008 arg=\"0x00003E004D0069006E0061006B006B00610072006500480061007400610067006F005F004E00500043003000300032005F0049006300680069006B006100720061000100000004000000030000000003\"}}",
      "EUit": "{{fun_0003_0001 arg=\"0x0601\"}}Volevi sapere qualcosa?{{fun_0001_0008 arg=\"0x00003E004D0069006E0061006B006B00610072006500480061007400610067006F005F004E00500043003000300032005F0049006300680069006B006100720061000100000004000000030000000003\"}}",
      "EUnl": "{{fun_0003_0001 arg=\"0x0601\"}}Wil je iets weten?{{fun_0001_0008 arg=\"0x00003E004D0069006E0061006B006B00610072006500480061007400610067006F005F004E00500043003000300032005F0049006300680069006B006100720061000100000004000000030000000003\"}}",
      "EUru": "{{fun_0003_0001 arg=\"0x0601\"}}Подсказать тебе что-нибудь?{{fun_0001_0008 arg=\"0x00003E004D0069006E0061006B006B00610072006500480061007400610067006F005F004E00500043003000300032005F0049006300680069006B006100720061000100000004000000030000000003\"}}",
      "JPja": "{{fun_0003_0001 arg=\"0x0601\"}}{{ruby charSpan=\"1\" value=\"なに\"}}何か{{ruby charSpan=\"1\" value=\"き\"}}聞きたい{{ruby charSpan=\"1\" value=\"こと\"}}事ある？{{fun_0001_0008 arg=\"0x00003E004D0069006E0061006B006B00610072006500480061007400610067006F005F004E00500043003000300032005F0049006300680069006B006100720061000100000004000000030000000003\"}}",
      "KRko": "{{fun_0003_0001 arg=\"0x0601\"}}뭐 궁금한 거라도 있어?{{fun_0001_0008 arg=\"0x00003E004D0069006E0061006B006B00610072006500480061007400610067006F005F004E00500043003000300032005F0049006300680069006B006100720061000100000004000000030000000003\"}}",
      "TWzh": "{{fun_0003_0001 arg=\"0x0601\"}}有什麼事想問嗎？{{fun_0001_0008 arg=\"0x00003E004D0069006E0061006B006B00610072006500480061007400610067006F005F004E00500043003000300032005F0049006300680069006B006100720061000100000004000000030000000003\"}}",
      "USen": "{{fun_0003_0001 arg=\"0x0601\"}}Is there something you wanna know?{{fun_0001_0008 arg=\"0x00003E004D0069006E0061006B006B00610072006500480061007400610067006F005F004E00500043003000300032005F0049006300680069006B006100720061000100000004000000030000000003\"}}",
      "USes": "{{fun_0003_0001 arg=\"0x0601\"}}¿Quieres saber alguna cosa\nmás, viajero?{{fun_0001_0008 arg=\"0x00003E004D0069006E0061006B006B00610072006500480061007400610067006F005F004E00500043003000300032005F0049006300680069006B006100720061000100000004000000030000000003\"}}",
      "USfr": "{{fun_0003_0001 arg=\"0x0601\"}}Il y a quelque chose que tu veux\nme demander?{{fun_0001_0008 arg=\"0x00003E004D0069006E0061006B006B00610072006500480061007400610067006F005F004E00500043003000300032005F0049006300680069006B006100720061000100000004000000030000000003\"}}"
    }
  },
  {
    "label": "talk09",
    "attribute": "0x66020000",
    "locale": {
      "CNzh": "{{fun_0003_0001 arg=\"0x0619\"}}这个嘛……{{delay1}}从驿站这里往{{color id=\"0\"}}西{{color id=\"65535\"}}走，{{delay1}}\n有一座被称为{{color id=\"0\"}}力量之泉{{color id=\"65535\"}}的神圣之泉。\n“向力量之泉献上神圣{{color id=\"0\"}}神具{{color id=\"65535\"}}吧”，{{delay3}}\n那里有这样的传说……\n{{anim2 type=\"Think_00\"}}莫非是{{color id=\"2\"}}海拉鲁城堡{{color id=\"65535\"}}的公主殿下{{delay1}}\n过去曾在那里进行仪式之类的？",
      "EUde": "{{fun_0003_0001 arg=\"0x0619\"}}Mal überlegen...{{delay1}} {{color id=\"0\"}}Westlich{{color id=\"65535\"}} des Stalls liegt\neine heilige Quelle,{{delay1}} die {{color id=\"0\"}}Quelle der Kraft{{color id=\"65535\"}}.{{pageBreak}}In der Legende heißt es: {{delay1}}„Bringe der\nQuelle der Kraft das {{color id=\"0\"}}heilige Fragment{{color id=\"65535\"}}\ndar“...{{pageBreak}}{{anim2 type=\"Think_00\"}}Vielleicht war das Teil des Rituals, das\ndie Prinzessin von {{color id=\"2\"}}Schloss Hyrule{{color id=\"65535\"}} dort\ndurchgeführt hat?",
      "EUen": "{{fun_0003_0001 arg=\"0x0619\"}}Let's see...{{color id=\"2\"}}{{delay1}}{{color id=\"65535\"}} If you go {{color id=\"0\"}}west{{color id=\"65535\"}} of the stable,{{delay1}}\nthere's a sacred place called the\n{{color id=\"0\"}}Spring of Power{{color id=\"65535\"}}!\n\"Offer the {{color id=\"0\"}}sacred article {{color id=\"65535\"}}to the\nSpring of Power.\" {{delay3}}That's what\nthe legend says{{size value=\"80\"}}.{{size value=\"100\"}}\n{{anim2 type=\"Think_00\"}}Maybe it was part of a ritual the {{color id=\"0\"}}princess{{color id=\"65535\"}}\nof {{color id=\"2\"}}Hyrule Castle {{color id=\"65535\"}}used to perform?",
      "EUes": "{{fun_0003_0001 arg=\"0x0619\"}}Déjame pensar...{{pageBreak}}¡Ah, ya sé!{{pageBreak}}Al {{color id=\"0\"}}oeste{{color id=\"65535\"}} de la posta hay un lago sagrado\nconocido como la {{color id=\"0\"}}Fuente del Poder{{color id=\"65535\"}}.{{pageBreak}}Una leyenda dice que debes ofrecer\nel {{color id=\"0\"}}objeto sagrado{{color id=\"65535\"}} en la Fuente del Poder.{{pageBreak}}{{anim2 type=\"Think_00\"}}Quizás tenga que ver con el ritual\nque realizaba la princesa{{delay1}} del\n{{color id=\"2\"}}castillo de Hyrule{{color id=\"65535\"}}.",
      "EUfr": "{{fun_0003_0001 arg=\"0x0619\"}}Voyons...{{delay1}} À l'{{color id=\"0\"}}ouest{{color id=\"65535\"}} de ce relais, il y\na une fontaine sacrée qu'on appelle\nla {{color id=\"0\"}}source de la Force{{color id=\"65535\"}} !\nIl y a un vieux dicton qui dit :\n« À la source de la Force, présente une\n{{color id=\"0\"}}offrande{{color id=\"65535\"}} sacrée. »{{delay3}}\n{{anim2 type=\"Think_00\"}}Est-ce qu'il s'agirait d'une sorte de rituel{{delay1}}\nauquel se livraient les princesses du\n{{color id=\"2\"}}château d'Hyrule {{color id=\"65535\"}}?",
      "EUit": "{{fun_0003_0001 arg=\"0x0619\"}}Vediamo...{{delay1}} se dallo stallaggio vai verso\n{{color id=\"0\"}}ovest{{color id=\"65535\"}}, troverai una fonte sacra chiamata\n{{color id=\"0\"}}fonte della forza{{color id=\"65535\"}}!\n\"Offri il {{color id=\"0\"}}tributo divino {{color id=\"65535\"}}alla fonte\ndella forza\", dice la leggenda!{{delay3}}\n\n{{anim2 type=\"Think_00\"}}Forse è una parte del rituale che\nla principessa del {{color id=\"2\"}}castello di Hyrule{{delay1}}{{color id=\"65535\"}}\nusava officiare?",
      "EUnl": "{{fun_0003_0001 arg=\"0x0619\"}}Eens kijken...{{delay1}} Ten {{color id=\"0\"}}westen{{color id=\"65535\"}} van de stal ligt\neen heilig meer, de {{color id=\"0\"}}Bron der Kracht{{color id=\"65535\"}}!{{pageBreak}}De legende zegt: \"Offer het {{color id=\"0\"}}rituele\nvoorwerp{{color id=\"65535\"}} aan de Bron der Kracht.\"{{pageBreak}}{{anim2 type=\"Think_00\"}}Misschien maakt het wel deel uit van het\nritueel dat de prinses van {{color id=\"2\"}}Kasteel Hyrule{{color id=\"65535\"}}\nuitvoerde?",
      "EUru": "{{fun_0003_0001 arg=\"0x0619\"}}К {{color id=\"0\"}}западу {{color id=\"65535\"}}отсюда находится\nсвященный {{color id=\"0\"}}Источник Силы{{color id=\"65535\"}}.{{pageBreak}}О нем даже в одной легенде говорится:\n«Опусти в Источник Силы священную\n{{color id=\"0\"}}реликвию{{color id=\"65535\"}}».{{pageBreak}}{{anim2 type=\"Think_00\"}}Думаю, это часть ритуала, который\nпроводила принцесса Хайрула.",
      "JPja": "{{fun_0003_0001 arg=\"0x0619\"}}そうね… {{delay1}}ここの{{ruby charSpan=\"2\" value=\"うまやど\"}}馬宿から{{color id=\"0\"}}{{ruby charSpan=\"1\" value=\"にし\"}}西{{color id=\"65535\"}}に{{ruby charSpan=\"1\" value=\"い\"}}行くと{{delay1}}\n{{color id=\"0\"}}{{ruby charSpan=\"1\" value=\"ちから\"}}力の{{ruby charSpan=\"1\" value=\"いずみ\"}}泉{{color id=\"65535\"}}と{{ruby charSpan=\"1\" value=\"よ\"}}呼ばれる {{ruby charSpan=\"1\" value=\"せい\"}}聖なる{{ruby charSpan=\"1\" value=\"いずみ\"}}泉があるわ\n「{{ruby charSpan=\"1\" value=\"ちから\"}}力の{{ruby charSpan=\"1\" value=\"いずみ\"}}泉に{{ruby charSpan=\"1\" value=\"せい\"}}聖なる{{color id=\"0\"}}{{ruby charSpan=\"2\" value=\"しんぐ\"}}神具{{color id=\"65535\"}}を{{ruby charSpan=\"1\" value=\"ささ\"}}捧げよ」{{delay3}}\nっていう {{ruby charSpan=\"1\" value=\"い\"}}言い{{ruby charSpan=\"1\" value=\"つた\"}}伝えがあるけど…\n{{anim2 type=\"Think_00\"}}{{color id=\"2\"}}ハイラル{{ruby charSpan=\"1\" value=\"じょう\"}}城{{color id=\"65535\"}}のお{{ruby charSpan=\"2\" value=\"ひめさま\"}}姫様が{{delay1}}\n{{ruby charSpan=\"1\" value=\"と\"}}執り{{ruby charSpan=\"1\" value=\"おこな\"}}行ってた {{ruby charSpan=\"2\" value=\"ぎしき\"}}儀式か{{ruby charSpan=\"1\" value=\"なに\"}}何かかしらね？",
      "KRko": "{{fun_0003_0001 arg=\"0x0619\"}}그래… {{delay1}}이 마구간에서 {{color id=\"0\"}}서쪽{{color id=\"65535\"}}으로 가면{{delay1}}\n{{color id=\"0\"}}힘의 샘{{color id=\"65535\"}}이라 불리는 성스러운 샘이 있어\n「힘의 샘에 성스러운 {{color id=\"0\"}}신의 도구{{color id=\"65535\"}}를 바쳐라」{{delay3}}\n라는 말이 전해져 내려오는데…\n{{anim2 type=\"Think_00\"}}{{color id=\"2\"}}하이랄 성{{color id=\"65535\"}}의 공주님께서{{delay1}}\n거행하시던 의식 같은 건가?",
      "TWzh": "{{fun_0003_0001 arg=\"0x0619\"}}這個嘛……{{delay1}}從驛站這裡往{{color id=\"0\"}}西{{color id=\"65535\"}}走，{{delay1}}\n有個被稱為{{color id=\"0\"}}力量之泉{{color id=\"65535\"}}的神聖之泉。\n「向力量之泉獻上神聖{{color id=\"0\"}}神具{{color id=\"65535\"}}吧」，{{delay3}}\n那裡有這樣的傳說……\n{{anim2 type=\"Think_00\"}}會不會是{{color id=\"2\"}}海拉魯城堡{{color id=\"65535\"}}的公主殿下{{delay1}}\n過去進行的儀式之類的呢？",
      "USen": "{{fun_0003_0001 arg=\"0x0619\"}}Let's see...{{color id=\"2\"}}{{delay1}}{{color id=\"65535\"}} If you go {{color id=\"0\"}}west{{color id=\"65535\"}} of the stable,{{delay1}}\nthere's a sacred place called the\n{{color id=\"0\"}}Spring of Power{{color id=\"65535\"}}!\n\"Offer the {{color id=\"0\"}}sacred article {{color id=\"65535\"}}to the\nSpring of Power.\" {{delay3}}That's what\nthe legend says{{size value=\"80\"}}.{{size value=\"100\"}}\n{{anim2 type=\"Think_00\"}}Maybe it was part of a ritual the {{color id=\"0\"}}princess{{color id=\"65535\"}}\nof {{color id=\"2\"}}Hyrule Castle {{color id=\"65535\"}}used to perform?",
      "USes": "{{fun_0003_0001 arg=\"0x0619\"}}Déjame pensar...{{pageBreak}}¡Ah, ya sé!{{pageBreak}}Al {{color id=\"0\"}}oeste{{color id=\"65535\"}} del rancho hay un lago sagrado\nconocido como la {{color id=\"0\"}}Fuente del Poder{{color id=\"65535\"}}.{{pageBreak}}Una leyenda dice que debes ofrecer\nel {{color id=\"0\"}}objeto sagrado{{color id=\"65535\"}} en la Fuente del Poder.{{pageBreak}}{{anim2 type=\"Think_00\"}}Quizás tenga que ver con el ritual\nque realizaba la princesa{{delay1}} del\n{{color id=\"2\"}}castillo de Hyrule{{color id=\"65535\"}}.",
      "USfr": "{{fun_0003_0001 arg=\"0x0619\"}}Voyons...{{delay1}} À l'{{color id=\"0\"}}ouest{{color id=\"65535\"}} de ce relais, il y\na une fontaine sacrée qu'on appelle\nla {{color id=\"0\"}}source de la Force{{color id=\"65535\"}}!\nIl y a un vieux dicton qui dit :\n« À la source de la Force, présente une\n{{color id=\"0\"}}offrande{{color id=\"65535\"}} sacrée. »{{delay3}}\n{{anim2 type=\"Think_00\"}}Est-ce qu'il s'agirait d'une sorte de rituel{{delay1}}\nauquel se livraient les princesses du\n{{color id=\"2\"}}château d'Hyrule{{color id=\"65535\"}}?"
    }
  },
  {
    "label": "talk10",
    "attribute": "0x8E020000",
    "locale": {
      "CNzh": "{{fun_0003_0001 arg=\"0x0109\"}}再见啦。",
      "EUde": "{{fun_0003_0001 arg=\"0x0109\"}}Wiedersehen!",
      "EUen": "{{fun_0003_0001 arg=\"0x0109\"}}See ya!",
      "EUes": "{{fun_0003_0001 arg=\"0x0109\"}}¡Nos vemos, viajero!",
      "EUfr": "{{fun_0003_0001 arg=\"0x0109\"}}À plus !",
      "EUit": "{{fun_0003_0001 arg=\"0x0109\"}}Ci vediamo!",
      "EUnl": "{{fun_0003_0001 arg=\"0x0109\"}}Tot ziens!",
      "EUru": "{{fun_0003_0001 arg=\"0x0109\"}}Пока!",
      "JPja": "{{fun_0003_0001 arg=\"0x0109\"}}またね",
      "KRko": "{{fun_0003_0001 arg=\"0x0109\"}}또 봐",
      "TWzh": "{{fun_0003_0001 arg=\"0x0109\"}}再見囉。",
      "USen": "{{fun_0003_0001 arg=\"0x0109\"}}See ya!",
      "USes": "{{fun_0003_0001 arg=\"0x0109\"}}¡Nos vemos, viajero!",
      "USfr": "{{fun_0003_0001 arg=\"0x0109\"}}À plus!"
    }
  },
  {
    "label": "talk11",
    "attribute": "0xB6020000",
    "locale": {
      "CNzh": "{{fun_0003_0001 arg=\"0x0009\"}}我是诺波坦。",
      "EUde": "{{fun_0003_0001 arg=\"0x0009\"}}Ich bin Nobo.",
      "EUen": "{{fun_0003_0001 arg=\"0x0009\"}}I'm Nobo.",
      "EUes": "{{fun_0003_0001 arg=\"0x0009\"}}Me llamo Nobunel.",
      "EUfr": "{{fun_0003_0001 arg=\"0x0009\"}}Moi, c'est Lasto.",
      "EUit": "{{fun_0003_0001 arg=\"0x0009\"}}Mi chiamo Nobotan.",
      "EUnl": "{{fun_0003_0001 arg=\"0x0009\"}}Ik ben Nobo.",
      "EUru": "{{fun_0003_0001 arg=\"0x0009\"}}Меня зовут Нобо.",
      "JPja": "{{fun_0003_0001 arg=\"0x0009\"}}{{ruby charSpan=\"1\" value=\"わたし\"}}私はノボタン",
      "KRko": "{{fun_0003_0001 arg=\"0x0009\"}}나는 노보",
      "TWzh": "{{fun_0003_0001 arg=\"0x0009\"}}我是諾波坦。",
      "USen": "{{fun_0003_0001 arg=\"0x0009\"}}I'm Nobo.",
      "USes": "{{fun_0003_0001 arg=\"0x0009\"}}Me llamo Nobunel.",
      "USfr": "{{fun_0003_0001 arg=\"0x0009\"}}Moi, c'est Lasto."
    }
  },
  {
    "label": "talk12",
    "attribute": "0xDE020000",
    "locale": {
      "CNzh": "{{fun_0003_0001 arg=\"0x0601\"}}什么？{{fun_0001_0004 arg=\"0x020003000001\"}}",
      "EUde": "{{fun_0003_0001 arg=\"0x0601\"}}Was gibt's denn?{{fun_0001_0004 arg=\"0x020003000001\"}}",
      "EUen": "{{fun_0003_0001 arg=\"0x0601\"}}What is it?{{fun_0001_0004 arg=\"0x020003000001\"}}",
      "EUes": "{{fun_0003_0001 arg=\"0x0601\"}}¿Qué pasa?{{fun_0001_0004 arg=\"0x020003000001\"}}",
      "EUfr": "{{fun_0003_0001 arg=\"0x0601\"}}Qu'est-ce qu'il y a ?{{fun_0001_0004 arg=\"0x020003000001\"}}",
      "EUit": "{{fun_0003_0001 arg=\"0x0601\"}}Che c'è?{{fun_0001_0004 arg=\"0x020003000001\"}}",
      "EUnl": "{{fun_0003_0001 arg=\"0x0601\"}}Wat is er?{{fun_0001_0004 arg=\"0x020003000001\"}}",
      "EUru": "{{fun_0003_0001 arg=\"0x0601\"}}Что такое?{{fun_0001_0004 arg=\"0x020003000001\"}}",
      "JPja": "{{fun_0003_0001 arg=\"0x0601\"}}なぁに？{{fun_0001_0004 arg=\"0x020003000001\"}}",
      "KRko": "{{fun_0003_0001 arg=\"0x0601\"}}뭐야?{{fun_0001_0004 arg=\"0x020003000001\"}}",
      "TWzh": "{{fun_0003_0001 arg=\"0x0601\"}}什麼？{{fun_0001_0004 arg=\"0x020003000001\"}}",
      "USen": "{{fun_0003_0001 arg=\"0x0601\"}}What is it?{{fun_0001_0004 arg=\"0x020003000001\"}}",
      "USes": "{{fun_0003_0001 arg=\"0x0601\"}}¿Qué pasa?{{fun_0001_0004 arg=\"0x020003000001\"}}",
      "USfr": "{{fun_0003_0001 arg=\"0x0601\"}}Qu'est-ce qu'il y a?{{fun_0001_0004 arg=\"0x020003000001\"}}"
    }
  },
  {
    "label": "talk13",
    "attribute": "0x06030000",
    "locale": {
      "CNzh": "{{fun_0003_0001 arg=\"0x0506\"}}松达？{{delay3}}\n那是谁……{{delay1}}是木匠吗？",
      "EUde": "{{fun_0003_0001 arg=\"0x0506\"}}Dumsda?{{delay3}} Wer ist das?{{delay1}}\nEin Zimmermann?",
      "EUen": "{{fun_0003_0001 arg=\"0x0506\"}}Hudson?{{delay3}} Who's that? {{delay1}}He's a carpenter?",
      "EUes": "{{fun_0003_0001 arg=\"0x0506\"}}¿Karid?{{delay3}} ¿Y ese quién es?\n¿Puede que sea un obrero?",
      "EUfr": "{{fun_0003_0001 arg=\"0x0506\"}}Grosaillieh ?{{delay3}} C'est qui, ça... ?\n{{delay1}}Un charpentier ?",
      "EUit": "{{fun_0003_0001 arg=\"0x0506\"}}Miceda?{{delay3}}\nE chi è? {{delay1}}Un carpentiere?",
      "EUnl": "{{fun_0003_0001 arg=\"0x0506\"}}Hudson?{{delay3}} Wie is dat? {{delay1}}Een timmerman?",
      "EUru": "{{fun_0003_0001 arg=\"0x0506\"}}Топорду?{{delay3}} Кто это?{{delay1}} Плотник, что ли?",
      "JPja": "{{fun_0003_0001 arg=\"0x0506\"}}エノキダ？{{delay3}}\n{{ruby charSpan=\"1\" value=\"だれ\"}}誰それ… {{delay1}}{{ruby charSpan=\"2\" value=\"だいく\"}}大工さんなの？",
      "KRko": "{{fun_0003_0001 arg=\"0x0506\"}}허드슨?{{delay3}}\n그게 누구…? {{delay1}}목수?",
      "TWzh": "{{fun_0003_0001 arg=\"0x0506\"}}松達？{{delay3}}\n那是誰……{{delay1}}是木匠嗎？",
      "USen": "{{fun_0003_0001 arg=\"0x0506\"}}Hudson?{{delay3}} Who's that? {{delay1}}He's a carpenter?",
      "USes": "{{fun_0003_0001 arg=\"0x0506\"}}¿Karid?{{delay3}} ¿Y ese quién es?\n¿Puede que sea un obrero?",
      "USfr": "{{fun_0003_0001 arg=\"0x0506\"}}Grosaillieh?{{delay3}} C'est qui, ça...?\n{{delay1}}Un charpentier?"
    }
  },
  {
    "label": "talk14",
    "attribute": "0x2E030000",
    "locale": {
      "CNzh": "{{fun_0003_0001 arg=\"0x0601\"}}还有其他事想问吗？{{fun_0001_0008 arg=\"0x00003E004D0069006E0061006B006B00610072006500480061007400610067006F005F004E00500043003000300032005F0049006300680069006B006100720061000100000004000000030000000003\"}}",
      "EUde": "{{fun_0003_0001 arg=\"0x0601\"}}Möchtest du noch etwas fragen?{{fun_0001_0008 arg=\"0x00003E004D0069006E0061006B006B00610072006500480061007400610067006F005F004E00500043003000300032005F0049006300680069006B006100720061000100000004000000030000000003\"}}",
      "EUen": "{{fun_0003_0001 arg=\"0x0601\"}}Anything else you wanna know?{{fun_0001_0008 arg=\"0x00003E004D0069006E0061006B006B00610072006500480061007400610067006F005F004E00500043003000300032005F0049006300680069006B006100720061000100000004000000030000000003\"}}",
      "EUes": "{{fun_0003_0001 arg=\"0x0601\"}}¿Quieres consultarme algo más?{{fun_0001_0008 arg=\"0x00003E004D0069006E0061006B006B00610072006500480061007400610067006F005F004E00500043003000300032005F0049006300680069006B006100720061000100000004000000030000000003\"}}",
      "EUfr": "{{fun_0003_0001 arg=\"0x0601\"}}Tu as autre chose à me demander ?{{fun_0001_0008 arg=\"0x00003E004D0069006E0061006B006B00610072006500480061007400610067006F005F004E00500043003000300032005F0049006300680069006B006100720061000100000004000000030000000003\"}}",
      "EUit": "{{fun_0003_0001 arg=\"0x0601\"}}Volevi sapere qualcos'altro?{{fun_0001_0008 arg=\"0x00003E004D0069006E0061006B006B00610072006500480061007400610067006F005F004E00500043003000300032005F0049006300680069006B006100720061000100000004000000030000000003\"}}",
      "EUnl": "{{fun_0003_0001 arg=\"0x0601\"}}Wil je nog iets weten?{{fun_0001_0008 arg=\"0x00003E004D0069006E0061006B006B00610072006500480061007400610067006F005F004E00500043003000300032005F0049006300680069006B006100720061000100000004000000030000000003\"}}",
      "EUru": "{{fun_0003_0001 arg=\"0x0601\"}}Хочешь узнать еще что-нибудь?{{fun_0001_0008 arg=\"0x00003E004D0069006E0061006B006B00610072006500480061007400610067006F005F004E00500043003000300032005F0049006300680069006B006100720061000100000004000000030000000003\"}}",
      "JPja": "{{fun_0003_0001 arg=\"0x0601\"}}{{ruby charSpan=\"1\" value=\"ほか\"}}他に{{ruby charSpan=\"1\" value=\"き\"}}聞きたい{{ruby charSpan=\"1\" value=\"こと\"}}事 ある？{{fun_0001_0008 arg=\"0x00003E004D0069006E0061006B006B00610072006500480061007400610067006F005F004E00500043003000300032005F0049006300680069006B006100720061000100000004000000030000000003\"}}",
      "KRko": "{{fun_0003_0001 arg=\"0x0601\"}}또 궁금한 거 있어?{{fun_0001_0008 arg=\"0x00003E004D0069006E0061006B006B00610072006500480061007400610067006F005F004E00500043003000300032005F0049006300680069006B006100720061000100000004000000030000000003\"}}",
      "TWzh": "{{fun_0003_0001 arg=\"0x0601\"}}還有其他事想問嗎？{{fun_0001_0008 arg=\"0x00003E004D0069006E0061006B006B00610072006500480061007400610067006F005F004E00500043003000300032005F0049006300680069006B006100720061000100000004000000030000000003\"}}",
      "USen": "{{fun_0003_0001 arg=\"0x0601\"}}Anything else you wanna know?{{fun_0001_0008 arg=\"0x00003E004D0069006E0061006B006B00610072006500480061007400610067006F005F004E00500043003000300032005F0049006300680069006B006100720061000100000004000000030000000003\"}}",
      "USes": "{{fun_0003_0001 arg=\"0x0601\"}}¿Quieres consultarme algo más?{{fun_0001_0008 arg=\"0x00003E004D0069006E0061006B006B00610072006500480061007400610067006F005F004E00500043003000300032005F0049006300680069006B006100720061000100000004000000030000000003\"}}",
      "USfr": "{{fun_0003_0001 arg=\"0x0601\"}}Tu as autre chose à me demander?{{fun_0001_0008 arg=\"0x00003E004D0069006E0061006B006B00610072006500480061007400610067006F005F004E00500043003000300032005F0049006300680069006B006100720061000100000004000000030000000003\"}}"
    }
  },
  {
    "label": "talk16",
    "attribute": "0x56030000",
    "locale": {
      "CNzh": "{{fun_0003_0001 arg=\"0x0301\"}}抱歉啊，{{delay1}}我还没自报姓名。",
      "EUde": "{{fun_0003_0001 arg=\"0x0301\"}}Oh, {{delay1}}ich habe mich gar nicht vorgestellt.",
      "EUen": "{{fun_0003_0001 arg=\"0x0301\"}}Sorry! {{delay1}}I haven't introduced myself.",
      "EUes": "{{fun_0003_0001 arg=\"0x0301\"}}Disculpa que no me haya presentado.",
      "EUfr": "{{fun_0003_0001 arg=\"0x0301\"}}Excuse-moi,{{delay1}} je ne me suis pas encore\nprésentée.",
      "EUit": "{{fun_0003_0001 arg=\"0x0301\"}}Scusa, {{delay1}}non ci siamo presentati.",
      "EUnl": "{{fun_0003_0001 arg=\"0x0301\"}}Sorry, {{delay1}}ik heb me nog niet voorgesteld.",
      "EUru": "{{fun_0003_0001 arg=\"0x0301\"}}Извини, я ведь даже не представилась.",
      "JPja": "{{fun_0003_0001 arg=\"0x0301\"}}ごめんなさい {{delay1}}まだ{{ruby charSpan=\"2\" value=\"なの\"}}名乗ってなかったね",
      "KRko": "{{fun_0003_0001 arg=\"0x0301\"}}미안,{{delay1}} 아직 내 소개도 못 했네",
      "TWzh": "{{fun_0003_0001 arg=\"0x0301\"}}抱歉啊，{{delay1}}我還沒報上姓名呢。",
      "USen": "{{fun_0003_0001 arg=\"0x0301\"}}Sorry! {{delay1}}I haven't introduced myself.",
      "USes": "{{fun_0003_0001 arg=\"0x0301\"}}Disculpa que no me haya presentado.",
      "USfr": "{{fun_0003_0001 arg=\"0x0301\"}}Excuse-moi,{{delay1}} je ne me suis pas encore\nprésentée."
    }
  },
  {
    "label": "talk17",
    "attribute": "0x7E030000",
    "locale": {
      "CNzh": "{{fun_0003_0001 arg=\"0x0312\"}}好好……",
      "EUde": "{{fun_0003_0001 arg=\"0x0312\"}}Ja, ja...",
      "EUen": "{{fun_0003_0001 arg=\"0x0312\"}}Yes, yes...",
      "EUes": "{{fun_0003_0001 arg=\"0x0312\"}}Sí, sí.",
      "EUfr": "{{fun_0003_0001 arg=\"0x0312\"}}Oui ?",
      "EUit": "{{fun_0003_0001 arg=\"0x0312\"}}Già...",
      "EUnl": "{{fun_0003_0001 arg=\"0x0312\"}}Ja, ja...",
      "EUru": "{{fun_0003_0001 arg=\"0x0312\"}}Слушаю?",
      "JPja": "{{fun_0003_0001 arg=\"0x0312\"}}はいはい…",
      "KRko": "{{fun_0003_0001 arg=\"0x0312\"}}네네…",
      "TWzh": "{{fun_0003_0001 arg=\"0x0312\"}}好好……",
      "USen": "{{fun_0003_0001 arg=\"0x0312\"}}Yes, yes...",
      "USes": "{{fun_0003_0001 arg=\"0x0312\"}}Sí, sí.",
      "USfr": "{{fun_0003_0001 arg=\"0x0312\"}}Oui?"
    }
  },
  {
    "label": "talk18",
    "attribute": "0xA6030000",
    "locale": {
      "CNzh": "{{fun_0003_0001 arg=\"0x0001\"}}从这里往{{color id=\"0\"}}北{{color id=\"65535\"}}走，{{delay1}}\n你会看到一间灯塔般的房子。\n{{fun_0003_0001 arg=\"0x0510\"}}不过之前我去时，没人在里头……",
      "EUde": "{{fun_0003_0001 arg=\"0x0001\"}}{{color id=\"0\"}}Nördlich{{color id=\"65535\"}} von hier{{delay1}} steht so eine Art\nLeuchtturm.{{pageBreak}}{{fun_0003_0001 arg=\"0x0510\"}}Aber als ich dort war, war niemand\nzu Hause.",
      "EUen": "{{fun_0003_0001 arg=\"0x0001\"}}There's a lighthouse-lookin' home {{color id=\"0\"}}north{{color id=\"65535\"}}\nof here.{{delay1}}{{fun_0003_0001 arg=\"0x0510\"}} No one was there when I last\nstopped by, though...",
      "EUes": "{{fun_0003_0001 arg=\"0x0001\"}}Al {{color id=\"0\"}}norte{{color id=\"65535\"}} hay una casa que recuerda\na un faro.{{pageBreak}}{{fun_0003_0001 arg=\"0x0510\"}}Cuando pasé por allí, me pareció\nque no había nadie.",
      "EUfr": "{{fun_0003_0001 arg=\"0x0001\"}}Au {{color id=\"0\"}}nord{{color id=\"65535\"}} d'ici,{{delay1}} il y a une maison qui\nressemble à un phare.\n\n{{fun_0003_0001 arg=\"0x0510\"}}Mais quand j'y suis allée,{{delay1}} il n'y avait\npersonne...",
      "EUit": "{{fun_0003_0001 arg=\"0x0001\"}}A {{color id=\"0\"}}nord{{color id=\"65535\"}} di qua,{{delay1}} c'è una specie di faro.{{delay1}}{{pageBreak}}{{fun_0003_0001 arg=\"0x0510\"}}Ma non ci ho mai trovato nessuno.",
      "EUnl": "{{fun_0003_0001 arg=\"0x0001\"}}Ten {{color id=\"0\"}}noorden{{color id=\"65535\"}} van hier staat een soort\nvuurtoren.{{pageBreak}}{{fun_0003_0001 arg=\"0x0510\"}}Er was echter niemand thuis toen ik een\nkijkje ging nemen...",
      "EUru": "{{fun_0003_0001 arg=\"0x0001\"}}Да ничего особенного.{{delay1}}\nРазве что старый {{color id=\"0\"}}маяк{{color id=\"65535\"}}...{{pageBreak}}{{fun_0003_0001 arg=\"0x0510\"}}Я ходила туда однажды: было видно,\nчто там живут, но я никого не застала.",
      "JPja": "{{fun_0003_0001 arg=\"0x0001\"}}ここから{{color id=\"0\"}}{{ruby charSpan=\"1\" value=\"きた\"}}北{{color id=\"65535\"}}に{{ruby charSpan=\"1\" value=\"い\"}}行けば{{delay1}}\n{{ruby charSpan=\"2\" value=\"とうだい\"}}灯台の{{ruby charSpan=\"1\" value=\"よう\"}}様なお{{ruby charSpan=\"1\" value=\"うち\"}}家があったわ\n{{fun_0003_0001 arg=\"0x0510\"}}{{ruby charSpan=\"1\" value=\"わたし\"}}私が{{ruby charSpan=\"1\" value=\"い\"}}行った{{ruby charSpan=\"1\" value=\"とき\"}}時は {{ruby charSpan=\"2\" value=\"るす\"}}留守だったけど…",
      "KRko": "{{fun_0003_0001 arg=\"0x0001\"}}여기서 {{color id=\"0\"}}북쪽{{color id=\"65535\"}}으로 가면{{delay1}}\n등대 같이 생긴 집이 있어\n{{fun_0003_0001 arg=\"0x0510\"}}내가 갔을 땐 아무도 없었지만…",
      "TWzh": "{{fun_0003_0001 arg=\"0x0001\"}}從這裡往{{color id=\"0\"}}北{{color id=\"65535\"}}走，{{delay1}}\n有間像是燈塔般的房子。\n{{fun_0003_0001 arg=\"0x0510\"}}不過之前我去時，沒人在裡頭……",
      "USen": "{{fun_0003_0001 arg=\"0x0001\"}}There's a lighthouse-lookin' home {{color id=\"0\"}}north{{color id=\"65535\"}}\nof here.{{delay1}}{{fun_0003_0001 arg=\"0x0510\"}} No one was there when I last\nstopped by, though...",
      "USes": "{{fun_0003_0001 arg=\"0x0001\"}}Al {{color id=\"0\"}}norte{{color id=\"65535\"}} hay una casa que recuerda\na un faro.{{pageBreak}}{{fun_0003_0001 arg=\"0x0510\"}}Cuando pasé por allí, me pareció que\nno había nadie.",
      "USfr": "{{fun_0003_0001 arg=\"0x0001\"}}Au {{color id=\"0\"}}nord{{color id=\"65535\"}} d'ici,{{delay1}} il y a une maison qui\nressemble à un phare.{{delay1}}\n\n{{fun_0003_0001 arg=\"0x0510\"}}Mais quand j'y suis allée,{{delay1}}\nil n'y avait personne..."
    }
  },
  {
    "label": "talk19",
    "attribute": "0xCE030000",
    "locale": {
      "CNzh": "{{fun_0003_0001 arg=\"0x0610\"}}虽然不是很清楚……\n\n不过不久前，{{delay1}}\n{{color id=\"2\"}}阿卡莱湖{{color id=\"65535\"}}那边传来咚咚锵锵的吵杂声。\n{{fun_0003_0001 arg=\"0x0001\"}}{{color id=\"2\"}}阿卡莱湖{{color id=\"65535\"}}的话，就在这里以{{color id=\"0\"}}南{{color id=\"65535\"}}哦。{{delay1}}\n在意的话，就去看看如何？",
      "EUde": "{{fun_0003_0001 arg=\"0x0610\"}}Da bin ich mir nicht sicher.{{pageBreak}}{{fun_0003_0001 arg=\"0x0001\"}}Aber am {{color id=\"2\"}}Akkala-See{{color id=\"65535\"}} habe ich Lärm\ngehört.{{delay1}} Der See ist im {{color id=\"0\"}}Süden{{color id=\"65535\"}}, sieh dich\ndoch dort mal um.",
      "EUen": "{{fun_0003_0001 arg=\"0x0610\"}}I'm not quite sure...\n\n\nI've been hearing clanging and banging\nby {{color id=\"2\"}}Lake Akkala{{color id=\"65535\"}}. {{color id=\"2\"}}{{fun_0003_0001 arg=\"0x0001\"}}{{color id=\"65535\"}}That's {{color id=\"0\"}}south{{color id=\"65535\"}} of here.{{delay1}}\nWhy don't you go check it out?",
      "EUes": "{{fun_0003_0001 arg=\"0x0610\"}}No lo sé a ciencia cierta, pero hay\nbastante revuelo últimamente por\nla zona del {{color id=\"2\"}}lago de Akkala{{color id=\"65535\"}}.\n{{fun_0003_0001 arg=\"0x0001\"}}Se encuentra al {{color id=\"0\"}}sur{{color id=\"65535\"}} de aquí, por si\nte interesa investigar el sitio.",
      "EUfr": "{{fun_0003_0001 arg=\"0x0610\"}}Je ne connais pas les détails, mais...\n\n\nDepuis quelque temps,{{delay1}} il y a du remue-\nménage du côté du {{color id=\"2\"}}lac Akkala{{color id=\"65535\"}}.\n\n{{fun_0003_0001 arg=\"0x0001\"}}Il se trouve au {{color id=\"0\"}}sud {{color id=\"65535\"}}d'ici.{{delay1}} Si ça t'intrigue,\ntu devrais aller y faire un tour.",
      "EUit": "{{fun_0003_0001 arg=\"0x0610\"}}Non lo so...\n\n\nHo sentito dei clangori al {{color id=\"2\"}}lago di Akkala{{color id=\"65535\"}}.{{delay1}}\n\n\n{{fun_0003_0001 arg=\"0x0001\"}}Si trova a {{color id=\"0\"}}sud{{color id=\"65535\"}} di qui.{{delay1}}\nVai un po' a dare un'occhiata se vuoi.",
      "EUnl": "{{fun_0003_0001 arg=\"0x0610\"}}Ik weet het niet zeker... Maar ik dacht dat\nik lawaai hoorde bij het {{color id=\"2\"}}Akkala-meer{{color id=\"65535\"}}.{{pageBreak}}{{color id=\"2\"}}{{fun_0003_0001 arg=\"0x0001\"}}{{color id=\"65535\"}}Het {{color id=\"2\"}}Akkala-meer {{color id=\"65535\"}}is ten {{color id=\"0\"}}zuiden{{color id=\"65535\"}} van hier.{{delay1}}\nWaarom neem je niet even een kijkje?",
      "EUru": "{{fun_0003_0001 arg=\"0x0610\"}}Честно говоря, не знаю.{{delay1}} Но\nя слышала какой-то стук со\nстороны {{color id=\"2\"}}Аккальского озера{{color id=\"65535\"}}.{{pageBreak}}{{fun_0003_0001 arg=\"0x0001\"}}Оно к {{color id=\"0\"}}югу {{color id=\"65535\"}}от конюшни.{{delay1}} Можешь\nсходить туда сам и посмотреть.",
      "JPja": "{{fun_0003_0001 arg=\"0x0610\"}}よく{{ruby charSpan=\"1\" value=\"わ\"}}分からないけど…\n\nでも {{ruby charSpan=\"1\" value=\"すこ\"}}少し{{ruby charSpan=\"1\" value=\"まえ\"}}前から{{delay1}}\n{{color id=\"2\"}}アッカレ{{ruby charSpan=\"1\" value=\"こ\"}}湖{{color id=\"65535\"}}の{{ruby charSpan=\"1\" value=\"ほう\"}}方が トンカン{{ruby charSpan=\"1\" value=\"さわ\"}}騒がしいわ\n{{fun_0003_0001 arg=\"0x0001\"}}{{color id=\"2\"}}アッカレ{{ruby charSpan=\"1\" value=\"こ\"}}湖{{color id=\"65535\"}}なら ここから{{color id=\"0\"}}{{ruby charSpan=\"1\" value=\"みなみ\"}}南{{color id=\"65535\"}}よ{{delay1}}\n{{ruby charSpan=\"1\" value=\"き\"}}気になるなら {{ruby charSpan=\"1\" value=\"い\"}}行ってみたら？",
      "KRko": "{{fun_0003_0001 arg=\"0x0610\"}}잘은 모르겠지만…\n\n얼마 전부터{{delay1}}\n{{color id=\"2\"}}추낙호 {{color id=\"65535\"}}쪽이 뚝딱뚝딱 소란스러워\n{{fun_0003_0001 arg=\"0x0001\"}}{{color id=\"2\"}}추낙호{{color id=\"65535\"}}는 여기서 {{color id=\"0\"}}남쪽{{color id=\"65535\"}}이야{{delay1}}\n신경 쓰이면 가 보는 게 어때?",
      "TWzh": "{{fun_0003_0001 arg=\"0x0610\"}}雖然不是很清楚……\n\n不過不久前，{{delay1}}\n{{color id=\"2\"}}阿卡萊湖{{color id=\"65535\"}}那邊傳來咚咚鏘鏘的吵雜聲。\n{{fun_0003_0001 arg=\"0x0001\"}}{{color id=\"2\"}}阿卡萊湖{{color id=\"65535\"}}的話，就在這裡以{{color id=\"0\"}}南{{color id=\"65535\"}}喔。{{delay1}}\n在意的話，就去看看如何？",
      "USen": "{{fun_0003_0001 arg=\"0x0610\"}}I'm not quite sure...\n\n\nI've been hearing clanging and banging\nby {{color id=\"2\"}}Lake Akkala{{color id=\"65535\"}}. {{color id=\"2\"}}{{fun_0003_0001 arg=\"0x0001\"}}{{color id=\"65535\"}}That's {{color id=\"0\"}}south{{color id=\"65535\"}} of here.{{delay1}}\nWhy don't you go check it out?",
      "USes": "{{fun_0003_0001 arg=\"0x0610\"}}No lo sé a ciencia cierta, pero hay\nbastante revuelo últimamente por\nla zona del {{color id=\"2\"}}lago de Akkala{{color id=\"65535\"}}.\n{{fun_0003_0001 arg=\"0x0001\"}}Se encuentra al {{color id=\"0\"}}sur{{color id=\"65535\"}} de aquí, por si\ntienes curiosidad y quieres verlo.",
      "USfr": "{{fun_0003_0001 arg=\"0x0610\"}}Je ne connais pas les détails, mais...\n\n\nDepuis quelque temps,{{delay1}} il y a du remue-\nménage du côté du {{color id=\"2\"}}lac Akkala{{color id=\"65535\"}}.\n\n{{fun_0003_0001 arg=\"0x0001\"}}Il se trouve au {{color id=\"0\"}}sud {{color id=\"65535\"}}d'ici.{{delay1}} Si ça t'intrigue,\ntu devrais aller y faire un tour."
    }
  },
  {
    "label": "talk20",
    "attribute": "0xF6030000",
    "locale": {
      "CNzh": "{{fun_0003_0001 arg=\"0x0619\"}}在这驿站以{{color id=\"0\"}}西{{color id=\"65535\"}}有座{{color id=\"0\"}}力量之泉{{color id=\"65535\"}}，{{delay1}}\n因历代的公主殿下都会到那里清洁身体而闻名。\n而且那里还有这样的传说……{{delay1}}\n“向力量之泉献上神圣{{color id=\"0\"}}神具{{color id=\"65535\"}}吧”。\n那个被称为神圣{{color id=\"0\"}}神具{{color id=\"65535\"}}的东西，{{delay1}}\n是否就用在过去的净身仪式中呢？",
      "EUde": "{{fun_0003_0001 arg=\"0x0619\"}}Die {{color id=\"0\"}}Quelle der Kraft {{color id=\"65535\"}}im {{color id=\"0\"}}Westen {{color id=\"65535\"}}des Stalls\nist bekannt dafür, dass die Prinzessinnen\ndort einst Reinigungsrituale abhielten.{{pageBreak}}„Bringe der Quelle der Kraft das {{color id=\"0\"}}heilige\nFragment{{color id=\"65535\"}} dar“, heißt es in der\nLegende.{{pageBreak}}Vielleicht wurde dieses {{color id=\"0\"}}heilige Fragment{{color id=\"65535\"}}\nbei den Ritualen verwendet?",
      "EUen": "{{fun_0003_0001 arg=\"0x0619\"}}The {{color id=\"2\"}}{{color id=\"0\"}}Spring of Power{{color id=\"2\"}} {{color id=\"65535\"}}{{color id=\"0\"}}west{{color id=\"65535\"}} of the stable {{delay1}}is\nwhere the princess used to go to perform\nher cleansing rituals.\nThere's even a legend that says,\n\"Offer the {{color id=\"0\"}}sacred article {{color id=\"65535\"}}to the\nSpring of Power.\"\nMaybe the princess {{delay1}}used this {{color id=\"0\"}}sacred\narticle {{color id=\"65535\"}}in her rituals...",
      "EUes": "{{fun_0003_0001 arg=\"0x0619\"}}La {{color id=\"0\"}}Fuente del Poder{{color id=\"65535\"}}, ubicada al {{color id=\"0\"}}oeste{{color id=\"65535\"}} de\nla posta, es el lugar donde la princesa{{delay1}}\nrealizaba rituales purificadores.\nLa leyenda dice{{delay1}} que debes ofrecer\nel {{color id=\"0\"}}objeto sagrado{{color id=\"65535\"}} en la Fuente del Poder.{{pageBreak}}Quizás la princesa usase ese {{color id=\"0\"}}objeto{{color id=\"65535\"}}{{delay1}}\na modo de elemento sagrado en\nsus rituales.",
      "EUfr": "{{fun_0003_0001 arg=\"0x0619\"}}La {{color id=\"0\"}}source de la Force{{color id=\"65535\"}} à l'{{color id=\"0\"}}ouest {{color id=\"65535\"}}de ce\nrelais{{delay1}} est célèbre car, à travers les âges,\nles princesses venaient s'y purifier.\nIl y a même un dicton qui dit :{{delay1}}\n« À la source de la Force, présente une\n{{color id=\"0\"}}offrande{{color id=\"65535\"}} sacrée et la porte s'ouvrira. »\nEst-ce que ça veut dire qu'une {{color id=\"0\"}}offrande{{color id=\"65535\"}}\nsacrée était utilisée lors des rites de\npurification ?",
      "EUit": "{{fun_0003_0001 arg=\"0x0619\"}}La {{color id=\"0\"}}fonte della forza{{color id=\"65535\"}} si trova a {{color id=\"0\"}}ovest{{color id=\"65535\"}}.{{delay1}} È\nfamosa perché tempo fa una principessa\nci andava a fare delle abluzioni.\nC'è anche una leggenda che dice:{{delay1}}\n\"Offri il {{color id=\"0\"}}tributo divino {{color id=\"65535\"}}alla fonte\ndella forza\".\nForse la principessa usava un {{color id=\"0\"}}tributo\ndivino{{color id=\"65535\"}}{{delay1}} come oggetto sacro durante\ni rituali?",
      "EUnl": "{{fun_0003_0001 arg=\"0x0619\"}}De {{color id=\"2\"}}{{color id=\"0\"}}Bron der Kracht{{color id=\"2\"}} {{color id=\"65535\"}}ten {{color id=\"0\"}}westen{{color id=\"65535\"}} van deze\nstal is bekend omdat een prinses daar\nooit haar reinigingsritueel uitvoerde.\nEr is zelfs een legende die zegt: \"Offer\nhet {{color id=\"0\"}}rituele voorwerp{{color id=\"65535\"}} aan de\nBron der Kracht.\"\nMisschien heeft de prinses het {{color id=\"0\"}}rituele\nvoorwerp{{color id=\"65535\"}} wel gebruikt voor haar ritueel...",
      "EUru": "{{fun_0003_0001 arg=\"0x0619\"}}К {{color id=\"0\"}}западу {{color id=\"65535\"}}отсюда находится\nсвященный {{color id=\"0\"}}Источник Силы{{color id=\"65535\"}}.{{pageBreak}}О нем даже в одной легенде говорится:\n«Опусти в Источник Силы священную\n{{color id=\"0\"}}реликвию{{color id=\"65535\"}}».{{pageBreak}}Говорят, на этом источнике совершала\nомовение сама принцесса Хайрула.{{pageBreak}}Наверное, {{color id=\"0\"}}«реликвия»{{color id=\"65535\"}} была\nчастью ритуала омовения.",
      "JPja": "{{fun_0003_0001 arg=\"0x0619\"}}この{{ruby charSpan=\"2\" value=\"うまやど\"}}馬宿の{{color id=\"0\"}}{{ruby charSpan=\"1\" value=\"にし\"}}西{{color id=\"65535\"}}にある{{color id=\"0\"}}{{ruby charSpan=\"1\" value=\"ちから\"}}力の{{ruby charSpan=\"1\" value=\"いずみ\"}}泉{{color id=\"65535\"}}は{{delay1}}\n{{ruby charSpan=\"2\" value=\"れきだい\"}}歴代の{{ruby charSpan=\"2\" value=\"ひめさま\"}}姫様が {{ruby charSpan=\"1\" value=\"みそぎ\"}}禊に{{ruby charSpan=\"1\" value=\"き\"}}来てた{{ruby charSpan=\"1\" value=\"こと\"}}事で {{ruby charSpan=\"2\" value=\"ゆうめい\"}}有名よ\n「{{ruby charSpan=\"1\" value=\"ちから\"}}力の{{ruby charSpan=\"1\" value=\"いずみ\"}}泉に{{ruby charSpan=\"1\" value=\"せい\"}}聖なる{{color id=\"0\"}}{{ruby charSpan=\"2\" value=\"しんぐ\"}}神具{{color id=\"65535\"}}を{{ruby charSpan=\"1\" value=\"ささ\"}}捧げよ」っていう{{delay1}}\n{{ruby charSpan=\"1\" value=\"い\"}}言い{{ruby charSpan=\"1\" value=\"つた\"}}伝えも あるくらいだし…\n{{ruby charSpan=\"1\" value=\"せい\"}}聖なる{{color id=\"0\"}}{{ruby charSpan=\"2\" value=\"しんぐ\"}}神具{{color id=\"65535\"}}って{{ruby charSpan=\"1\" value=\"よ\"}}呼ばれる{{ruby charSpan=\"1\" value=\"もの\"}}物を{{delay1}}\nその{{ruby charSpan=\"1\" value=\"みそぎ\"}}禊で {{ruby charSpan=\"1\" value=\"つか\"}}使ってたのかしらね？",
      "KRko": "{{fun_0003_0001 arg=\"0x0619\"}}이 마구간 {{color id=\"0\"}}서쪽{{color id=\"65535\"}}에 있는 {{color id=\"0\"}}힘의 샘{{color id=\"65535\"}}은{{delay1}}\n역대의 공주님이 목욕재계하시던 걸로 유명해\n「힘의 샘에 성스러운 {{color id=\"0\"}}신의 도구{{color id=\"65535\"}}를 바쳐라」라는{{delay1}}\n말도 전해져 내려올 정도이고…\n성스러운 {{color id=\"0\"}}신의 도구{{color id=\"65535\"}}라 불리는 물건이{{delay1}}\n그 목욕재계에 사용됐던 걸까?",
      "TWzh": "{{fun_0003_0001 arg=\"0x0619\"}}在這驛站以{{color id=\"0\"}}西{{color id=\"65535\"}}有座{{color id=\"0\"}}力量之泉{{color id=\"65535\"}}，{{delay1}}\n因歷代的公主殿下都會到那裡淨身而聞名。\n而且那裡還有這樣的傳說……{{delay1}}\n「向力量之泉獻上神聖{{color id=\"0\"}}神具{{color id=\"65535\"}}吧」。\n那個被稱為神聖{{color id=\"0\"}}神具{{color id=\"65535\"}}的東西，{{delay1}}\n是否就用在過去的淨身儀式中呢？",
      "USen": "{{fun_0003_0001 arg=\"0x0619\"}}The {{color id=\"2\"}}{{color id=\"0\"}}Spring of Power{{color id=\"2\"}} {{color id=\"65535\"}}{{color id=\"0\"}}west{{color id=\"65535\"}} of the stable {{delay1}}is\nwhere the princess used to go to perform\nher cleansing rituals.\nThere's even a legend that says,\n\"Offer the {{color id=\"0\"}}sacred article {{color id=\"65535\"}}to the\nSpring of Power.\"\nMaybe the princess {{delay1}}used this {{color id=\"0\"}}sacred\narticle {{color id=\"65535\"}}in her rituals...",
      "USes": "{{fun_0003_0001 arg=\"0x0619\"}}La {{color id=\"0\"}}Fuente del Poder{{color id=\"65535\"}},{{delay1}} ubicada al {{color id=\"0\"}}oeste{{color id=\"65535\"}} del\nrancho,{{delay1}} es el lugar donde la princesa\nrealizaba rituales purificadores.\nLa leyenda dice que debes ofrecer el\n{{color id=\"0\"}}objeto sagrado{{color id=\"65535\"}} en la Fuente del Poder.{{pageBreak}}Quizás la princesa usase ese {{color id=\"0\"}}objeto{{color id=\"65535\"}}{{delay1}}\na modo de elemento sagrado en\nsus rituales.",
      "USfr": "{{fun_0003_0001 arg=\"0x0619\"}}La {{color id=\"0\"}}source de la Force{{color id=\"65535\"}} à l'{{color id=\"0\"}}ouest {{color id=\"65535\"}}de ce\nrelais{{delay1}} est célèbre, car, à travers les âges,\nles princesses venaient s'y purifier.\nIl y a même un dicton qui dit :{{delay1}}\n« À la source de la Force, présente une\n{{color id=\"0\"}}offrande{{color id=\"65535\"}} sacrée et la porte s'ouvrira. »\nEst-ce que ça veut dire qu'une {{color id=\"0\"}}offrande{{color id=\"65535\"}}\nsacrée était utilisée lors des rites de\npurification?"
    }
  },
  {
    "label": "talk21",
    "attribute": "0x1E040000",
    "locale": {
      "CNzh": "{{fun_0003_0001 arg=\"0x0601\"}}在这驿站以西……\n\n{{fun_0003_0001 arg=\"0x0A14\"}}咦？{{delay2}}你已经去过{{color id=\"2\"}}力量之泉{{color id=\"65535\"}}了？\n\n{{fun_0003_0001 arg=\"0x0601\"}}其实我还没去过呢……{{delay3}}\n因为很近嘛，{{delay1}}就觉得反正随时都能去。",
      "EUde": "{{fun_0003_0001 arg=\"0x0601\"}}Im Westen des Stalls...{{pageBreak}}{{fun_0003_0001 arg=\"0x0A14\"}}Oh!{{delay2}} Du warst schon an der {{color id=\"2\"}}Quelle der\nKraft{{color id=\"65535\"}}?{{pageBreak}}{{fun_0003_0001 arg=\"0x0601\"}}Ich war noch nie dort...{{delay3}} Wenn etwas so\nnah ist, schiebt man einen Besuch dort\nwohl umso leichter auf, was?",
      "EUen": "{{fun_0003_0001 arg=\"0x0601\"}}West of this stable there's—\n\n\n{{fun_0003_0001 arg=\"0x0A14\"}}Huh?{{delay2}} You already went to the\n{{color id=\"2\"}}Spring of Power{{color id=\"65535\"}}?\n\n{{fun_0003_0001 arg=\"0x0601\"}}I've actually never been there...{{delay3}}\nWhen you live so close to it,{{delay1}}\nit's easy to procrastinate.",
      "EUes": "{{fun_0003_0001 arg=\"0x0601\"}}Al oeste de la posta hay...{{pageBreak}}¡¿Cómo?!{{pageBreak}}{{fun_0003_0001 arg=\"0x0A14\"}}¿Ya has estado en la {{color id=\"2\"}}Fuente del Poder{{color id=\"65535\"}}?{{pageBreak}}{{fun_0003_0001 arg=\"0x0601\"}}Yo no he llegado a verla...{{delay3}} Con la de\nveces que he visitado esta región,\nlo cierto es que no tengo excusa.",
      "EUfr": "{{fun_0003_0001 arg=\"0x0601\"}}À l'ouest de ce relais...\n\n\n{{fun_0003_0001 arg=\"0x0A14\"}}Comment ? {{delay2}}Tu es déjà allé à la\n{{color id=\"2\"}}source de la Force {{color id=\"65535\"}}?\n\n{{fun_0003_0001 arg=\"0x0601\"}}Moi, je n'y suis jamais allée...{{delay3}} Chaque\nfois que je m'en approche, je me dis {{delay1}}que\nje pourrai toujours y aller une autre fois.",
      "EUit": "{{fun_0003_0001 arg=\"0x0601\"}}A ovest di questo stallaggio...\n\n\n{{fun_0003_0001 arg=\"0x0A14\"}}Cosa? {{delay2}}Sei già stato alla\n{{color id=\"2\"}}fonte della forza{{color id=\"65535\"}}?!\n\n{{fun_0003_0001 arg=\"0x0601\"}}Io non l'ho mai vista.{{delay3}} È strano...{{delay1}} ogni\nvolta che mi avvicino, poi perdo\nl'orientamento.",
      "EUnl": "{{fun_0003_0001 arg=\"0x0601\"}}Ten westen van deze stal...{{pageBreak}}{{fun_0003_0001 arg=\"0x0A14\"}}Wat? {{delay2}}Je bent al bij de {{color id=\"2\"}}Bron der Kracht{{color id=\"65535\"}}\ngeweest?{{pageBreak}}{{fun_0003_0001 arg=\"0x0601\"}}Ik ben er eigenlijk nog nooit geweest...{{delay3}}\nAls iets heel dichtbij is, stelt men een\nbezoekje waarschijnlijk eerder uit.",
      "EUru": "{{fun_0003_0001 arg=\"0x0601\"}}К западу отсюда...{{pageBreak}}{{fun_0003_0001 arg=\"0x0A14\"}}Что?!{{delay1}} Ты уже побывал\nна {{color id=\"2\"}}Источнике Силы{{color id=\"65535\"}}?{{pageBreak}}{{fun_0003_0001 arg=\"0x0601\"}}А я там еще ни разу не была.{{delay1}} Если\nчто-то близко, думаешь: «Всегда\nуспею сходить».",
      "JPja": "{{fun_0003_0001 arg=\"0x0601\"}}この{{ruby charSpan=\"2\" value=\"うまやど\"}}馬宿の{{ruby charSpan=\"1\" value=\"にし\"}}西…\n\n{{fun_0003_0001 arg=\"0x0A14\"}}え？ {{delay2}}もう{{color id=\"2\"}}{{ruby charSpan=\"1\" value=\"ちから\"}}力の{{ruby charSpan=\"1\" value=\"いずみ\"}}泉{{color id=\"65535\"}}に {{ruby charSpan=\"1\" value=\"い\"}}行ってきたって？\n\n{{fun_0003_0001 arg=\"0x0601\"}}{{ruby charSpan=\"1\" value=\"じつ\"}}実は{{ruby charSpan=\"1\" value=\"わたし\"}}私 {{ruby charSpan=\"1\" value=\"い\"}}行った{{ruby charSpan=\"1\" value=\"こと\"}}事が{{ruby charSpan=\"1\" value=\"な\"}}無いの…{{delay3}}\n{{ruby charSpan=\"1\" value=\"ちか\"}}近いと いつでもいいかって {{delay1}}{{ruby charSpan=\"1\" value=\"おも\"}}思っちゃうのよね",
      "KRko": "{{fun_0003_0001 arg=\"0x0601\"}}이 마구간의 서쪽…\n\n{{fun_0003_0001 arg=\"0x0A14\"}}어? {{delay2}}벌써 {{color id=\"2\"}}힘의 샘{{color id=\"65535\"}}에 다녀왔다고?\n\n{{fun_0003_0001 arg=\"0x0601\"}}실은 나, 가 본 적 없거든…{{delay3}}\n가까우니 언제든 갈 수 있다는 {{delay1}}생각에 말야",
      "TWzh": "{{fun_0003_0001 arg=\"0x0601\"}}在這驛站以西……\n\n{{fun_0003_0001 arg=\"0x0A14\"}}咦？{{delay2}}你已經去過{{color id=\"2\"}}力量之泉{{color id=\"65535\"}}了？\n\n{{fun_0003_0001 arg=\"0x0601\"}}其實我還沒去過呢……{{delay3}}\n因為很近嘛，{{delay1}}就會覺得反正隨時都能去。",
      "USen": "{{fun_0003_0001 arg=\"0x0601\"}}West of this stable there's—\n\n\n{{fun_0003_0001 arg=\"0x0A14\"}}Huh?{{delay2}} You already went to the\n{{color id=\"2\"}}Spring of Power{{color id=\"65535\"}}?\n\n{{fun_0003_0001 arg=\"0x0601\"}}I've actually never been there...{{delay3}}\nWhen you live so close to it,{{delay1}}\nit's easy to procrastinate.",
      "USes": "{{fun_0003_0001 arg=\"0x0601\"}}Al oeste del rancho hay...{{pageBreak}}{{fun_0003_0001 arg=\"0x0A14\"}}¡¿Cómo?!{{delay1}} ¿Ya fuiste a la\n{{color id=\"2\"}}Fuente del Poder{{color id=\"65535\"}}?{{pageBreak}}{{fun_0003_0001 arg=\"0x0601\"}}Aún no la he visto...{{delay3}} Con todas las\nveces que he visitado esta región,\nlo cierto es que no tengo excusa.",
      "USfr": "{{fun_0003_0001 arg=\"0x0601\"}}À l'ouest de ce relais...\n\n\n{{fun_0003_0001 arg=\"0x0A14\"}}Comment? {{delay2}}Tu es déjà allé à la\n{{color id=\"2\"}}source de la Force{{color id=\"65535\"}}?\n\n{{fun_0003_0001 arg=\"0x0601\"}}Moi, je n'y suis jamais allée...{{delay3}} Chaque\nfois que je m'en approche, je me dis {{delay1}}que\nje pourrai toujours y aller une autre fois."
    }
  }
]