[
  {
    "label": "near00",
    "attribute": "0xB8000000",
    "locale": {
      "CNzh": "呼……呼……",
      "EUde": "ZZZzzz...",
      "EUen": "Zzz... Zzz...",
      "EUes": "Zzz... Zzz...",
      "EUfr": "Zzz... zzz...",
      "EUit": "Zzz... Zzz...",
      "EUnl": "Zzz... zzz...",
      "EUru": "Хр-р-р...",
      "JPja": "グー… グー…",
      "KRko": "쿨… 쿨…",
      "TWzh": "呼……呼……",
      "USen": "Zzz... Zzz...",
      "USes": "Zzz... Zzz...",
      "USfr": "Zzz... zzz..."
    }
  },
  {
    "label": "near01",
    "attribute": "0xE2000000",
    "locale": {
      "CNzh": "♪～",
      "EUde": "♪",
      "EUen": "♪",
      "EUes": "Tralarí.",
      "EUfr": "♪",
      "EUit": "♪",
      "EUnl": "♪",
      "EUru": "М-м-м...♪",
      "JPja": "♪～",
      "KRko": "~♪",
      "TWzh": "♪～",
      "USen": "♪",
      "USes": "Tralarí.",
      "USfr": "♪"
    }
  },
  {
    "label": "near02",
    "attribute": "0x0C010000",
    "locale": {
      "CNzh": "好困……",
      "EUde": "Müde...",
      "EUen": "So tired...",
      "EUes": "Qué modorra...",
      "EUfr": "Quelle fatigue...",
      "EUit": "Che sonno...",
      "EUnl": "Zo moe...",
      "EUru": "Спать охота...",
      "JPja": "ねむ…",
      "KRko": "졸려…",
      "TWzh": "好睏……",
      "USen": "So tired...",
      "USes": "Qué cansancio...",
      "USfr": "Quelle fatigue..."
    }
  },
  {
    "label": "0000",
    "attribute": "0x36010000",
    "locale": {
      "CNzh": "这是什么？",
      "EUde": "Was ist dieses Ding?",
      "EUen": "What's this thing?",
      "EUes": "¿Esto qué es?",
      "EUfr": "C'est quoi, ça ?",
      "EUit": "Che cos'è questo?",
      "EUnl": "Wat is dit?",
      "EUru": "Что это такое?",
      "JPja": "これは{{ruby charSpan=\"1\" value=\"なに\"}}何？",
      "KRko": "이건 뭐예요?",
      "TWzh": "這是什麼？",
      "USen": "What's this thing?",
      "USes": "¿Esto qué es?",
      "USfr": "C'est quoi, ça?"
    }
  },
  {
    "label": "0001",
    "attribute": "0x38010000",
    "locale": {
      "CNzh": "你在做什么？",
      "EUde": "Was machst du?",
      "EUen": "What are you up to?",
      "EUes": "¿Qué haces?",
      "EUfr": "Tu fais quoi ?",
      "EUit": "Che fai?",
      "EUnl": "Wat doe je daar?",
      "EUru": "Чем занимаешься?",
      "JPja": "{{ruby charSpan=\"1\" value=\"なに\"}}何してるの？",
      "KRko": "뭐하고 계세요?",
      "TWzh": "你在做什麼？",
      "USen": "What are you up to?",
      "USes": "¿Qué haces?",
      "USfr": "Tu fais quoi?"
    }
  },
  {
    "label": "0002",
    "attribute": "0x3A010000",
    "locale": {
      "CNzh": "再见",
      "EUde": "Wiedersehen.",
      "EUen": "Good-bye.",
      "EUes": "Ya nos veremos",
      "EUfr": "Ciao !",
      "EUit": "Arrivederci.",
      "EUnl": "Tot ziens.",
      "EUru": "Пока",
      "JPja": "さようなら",
      "KRko": "안녕히 계세요",
      "TWzh": "再見",
      "USen": "Good-bye.",
      "USes": "Nos vemos luego",
      "USfr": "Ciao!"
    }
  },
  {
    "label": "0003",
    "attribute": "0x3C010000",
    "locale": {
      "CNzh": "我迷路了",
      "EUde": "Hab mich verlaufen.",
      "EUen": "I'm lost.",
      "EUes": "Me he perdido",
      "EUfr": "Je me suis perdu...",
      "EUit": "Mi sono perso.",
      "EUnl": "Ik ben de weg kwijt.",
      "EUru": "Я заблудился",
      "JPja": "{{ruby charSpan=\"2\" value=\"まいご\"}}迷子です",
      "KRko": "미아예요",
      "TWzh": "我迷路了",
      "USen": "I'm lost.",
      "USes": "Me perdí",
      "USfr": "Je me suis perdu..."
    }
  },
  {
    "label": "0004",
    "attribute": "0x3E010000",
    "locale": {
      "CNzh": "我是小偷",
      "EUde": "Ich bin Einbrecher.",
      "EUen": "I'm a thief.",
      "EUes": "Soy un ladrón",
      "EUfr": "Je suis un voleur !",
      "EUit": "Sono un ladro.",
      "EUnl": "Ik ben een dief.",
      "EUru": "Я грабитель",
      "JPja": "{{ruby charSpan=\"2\" value=\"どろぼう\"}}泥棒です",
      "KRko": "도둑이에요",
      "TWzh": "我是小偷",
      "USen": "I'm a thief.",
      "USes": "Soy un ladrón",
      "USfr": "Je suis un voleur!"
    }
  },
  {
    "label": "0005",
    "attribute": "0x40010000",
    "locale": {
      "CNzh": "我是旅行者",
      "EUde": "Ich bin Reisender.",
      "EUen": "I'm a traveler.",
      "EUes": "Soy un viajero",
      "EUfr": "Je suis un voyageur !",
      "EUit": "Sono un viandante.",
      "EUnl": "Ik ben een reiziger.",
      "EUru": "Я путешественник",
      "JPja": "{{ruby charSpan=\"1\" value=\"たび\"}}旅の{{ruby charSpan=\"1\" value=\"もの\"}}者です",
      "KRko": "여행자예요",
      "TWzh": "我是旅行者",
      "USen": "I'm a traveler.",
      "USes": "Soy un viajero",
      "USfr": "Je suis un voyageur!"
    }
  },
  {
    "label": "talk00",
    "attribute": "0x42010000",
    "locale": {
      "CNzh": "{{fun_0003_0001 arg=\"0x0000\"}}晚风习习真凉爽呢。{{fun_0001_0005 arg=\"0x0100000002000002\"}}",
      "EUde": "{{fun_0003_0001 arg=\"0x0000\"}}Nachts weht ein kühles Windchen, was?{{fun_0001_0005 arg=\"0x0100000002000002\"}}",
      "EUen": "{{fun_0003_0001 arg=\"0x0000\"}}The night wind is cold, eh?{{fun_0001_0005 arg=\"0x0100000002000002\"}}",
      "EUes": "{{fun_0003_0001 arg=\"0x0000\"}}Cómo refresca la brisa...{{fun_0001_0005 arg=\"0x0100000002000002\"}}",
      "EUfr": "{{fun_0003_0001 arg=\"0x0000\"}}Ça se rafraîchit drôlement à la nuit\ntombée, pas vrai ?{{fun_0001_0005 arg=\"0x0100000002000002\"}}",
      "EUit": "{{fun_0003_0001 arg=\"0x0000\"}}Hai sentito che arietta, stanotte?{{fun_0001_0005 arg=\"0x0100000002000002\"}}",
      "EUnl": "{{fun_0003_0001 arg=\"0x0000\"}}Wat een fris briesje vanavond.{{fun_0001_0005 arg=\"0x0100000002000002\"}}",
      "EUru": "{{fun_0003_0001 arg=\"0x0000\"}}Приятно сидеть на свежем\nвоздухе в прохладную ночь!{{fun_0001_0005 arg=\"0x0100000002000002\"}}",
      "JPja": "{{fun_0003_0001 arg=\"0x0000\"}}{{ruby charSpan=\"2\" value=\"よかぜ\"}}夜風が{{ruby charSpan=\"1\" value=\"すず\"}}涼しいね{{fun_0001_0005 arg=\"0x0100000002000002\"}}",
      "KRko": "{{fun_0003_0001 arg=\"0x0000\"}}밤바람이 선선하네{{fun_0001_0005 arg=\"0x0100000002000002\"}}",
      "TWzh": "{{fun_0003_0001 arg=\"0x0000\"}}晚風真涼爽呢。{{fun_0001_0005 arg=\"0x0100000002000002\"}}",
      "USen": "{{fun_0003_0001 arg=\"0x0000\"}}The night wind is cold, eh?{{fun_0001_0005 arg=\"0x0100000002000002\"}}",
      "USes": "{{fun_0003_0001 arg=\"0x0000\"}}Cómo hace frío, ¿verdad, viajero?{{fun_0001_0005 arg=\"0x0100000002000002\"}}",
      "USfr": "{{fun_0003_0001 arg=\"0x0000\"}}Ça se rafraîchit drôlement à la nuit\ntombée, par vrai?{{fun_0001_0005 arg=\"0x0100000002000002\"}}"
    }
  },
  {
    "label": "talk01",
    "attribute": "0x6C010000",
    "locale": {
      "CNzh": "{{fun_0003_0001 arg=\"0x0000\"}}今天的天气不太好呢……{{fun_0001_0005 arg=\"0x0100000002000002\"}}",
      "EUde": "{{fun_0003_0001 arg=\"0x0000\"}}Schlimmes Wetter, was?{{fun_0001_0005 arg=\"0x0100000002000002\"}}",
      "EUen": "{{fun_0003_0001 arg=\"0x0000\"}}What an ugly day...{{fun_0001_0005 arg=\"0x0100000002000002\"}}",
      "EUes": "{{fun_0003_0001 arg=\"0x0000\"}}Vaya día de perros...{{fun_0001_0005 arg=\"0x0100000002000002\"}}",
      "EUfr": "{{fun_0003_0001 arg=\"0x0000\"}}Sale temps, tu trouves pas ?{{fun_0001_0005 arg=\"0x0100000002000002\"}}",
      "EUit": "{{fun_0003_0001 arg=\"0x0000\"}}Che tempaccio...{{fun_0001_0005 arg=\"0x0100000002000002\"}}",
      "EUnl": "{{fun_0003_0001 arg=\"0x0000\"}}Wat een weer...{{fun_0001_0005 arg=\"0x0100000002000002\"}}",
      "EUru": "{{fun_0003_0001 arg=\"0x0000\"}}Ну и погодка, да?{{fun_0001_0005 arg=\"0x0100000002000002\"}}",
      "JPja": "{{fun_0003_0001 arg=\"0x0000\"}}{{ruby charSpan=\"2\" value=\"きょう\"}}今日は{{ruby charSpan=\"2\" value=\"あいにく\"}}生憎だね…{{fun_0001_0005 arg=\"0x0100000002000002\"}}",
      "KRko": "{{fun_0003_0001 arg=\"0x0000\"}}오늘은 날씨가 궂네…{{fun_0001_0005 arg=\"0x0100000002000002\"}}",
      "TWzh": "{{fun_0003_0001 arg=\"0x0000\"}}今天的天氣不太好呢……{{fun_0001_0005 arg=\"0x0100000002000002\"}}",
      "USen": "{{fun_0003_0001 arg=\"0x0000\"}}What an ugly day...{{fun_0001_0005 arg=\"0x0100000002000002\"}}",
      "USes": "{{fun_0003_0001 arg=\"0x0000\"}}Qué día tan feo...{{fun_0001_0005 arg=\"0x0100000002000002\"}}",
      "USfr": "{{fun_0003_0001 arg=\"0x0000\"}}Sale temps, tu trouves pas?{{fun_0001_0005 arg=\"0x0100000002000002\"}}"
    }
  },
  {
    "label": "talk02",
    "attribute": "0x96010000",
    "locale": {
      "CNzh": "{{fun_0003_0001 arg=\"0x0000\"}}我现在正准备去睡了。{{delay3}}\n接下来的工作，就交给我的爱妻吧。",
      "EUde": "{{fun_0003_0001 arg=\"0x0000\"}}Ich geh jetzt erst mal ins Bett.{{delay3}}\nMeine Frau erledigt schon den Rest.",
      "EUen": "{{fun_0003_0001 arg=\"0x0000\"}}I'm headed to bed. {{delay1}}The day shift is up to\nmy lovely wife.",
      "EUes": "{{fun_0003_0001 arg=\"0x0000\"}}Justo me iba a dormir.{{delay3}}\nLe toca a mi mujer coger el relevo.",
      "EUfr": "{{fun_0003_0001 arg=\"0x0000\"}}Je vais aller me coucher, maintenant.{{delay3}}\nC'est à ma tendre épouse de prendre\nle relais aux moulins.",
      "EUit": "{{fun_0003_0001 arg=\"0x0000\"}}Ora vado a dormire.{{delay3}} Speriamo che ci\npensi mia moglie a continuare il lavoro.",
      "EUnl": "{{fun_0003_0001 arg=\"0x0000\"}}Ik wilde net gaan slapen.{{delay3}} Mijn lieve\nvrouw neemt het werk gedurende de dag\nvan me over.",
      "EUru": "{{fun_0003_0001 arg=\"0x0000\"}}Я на боковую.{{delay1}} Теперь женушкина\nочередь работать.",
      "JPja": "{{fun_0003_0001 arg=\"0x0000\"}}{{ruby charSpan=\"1\" value=\"ぼく\"}}僕は{{ruby charSpan=\"1\" value=\"いま\"}}今から {{ruby charSpan=\"1\" value=\"ね\"}}寝るところなんだよ{{delay3}}\n{{ruby charSpan=\"1\" value=\"あと\"}}後の{{ruby charSpan=\"2\" value=\"しごと\"}}仕事は {{ruby charSpan=\"1\" value=\"あい\"}}愛する{{ruby charSpan=\"1\" value=\"つま\"}}妻に{{ruby charSpan=\"1\" value=\"まか\"}}任せてあるからね",
      "KRko": "{{fun_0003_0001 arg=\"0x0000\"}}나는 이제 잘 거야{{delay3}}\n일은 사랑하는 아내에게 맡겨 두었으니",
      "TWzh": "{{fun_0003_0001 arg=\"0x0000\"}}我現在正準備去睡囉。{{delay3}}\n接下來的工作，就交給我的愛妻了。",
      "USen": "{{fun_0003_0001 arg=\"0x0000\"}}I'm headed to bed. {{delay1}}The day shift is up to\nmy lovely wife.",
      "USes": "{{fun_0003_0001 arg=\"0x0000\"}}Apenas me iba a dormir.{{delay3}}\nLe toca a mi mujer relevarme.",
      "USfr": "{{fun_0003_0001 arg=\"0x0000\"}}Je vais aller me coucher, maintenant.{{delay3}}\nC'est à ma tendre épouse de prendre\nle relais aux moulins."
    }
  },
  {
    "label": "talk03",
    "attribute": "0xC0010000",
    "locale": {
      "CNzh": "{{fun_0003_0001 arg=\"0x0001\"}}那再见啦……",
      "EUde": "{{fun_0003_0001 arg=\"0x0001\"}}Bis dann...",
      "EUen": "{{fun_0003_0001 arg=\"0x0001\"}}See you later.",
      "EUes": "{{fun_0003_0001 arg=\"0x0001\"}}Hasta otra.",
      "EUfr": "{{fun_0003_0001 arg=\"0x0001\"}}C'est ça, à plus.",
      "EUit": "{{fun_0003_0001 arg=\"0x0001\"}}Ci vediamo...",
      "EUnl": "{{fun_0003_0001 arg=\"0x0001\"}}Tot ziens...",
      "EUru": "{{fun_0003_0001 arg=\"0x0001\"}}Ну пока.",
      "JPja": "{{fun_0003_0001 arg=\"0x0001\"}}それじゃあね…",
      "KRko": "{{fun_0003_0001 arg=\"0x0001\"}}그럼 안녕…",
      "TWzh": "{{fun_0003_0001 arg=\"0x0001\"}}那再見啦……",
      "USen": "{{fun_0003_0001 arg=\"0x0001\"}}See you later.",
      "USes": "{{fun_0003_0001 arg=\"0x0001\"}}Hasta luego.",
      "USfr": "{{fun_0003_0001 arg=\"0x0001\"}}C'est ça, à plus."
    }
  },
  {
    "label": "talk04",
    "attribute": "0xEA010000",
    "locale": {
      "CNzh": "{{fun_0003_0001 arg=\"0x0004\"}}啊，你手上的那个，{{delay1}}那道{{color id=\"2\"}}蓝色火焰{{color id=\"65535\"}}……{{delay1}}\n虽然不知道为什么是你拿着，{{delay1}}\n但这代表它终于要重新点亮了对吧？",
      "EUde": "{{fun_0003_0001 arg=\"0x0004\"}}Ah... {{delay1}}Diese {{color id=\"2\"}}blaue Flamme{{color id=\"65535\"}}...{{delay1}} Ich weiß ja\nnicht, warum du sie hast, aber heißt das,\nwir haben sie jetzt wieder?",
      "EUen": "{{fun_0003_0001 arg=\"0x0004\"}}Carrying the {{color id=\"2\"}}blue flame{{color id=\"65535\"}}, I see. {{delay1}}It's been\na while since I've seen anyone rekindle\nit. {{delay1}}Is it finally back for good?",
      "EUes": "{{fun_0003_0001 arg=\"0x0004\"}}Ah... {{delay1}}¿Eso es una {{color id=\"2\"}}llama azul{{color id=\"65535\"}}? Hacía\ntiempo que no veía una.{{pageBreak}}¿Significa eso que la jefa del laboratorio\nha retomado sus investigaciones?",
      "EUfr": "{{fun_0003_0001 arg=\"0x0004\"}}Oh... {{delay1}}Je me souviens de cette {{color id=\"2\"}}flamme\nbleue{{color id=\"65535\"}}... Comment se fait-il que ce soit\ntoi qui la portes ?\nEnfin, ça faisait bien longtemps qu'on ne\nl'avait pas vue...",
      "EUit": "{{fun_0003_0001 arg=\"0x0004\"}}Ah... {{delay1}}quella... {{delay1}}quella {{color id=\"2\"}}fiamma blu{{color id=\"65535\"}}.\nNon so perché ce l'abbia tu,{{delay1}} ma significa\nche è di nuovo qui dopo tanto tempo?",
      "EUnl": "{{fun_0003_0001 arg=\"0x0004\"}}Eh... {{delay1}}Die {{color id=\"2\"}}blauwe vlam{{color id=\"65535\"}}...{{pageBreak}}Ik weet niet waarom je hem bij je hebt,{{delay1}}\nmaar betekent dat dat hij na al die tijd\nweer terug is?",
      "EUru": "{{fun_0003_0001 arg=\"0x0004\"}}А-а, {{color id=\"2\"}}синий огонь{{color id=\"65535\"}}...{{delay1}} Давно я его не\nвидел.{{delay1}} Ты с ним тут лучше не ходи.",
      "JPja": "{{fun_0003_0001 arg=\"0x0004\"}}ああ それそれ {{delay1}}その{{color id=\"2\"}}{{ruby charSpan=\"1\" value=\"あお\"}}青い{{ruby charSpan=\"1\" value=\"ほのお\"}}炎{{color id=\"65535\"}}…{{delay1}}\nなんで{{ruby charSpan=\"1\" value=\"きみ\"}}君が{{ruby charSpan=\"1\" value=\"も\"}}持ってるのか わからないけど{{delay1}}\n{{ruby charSpan=\"1\" value=\"ひさ\"}}久しぶりに{{ruby charSpan=\"2\" value=\"ふっかつ\"}}復活ってことかな？",
      "KRko": "{{fun_0003_0001 arg=\"0x0004\"}}아아, 그거, {{delay1}}그 {{color id=\"2\"}}푸른 불꽃{{color id=\"65535\"}}…{{delay1}}\n왜 네가 갖고 있는지 모르겠지만{{delay1}}\n간만에 부활한 건가?",
      "TWzh": "{{fun_0003_0001 arg=\"0x0004\"}}啊，你手上的那個，{{delay1}}那道{{color id=\"2\"}}藍色火焰{{color id=\"65535\"}}……{{delay1}}\n雖然不知道為什麼是你拿著，{{delay1}}\n但這代表它終於要重新點亮了對吧？",
      "USen": "{{fun_0003_0001 arg=\"0x0004\"}}Carrying the {{color id=\"2\"}}blue flame{{color id=\"65535\"}}, I see. {{delay1}}It's been\na while since I've seen anyone rekindle\nit. {{delay1}}Is it finally back for good?",
      "USes": "{{fun_0003_0001 arg=\"0x0004\"}}Ah... {{delay1}}¿Eso es una {{color id=\"2\"}}llama azul{{color id=\"65535\"}}? Hacía\ntiempo que no veía una.{{pageBreak}}¿Significa eso que la directora\ndel laboratorio ha retomado sus\ninvestigaciones?",
      "USfr": "{{fun_0003_0001 arg=\"0x0004\"}}Oh... {{delay1}}Je me souviens de cette {{color id=\"2\"}}flamme\nbleue{{color id=\"65535\"}}... Comment se fait-il que ce soit\ntoi qui la portes?\nEnfin, ça faisait bien longtemps qu'on ne\nl'avait pas vue..."
    }
  },
  {
    "label": "talk05",
    "attribute": "0x14020000",
    "locale": {
      "CNzh": "他们是不是把运送{{color id=\"2\"}}蓝色火焰{{color id=\"65535\"}}的工作……{{delay1}}\n交给年轻人了啊？",
      "EUde": "Jetzt wird schon der junge\nAssistent geschickt, um die\n{{color id=\"2\"}}blaue Flamme {{color id=\"65535\"}}herumzutragen, was?",
      "EUen": "Huh. {{delay1}}I always thought if anyone would\ncarry the {{color id=\"2\"}}blue flame{{color id=\"65535\"}}, it would be the\ndirector, not some wandering youth.",
      "EUes": "Imagino que serás su nuevo ayudante\ny te ha pedido que le lleves la {{color id=\"2\"}}llama{{color id=\"65535\"}}.",
      "EUfr": "J'imagine qu'on t'a chargé de transporter\nla {{color id=\"2\"}}flamme{{color id=\"65535\"}} parce que tu es jeune et plein\nd'énergie ?",
      "EUit": "Quindi...{{delay1}} hanno lasciato l'onere\ndella {{color id=\"2\"}}fiamma blu {{color id=\"65535\"}}a una persona\ncosì giovane?",
      "EUnl": "Ze laat een jonkie nu dus de {{color id=\"2\"}}blauwe vlam{{color id=\"65535\"}}\nhalen?",
      "EUru": "Наверное, поэтому {{color id=\"2\"}}синий огонь{{color id=\"65535\"}}\nсейчас носишь именно ты.",
      "JPja": "{{color id=\"2\"}}{{ruby charSpan=\"1\" value=\"あお\"}}青い{{ruby charSpan=\"1\" value=\"ほのお\"}}炎{{color id=\"65535\"}}を{{ruby charSpan=\"1\" value=\"はこ\"}}運ぶのは {{ruby charSpan=\"1\" value=\"わか\"}}若{{ruby charSpan=\"1\" value=\"もの\"}}者に{{ruby charSpan=\"1\" value=\"まか\"}}任せちゃった…{{delay1}}\nって{{ruby charSpan=\"1\" value=\"かん\"}}感じなのかな？",
      "KRko": "{{color id=\"2\"}}푸른 불꽃{{color id=\"65535\"}} 옮기기는 젊은 친구한테 맡기자…{{delay1}}\n뭐 그런 건가?",
      "TWzh": "他們是不是把運送{{color id=\"2\"}}藍色火焰{{color id=\"65535\"}}的工作……{{delay1}}\n交給年輕人了啊？",
      "USen": "Huh. {{delay1}}I always thought if anyone would\ncarry the {{color id=\"2\"}}blue flame{{color id=\"65535\"}}, it would be the\ndirector, not some wandering youth.",
      "USes": "Imagino que serás su nuevo ayudante\ny te pidió que le llevaras la {{color id=\"2\"}}llama{{color id=\"65535\"}}.{{delay1}}\nSi es que la señora ya es muy anciana...",
      "USfr": "J'imagine qu'on t'a chargé de transporter\nla {{color id=\"2\"}}flamme bleue{{color id=\"65535\"}} parce que tu es jeune et\nplein d'énergie?"
    }
  },
  {
    "label": "talk06",
    "attribute": "0x3E020000",
    "locale": {
      "CNzh": "{{fun_0003_0001 arg=\"0x0001\"}}我要开始工作了……",
      "EUde": "{{fun_0003_0001 arg=\"0x0001\"}}Ich muss jetzt an die Arbeit...",
      "EUen": "{{fun_0003_0001 arg=\"0x0001\"}}It's about time I started work...",
      "EUes": "{{fun_0003_0001 arg=\"0x0001\"}}Justo me iba a trabajar.",
      "EUfr": "{{fun_0003_0001 arg=\"0x0001\"}}Allez hop, c'est l'heure de se\nmettre au boulot !",
      "EUit": "{{fun_0003_0001 arg=\"0x0001\"}}Ora devo mettermi al lavoro!",
      "EUnl": "{{fun_0003_0001 arg=\"0x0001\"}}Ik begin om deze tijd met werken...",
      "EUru": "{{fun_0003_0001 arg=\"0x0001\"}}Пора работать...",
      "JPja": "{{fun_0003_0001 arg=\"0x0001\"}}{{ruby charSpan=\"1\" value=\"ぼく\"}}僕は {{ruby charSpan=\"1\" value=\"いま\"}}今から{{ruby charSpan=\"2\" value=\"しごと\"}}仕事さ…",
      "KRko": "{{fun_0003_0001 arg=\"0x0001\"}}나는 이제 일을 해야 해…",
      "TWzh": "{{fun_0003_0001 arg=\"0x0001\"}}我要開始工作了……",
      "USen": "{{fun_0003_0001 arg=\"0x0001\"}}It's about time I started work...",
      "USes": "{{fun_0003_0001 arg=\"0x0001\"}}A trabajar.",
      "USfr": "{{fun_0003_0001 arg=\"0x0001\"}}Allez hop, c'est l'heure de se\nmettre au boulot!"
    }
  },
  {
    "label": "talk07",
    "attribute": "0x68020000",
    "locale": {
      "CNzh": "{{fun_0003_0001 arg=\"0x0000\"}}我要去睡啰。{{delay3}}\n毕竟我整晚都在工作。",
      "EUde": "{{fun_0003_0001 arg=\"0x0000\"}}Ich muss jetzt schlafen, damit ich\nnachts arbeiten kann.",
      "EUen": "{{fun_0003_0001 arg=\"0x0000\"}}It's bedtime for me.{{delay3}} I spend nights\nworking, so I have to get my sleep in\nwhere I can.",
      "EUes": "{{fun_0003_0001 arg=\"0x0000\"}}Me voy al sobre.{{delay3}} Es lo que tiene\ntrabajar en el turno de noche...",
      "EUfr": "{{fun_0003_0001 arg=\"0x0000\"}}Bon, je vais aller me coucher. {{delay3}}Je vais\ntravailler toute la nuit, après tout.",
      "EUit": "{{fun_0003_0001 arg=\"0x0000\"}}Ora vado a dormire...{{delay3}} Sai, faccio\nil turno di notte.",
      "EUnl": "{{fun_0003_0001 arg=\"0x0000\"}}Ik ga slapen.{{delay3}} Ik werk 's nachts.",
      "EUru": "{{fun_0003_0001 arg=\"0x0000\"}}Я пошел спать, потому\nчто я работаю по ночам.",
      "JPja": "{{fun_0003_0001 arg=\"0x0000\"}}{{ruby charSpan=\"1\" value=\"ぼく\"}}僕は {{ruby charSpan=\"1\" value=\"いま\"}}今から{{ruby charSpan=\"1\" value=\"ね\"}}寝るんだよ{{delay3}}\n{{ruby charSpan=\"1\" value=\"よる\"}}夜はずっと {{ruby charSpan=\"1\" value=\"はたら\"}}働いてるからね",
      "KRko": "{{fun_0003_0001 arg=\"0x0000\"}}난 지금부터 잘 거야{{delay3}}\n밤새 일을 해야 하거든",
      "TWzh": "{{fun_0003_0001 arg=\"0x0000\"}}我要去睡囉。{{delay3}}\n畢竟我整晚都在工作呢。",
      "USen": "{{fun_0003_0001 arg=\"0x0000\"}}It's bedtime for me.{{delay3}} I spend nights\nworking, so I have to get my sleep in\nwhere I can.",
      "USes": "{{fun_0003_0001 arg=\"0x0000\"}}Me voy a dormir.{{delay3}} Trabajo en el turno\nde noche, así que descanso siempre\nque tengo la oportunidad...",
      "USfr": "{{fun_0003_0001 arg=\"0x0000\"}}Bon, je vais aller me coucher. {{delay3}}Je vais\ntravailler toute la nuit, après tout."
    }
  },
  {
    "label": "talk08",
    "attribute": "0x92020000",
    "locale": {
      "CNzh": "{{fun_0003_0001 arg=\"0x0B22\"}}唔……{{delay3}}\n已经轮到我值班了吗？\n{{fun_0003_0001 arg=\"0x0901\"}}……呼。{{delay1}}\n\n那个……{{delay1}}\n\n话说……{{delay2}}你是谁啊？",
      "EUde": "{{fun_0003_0001 arg=\"0x0B22\"}}Gääähn... {{delay3}}Bin ich schon wieder an\nder Reihe?{{pageBreak}}{{fun_0003_0001 arg=\"0x0901\"}}...{{pageBreak}}...{{delay1}} Hmmm...{{pageBreak}}Nanu?{{delay3}} Wer bist du denn?",
      "EUen": "{{fun_0003_0001 arg=\"0x0B22\"}}Hrrrmmm...{{delay3}}is it my turn already?{{pageBreak}}{{fun_0003_0001 arg=\"0x0901\"}}Ah, well.{{delay1}} Say, not to pry, but...I have to\nask. {{delay2}}Who are you supposed to be?",
      "EUes": "{{fun_0003_0001 arg=\"0x0B22\"}}Mmm... {{delay3}}¿Ya es mi turno?{{pageBreak}}{{fun_0003_0001 arg=\"0x0901\"}}Qué pereza...{{pageBreak}}¿Eh?{{delay3}} ¿Se puede saber quién eres?",
      "EUfr": "{{fun_0003_0001 arg=\"0x0B22\"}}Ouaaah... {{delay3}}C'est déjà mon tour ?\n\n\n{{fun_0003_0001 arg=\"0x0901\"}}Oh...{{delay1}}\n\n\nHmm...{{delay1}}\n\n\nAu fait... {{delay3}}T'es qui, toi ?",
      "EUit": "{{fun_0003_0001 arg=\"0x0B22\"}}Uuuaaah... {{delay3}}Tocca già a me?\n\n\n{{fun_0003_0001 arg=\"0x0901\"}}Uff...{{delay1}}\n\n\nEhm... ma...{{delay1}}\n\n\nScusa, ma devo chiedertelo.{{delay3}}\nTu chi saresti?",
      "EUnl": "{{fun_0003_0001 arg=\"0x0B22\"}}Pfff... {{delay3}}Ben ik al aan de beurt?{{pageBreak}}{{fun_0003_0001 arg=\"0x0901\"}}...{{pageBreak}}Huh?{{delay3}} Wie ben jij?",
      "EUru": "{{fun_0003_0001 arg=\"0x0B22\"}}Что, уже моя очередь?{{delay1}} Не хочу...{{pageBreak}}{{fun_0003_0001 arg=\"0x0901\"}}Хм, а ты кто такой?",
      "JPja": "{{fun_0003_0001 arg=\"0x0B22\"}}う～ん… {{delay3}}\nもう{{ruby charSpan=\"1\" value=\"ぼく\"}}僕の{{ruby charSpan=\"1\" value=\"ばん\"}}番かい？\n{{fun_0003_0001 arg=\"0x0901\"}}……ふう{{delay1}}\n\nえーっと…{{delay1}}\n\nところで…{{delay2}} {{ruby charSpan=\"1\" value=\"きみ\"}}君は{{ruby charSpan=\"1\" value=\"だれ\"}}誰だい？",
      "KRko": "{{fun_0003_0001 arg=\"0x0B22\"}}으~음… {{delay3}}\n벌써 내 차례인가?\n{{fun_0003_0001 arg=\"0x0901\"}}……후우{{delay1}}\n\n어…{{delay1}}\n\n그런데…{{delay2}} 너는 누구니?",
      "TWzh": "{{fun_0003_0001 arg=\"0x0B22\"}}唔……{{delay3}}\n已經輪到我值班了嗎？\n{{fun_0003_0001 arg=\"0x0901\"}}……呼。{{delay1}}\n\n那個……{{delay1}}\n\n話說……{{delay2}}你是誰啊？",
      "USen": "{{fun_0003_0001 arg=\"0x0B22\"}}Hrrrmmm...{{delay3}}is it my turn already?{{pageBreak}}{{fun_0003_0001 arg=\"0x0901\"}}Ah, well.{{delay1}} Say, not to pry, but...I have to\nask. {{delay2}}Who are you supposed to be?",
      "USes": "{{fun_0003_0001 arg=\"0x0B22\"}}Mmm... {{delay3}}¿Ya es mi turno?{{pageBreak}}{{fun_0003_0001 arg=\"0x0901\"}}Qué flojera...{{pageBreak}}¿Eh?{{delay3}} ¿Se puede saber quién eres?",
      "USfr": "{{fun_0003_0001 arg=\"0x0B22\"}}Ouaaah... {{delay3}}C'est déjà mon tour?\n\n\n{{fun_0003_0001 arg=\"0x0901\"}}Oh...{{delay1}}\n\n\nHmm...{{delay1}}\n\n\nAu fait... {{delay3}}T'es qui, toi?"
    }
  },
  {
    "label": "talk09",
    "attribute": "0xBC020000",
    "locale": {
      "CNzh": "{{fun_0003_0001 arg=\"0x0311\"}}因为工作的关系，我的作息经常日夜颠倒。{{delay1}}\n可以再让我睡一下吗？",
      "EUde": "{{fun_0003_0001 arg=\"0x0311\"}}Wegen der Arbeit muss ich die Nacht\nzum Tage machen.{{delay1}} Lässt du mich bitte\nnoch etwas schlafen?",
      "EUen": "{{fun_0003_0001 arg=\"0x0311\"}}The demands of my job mean that\nnights and days are switched for me.{{delay1}}\nSo please let me sleep just a bit more.",
      "EUes": "{{fun_0003_0001 arg=\"0x0311\"}}Como trabajo de noche, tengo que\ndormir de día.{{delay1}} ¿Podrías dejarme\ndescansar, por favor?",
      "EUfr": "{{fun_0003_0001 arg=\"0x0311\"}}Je travaille de nuit, moi. Ce qui veut dire\nque je dors le jour.{{delay1}} Alors tu veux bien me\nlaisser un peu tranquille, oui ?",
      "EUit": "{{fun_0003_0001 arg=\"0x0311\"}}Sai, a causa del mio lavoro, per me\ngiorno e notte sono invertiti.{{delay1}} Puoi\nlasciarmi dormire ancora un po'?",
      "EUnl": "{{fun_0003_0001 arg=\"0x0311\"}}Ik moet 's nachts werken en slaap\noverdag.{{delay1}} Zou je me dus nog even kunnen\nlaten slapen?",
      "EUru": "{{fun_0003_0001 arg=\"0x0311\"}}Дай мне поспать.{{delay1}} У меня и так\nдень с ночью перепутан...",
      "JPja": "{{fun_0003_0001 arg=\"0x0311\"}}{{ruby charSpan=\"2\" value=\"しごと\"}}仕事の{{ruby charSpan=\"2\" value=\"かんけい\"}}関係で {{ruby charSpan=\"1\" value=\"ひる\"}}昼と{{ruby charSpan=\"1\" value=\"よる\"}}夜が{{ruby charSpan=\"1\" value=\"ぎゃく\"}}逆なんだ{{delay1}}\nもう{{ruby charSpan=\"1\" value=\"すこ\"}}少し {{ruby charSpan=\"1\" value=\"ね\"}}寝かせてくれないかい？",
      "KRko": "{{fun_0003_0001 arg=\"0x0311\"}}직업상 낮밤이 뒤바뀌었거든{{delay1}}\n조금 더 자면 안될까?",
      "TWzh": "{{fun_0003_0001 arg=\"0x0311\"}}因為工作，我的作息常日夜顛倒。{{delay1}}\n可以再讓我睡一下嗎？",
      "USen": "{{fun_0003_0001 arg=\"0x0311\"}}The demands of my job mean that\nnights and days are switched for me.{{delay1}}\nSo please let me sleep just a bit more.",
      "USes": "{{fun_0003_0001 arg=\"0x0311\"}}Como trabajo de noche, tengo que\ndormir de día.{{delay1}} ¿Podrías dejarme\ndescansar, por favor?",
      "USfr": "{{fun_0003_0001 arg=\"0x0311\"}}Je travaille de nuit, moi. Ce qui veut dire\nque je dors le jour.{{delay1}} Alors, tu veux bien\nme laisser un peu tranquille, oui?"
    }
  },
  {
    "label": "talk10",
    "attribute": "0xE6020000",
    "locale": {
      "CNzh": "{{fun_0003_0001 arg=\"0x0001\"}}那你呢？{{delay1}}\n都这么晚了，你在做什么？{{fun_0001_0006 arg=\"0x03000400050002000003\"}}",
      "EUde": "{{fun_0003_0001 arg=\"0x0001\"}}Überhaupt sollte ICH besser DICH\nfragen, was du hier mitten in der\nNacht machst!{{fun_0001_0006 arg=\"0x03000400050002000003\"}}",
      "EUen": "{{fun_0003_0001 arg=\"0x0001\"}}Funny, that was going to be my question\nto you!{{delay2}} What are you doing skulking\naround in the dead of night?{{fun_0001_0006 arg=\"0x03000400050002000003\"}}",
      "EUes": "{{fun_0003_0001 arg=\"0x0001\"}}¡Lo mismo podría preguntarte a ti!{{delay1}}\n¿Qué haces aquí a estas horas de\nla noche?{{fun_0001_0006 arg=\"0x03000400050002000003\"}}",
      "EUfr": "{{fun_0003_0001 arg=\"0x0001\"}}D'ailleurs, j'allais te poser la\nquestion !{{delay1}} Je peux savoir ce que tu\nfais ici en plein milieu de la nuit ?{{fun_0001_0006 arg=\"0x03000400050002000003\"}}",
      "EUit": "{{fun_0003_0001 arg=\"0x0001\"}}E tu invece che fai qui nel bel\nmezzo della notte?{{fun_0001_0006 arg=\"0x03000400050002000003\"}}",
      "EUnl": "{{fun_0003_0001 arg=\"0x0001\"}}Trouwens, ik wilde jou net hetzelfde\nvragen!{{delay1}} Wat doe jij hier midden in de\nnacht?{{fun_0001_0006 arg=\"0x03000400050002000003\"}}",
      "EUru": "{{fun_0003_0001 arg=\"0x0001\"}}А ты-то что тут среди ночи делаешь?{{fun_0001_0006 arg=\"0x03000400050002000003\"}}",
      "JPja": "{{fun_0003_0001 arg=\"0x0001\"}}{{ruby charSpan=\"1\" value=\"きみ\"}}君こそどうしたんだい？{{delay1}}\nこんな{{ruby charSpan=\"2\" value=\"よなか\"}}夜中に{{fun_0001_0006 arg=\"0x03000400050002000003\"}}",
      "KRko": "{{fun_0003_0001 arg=\"0x0001\"}}너야말로 뭐 하는 거야?{{delay1}}\n이렇게 늦은 시간에{{fun_0001_0006 arg=\"0x03000400050002000003\"}}",
      "TWzh": "{{fun_0003_0001 arg=\"0x0001\"}}那你呢？都這麼晚了，{{delay1}}\n你在做什麼？{{fun_0001_0006 arg=\"0x03000400050002000003\"}}",
      "USen": "{{fun_0003_0001 arg=\"0x0001\"}}Funny, that was going to be my question\nto you!{{delay2}} What are you doing skulking\naround in the dead of night?{{fun_0001_0006 arg=\"0x03000400050002000003\"}}",
      "USes": "{{fun_0003_0001 arg=\"0x0001\"}}¡Lo mismo podría preguntarte a ti!{{delay1}}\n¿Qué haces aquí a estas horas de\nla noche?{{fun_0001_0006 arg=\"0x03000400050002000003\"}}",
      "USfr": "{{fun_0003_0001 arg=\"0x0001\"}}D'ailleurs, j'allais te poser la\nquestion!{{delay1}} Je peux savoir ce que tu\nfais ici en plein milieu de la nuit?{{fun_0001_0006 arg=\"0x03000400050002000003\"}}"
    }
  },
  {
    "label": "talk11",
    "attribute": "0x10030000",
    "locale": {
      "CNzh": "{{fun_0003_0001 arg=\"0x0609\"}}哈哈哈，原来你是迷路了……{{delay1}}\n\n{{fun_0003_0001 arg=\"0x0001\"}}毕竟谁都会在人生这座森林里迷路……{{delay2}}\n就是像这样吧。",
      "EUde": "{{fun_0003_0001 arg=\"0x0609\"}}Verlaufen? Hahaha!{{pageBreak}}{{fun_0003_0001 arg=\"0x0001\"}}Wir haben uns doch alle im Wald des\nLebens verlaufen... {{delay2}}Wenn man so will.",
      "EUen": "{{fun_0003_0001 arg=\"0x0609\"}}Hahaha, really?{{delay1}} {{fun_0003_0001 arg=\"0x0001\"}}Well, they say everyone\nis lost in the woods of life.{{delay2}} Or words\nto that effect.",
      "EUes": "{{fun_0003_0001 arg=\"0x0609\"}}¿En serio?{{delay1}} ¡Ja, ja, ja!{{pageBreak}}{{fun_0003_0001 arg=\"0x0001\"}}Menudo viajero estás tú hecho.",
      "EUfr": "{{fun_0003_0001 arg=\"0x0609\"}}Perdu ?{{delay1}} Hahaha, {{delay1}}c'est malin !\n\n\n{{fun_0003_0001 arg=\"0x0001\"}}Bah, on est tous un peu perdus dans la\nforêt de la vie...",
      "EUit": "{{fun_0003_0001 arg=\"0x0609\"}}Ti sei perso?{{delay1}}\n\n\n{{fun_0003_0001 arg=\"0x0001\"}}Beh, tutti si perdono nella grande\nforesta della vita...{{delay2}} Almeno così dicono.",
      "EUnl": "{{fun_0003_0001 arg=\"0x0609\"}}De weg kwijt?{{delay1}} Hahaha.{{pageBreak}}{{fun_0003_0001 arg=\"0x0001\"}}We raken allemaal weleens het spoor\nbijster in het woud des levens, of\nzoiets...",
      "EUru": "{{fun_0003_0001 arg=\"0x0609\"}}Заблудился?{{delay1}} Ха-ха-ха!{{pageBreak}}{{fun_0003_0001 arg=\"0x0001\"}}Как говорится, все мы заблудились\nв дремучих лесах наших жизней...",
      "JPja": "{{fun_0003_0001 arg=\"0x0609\"}}ははは {{ruby charSpan=\"2\" value=\"まいご\"}}迷子か…{{delay1}} \n\n{{fun_0003_0001 arg=\"0x0001\"}}まぁ {{ruby charSpan=\"1\" value=\"ひと\"}}人というのは{{ruby charSpan=\"1\" value=\"だれ\"}}誰しも {{ruby charSpan=\"2\" value=\"じんせい\"}}人生の{{ruby charSpan=\"1\" value=\"もり\"}}森の{{ruby charSpan=\"2\" value=\"まいご\"}}迷子…{{delay2}}\nみたいなものだからね",
      "KRko": "{{fun_0003_0001 arg=\"0x0609\"}}하하하, 미아라…{{delay1}} \n\n{{fun_0003_0001 arg=\"0x0001\"}}뭐 사람이란 누구나 인생이라는 숲의 미아…{{delay2}}\n그 비슷한 거니까",
      "TWzh": "{{fun_0003_0001 arg=\"0x0609\"}}哈哈哈，原來你迷路啦……{{delay1}}\n\n{{fun_0003_0001 arg=\"0x0001\"}}畢竟人都會在人生這座森林裡迷路……{{delay2}}\n就是像這樣吧。",
      "USen": "{{fun_0003_0001 arg=\"0x0609\"}}Hahaha, really?{{delay1}} {{fun_0003_0001 arg=\"0x0001\"}}Well, they say everyone\nis lost in the woods of life.{{delay2}} Or words\nto that effect.",
      "USes": "{{fun_0003_0001 arg=\"0x0609\"}}¿En serio?{{delay1}} ¡Ja, ja, ja!{{pageBreak}}{{fun_0003_0001 arg=\"0x0001\"}}Creo que como viajero te\nfalta mucho por aprender.",
      "USfr": "{{fun_0003_0001 arg=\"0x0609\"}}Perdu?{{delay1}} Hahaha, {{delay1}}c'est malin!\n\n\n{{fun_0003_0001 arg=\"0x0001\"}}Bah, on est tous un peu perdus dans la\nforêt de la vie..."
    }
  },
  {
    "label": "talk12",
    "attribute": "0x3A030000",
    "locale": {
      "CNzh": "{{fun_0003_0001 arg=\"0x0001\"}}{{color id=\"2\"}}旅馆{{color id=\"65535\"}}就在坡道下的桥对面。{{delay1}}\n挑张好床，就能好好睡一觉。",
      "EUde": "{{fun_0003_0001 arg=\"0x0001\"}}Das {{color id=\"2\"}}Gasthaus{{color id=\"65535\"}} ist hier den Hügel runter\nund über die Brücke.{{delay1}} Dort kannst du die\nNacht in einem richtigen Bett verbringen.",
      "EUen": "{{fun_0003_0001 arg=\"0x0001\"}}The {{color id=\"2\"}}inn {{color id=\"65535\"}}is down the hill, past the bridge.{{delay1}}\nThey've got soft beds and reasonable\nrates there if you want a night's sleep.",
      "EUes": "{{fun_0003_0001 arg=\"0x0001\"}}Baja la colina, cruza el puente y\nencontrarás la {{color id=\"2\"}}posada{{color id=\"65535\"}} del pueblo.{{delay1}}\nPodrás descansar allí hasta mañana.",
      "EUfr": "{{fun_0003_0001 arg=\"0x0001\"}}L'{{color id=\"2\"}}auberge{{color id=\"65535\"}} se trouve là-bas, en bas de la\ncolline, de l'autre côté du pont.{{delay1}} Tu peux\naller y dormir, tu y serais mieux.",
      "EUit": "{{fun_0003_0001 arg=\"0x0001\"}}Se cerchi la {{color id=\"2\"}}locanda{{color id=\"65535\"}}, vai giù per la\ndiscesa e oltrepassa il ponte.{{delay1}} Dovresti\nandare lì a riposare.",
      "EUnl": "{{fun_0003_0001 arg=\"0x0001\"}}Om de {{color id=\"2\"}}herberg{{color id=\"65535\"}} te vinden ga je deze\nheuvel omlaag en steek je de brug over.{{pageBreak}}Ze hebben daar goede bedden, dus je\nkunt er prima uitrusten.",
      "EUru": "{{fun_0003_0001 arg=\"0x0001\"}}Иди в {{color id=\"2\"}}гостиницу {{color id=\"65535\"}}— она за мостом.{{delay1}} Там\nможешь сколько угодно объяснять, что\nзаблудился.",
      "JPja": "{{fun_0003_0001 arg=\"0x0001\"}}{{color id=\"2\"}}{{ruby charSpan=\"2\" value=\"やどや\"}}宿屋{{color id=\"65535\"}}なら {{ruby charSpan=\"1\" value=\"さか\"}}坂を{{ruby charSpan=\"1\" value=\"くだ\"}}下った{{ruby charSpan=\"1\" value=\"はし\"}}橋の{{ruby charSpan=\"1\" value=\"む\"}}向こうだよ{{delay1}}\nちゃんとしたベッドで ぐっすり{{ruby charSpan=\"1\" value=\"ねむ\"}}眠れるよ",
      "KRko": "{{fun_0003_0001 arg=\"0x0001\"}}{{color id=\"2\"}}여관{{color id=\"65535\"}}은 언덕 밑 다리 건너에 있어{{delay1}}\n제대로 된 침대에서 푹 쉴 수 있지",
      "TWzh": "{{fun_0003_0001 arg=\"0x0001\"}}{{color id=\"2\"}}旅館{{color id=\"65535\"}}就在坡道下的橋對面。{{delay1}}\n挑張好床，就能好好睡一覺喔。",
      "USen": "{{fun_0003_0001 arg=\"0x0001\"}}The {{color id=\"2\"}}inn {{color id=\"65535\"}}is down the hill, past the bridge.{{delay1}}\nThey've got soft beds and reasonable\nrates there if you want a night's sleep.",
      "USes": "{{fun_0003_0001 arg=\"0x0001\"}}Baja la colina, cruza el puente y\nencontrarás la {{color id=\"2\"}}posada{{color id=\"65535\"}} del pueblo.{{delay1}}\nPodrás descansar allí hasta mañana.",
      "USfr": "{{fun_0003_0001 arg=\"0x0001\"}}L'{{color id=\"2\"}}auberge{{color id=\"65535\"}} se trouve là-bas, en bas de la\ncolline, de l'autre côté du pont.{{delay1}} Tu peux\naller y dormir, tu y serais mieux."
    }
  },
  {
    "label": "talk13",
    "attribute": "0x64030000",
    "locale": {
      "CNzh": "{{fun_0003_0001 arg=\"0x0609\"}}哈哈哈，你在玩警察抓小偷吗？{{delay1}}\n好好好，那我逮捕你……{{delay3}}这样可以了吗？",
      "EUde": "{{fun_0003_0001 arg=\"0x0609\"}}Hahaha, willst du Räuber und Gendarm\nspielen?{{pageBreak}}Na gut, dann erkläre ich dich hiermit\noffiziell für verhaftet!{{delay3}} So sagt man doch,\noder?",
      "EUen": "{{fun_0003_0001 arg=\"0x0609\"}}Haha, you want to play guards and\nbandits?{{delay1}} Sure, OK. \"You're under arrest!\"{{delay1}}\nSatisfied?",
      "EUes": "{{fun_0003_0001 arg=\"0x0609\"}}Ya, y yo el rey de Hyrule.{{delay1}}\nNo intentes tomarme el pelo, chaval.",
      "EUfr": "{{fun_0003_0001 arg=\"0x0609\"}}Un voleur ? {{delay1}}Hahaha !\n\n\nBon, tu es en état d'arrestation !\nÇa te va ?",
      "EUit": "{{fun_0003_0001 arg=\"0x0609\"}}Sei proprio spiritoso. Cos'è, vuoi\ngiocare a guardie e ladri?{{delay3}} D'accordo...{{delay1}}\nAllora...{{delay3}}\nSei in arresto!{{delay3}}\n...{{delay3}}\nVado bene così?",
      "EUnl": "{{fun_0003_0001 arg=\"0x0609\"}}Hahaha, dus je wilt wachter en dief\nspelen?{{delay1}} Oké, je staat onder arrest...{{delay3}}\nIs dat wat ik moet zeggen?",
      "EUru": "{{fun_0003_0001 arg=\"0x0609\"}}Грабитель?{{delay1}} Ха-ха-ха!{{delay2}} Стоять!{{delay1}}\nТы арестован!{{delay3}} Ха-ха-ха!",
      "JPja": "{{fun_0003_0001 arg=\"0x0609\"}}ははは {{ruby charSpan=\"2\" value=\"どろぼう\"}}泥棒ごっこかい？ {{delay1}}\nはいはい {{ruby charSpan=\"2\" value=\"たいほ\"}}逮捕{{ruby charSpan=\"2\" value=\"たいほ\"}}逮捕… {{delay3}}これでいいかい？",
      "KRko": "{{fun_0003_0001 arg=\"0x0609\"}}하하하, 도둑놀이 하니? {{delay1}}\n그래 그래, 체포한다! {{delay3}}이제 됐지?",
      "TWzh": "{{fun_0003_0001 arg=\"0x0609\"}}哈哈哈，你在玩警察抓小偷嗎？{{delay1}}\n好好好，那我逮捕你……{{delay3}}這樣可以了嗎？",
      "USen": "{{fun_0003_0001 arg=\"0x0609\"}}Haha, you want to play guards and\nbandits?{{delay1}} Sure, OK. \"You're under arrest!\"{{delay1}}\nSatisfied?",
      "USes": "{{fun_0003_0001 arg=\"0x0609\"}}Ya, y yo el rey de Hyrule.{{delay1}}\nNo intentes tomarme el pelo, jovencito.",
      "USfr": "{{fun_0003_0001 arg=\"0x0609\"}}Un voleur? {{delay1}}Hahaha!\n\n\nBon, tu es en état d'arrestation!\nÇa te va?"
    }
  },
  {
    "label": "talk14",
    "attribute": "0x8E030000",
    "locale": {
      "CNzh": "{{fun_0003_0001 arg=\"0x0B00\"}}怎么啦？{{fun_0001_0005 arg=\"0x0100000002000002\"}}",
      "EUde": "{{fun_0003_0001 arg=\"0x0B00\"}}Was ist denn?{{fun_0001_0005 arg=\"0x0100000002000002\"}}",
      "EUen": "{{fun_0003_0001 arg=\"0x0B00\"}}Something I can do for you?{{fun_0001_0005 arg=\"0x0100000002000002\"}}",
      "EUes": "{{fun_0003_0001 arg=\"0x0B00\"}}¿Qué ocurre?{{fun_0001_0005 arg=\"0x0100000002000002\"}}",
      "EUfr": "{{fun_0003_0001 arg=\"0x0B00\"}}Hum ? {{delay1}}Qu'est-ce que tu veux ?{{fun_0001_0005 arg=\"0x0100000002000002\"}}",
      "EUit": "{{fun_0003_0001 arg=\"0x0B00\"}}Che c'è?{{fun_0001_0005 arg=\"0x0100000002000002\"}}",
      "EUnl": "{{fun_0003_0001 arg=\"0x0B00\"}}Wat is er?{{fun_0001_0005 arg=\"0x0100000002000002\"}}",
      "EUru": "{{fun_0003_0001 arg=\"0x0B00\"}}Что тебе?{{fun_0001_0005 arg=\"0x0100000002000002\"}}",
      "JPja": "{{fun_0003_0001 arg=\"0x0B00\"}}どうしたんだい？{{fun_0001_0005 arg=\"0x0100000002000002\"}}",
      "KRko": "{{fun_0003_0001 arg=\"0x0B00\"}}무슨 일이니?{{fun_0001_0005 arg=\"0x0100000002000002\"}}",
      "TWzh": "{{fun_0003_0001 arg=\"0x0B00\"}}怎麼啦？{{fun_0001_0005 arg=\"0x0100000002000002\"}}",
      "USen": "{{fun_0003_0001 arg=\"0x0B00\"}}Something I can do for you?{{fun_0001_0005 arg=\"0x0100000002000002\"}}",
      "USes": "{{fun_0003_0001 arg=\"0x0B00\"}}¿Qué ocurre?{{fun_0001_0005 arg=\"0x0100000002000002\"}}",
      "USfr": "{{fun_0003_0001 arg=\"0x0B00\"}}Hum?{{delay1}}\nQu'est-ce que tu veux?{{fun_0001_0005 arg=\"0x0100000002000002\"}}"
    }
  },
  {
    "label": "talk15",
    "attribute": "0xB8030000",
    "locale": {
      "CNzh": "{{fun_0003_0001 arg=\"0x0B00\"}}你问这个吗？{{delay3}}\n我也不太清楚……\n但我曾经看到{{color id=\"2\"}}{{fun_0003_0001 arg=\"0x0000\"}}哈特诺古代研究所{{color id=\"65535\"}}的{{color id=\"2\"}}所长{{color id=\"65535\"}}{{delay1}}\n点上{{color id=\"2\"}}蓝色火焰{{color id=\"65535\"}}。",
      "EUde": "{{fun_0003_0001 arg=\"0x0B00\"}}Das hier?{{delay3}}\nSo richtig verstehe ich es auch nicht...{{pageBreak}}{{color id=\"2\"}}{{fun_0003_0001 arg=\"0x0000\"}}{{color id=\"65535\"}}Ich hab mal gesehen, wie die Leute vom\n{{color id=\"2\"}}Hateno-Institut{{color id=\"65535\"}} hier ihre {{color id=\"2\"}}blaue Flamme{{color id=\"65535\"}}\nangezündet haben.",
      "EUen": "{{fun_0003_0001 arg=\"0x0B00\"}}This?{{delay3}} Good question. I'm not quite\nsure myself.{{pageBreak}}{{color id=\"2\"}}{{fun_0003_0001 arg=\"0x0000\"}}{{color id=\"65535\"}}But apparently the director at the\n{{color id=\"2\"}}Hateno Ancient Tech Lab {{color id=\"65535\"}}lights it\nwith a {{color id=\"2\"}}blue flame{{color id=\"65535\"}}.",
      "EUes": "{{fun_0003_0001 arg=\"0x0B00\"}}¿Esto?{{delay3}} Pues la verdad es que\nno estoy muy seguro...{{pageBreak}}{{fun_0003_0001 arg=\"0x0000\"}}Un día vi a la jefa del {{color id=\"2\"}}laboratorio{{color id=\"65535\"}}\nencenderlo con una {{color id=\"2\"}}llama azul{{color id=\"65535\"}}.",
      "EUfr": "{{fun_0003_0001 arg=\"0x0B00\"}}Ça ?{{delay3}} Je sais pas exactement, à vrai dire.\n\n\n{{fun_0003_0001 arg=\"0x0000\"}}Mais j'ai déjà vu le chef du {{color id=\"2\"}}laboratoire{{color id=\"65535\"}}\nantique l'allumer avec sa {{color id=\"2\"}}flamme bleue{{color id=\"65535\"}}.",
      "EUit": "{{fun_0003_0001 arg=\"0x0B00\"}}Questo?{{delay3}} Non saprei...\n\n\n{{color id=\"2\"}}{{fun_0003_0001 arg=\"0x0000\"}}{{color id=\"65535\"}}Ma ho visto quelli del {{color id=\"2\"}}centro di ricerca\ndi Finterra{{color id=\"65535\"}}{{delay1}} che l'accendevano con la\n{{color id=\"2\"}}fiamma blu{{color id=\"65535\"}}.",
      "EUnl": "{{fun_0003_0001 arg=\"0x0B00\"}}Dit?{{delay3}} Dat weet ik zelf ook niet goed...{{pageBreak}}{{color id=\"2\"}}{{fun_0003_0001 arg=\"0x0000\"}}{{color id=\"65535\"}}Maar ik heb gezien dat het {{color id=\"2\"}}hoofd {{color id=\"65535\"}}van het\n{{color id=\"2\"}}Hateno-instituut{{color id=\"65535\"}}{{delay1}} het aanstak met de\n{{color id=\"2\"}}blauwe vlam{{color id=\"65535\"}}.",
      "EUru": "{{fun_0003_0001 arg=\"0x0B00\"}}Вот это?{{delay1}} Да я сам не знаю...{{pageBreak}}{{fun_0003_0001 arg=\"0x0000\"}}{{color id=\"2\"}}Светильник {{color id=\"65535\"}}какой-то.{{delay1}} Я раньше\nвидел, как {{color id=\"2\"}}профессор института{{color id=\"65535\"}}\nзажигает в нем {{color id=\"2\"}}синий огонь{{color id=\"65535\"}}.",
      "JPja": "{{fun_0003_0001 arg=\"0x0B00\"}}これかい？{{delay3}}\n{{ruby charSpan=\"1\" value=\"ぼく\"}}僕も よく{{ruby charSpan=\"1\" value=\"し\"}}知らないんだけど…\n{{color id=\"2\"}}{{fun_0003_0001 arg=\"0x0000\"}}ハテノ{{ruby charSpan=\"5\" value=\"こだいけんきゅうじょ\"}}古代研究所{{color id=\"65535\"}}の {{color id=\"2\"}}{{ruby charSpan=\"2\" value=\"しょちょう\"}}所長さん{{color id=\"65535\"}}が{{delay1}}\n{{color id=\"2\"}}{{ruby charSpan=\"1\" value=\"あお\"}}青い{{ruby charSpan=\"1\" value=\"ほのお\"}}炎{{color id=\"65535\"}}を{{ruby charSpan=\"1\" value=\"とも\"}}灯しているのを {{ruby charSpan=\"1\" value=\"み\"}}見た{{ruby charSpan=\"1\" value=\"こと\"}}事があるよ",
      "KRko": "{{fun_0003_0001 arg=\"0x0B00\"}}이거?{{delay3}}\n나도 잘은 모르지만…\n{{color id=\"2\"}}{{fun_0003_0001 arg=\"0x0000\"}}하테노 고대 연구소 소장님{{color id=\"65535\"}}이{{delay1}}\n{{color id=\"2\"}}푸른 불꽃{{color id=\"65535\"}}을 밝히는 걸 본 적이 있어",
      "TWzh": "{{fun_0003_0001 arg=\"0x0B00\"}}你問這個嗎？{{delay3}}\n我也不太清楚……\n但我曾經看過{{color id=\"2\"}}{{fun_0003_0001 arg=\"0x0000\"}}哈特諾古代研究所{{color id=\"65535\"}}的{{color id=\"2\"}}所長{{color id=\"65535\"}}{{delay1}}\n點上{{color id=\"2\"}}藍色火焰{{color id=\"65535\"}}喔。",
      "USen": "{{fun_0003_0001 arg=\"0x0B00\"}}This?{{delay3}} Good question. I'm not quite\nsure myself.{{pageBreak}}{{color id=\"2\"}}{{fun_0003_0001 arg=\"0x0000\"}}{{color id=\"65535\"}}But apparently the director at the\n{{color id=\"2\"}}Hateno Ancient Tech Lab {{color id=\"65535\"}}lights it\nwith a {{color id=\"2\"}}blue flame{{color id=\"65535\"}}.",
      "USes": "{{fun_0003_0001 arg=\"0x0B00\"}}¿Esto?{{delay3}} Pues la verdad es que\nno estoy muy seguro...{{pageBreak}}{{fun_0003_0001 arg=\"0x0000\"}}Un día vi a la directora del {{color id=\"2\"}}laboratorio{{color id=\"65535\"}}\nencenderlo con una {{color id=\"2\"}}llama azul{{color id=\"65535\"}}.",
      "USfr": "{{fun_0003_0001 arg=\"0x0B00\"}}Ça?{{delay3}} Je sais pas exactement, à vrai dire.\n\n\n{{fun_0003_0001 arg=\"0x0000\"}}Mais j'ai déjà vu la chef du {{color id=\"2\"}}laboratoire{{color id=\"65535\"}}\nantique l'allumer avec sa {{color id=\"2\"}}flamme bleue{{color id=\"65535\"}}."
    }
  },
  {
    "label": "talk16",
    "attribute": "0xE2030000",
    "locale": {
      "CNzh": "要去{{color id=\"2\"}}{{fun_0003_0001 arg=\"0x0000\"}}哈特诺古代研究所{{color id=\"65535\"}}的话，{{delay1}}\n只要沿着这条坡道走，再爬上小山丘就是了。\n烟囱总会冒烟的那里就是研究所了。\n\n不过那里只有奇怪的{{color id=\"0\"}}老爷爷和老婆婆{{color id=\"65535\"}}在，{{delay1}}\n除了小孩之外，谁都不会靠近呢。",
      "EUde": "{{fun_0003_0001 arg=\"0x0000\"}}Das {{color id=\"2\"}}Hateno-Institut{{color id=\"65535\"}} liegt ganz oben auf\ndiesem Hügel, und dort noch mal auf\neinem kleinen Hügel.\nMan erkennt es auch daran, dass dort\ndauernd Rauch aufsteigt.{{pageBreak}}Dort leben nur zwei sonderliche {{color id=\"0\"}}Alte{{color id=\"65535\"}},\ndeshalb wagt sich außer den Kindern\nniemand dorthin.",
      "EUen": "{{color id=\"2\"}}{{fun_0003_0001 arg=\"0x0000\"}}{{color id=\"65535\"}}The Hateno Ancient Tech Lab is at the\ntop of this hill. {{delay1}}Mark the smoke pouring\nfrom the chimney, and you'll find it.\nNobody lives there but a weird {{color id=\"0\"}}old man\nand a strange old lady{{color id=\"65535\"}}. {{delay1}}Only the kids in\ntown are foolish enough to go near it.",
      "EUes": "{{fun_0003_0001 arg=\"0x0000\"}}El {{color id=\"2\"}}laboratorio de Hatelia{{color id=\"65535\"}} está subiendo\npor ahí, en la cima de la colina más\nalta del pueblo.\nLo encontrarás sin falta porque\nes un edificio del que sale humo\nconstantemente.\nAllí solo viven {{color id=\"0\"}}una pareja de ancianos{{color id=\"65535\"}}\nmuy peculiares,{{delay1}} así que nadie se acerca.\nMenos los niños, claro.",
      "EUfr": "{{fun_0003_0001 arg=\"0x0000\"}}Le {{color id=\"2\"}}laboratoire antique d'Elimith {{color id=\"65535\"}}est\nperché sur la plus haute colline du\nvillage.{{delay1}}\nC'est facile à repérer, il y a toujours de\nla fumée qui sort de la cheminée.\n\nC'est habité par {{color id=\"0\"}}un vieil homme et une\nvieille femme{{color id=\"65535\"}} un peu bizarres.{{delay1}} Y a que\nles gamins qui vont jouer de ce côté-là.",
      "EUit": "{{fun_0003_0001 arg=\"0x0000\"}}Se cerchi il {{color id=\"2\"}}centro di ricerca di Finterra{{color id=\"65535\"}},{{delay1}}\nsali in cima a questa collina e poi ancora\npiù su lungo un'altra salita.\nLo riconosci dal comignolo che fuma.\n\n\nCi vive una strana {{color id=\"0\"}}coppia di anziani {{color id=\"65535\"}}e{{delay1}}\nnon ci va mai nessuno, a parte i bambini.",
      "EUnl": "{{color id=\"2\"}}{{fun_0003_0001 arg=\"0x0000\"}}{{color id=\"65535\"}}Het Hateno-instituut{{color id=\"2\"}} {{color id=\"65535\"}}ligt hoog op deze\nhelling. Er komt de hele tijd rook uit de\nschoorsteen...\nEr wonen daar alleen een {{color id=\"0\"}}oude man en\nvrouw{{color id=\"65535\"}}, en alleen kinderen durven er in de\nbuurt te komen.",
      "EUru": "{{fun_0003_0001 arg=\"0x0000\"}}Насчет института...{{pageBreak}}Если хочешь туда попасть, поднимись\nна этот холм. Видишь, откуда дым\nидет?{{pageBreak}}В институте живут только {{color id=\"0\"}}старичок\nсо старушкой{{color id=\"65535\"}}.{{delay1}} Необычное место.{{pageBreak}}Никто из местных туда не ходит.{{delay1}}\nТолько детишки вокруг шастают.",
      "JPja": "{{color id=\"2\"}}{{fun_0003_0001 arg=\"0x0000\"}}ハテノ{{ruby charSpan=\"5\" value=\"こだいけんきゅうじょ\"}}古代研究所{{color id=\"65535\"}}なら この{{ruby charSpan=\"1\" value=\"さか\"}}坂をずっと{{ruby charSpan=\"1\" value=\"のぼ\"}}上って{{delay1}}\nさらに{{ruby charSpan=\"2\" value=\"こだか\"}}小高い{{ruby charSpan=\"1\" value=\"おか\"}}丘の{{ruby charSpan=\"1\" value=\"うえ\"}}上さ\n{{ruby charSpan=\"2\" value=\"えんとつ\"}}煙突から{{ruby charSpan=\"1\" value=\"つね\"}}常に{{ruby charSpan=\"1\" value=\"けむり\"}}煙が{{ruby charSpan=\"1\" value=\"で\"}}出てる あそこだよ\n\n{{ruby charSpan=\"1\" value=\"か\"}}変わり{{ruby charSpan=\"1\" value=\"もの\"}}者の{{color id=\"0\"}}{{ruby charSpan=\"1\" value=\"じい\"}}爺さん{{ruby charSpan=\"1\" value=\"ばあ\"}}婆さん{{color id=\"65535\"}}しかいないから{{delay1}}\n{{ruby charSpan=\"4\" value=\"こどもいがい\"}}子供以外は {{ruby charSpan=\"1\" value=\"だれ\"}}誰も{{ruby charSpan=\"1\" value=\"ちか\"}}近づかないけどね",
      "KRko": "{{color id=\"2\"}}{{fun_0003_0001 arg=\"0x0000\"}}하테노 고대 연구소{{color id=\"65535\"}}는 이 언덕을 쭉 올라가서{{delay1}}\n또 완만한 구릉이 나오면 그 위에 있지\n굴뚝에서 항상 연기가 나오는 그곳이야\n\n특이한 {{color id=\"0\"}}할아버지{{color id=\"65535\"}}, {{color id=\"0\"}}할머니{{color id=\"65535\"}}밖에 없으니{{delay1}}\n어린 아이들 말고는 잘 안 가",
      "TWzh": "要去{{color id=\"2\"}}{{fun_0003_0001 arg=\"0x0000\"}}哈特諾古代研究所{{color id=\"65535\"}}，只要一直爬上這條坡道，{{delay1}}\n再爬上小山丘就是了，\n就是煙囪總會冒煙的那裡喔。\n\n不過那裡只有奇怪的{{color id=\"0\"}}爺爺和婆婆{{color id=\"65535\"}}在，{{delay1}}\n所以除了小孩之外，誰都不會靠近呢。",
      "USen": "{{color id=\"2\"}}{{fun_0003_0001 arg=\"0x0000\"}}{{color id=\"65535\"}}The Hateno Ancient Tech Lab is at the\ntop of this hill. {{delay1}}Mark the smoke pouring\nfrom the chimney, and you'll find it.\nNobody lives there but a weird {{color id=\"0\"}}old man\nand a strange old lady{{color id=\"65535\"}}. {{delay1}}Only the kids in\ntown are foolish enough to go near it.",
      "USes": "{{fun_0003_0001 arg=\"0x0000\"}}El {{color id=\"2\"}}laboratorio de Hatelia{{color id=\"65535\"}} está subiendo\npor ahí, en la cima de la colina más\nalta del pueblo.\nLo encontrarás sin fallo porque\nes un edificio del que sale humo\nconstantemente.\nAllí solo viven {{color id=\"0\"}}una pareja de ancianos{{color id=\"65535\"}}\nmuy peculiares,{{delay1}} así que nadie se acerca.\nMenos los niños, claro.",
      "USfr": "{{fun_0003_0001 arg=\"0x0000\"}}Le {{color id=\"2\"}}laboratoire antique d'Elimith {{color id=\"65535\"}}est\nperché sur la plus haute colline du\nvillage.{{delay1}}\nC'est facile à repérer, il y a toujours de\nla fumée qui sort de la cheminée.\n\nC'est habité par {{color id=\"0\"}}un vieil homme et une\nvieille femme{{color id=\"65535\"}} un peu bizarres.{{delay1}} Y'a que\nles enfants qui vont jouer de ce côté-là."
    }
  },
  {
    "label": "talk17",
    "attribute": "0x0C040000",
    "locale": {
      "CNzh": "{{fun_0003_0001 arg=\"0x0001\"}}如你所见，现在正轮到我看守风车。{{delay1}}\n我是和爱妻一起轮值的。\n……啊，{{delay1}}我的爱妻现在不在这里。{{delay1}}\n我的意思是……爱妻跟我会交互轮班。\n因为我对她的爱实在太过强烈了，{{delay1}}\n所以我们才用轮班制以减少碰面的时间。",
      "EUde": "{{fun_0003_0001 arg=\"0x0001\"}}Genau das, wonach es aussieht – ich\npasse auf die Windmühlen auf.{{delay1}} Also,\nzusammen mit meiner Liebsten.\nZusammen... {{delay1}}aber nicht gleichzeitig.{{delay1}}\nVerstehst du?{{delay1}} Wir arbeiten sozusagen\nin Schichten.\nUnsere Liebe ist so stark, dass wir uns\nnicht ständig sehen müssen, sondern\nabwechselnd arbeiten können.",
      "EUen": "{{fun_0003_0001 arg=\"0x0001\"}}What's it look like? {{delay1}}I'm keeping watch\nover the windmills. {{delay1}}My devoted wife and\nI stand guard day and night.\nShe's not here right now, I mean. {{delay1}}It's\nmore of a...time-sharing sort of thing.{{pageBreak}}My love for her is so powerful that she\nsuggested we take shifts.{{delay1}} That way it\nfeels more special when we're together!",
      "EUes": "{{fun_0003_0001 arg=\"0x0001\"}}¿No lo ves? {{delay1}}Monto guardia.\nMi adorada esposa y yo somos\nlos encargados de los molinos de viento.\nAhora ella no está aquí porque\nacordamos trabajar por turnos.{{pageBreak}}Nuestro amor es tan intenso que\ntuvimos que reducir el tiempo que\npasamos juntos.",
      "EUfr": "{{fun_0003_0001 arg=\"0x0001\"}}Moi ?{{delay1}} Je garde ces moulins à vent,\ncomme tu le vois ! Avec ma tendre\népouse, bien entendu.\nEnfin... {{delay1}}Ça ne veut pas dire qu'elle est là.\n{{delay1}}Je veux dire qu'on garde les moulins à\ntour de rôle !\nOn s'aime trop, alors on a eu l'idée de\nce système pour ne pas laisser notre\namour nous étouffer...",
      "EUit": "{{fun_0003_0001 arg=\"0x0001\"}}Io? {{delay1}}Non vedi? Sono qui che faccio\nla guardia ai mulini a vento.\nCe ne occupiamo io e mia moglie.\nAh... No, la mia adorata consorte non\nè qui.{{delay1}} Facciamo i turni.{{pageBreak}}Il nostro legame è così forte che,\nanche se ci vediamo di meno a causa\ndel lavoro, ci amiamo allo stesso modo.",
      "EUnl": "{{fun_0003_0001 arg=\"0x0001\"}}Zoals je ziet, houd ik de windmolens in\nde gaten.{{delay1}} Samen met mijn lieve vrouw.{{pageBreak}}Eh... {{delay1}}Ik bedoel niet dat mijn vrouw hier\nis.{{delay1}} We wisselen elkaar steeds af, zodat\nwe elkaar niet te vaak zien.\nMijn liefde voor haar is namelijk zo\nintens, dat onze relatie oververhit zou\nraken als we te vaak bij elkaar zijn.",
      "EUru": "{{fun_0003_0001 arg=\"0x0001\"}}Я слежу за мельницами.{{delay1}} Мы вместе\nс женой работаем, но по очереди.{{pageBreak}}Это она предложила работать\nпосменно!{{delay1}} Очень меня любит...",
      "JPja": "{{fun_0003_0001 arg=\"0x0001\"}}ごらんの{{ruby charSpan=\"1\" value=\"とお\"}}通り {{ruby charSpan=\"2\" value=\"ふうしゃ\"}}風車の{{ruby charSpan=\"1\" value=\"ばん\"}}番をしているんだ{{delay1}}\n{{ruby charSpan=\"1\" value=\"あい\"}}愛する{{ruby charSpan=\"1\" value=\"つま\"}}妻と{{ruby charSpan=\"2\" value=\"ふたり\"}}二人でね\n…あ {{delay1}}{{ruby charSpan=\"1\" value=\"あい\"}}愛する{{ruby charSpan=\"1\" value=\"つま\"}}妻は{{ruby charSpan=\"1\" value=\"いま\"}}今 ここにはいないよ{{delay1}}\n{{ruby charSpan=\"1\" value=\"あい\"}}愛する{{ruby charSpan=\"1\" value=\"つま\"}}妻と{{ruby charSpan=\"2\" value=\"こうたい\"}}交代で… っていう{{ruby charSpan=\"2\" value=\"いみ\"}}意味なんだ\nあまりに{{ruby charSpan=\"1\" value=\"ぼく\"}}僕の{{ruby charSpan=\"1\" value=\"あい\"}}愛が{{ruby charSpan=\"1\" value=\"つよ\"}}強すぎるから{{delay1}}\n{{ruby charSpan=\"3\" value=\"こうたいせい\"}}交代制にして {{ruby charSpan=\"1\" value=\"あ\"}}会う{{ruby charSpan=\"2\" value=\"じかん\"}}時間を{{ruby charSpan=\"1\" value=\"すく\"}}少なくしてるんだよ",
      "KRko": "{{fun_0003_0001 arg=\"0x0001\"}}보다시피 풍차를 지키고 있지{{delay1}}\n사랑하는 아내와 둘이서\n…아, {{delay1}}사랑하는 아내는 여기 없어{{delay1}}\n사랑하는 아내와 교대로… 라는 의미야\n아내에 대한 내 사랑이 너무 강해서{{delay1}}\n교대제를 도입해 만날 시간을 줄인 거야",
      "TWzh": "{{fun_0003_0001 arg=\"0x0001\"}}如你所見，現在正輪到我看守風車。{{delay1}}\n我是和愛妻一起輪值的。\n……啊，{{delay1}}我的愛妻現在不在這裡喔。{{delay1}}\n我的意思是……愛妻跟我會交互輪班。\n因為我對她的愛實在太強烈了，{{delay1}}\n所以我們才用輪班制，減少碰面的時間喔。",
      "USen": "{{fun_0003_0001 arg=\"0x0001\"}}What's it look like? {{delay1}}I'm keeping watch\nover the windmills. {{delay1}}My devoted wife and\nI stand guard day and night.\nShe's not here right now, I mean. {{delay1}}It's\nmore of a...time-sharing sort of thing.{{pageBreak}}My love for her is so powerful that she\nsuggested we take shifts.{{delay1}} That way it\nfeels more special when we're together!",
      "USes": "{{fun_0003_0001 arg=\"0x0001\"}}¿No lo ves? {{delay1}}Estoy de guardia.\nMi adorada esposa y yo somos\nlos encargados de los molinos de viento.\nAhora ella no está aquí porque\nacordamos trabajar por turnos.{{pageBreak}}Nuestro amor es tan intenso que\ntuvimos que reducir el tiempo que\npasamos juntos.",
      "USfr": "{{fun_0003_0001 arg=\"0x0001\"}}Moi?{{delay1}} Je garde ces moulins à vent,\ncomme tu le vois! Avec ma tendre\népouse, bien entendu.\nEnfin... {{delay1}}Ça ne veut pas dire qu'elle est là.\n{{delay1}}Je veux dire qu'on garde les moulins à\ntour de rôle!\nOn s'aime trop, alors on a eu l'idée de\nce système pour ne pas laisser notre\namour nous étouffer..."
    }
  },
  {
    "label": "talk18",
    "attribute": "0x36040000",
    "locale": {
      "CNzh": "{{fun_0003_0001 arg=\"0x0001\"}}现在正轮到我看守风车。\n\n如果风车不以同样速度转动的话，{{delay1}}\n磨出来的粉就会粗细不一。",
      "EUde": "{{fun_0003_0001 arg=\"0x0001\"}}Ich passe auf die Windmühlen auf.{{pageBreak}}Wenn die Räder sich nicht mit\ngleichmäßiger Geschwindigkeit drehen,\nwird das Mehl zu grob oder zu fein.",
      "EUen": "{{fun_0003_0001 arg=\"0x0001\"}}I'm watching the windmills. {{delay1}}They have\nto maintain a steady speed or the\nconsistency of the flour will be off.",
      "EUes": "{{fun_0003_0001 arg=\"0x0001\"}}Estoy vigilando los molinos.{{pageBreak}}Siempre tienen que girar a la misma\nvelocidad para que la consistencia\nde la harina no varíe.",
      "EUfr": "{{fun_0003_0001 arg=\"0x0001\"}}Je surveille les moulins.\n\n\nIl faut que le grain soit moulu à vitesse\nconstante pour que la farine soit bien\nhomogène.",
      "EUit": "{{fun_0003_0001 arg=\"0x0001\"}}Sto facendo il mio turno di sorveglianza\nai mulini a vento.\n\nÈ importante che i mulini lavorino il\ngrano a velocità costante,{{delay1}} altrimenti\nla farina avrà una consistenza irregolare.",
      "EUnl": "{{fun_0003_0001 arg=\"0x0001\"}}Ik let op de windmolens.{{pageBreak}}De windmolens moeten het graan altijd\nop dezelfde snelheid malen,{{delay1}} anders is\nhet meel niet telkens even fijn.",
      "EUru": "{{fun_0003_0001 arg=\"0x0001\"}}Я слежу за мельницами.{{pageBreak}}Если они будут вращаться слишком\nбыстро или слишком медленно, мука\nполучится плохая.",
      "JPja": "{{fun_0003_0001 arg=\"0x0001\"}}{{ruby charSpan=\"2\" value=\"ふうしゃ\"}}風車の{{ruby charSpan=\"1\" value=\"ばん\"}}番を してるんだよ\n\n{{ruby charSpan=\"2\" value=\"ふうしゃ\"}}風車が{{ruby charSpan=\"1\" value=\"おな\"}}同じスピードで {{ruby charSpan=\"1\" value=\"まわ\"}}回ってくれないと{{delay1}}\n{{ruby charSpan=\"1\" value=\"こな\"}}粉のひき{{ruby charSpan=\"2\" value=\"ぐあい\"}}具合に ムラができるからね",
      "KRko": "{{fun_0003_0001 arg=\"0x0001\"}}풍차를 지키고 있어\n풍차가 일정한 속도로 돌아가지 않으면{{delay1}}\n곡식을 빻을 때 편차가 생기거든",
      "TWzh": "{{fun_0003_0001 arg=\"0x0001\"}}現在正輪到我看守風車。\n\n如果風車不以同樣速度轉動的話，{{delay1}}\n磨出來的粉就會粗細不一嘛。",
      "USen": "{{fun_0003_0001 arg=\"0x0001\"}}I'm watching the windmills. {{delay1}}They have\nto maintain a steady speed or the\nconsistency of the flour will be off.",
      "USes": "{{fun_0003_0001 arg=\"0x0001\"}}Estoy vigilando los molinos.{{pageBreak}}Siempre tienen que girar a la misma\nvelocidad para que la consistencia\nde la harina no varíe.",
      "USfr": "{{fun_0003_0001 arg=\"0x0001\"}}Je surveille les moulins.\n\n\nIl faut que le grain soit moulu à vitesse\nconstante pour que la farine soit bien\nhomogène."
    }
  },
  {
    "label": "talk19",
    "attribute": "0x60040000",
    "locale": {
      "CNzh": "{{fun_0003_0001 arg=\"0x0001\"}}以前我曾看到{{color id=\"2\"}}哈特诺古代研究所{{color id=\"65535\"}}的{{color id=\"2\"}}所长{{color id=\"65535\"}}{{delay1}}\n点上{{color id=\"2\"}}蓝色火焰{{color id=\"65535\"}}，\n{{fun_0003_0001 arg=\"0x0010\"}}至于为什么要点火……{{delay1}}\n无论是谁去问，所长好像都不肯说呢。",
      "EUde": "{{fun_0003_0001 arg=\"0x0001\"}}Ich hab mal gesehen, wie die Leute vom\n{{color id=\"2\"}}Hateno-Institut{{color id=\"65535\"}} hier ihre {{color id=\"2\"}}blaue Flamme{{color id=\"65535\"}}\nangezündet haben.\n{{fun_0003_0001 arg=\"0x0010\"}}Was die mit dieser Flamme dann machen,\ndas weiß aber niemand!",
      "EUen": "{{fun_0003_0001 arg=\"0x0001\"}}I saw the {{color id=\"2\"}}Hateno Ancient Tech Lab\ndirector {{color id=\"65535\"}}lighting the {{color id=\"2\"}}blue flame {{color id=\"65535\"}}long\nago, {{fun_0003_0001 arg=\"0x0010\"}}but I never found out why.\nShe never was one for explaining herself\nto ordinary folks.",
      "EUes": "{{fun_0003_0001 arg=\"0x0001\"}}La jefa del {{color id=\"2\"}}laboratorio de Hatelia{{color id=\"65535\"}}\nencendía estos candelabros con\nuna {{color id=\"2\"}}llama azul{{color id=\"65535\"}}.\n{{fun_0003_0001 arg=\"0x0010\"}}Nunca descubrí por qué razón,\ny dudo que nadie aquí lo sepa.",
      "EUfr": "{{fun_0003_0001 arg=\"0x0001\"}}J'ai vu le {{color id=\"2\"}}chef du laboratoire antique{{color id=\"65535\"}}{{delay1}}\nl'allumer avec sa {{color id=\"2\"}}flamme bleue{{color id=\"65535\"}}, il y a\nlongtemps.\n{{fun_0003_0001 arg=\"0x0010\"}}Quant à savoir pourquoi...{{delay1}} le {{color id=\"2\"}}chef{{color id=\"65535\"}} n'a\njamais voulu le dire à personne !",
      "EUit": "{{fun_0003_0001 arg=\"0x0001\"}}Tempo fa ho visto quelli del {{color id=\"2\"}}centro di\nricerca di Finterra{{color id=\"65535\"}}{{delay1}} che accendevano\nla {{color id=\"2\"}}fiamma blu{{color id=\"65535\"}}.\n{{fun_0003_0001 arg=\"0x0010\"}}Ma non ne ho mai capito il motivo,{{delay1}}\ne credo che loro non l'abbiano\nmai detto a nessuno.",
      "EUnl": "{{fun_0003_0001 arg=\"0x0001\"}}Ik heb lang geleden eens gezien dat het\n{{color id=\"2\"}}hoofd {{color id=\"65535\"}}van het {{color id=\"2\"}}Hateno-instituut{{color id=\"65535\"}}{{delay1}} de\nlantaarn aanstak met de {{color id=\"2\"}}blauwe vlam{{color id=\"65535\"}}.\n{{fun_0003_0001 arg=\"0x0010\"}}Maar ik weet niet waarom{{delay1}} en ik denk niet\ndat het hoofd er iemand over heeft\nverteld.",
      "EUru": "{{fun_0003_0001 arg=\"0x0001\"}}Я раньше видел, как {{color id=\"2\"}}профессор\nинститута{{color id=\"65535\"}} зажигает в этой штуке\n{{color id=\"2\"}}синий огонь{{color id=\"65535\"}}.{{pageBreak}}{{fun_0003_0001 arg=\"0x0010\"}}Но зачем — не знаю.{{delay1}}\nИ, по-моему, никто не знает.",
      "JPja": "{{fun_0003_0001 arg=\"0x0001\"}}{{ruby charSpan=\"1\" value=\"むかし\"}}昔 {{color id=\"2\"}}ハテノ{{ruby charSpan=\"5\" value=\"こだいけんきゅうじょ\"}}古代研究所{{color id=\"65535\"}}の{{color id=\"2\"}}{{ruby charSpan=\"2\" value=\"しょちょう\"}}所長さん{{color id=\"65535\"}}が{{delay1}}\n{{color id=\"2\"}}{{ruby charSpan=\"1\" value=\"あお\"}}青い{{ruby charSpan=\"1\" value=\"ほのお\"}}炎{{color id=\"65535\"}}を{{ruby charSpan=\"1\" value=\"とも\"}}灯しているのを {{ruby charSpan=\"1\" value=\"み\"}}見た{{ruby charSpan=\"1\" value=\"こと\"}}事があるけど\n{{fun_0003_0001 arg=\"0x0010\"}}なぜ {{ruby charSpan=\"1\" value=\"ひ\"}}火をつけてるか…{{delay1}}\n{{ruby charSpan=\"1\" value=\"だれ\"}}誰が{{ruby charSpan=\"1\" value=\"き\"}}聞いても {{ruby charSpan=\"1\" value=\"おし\"}}教えてくれなかったそうだよ",
      "KRko": "{{fun_0003_0001 arg=\"0x0001\"}}예전에 {{color id=\"2\"}}하테노 고대 연구소 소장님{{color id=\"65535\"}}이{{delay1}}\n{{color id=\"2\"}}푸른 불꽃{{color id=\"65535\"}}을 붙이는 걸 본 적이 있는데\n{{fun_0003_0001 arg=\"0x0010\"}}왜 불을 붙이는지…{{delay1}}\n누가 물어봐도 안 가르쳐줬다고 하더군",
      "TWzh": "{{fun_0003_0001 arg=\"0x0001\"}}以前我曾看過{{color id=\"2\"}}哈特諾古代研究所{{color id=\"65535\"}}的{{color id=\"2\"}}所長{{color id=\"65535\"}}{{delay1}}\n點上{{color id=\"2\"}}藍色火焰{{color id=\"65535\"}}，\n{{fun_0003_0001 arg=\"0x0010\"}}至於為什麼要點火……{{delay1}}\n無論是誰去問，所長好像都不肯說呢。",
      "USen": "{{fun_0003_0001 arg=\"0x0001\"}}I saw the {{color id=\"2\"}}Hateno Ancient Tech Lab\ndirector {{color id=\"65535\"}}lighting the {{color id=\"2\"}}blue flame {{color id=\"65535\"}}long\nago, {{fun_0003_0001 arg=\"0x0010\"}}but I never found out why.\nShe never was one for explaining herself\nto ordinary folks.",
      "USes": "{{fun_0003_0001 arg=\"0x0001\"}}La directora del {{color id=\"2\"}}laboratorio de Hatelia{{color id=\"65535\"}}\nencendía estos candelabros con una\n{{color id=\"2\"}}llama azul{{color id=\"65535\"}}.\n{{fun_0003_0001 arg=\"0x0010\"}}Nunca descubrí por qué razón,\ny dudo que nadie aquí lo sepa.",
      "USfr": "{{fun_0003_0001 arg=\"0x0001\"}}J'ai vu le {{color id=\"2\"}}chef du laboratoire antique{{color id=\"65535\"}}{{delay1}}\nl'allumer avec sa {{color id=\"2\"}}flamme bleue{{color id=\"65535\"}}, il y a\nlongtemps.\n{{fun_0003_0001 arg=\"0x0010\"}}Quant à savoir pourquoi...{{delay1}} le {{color id=\"2\"}}chef{{color id=\"65535\"}} n'a\njamais voulu le dire à personne!"
    }
  },
  {
    "label": "talk20",
    "attribute": "0x8A040000",
    "locale": {
      "CNzh": "{{fun_0003_0001 arg=\"0x0009\"}}好好好，小偷先生。\n\n顺带一提，我身上{{delay1}}\n几乎没什么好偷的呢。\n真要说的话，{{delay1}}大概也就只有\n我对妻子绵绵不尽的爱意吧。",
      "EUde": "{{fun_0003_0001 arg=\"0x0009\"}}Ja, ja... Der Herr Einbrecher.{{pageBreak}}Bei uns gibt's übrigens absolut gar\nnichts zu holen.{{pageBreak}}Und wenn doch, wäre das nur die\nunbändige Liebe zwischen meiner\nFrau und mir!",
      "EUen": "{{fun_0003_0001 arg=\"0x0009\"}}Sure, robber man, sure. {{delay1}}You're wasting\nyour time here; we have nothing worth\nstealing.\nMy most valuable possession is my\nwife's boundless love for me.",
      "EUes": "{{fun_0003_0001 arg=\"0x0009\"}}Ah, el ladronzuelo.{{delay3}} Te aviso que,\nexcepto el amor que siento por mi mujer,\nno tenemos nada de valor aquí.",
      "EUfr": "{{fun_0003_0001 arg=\"0x0009\"}}Salut, monsieur le voleur.{{delay3}}\n\n\nJe te préviens, tu perds ton temps ici.\nIl n'y a rien d'intéressant à voler !\n\nEnfin... {{delay1}}Sauf peut-être l'amour démesuré\nque j'ai pour ma tendre épouse.",
      "EUit": "{{fun_0003_0001 arg=\"0x0009\"}}Certo, certo, signor Ladro!{{delay3}}\n\n\nPer tua informazione, qui non c'è {{delay1}}niente\nche valga la pena rubare.\n\nE se ci fosse, sarebbe solo tutto l'amore\ndi cui ricopro la mia mogliettina.",
      "EUnl": "{{fun_0003_0001 arg=\"0x0009\"}}Ja ja, meneer de dief.{{delay3}}{{pageBreak}}Als je maar weet dat er hier niets te\nhalen valt.{{pageBreak}}Het enige wat er ooit viel te stelen was\nmijn hart, maar daar is m'n vrouw al mee\naan de haal gegaan.",
      "EUru": "{{fun_0003_0001 arg=\"0x0009\"}}Да-да, товарищ грабитель, удачи.{{delay1}}\nБрать у меня все равно нечего.{{pageBreak}}Кроме переполняющей мое сердце\nлюбви к моей ненаглядной жене...",
      "JPja": "{{fun_0003_0001 arg=\"0x0009\"}}はいはい {{ruby charSpan=\"2\" value=\"どろぼう\"}}泥棒さん\n\nちなみに ウチには{{ruby charSpan=\"1\" value=\"ぬす\"}}盗むようなものは{{delay1}}\nほとんど{{ruby charSpan=\"1\" value=\"な\"}}無いからね\nあるとしてもそれは {{delay1}}{{ruby charSpan=\"1\" value=\"ぼく\"}}僕のこの{{ruby charSpan=\"1\" value=\"むね\"}}胸から\nあふれてこぼれた{{ruby charSpan=\"1\" value=\"つま\"}}妻への{{ruby charSpan=\"1\" value=\"あい\"}}愛だけさ",
      "KRko": "{{fun_0003_0001 arg=\"0x0009\"}}그래 그래, 도둑씨\n\n참고로 우리 집에는 훔쳐 갈만한 것이{{delay1}}\n거의 없어\n있다고 해도 그건{{delay1}} 내 이 가슴에서\n넘쳐나는 아내에 대한 사랑뿐일 거야",
      "TWzh": "{{fun_0003_0001 arg=\"0x0009\"}}好好好，小偷先生。\n\n順帶一提，我身上{{delay1}}\n幾乎沒什麼好偷的呢。\n真要說的話，{{delay1}}大概也就只有\n我對妻子多到滿出來的愛意吧。",
      "USen": "{{fun_0003_0001 arg=\"0x0009\"}}Sure, robber man, sure. {{delay1}}You're wasting\nyour time here; we have nothing worth\nstealing.\nMy most valuable possession is my\nwife's boundless love for me.",
      "USes": "{{fun_0003_0001 arg=\"0x0009\"}}Ah, un ladronzuelo.{{delay3}} Te aviso que,\nexcepto el amor que siento por mi mujer,\nno tenemos nada de valor aquí.",
      "USfr": "{{fun_0003_0001 arg=\"0x0009\"}}Salut, monsieur le voleur.{{delay3}}\n\n\nJe te préviens, tu perds ton temps ici.\nIl n'y a rien d'intéressant à voler!\n\nEnfin... {{delay1}}Sauf peut-être l'amour démesuré\nque j'ai pour ma tendre épouse."
    }
  },
  {
    "label": "talk21",
    "attribute": "0xB4040000",
    "locale": {
      "CNzh": "{{fun_0003_0001 arg=\"0x0B00\"}}就算你说你迷路了，{{delay1}}\n我也无法离开这里一步……\n{{fun_0003_0001 arg=\"0x0001\"}}不过，{{color id=\"2\"}}旅馆{{color id=\"65535\"}}倒是随时都开着，{{delay1}}\n总之你就过去看看吧。",
      "EUde": "{{fun_0003_0001 arg=\"0x0B00\"}}Verirrt oder nicht, ich kann hier leider\nnicht weg...{{pageBreak}}{{fun_0003_0001 arg=\"0x0001\"}}Aber das {{color id=\"2\"}}Gasthaus{{color id=\"65535\"}} hat immer geöffnet,\nalso geh doch einfach erst mal dorthin.",
      "EUen": "{{fun_0003_0001 arg=\"0x0B00\"}}Be that as it may, I'm in no position to\nshow you around. {{pageBreak}}{{fun_0003_0001 arg=\"0x0001\"}}But the {{color id=\"2\"}}inn{{color id=\"65535\"}} is always open. {{delay1}}You might\ntry them.",
      "EUes": "{{fun_0003_0001 arg=\"0x0B00\"}}Me encantaría ayudarte,{{delay1}} pero no puedo\nabandonar mi puesto.{{pageBreak}}{{fun_0003_0001 arg=\"0x0001\"}}Deberías ir a la {{color id=\"2\"}}posada{{color id=\"65535\"}},{{delay1}} está abierta\na todas horas.",
      "EUfr": "{{fun_0003_0001 arg=\"0x0B00\"}}Eh bien, c'est malheureux, mais je ne\npeux pas t'aider.{{delay1}} Impossible de quitter\nmon poste.\n{{fun_0003_0001 arg=\"0x0001\"}}Pourquoi tu ne vas pas demander ton\nchemin à l'{{color id=\"2\"}}auberge {{color id=\"65535\"}}?{{delay1}} Ils sont ouverts\ntoute la nuit.",
      "EUit": "{{fun_0003_0001 arg=\"0x0B00\"}}Ti sarai anche perso,{{delay1}} ma io da qui\nnon mi muovo!\n\n{{fun_0003_0001 arg=\"0x0001\"}}Perché non provi a passare dalla\n{{color id=\"2\"}}locanda{{color id=\"65535\"}}?{{delay1}} È sempre aperta.",
      "EUnl": "{{fun_0003_0001 arg=\"0x0B00\"}}Het spijt me dat je de weg kwijt bent,{{delay1}}\nmaar ik moet hier blijven...{{pageBreak}}{{fun_0003_0001 arg=\"0x0001\"}}De {{color id=\"2\"}}herberg{{color id=\"65535\"}} is dag en nacht geopend,{{delay1}}\ndus waarom ga je daar niet heen?",
      "EUru": "{{fun_0003_0001 arg=\"0x0B00\"}}Извини, ничем не могу помочь.{{delay1}}\nУ меня тут работа все-таки!{{pageBreak}}{{fun_0003_0001 arg=\"0x0001\"}}Лучше иди в {{color id=\"2\"}}гостиницу {{color id=\"65535\"}}—\nона открыта круглосуточно.",
      "JPja": "{{fun_0003_0001 arg=\"0x0B00\"}}{{ruby charSpan=\"2\" value=\"まいご\"}}迷子と{{ruby charSpan=\"1\" value=\"い\"}}言われても{{delay1}}\n{{ruby charSpan=\"1\" value=\"ぼく\"}}僕はここから {{ruby charSpan=\"1\" value=\"うご\"}}動けないしなぁ…\n{{fun_0003_0001 arg=\"0x0001\"}}{{color id=\"2\"}}{{ruby charSpan=\"2\" value=\"やどや\"}}宿屋{{color id=\"65535\"}}ならいつでも{{ruby charSpan=\"1\" value=\"あ\"}}開いてるから{{delay1}}\nとりあえず{{ruby charSpan=\"1\" value=\"い\"}}行ってみるといいよ",
      "KRko": "{{fun_0003_0001 arg=\"0x0B00\"}}네가 미아라고 해도{{delay1}}\n나는 여기를 떠날 수가 없어…\n{{fun_0003_0001 arg=\"0x0001\"}}{{color id=\"2\"}}여관{{color id=\"65535\"}}은 언제든 열려 있으니{{delay1}}\n일단 한번 가 봐",
      "TWzh": "{{fun_0003_0001 arg=\"0x0B00\"}}就算你說你迷路了，{{delay1}}\n我也無法離開這裡一步啊……\n{{fun_0003_0001 arg=\"0x0001\"}}不過，{{color id=\"2\"}}旅館{{color id=\"65535\"}}倒是隨時都開著，{{delay1}}\n總之你就過去看看吧。",
      "USen": "{{fun_0003_0001 arg=\"0x0B00\"}}Be that as it may, I'm in no position to\nshow you around. {{pageBreak}}{{fun_0003_0001 arg=\"0x0001\"}}But the {{color id=\"2\"}}inn{{color id=\"65535\"}} is always open. {{delay1}}You might\ntry them.",
      "USes": "{{fun_0003_0001 arg=\"0x0B00\"}}Me encantaría ayudarte,{{delay1}} pero no puedo\nabandonar mi puesto.{{pageBreak}}{{fun_0003_0001 arg=\"0x0001\"}}Deberías ir a la {{color id=\"2\"}}posada{{color id=\"65535\"}},{{delay1}} está abierta\na todas horas.",
      "USfr": "{{fun_0003_0001 arg=\"0x0B00\"}}Eh bien, c'est malheureux, mais je ne\npeux pas t'aider.{{delay1}} Impossible de quitter\nmon poste.\n{{fun_0003_0001 arg=\"0x0001\"}}Pourquoi tu ne vas pas demander ton\nchemin à l'{{color id=\"2\"}}auberge{{color id=\"65535\"}}?{{delay1}} Ils sont ouverts\ntoute la nuit."
    }
  },
  {
    "label": "talk22",
    "attribute": "0xDE040000",
    "locale": {
      "CNzh": "{{fun_0003_0001 arg=\"0x0001\"}}以前{{color id=\"2\"}}哈特诺古代研究所{{color id=\"65535\"}}的{{color id=\"2\"}}所长{{color id=\"65535\"}}{{delay1}}\n会逐个点亮路旁的{{color id=\"2\"}}烛台{{color id=\"65535\"}}呢。",
      "EUde": "{{fun_0003_0001 arg=\"0x0001\"}}Ich hab mal gesehen, wie die Leute vom\n{{color id=\"2\"}}Hateno-Institut{{color id=\"65535\"}} damit die {{color id=\"2\"}}Laternen{{color id=\"65535\"}} am\nWegesrand angezündet haben.",
      "EUen": "{{fun_0003_0001 arg=\"0x0001\"}}It was once a common sight to see the\n{{color id=\"2\"}}Hateno Ancient Tech Lab{{color id=\"65535\"}}{{delay1}}'s {{color id=\"2\"}}director {{color id=\"65535\"}}go\naround setting the {{color id=\"2\"}}lanterns{{color id=\"65535\"}} alight.",
      "EUes": "{{fun_0003_0001 arg=\"0x0001\"}}Antes{{delay1}} la {{color id=\"2\"}}jefa{{color id=\"65535\"}} del {{color id=\"2\"}}laboratorio {{color id=\"65535\"}}iba\nde un lado para otro encendiendo\nlos {{color id=\"2\"}}candelabros{{color id=\"65535\"}} que hay por el camino.",
      "EUfr": "{{fun_0003_0001 arg=\"0x0001\"}}À l'époque, c'était le {{color id=\"2\"}}chef {{color id=\"65535\"}}du {{color id=\"2\"}}laboratoire\nantique d'Elimith{{color id=\"65535\"}} {{delay1}}qui s'occupait d'allumer\nles {{color id=\"2\"}}lanternes {{color id=\"65535\"}}le long du chemin.",
      "EUit": "{{fun_0003_0001 arg=\"0x0001\"}}Prima erano quelli del\n{{color id=\"2\"}}centro di ricerca di Finterra{{color id=\"65535\"}}{{delay1}} ad\naccendere le {{color id=\"2\"}}lanterne {{color id=\"65535\"}}lungo la strada.",
      "EUnl": "{{fun_0003_0001 arg=\"0x0001\"}}In het verleden ging het {{color id=\"2\"}}hoofd {{color id=\"65535\"}}van het\n{{color id=\"2\"}}Hateno-instituut{{color id=\"65535\"}} rond om de {{color id=\"2\"}}lantaarns{{color id=\"65535\"}}\nlangs de weg aan te steken.",
      "EUru": "{{fun_0003_0001 arg=\"0x0001\"}}Когда-то его только {{color id=\"2\"}}профессору\nинститута{{color id=\"65535\"}} можно было брать...{{delay1}}\nи {{color id=\"2\"}}светильники {{color id=\"65535\"}}зажигать...",
      "JPja": "{{fun_0003_0001 arg=\"0x0001\"}}{{ruby charSpan=\"2\" value=\"いぜん\"}}以前は {{color id=\"2\"}}ハテノ{{ruby charSpan=\"5\" value=\"こだいけんきゅうじょ\"}}古代研究所{{color id=\"65535\"}}の{{color id=\"2\"}}{{ruby charSpan=\"2\" value=\"しょちょう\"}}所長さん{{color id=\"65535\"}}が{{delay1}}\n{{ruby charSpan=\"2\" value=\"みちばた\"}}道端の{{color id=\"2\"}}しょく{{ruby charSpan=\"1\" value=\"だい\"}}台{{color id=\"65535\"}}に つけて{{ruby charSpan=\"1\" value=\"まわ\"}}回ってたな",
      "KRko": "{{fun_0003_0001 arg=\"0x0001\"}}예전에는 {{color id=\"2\"}}하테노 고대 연구소 소장님{{color id=\"65535\"}}이{{delay1}}\n길가에 있는 {{color id=\"2\"}}촉대{{color id=\"65535\"}}에 붙이고 다니셨는데",
      "TWzh": "{{fun_0003_0001 arg=\"0x0001\"}}以前{{color id=\"2\"}}哈特諾古代研究所{{color id=\"65535\"}}的{{color id=\"2\"}}所長{{color id=\"65535\"}}{{delay1}}\n都會一個個點亮路旁的{{color id=\"2\"}}燭台{{color id=\"65535\"}}呢。",
      "USen": "{{fun_0003_0001 arg=\"0x0001\"}}It was once a common sight to see the\n{{color id=\"2\"}}Hateno Ancient Tech Lab{{color id=\"65535\"}}{{delay1}}'s {{color id=\"2\"}}director {{color id=\"65535\"}}go\naround setting the {{color id=\"2\"}}lanterns{{color id=\"65535\"}} alight.",
      "USes": "{{fun_0003_0001 arg=\"0x0001\"}}Antes{{delay1}} la {{color id=\"2\"}}directora{{color id=\"65535\"}} del {{color id=\"2\"}}laboratorio {{color id=\"65535\"}}iba\nde un lado para otro encendiendo\nlos {{color id=\"2\"}}candelabros{{color id=\"65535\"}} que hay por el camino.",
      "USfr": "{{fun_0003_0001 arg=\"0x0001\"}}À l'époque, c'était le {{color id=\"2\"}}chef {{color id=\"65535\"}}du {{color id=\"2\"}}laboratoire\nantique d'Elimith{{color id=\"65535\"}} {{delay1}}qui s'occupait d'allumer\nles {{color id=\"2\"}}lanternes {{color id=\"65535\"}}le long du chemin."
    }
  },
  {
    "label": "talk23",
    "attribute": "0x08050000",
    "locale": {
      "CNzh": "{{fun_0003_0001 arg=\"0x0001\"}}以前{{color id=\"2\"}}哈特诺古代研究所{{color id=\"65535\"}}的普尔亚女士{{delay1}}\n会逐个点亮路旁的{{color id=\"2\"}}烛台{{color id=\"65535\"}}呢。",
      "EUde": "{{fun_0003_0001 arg=\"0x0001\"}}Ich hab mal gesehen, wie Purah vom\n{{color id=\"2\"}}Hateno-Institut{{color id=\"65535\"}} damit die {{color id=\"2\"}}Laternen{{color id=\"65535\"}} am\nWegesrand angezündet hat.",
      "EUen": "{{fun_0003_0001 arg=\"0x0001\"}}It was once a common sight to see Ms.\nPurah of the {{color id=\"2\"}}Hateno Ancient Tech Lab{{color id=\"65535\"}}{{delay1}}{{color id=\"2\"}} {{color id=\"65535\"}}go\naround setting the {{color id=\"2\"}}lanterns{{color id=\"65535\"}} alight.",
      "EUes": "{{fun_0003_0001 arg=\"0x0001\"}}Prunia, la jefa del {{color id=\"2\"}}laboratorio{{color id=\"65535\"}},{{delay1}} antes\niba de un lado para otro encendiendo\nlos {{color id=\"2\"}}candelabros{{color id=\"65535\"}} que hay por el camino.",
      "EUfr": "{{fun_0003_0001 arg=\"0x0001\"}}À l'époque, c'était Pru'ha, le {{color id=\"2\"}}chef {{color id=\"65535\"}}du\n{{color id=\"2\"}}laboratoire antique d'Elimith{{color id=\"65535\"}},{{delay1}} qui allumait\nles {{color id=\"2\"}}lanternes {{color id=\"65535\"}}le long du chemin.",
      "EUit": "{{fun_0003_0001 arg=\"0x0001\"}}Prima era Pruna del\n{{color id=\"2\"}}centro di ricerca di Finterra{{color id=\"65535\"}}{{delay1}} ad\naccendere le {{color id=\"2\"}}lanterne {{color id=\"65535\"}}lungo la strada.",
      "EUnl": "{{fun_0003_0001 arg=\"0x0001\"}}In het verleden ging Purah, van het\n{{color id=\"2\"}}Hateno-instituut{{color id=\"65535\"}}, rond om de {{color id=\"2\"}}lantaarns{{color id=\"65535\"}}\nlangs de weg aan te steken.",
      "EUru": "{{fun_0003_0001 arg=\"0x0001\"}}Когда-то с ним бабушка Пура из\n{{color id=\"2\"}}института {{color id=\"65535\"}}ходила и зажигала\n{{color id=\"2\"}}светильники {{color id=\"65535\"}}вдоль дороги.",
      "JPja": "{{fun_0003_0001 arg=\"0x0001\"}}{{ruby charSpan=\"2\" value=\"いぜん\"}}以前は {{color id=\"2\"}}ハテノ{{ruby charSpan=\"5\" value=\"こだいけんきゅうじょ\"}}古代研究所{{color id=\"65535\"}}のプルアさんが{{delay1}}\n{{ruby charSpan=\"2\" value=\"みちばた\"}}道端の{{color id=\"2\"}}しょく{{ruby charSpan=\"1\" value=\"だい\"}}台{{color id=\"65535\"}}に つけて{{ruby charSpan=\"1\" value=\"まわ\"}}回ってたな",
      "KRko": "{{fun_0003_0001 arg=\"0x0001\"}}예전에는 {{color id=\"2\"}}하테노 고대 연구소 {{color id=\"65535\"}}프루아씨가{{delay1}}\n길가에 있는 {{color id=\"2\"}}촉대{{color id=\"65535\"}}에 붙이고 다니셨는데",
      "TWzh": "{{fun_0003_0001 arg=\"0x0001\"}}以前{{color id=\"2\"}}哈特諾古代研究所{{color id=\"65535\"}}的普爾亞女士{{delay1}}\n都會一個個點亮路旁的{{color id=\"2\"}}燭台{{color id=\"65535\"}}呢。",
      "USen": "{{fun_0003_0001 arg=\"0x0001\"}}It was once a common sight to see Ms.\nPurah of the {{color id=\"2\"}}Hateno Ancient Tech Lab{{color id=\"65535\"}}{{delay1}}{{color id=\"2\"}} {{color id=\"65535\"}}go\naround setting the {{color id=\"2\"}}lanterns{{color id=\"65535\"}} alight.",
      "USes": "{{fun_0003_0001 arg=\"0x0001\"}}Prunia, la jefa del {{color id=\"2\"}}laboratorio{{color id=\"65535\"}},{{delay1}} antes\niba de un lado para otro encendiendo\nlos {{color id=\"2\"}}candelabros{{color id=\"65535\"}} que hay por el camino.",
      "USfr": "{{fun_0003_0001 arg=\"0x0001\"}}À l'époque, c'était Pru'ha, le {{color id=\"2\"}}chef {{color id=\"65535\"}}du\n{{color id=\"2\"}}laboratoire antique d'Elimith{{color id=\"65535\"}},{{delay1}} qui allumait\nles {{color id=\"2\"}}lanternes {{color id=\"65535\"}}le long du chemin."
    }
  },
  {
    "label": "talk24",
    "attribute": "0x32050000",
    "locale": {
      "CNzh": "{{fun_0003_0001 arg=\"0x0B00\"}}{{color id=\"2\"}}哈特诺古代研究所{{color id=\"65535\"}}的{{color id=\"2\"}}所长{{color id=\"65535\"}}{{delay1}}\n应该也年事已高。",
      "EUde": "{{fun_0003_0001 arg=\"0x0B00\"}}Die Leute vom {{color id=\"2\"}}Hateno-Institut{{color id=\"65535\"}} müssen\nwohl mittlerweile sehr alt sein...",
      "EUen": "{{color id=\"2\"}}{{fun_0003_0001 arg=\"0x0B00\"}}{{color id=\"65535\"}}The {{color id=\"2\"}}Hateno Ancient Tech Lab{{color id=\"65535\"}}'s\ndirector has to be getting up there\nin years by now.",
      "EUes": "{{fun_0003_0001 arg=\"0x0B00\"}}Juraría que la jefa del {{color id=\"2\"}}laboratorio {{color id=\"65535\"}}está\nbastante mayor ya.",
      "EUfr": "{{fun_0003_0001 arg=\"0x0B00\"}}Vu l'âge du chef, assumer la\nresponsabilité du {{color id=\"2\"}}laboratoire{{color id=\"65535\"}}, c'est\ndéjà bien suffisant.",
      "EUit": "{{fun_0003_0001 arg=\"0x0B00\"}}Il {{color id=\"2\"}}centro di ricerca di Finterra{{color id=\"65535\"}} {{delay1}}\nè diretto da una persona piuttosto\nin là con gli anni.",
      "EUnl": "{{fun_0003_0001 arg=\"0x0B00\"}}Het hoofd van het {{color id=\"2\"}}Hateno-instituut{{color id=\"65535\"}}{{delay1}}\nis al best oud. Ik weet het zeker!",
      "EUru": "{{fun_0003_0001 arg=\"0x0B00\"}}{{color id=\"2\"}}Профессору Хатенского института{{color id=\"65535\"}}\nуже много лет.{{delay1}} Я это точно знаю.",
      "JPja": "{{fun_0003_0001 arg=\"0x0B00\"}}{{color id=\"2\"}}ハテノ{{ruby charSpan=\"5\" value=\"こだいけんきゅうじょ\"}}古代研究所{{color id=\"65535\"}}の {{color id=\"2\"}}{{ruby charSpan=\"2\" value=\"しょちょう\"}}所長さん{{color id=\"65535\"}}も{{delay1}}\nもう ご{{ruby charSpan=\"2\" value=\"こうれい\"}}高齢だろうから",
      "KRko": "{{fun_0003_0001 arg=\"0x0B00\"}}{{color id=\"2\"}}하테노 고대 연구소{{color id=\"65535\"}} {{color id=\"2\"}}소장님{{color id=\"65535\"}}도{{delay1}}\n나이를 꽤 드셨을 테니",
      "TWzh": "{{fun_0003_0001 arg=\"0x0B00\"}}現在{{color id=\"2\"}}哈特諾古代研究所{{color id=\"65535\"}}的{{color id=\"2\"}}所長{{color id=\"65535\"}}{{delay1}}\n年紀應該也大了吧。",
      "USen": "{{color id=\"2\"}}{{fun_0003_0001 arg=\"0x0B00\"}}{{color id=\"65535\"}}The {{color id=\"2\"}}Hateno Ancient Tech Lab{{color id=\"65535\"}}'s\ndirector has to be getting up there\nin years by now.",
      "USes": "{{fun_0003_0001 arg=\"0x0B00\"}}Juraría que la directora del {{color id=\"2\"}}laboratorio{{color id=\"65535\"}}\nestá bastante mayor ya.",
      "USfr": "{{fun_0003_0001 arg=\"0x0B00\"}}Vu l'âge du chef, assumer la\nresponsabilité du {{color id=\"2\"}}laboratoire{{color id=\"65535\"}}, c'est\ndéjà bien suffisant."
    }
  },
  {
    "label": "talk25",
    "attribute": "0x5C050000",
    "locale": {
      "CNzh": "{{fun_0003_0001 arg=\"0x0B00\"}}普尔亚女士应该也年事已高。",
      "EUde": "{{fun_0003_0001 arg=\"0x0B00\"}}Purah muss wohl in die Jahre gekommen\nsein...",
      "EUen": "{{fun_0003_0001 arg=\"0x0B00\"}}Ms. Purah has to be getting up there\nin years by now.",
      "EUes": "{{fun_0003_0001 arg=\"0x0B00\"}}Prunia tiene ya una edad, si no\nme equivoco.",
      "EUfr": "{{fun_0003_0001 arg=\"0x0B00\"}}Évidemment, à l'âge de Pru'ha, assumer\nla responsabilité du {{color id=\"2\"}}laboratoire{{color id=\"65535\"}}, c'est\ndéjà bien suffisant.",
      "EUit": "{{fun_0003_0001 arg=\"0x0B00\"}}Anche Pruna ormai ha una certa età.",
      "EUnl": "{{fun_0003_0001 arg=\"0x0B00\"}}Ik weet zeker dat Purah al best oud is.",
      "EUru": "{{fun_0003_0001 arg=\"0x0B00\"}}Бабушке Пуре из {{color id=\"2\"}}института {{color id=\"65535\"}}уже\nмного лет.{{delay1}} Я это точно знаю.",
      "JPja": "{{fun_0003_0001 arg=\"0x0B00\"}}プルアさんも もう ご{{ruby charSpan=\"2\" value=\"こうれい\"}}高齢だろうから",
      "KRko": "{{fun_0003_0001 arg=\"0x0B00\"}}프루아씨도 나이를 꽤 드셨을 테니",
      "TWzh": "{{fun_0003_0001 arg=\"0x0B00\"}}現在普爾亞女士的年紀應該也大了吧。",
      "USen": "{{fun_0003_0001 arg=\"0x0B00\"}}Ms. Purah has to be getting up there\nin years by now.",
      "USes": "{{fun_0003_0001 arg=\"0x0B00\"}}Prunia tiene ya una edad muy avanzada,\nsi no me equivoco.",
      "USfr": "{{fun_0003_0001 arg=\"0x0B00\"}}Évidemment, à l'âge de Pru'ha, assumer\nla responsabilité du {{color id=\"2\"}}laboratoire{{color id=\"65535\"}}, c'est\ndéjà bien suffisant."
    }
  },
  {
    "label": "talk26",
    "attribute": "0x86050000",
    "locale": {
      "CNzh": "{{fun_0003_0001 arg=\"0x0000\"}}嗨，迷路的人。",
      "EUde": "{{fun_0003_0001 arg=\"0x0000\"}}Hallo, Verirrter.",
      "EUen": "{{fun_0003_0001 arg=\"0x0000\"}}Well hello there, lost boy.",
      "EUes": "{{fun_0003_0001 arg=\"0x0000\"}}Ah, el chico que se pierde.",
      "EUfr": "{{fun_0003_0001 arg=\"0x0000\"}}Tiens, mais c'est le p'tit garçon perdu !",
      "EUit": "{{fun_0003_0001 arg=\"0x0000\"}}Ti sei perso?",
      "EUnl": "{{fun_0003_0001 arg=\"0x0000\"}}Hallo, verdwaalde man.",
      "EUru": "{{fun_0003_0001 arg=\"0x0000\"}}Привет, товарищ заблудившийся!",
      "JPja": "{{fun_0003_0001 arg=\"0x0000\"}}やぁ {{ruby charSpan=\"2\" value=\"まいご\"}}迷子さん",
      "KRko": "{{fun_0003_0001 arg=\"0x0000\"}}안녕, 미아씨",
      "TWzh": "{{fun_0003_0001 arg=\"0x0000\"}}嗨，迷路的人。",
      "USen": "{{fun_0003_0001 arg=\"0x0000\"}}Well hello there, lost boy.",
      "USes": "{{fun_0003_0001 arg=\"0x0000\"}}Hola. Tienes cara de perdido.",
      "USfr": "{{fun_0003_0001 arg=\"0x0000\"}}Tiens, mais c'est le p'tit garçon perdu!"
    }
  },
  {
    "label": "talk27",
    "attribute": "0xB0050000",
    "locale": {
      "CNzh": "{{fun_0003_0001 arg=\"0x0000\"}}嗨，小偷先生。",
      "EUde": "{{fun_0003_0001 arg=\"0x0000\"}}Hallo, Einbrecher.",
      "EUen": "{{fun_0003_0001 arg=\"0x0000\"}}Uh-oh, it's the robber man!{{delay1}} Hide your\njewels and heirlooms!",
      "EUes": "{{fun_0003_0001 arg=\"0x0000\"}}¿Qué pasa, ladronzuelo?",
      "EUfr": "{{fun_0003_0001 arg=\"0x0000\"}}Tiens, mais c'est notre jeune voleur !",
      "EUit": "{{fun_0003_0001 arg=\"0x0000\"}}Ciao, ladruncolo.",
      "EUnl": "{{fun_0003_0001 arg=\"0x0000\"}}Gegroet, rover.",
      "EUru": "{{fun_0003_0001 arg=\"0x0000\"}}Здорово, грабитель.",
      "JPja": "{{fun_0003_0001 arg=\"0x0000\"}}やぁ {{ruby charSpan=\"2\" value=\"どろぼう\"}}泥棒さん",
      "KRko": "{{fun_0003_0001 arg=\"0x0000\"}}안녕, 도둑씨",
      "TWzh": "{{fun_0003_0001 arg=\"0x0000\"}}嗨，小偷先生。",
      "USen": "{{fun_0003_0001 arg=\"0x0000\"}}Uh-oh, it's the robber man!{{delay1}} Hide your\njewels and heirlooms!",
      "USes": "{{fun_0003_0001 arg=\"0x0000\"}}¿Qué pasa, ladronzuelo?",
      "USfr": "{{fun_0003_0001 arg=\"0x0000\"}}Tiens, mais c'est notre jeune voleur!"
    }
  },
  {
    "label": "talk28",
    "attribute": "0xDA050000",
    "locale": {
      "CNzh": "{{fun_0003_0001 arg=\"0x0000\"}}嗨。",
      "EUde": "{{fun_0003_0001 arg=\"0x0000\"}}Hallo.",
      "EUen": "{{fun_0003_0001 arg=\"0x0000\"}}Hey there.",
      "EUes": "{{fun_0003_0001 arg=\"0x0000\"}}Buenas.",
      "EUfr": "{{fun_0003_0001 arg=\"0x0000\"}}Salut.",
      "EUit": "{{fun_0003_0001 arg=\"0x0000\"}}Ehi.",
      "EUnl": "{{fun_0003_0001 arg=\"0x0000\"}}Hé.",
      "EUru": "{{fun_0003_0001 arg=\"0x0000\"}}Привет.",
      "JPja": "{{fun_0003_0001 arg=\"0x0000\"}}やぁ",
      "KRko": "{{fun_0003_0001 arg=\"0x0000\"}}안녕",
      "TWzh": "{{fun_0003_0001 arg=\"0x0000\"}}嗨。",
      "USen": "{{fun_0003_0001 arg=\"0x0000\"}}Hey there.",
      "USes": "{{fun_0003_0001 arg=\"0x0000\"}}Buenas.",
      "USfr": "{{fun_0003_0001 arg=\"0x0000\"}}Salut."
    }
  },
  {
    "label": "talk29",
    "attribute": "0x04060000",
    "locale": {
      "CNzh": "{{fun_0003_0001 arg=\"0x0B00\"}}话说回来，你……{{fun_0001_0006 arg=\"0x03000400050002000003\"}}",
      "EUde": "{{fun_0003_0001 arg=\"0x0B00\"}}Übrigens...{{delay1}}\nWas machst du hier eigentlich?{{fun_0001_0006 arg=\"0x03000400050002000003\"}}",
      "EUen": "{{fun_0003_0001 arg=\"0x0B00\"}}So what's your business out of doors\ntonight?{{fun_0001_0006 arg=\"0x03000400050002000003\"}}",
      "EUes": "{{fun_0003_0001 arg=\"0x0B00\"}}¿Qué haces tú por aquí a estas horas?{{fun_0001_0006 arg=\"0x03000400050002000003\"}}",
      "EUfr": "{{fun_0003_0001 arg=\"0x0B00\"}}Je peux te demander ce que tu fais ici ?{{fun_0001_0006 arg=\"0x03000400050002000003\"}}",
      "EUit": "{{fun_0003_0001 arg=\"0x0B00\"}}Ma tu...{{fun_0001_0006 arg=\"0x03000400050002000003\"}}",
      "EUnl": "{{fun_0003_0001 arg=\"0x0B00\"}}O, trouwens... Jij bent...{{fun_0001_0006 arg=\"0x03000400050002000003\"}}",
      "EUru": "{{fun_0003_0001 arg=\"0x0B00\"}}Слушай, а ты что здесь делаешь?{{fun_0001_0006 arg=\"0x03000400050002000003\"}}",
      "JPja": "{{fun_0003_0001 arg=\"0x0B00\"}}ところで {{ruby charSpan=\"1\" value=\"きみ\"}}君は…{{fun_0001_0006 arg=\"0x03000400050002000003\"}}",
      "KRko": "{{fun_0003_0001 arg=\"0x0B00\"}}그런데 너는…{{fun_0001_0006 arg=\"0x03000400050002000003\"}}",
      "TWzh": "{{fun_0003_0001 arg=\"0x0B00\"}}話說回來，你……{{fun_0001_0006 arg=\"0x03000400050002000003\"}}",
      "USen": "{{fun_0003_0001 arg=\"0x0B00\"}}So what's your business out of doors\ntonight?{{fun_0001_0006 arg=\"0x03000400050002000003\"}}",
      "USes": "{{fun_0003_0001 arg=\"0x0B00\"}}A todo esto, ¿tú eres...?{{fun_0001_0006 arg=\"0x03000400050002000003\"}}",
      "USfr": "{{fun_0003_0001 arg=\"0x0B00\"}}Je peux te demander ce que tu fais ici?{{fun_0001_0006 arg=\"0x03000400050002000003\"}}"
    }
  },
  {
    "label": "talk30",
    "attribute": "0x2E060000",
    "locale": {
      "CNzh": "{{fun_0003_0001 arg=\"0x0B00\"}}你究竟是什么人？{{fun_0001_0006 arg=\"0x03000400050002000003\"}}",
      "EUde": "{{fun_0003_0001 arg=\"0x0B00\"}}Weswegen bist du eigentlich wirklich\nhier?{{fun_0001_0006 arg=\"0x03000400050002000003\"}}",
      "EUen": "{{fun_0003_0001 arg=\"0x0B00\"}}What are you really doing out tonight?{{fun_0001_0006 arg=\"0x03000400050002000003\"}}",
      "EUes": "{{fun_0003_0001 arg=\"0x0B00\"}}Dime la verdad, ¿a qué has venido?{{fun_0001_0006 arg=\"0x03000400050002000003\"}}",
      "EUfr": "{{fun_0003_0001 arg=\"0x0B00\"}}Mmmh, tu es ?{{fun_0001_0006 arg=\"0x03000400050002000003\"}}",
      "EUit": "{{fun_0003_0001 arg=\"0x0B00\"}}Chi sei in realtà?{{fun_0001_0006 arg=\"0x03000400050002000003\"}}",
      "EUnl": "{{fun_0003_0001 arg=\"0x0B00\"}}Wie ben je eigenlijk?{{fun_0001_0006 arg=\"0x03000400050002000003\"}}",
      "EUru": "{{fun_0003_0001 arg=\"0x0B00\"}}Слушай, а ты кто?{{fun_0001_0006 arg=\"0x03000400050002000003\"}}",
      "JPja": "{{fun_0003_0001 arg=\"0x0B00\"}}{{ruby charSpan=\"1\" value=\"きみ\"}}君は{{ruby charSpan=\"2\" value=\"ほんとう\"}}本当は {{ruby charSpan=\"2\" value=\"なにもの\"}}何者だい？{{fun_0001_0006 arg=\"0x03000400050002000003\"}}",
      "KRko": "{{fun_0003_0001 arg=\"0x0B00\"}}너는 정말 뭐 하는 사람이니?{{fun_0001_0006 arg=\"0x03000400050002000003\"}}",
      "TWzh": "{{fun_0003_0001 arg=\"0x0B00\"}}你究竟是什麼人？{{fun_0001_0006 arg=\"0x03000400050002000003\"}}",
      "USen": "{{fun_0003_0001 arg=\"0x0B00\"}}What are you really doing out tonight?{{fun_0001_0006 arg=\"0x03000400050002000003\"}}",
      "USes": "{{fun_0003_0001 arg=\"0x0B00\"}}A ver, ¿tú quién eres?{{fun_0001_0006 arg=\"0x03000400050002000003\"}}",
      "USfr": "{{fun_0003_0001 arg=\"0x0B00\"}}Non, sérieusement?{{fun_0001_0006 arg=\"0x03000400050002000003\"}}"
    }
  },
  {
    "label": "talk31",
    "attribute": "0x58060000",
    "locale": {
      "CNzh": "{{fun_0003_0001 arg=\"0x0000\"}}嗨，{{delay1}}早上好。",
      "EUde": "{{fun_0003_0001 arg=\"0x0000\"}}Hallo. {{delay1}}Guten Morgen.",
      "EUen": "{{fun_0003_0001 arg=\"0x0000\"}}Hello and good morning.",
      "EUes": "{{fun_0003_0001 arg=\"0x0000\"}}Eh, {{delay1}}buenos días.",
      "EUfr": "{{fun_0003_0001 arg=\"0x0000\"}}Tiens, {{delay1}}bonjour.",
      "EUit": "{{fun_0003_0001 arg=\"0x0000\"}}Ehi, {{delay1}}buongiorno.",
      "EUnl": "{{fun_0003_0001 arg=\"0x0000\"}}Hallo. {{delay1}}Goedemorgen.",
      "EUru": "{{fun_0003_0001 arg=\"0x0000\"}}Доброе утро!",
      "JPja": "{{fun_0003_0001 arg=\"0x0000\"}}やぁ {{delay1}}おはよう",
      "KRko": "{{fun_0003_0001 arg=\"0x0000\"}}너구나, {{delay1}}안녕",
      "TWzh": "{{fun_0003_0001 arg=\"0x0000\"}}嗨，{{delay1}}早安。",
      "USen": "{{fun_0003_0001 arg=\"0x0000\"}}Hello and good morning.",
      "USes": "{{fun_0003_0001 arg=\"0x0000\"}}Eh, {{delay1}}buenos días.",
      "USfr": "{{fun_0003_0001 arg=\"0x0000\"}}Tiens, {{delay1}}bonjour."
    }
  },
  {
    "label": "talk32",
    "attribute": "0x82060000",
    "locale": {
      "CNzh": "{{fun_0003_0001 arg=\"0x0000\"}}嗨，{{delay1}}你好。",
      "EUde": "{{fun_0003_0001 arg=\"0x0000\"}}Hallo. {{delay1}}Guten Tag.",
      "EUen": "{{fun_0003_0001 arg=\"0x0000\"}}Hello and good day.",
      "EUes": "{{fun_0003_0001 arg=\"0x0000\"}}Muy buenas.",
      "EUfr": "{{fun_0003_0001 arg=\"0x0000\"}}Tiens, {{delay1}}bonjour !",
      "EUit": "{{fun_0003_0001 arg=\"0x0000\"}}Ehi, {{delay1}}ciao.",
      "EUnl": "{{fun_0003_0001 arg=\"0x0000\"}}Hallo. {{delay1}}Goedemiddag.",
      "EUru": "{{fun_0003_0001 arg=\"0x0000\"}}Здравствуй!",
      "JPja": "{{fun_0003_0001 arg=\"0x0000\"}}やぁ {{delay1}}こんにちは",
      "KRko": "{{fun_0003_0001 arg=\"0x0000\"}}너구나, {{delay1}}안녕",
      "TWzh": "{{fun_0003_0001 arg=\"0x0000\"}}嗨，{{delay1}}你好。",
      "USen": "{{fun_0003_0001 arg=\"0x0000\"}}Hello and good day.",
      "USes": "{{fun_0003_0001 arg=\"0x0000\"}}Muy buenas.",
      "USfr": "{{fun_0003_0001 arg=\"0x0000\"}}Tiens, {{delay1}}bonjour!"
    }
  },
  {
    "label": "talk33",
    "attribute": "0xAC060000",
    "locale": {
      "CNzh": "{{fun_0003_0001 arg=\"0x0000\"}}嗨，{{delay1}}晚上好。",
      "EUde": "{{fun_0003_0001 arg=\"0x0000\"}}Hallo. {{delay1}}Guten Abend.",
      "EUen": "{{fun_0003_0001 arg=\"0x0000\"}}Hello and good evening.",
      "EUes": "{{fun_0003_0001 arg=\"0x0000\"}}¿Qué hay?",
      "EUfr": "{{fun_0003_0001 arg=\"0x0000\"}}Tiens, {{delay1}}bonsoir.",
      "EUit": "{{fun_0003_0001 arg=\"0x0000\"}}Ehi, {{delay1}}salve.",
      "EUnl": "{{fun_0003_0001 arg=\"0x0000\"}}Hallo. {{delay1}}Goedenavond.",
      "EUru": "{{fun_0003_0001 arg=\"0x0000\"}}Привет.{{delay1}} Не спится?",
      "JPja": "{{fun_0003_0001 arg=\"0x0000\"}}やぁ {{delay1}}こんばんは",
      "KRko": "{{fun_0003_0001 arg=\"0x0000\"}}너구나, {{delay1}}안녕",
      "TWzh": "{{fun_0003_0001 arg=\"0x0000\"}}嗨，{{delay1}}晚安。",
      "USen": "{{fun_0003_0001 arg=\"0x0000\"}}Hello and good evening.",
      "USes": "{{fun_0003_0001 arg=\"0x0000\"}}¿Qué hay?",
      "USfr": "{{fun_0003_0001 arg=\"0x0000\"}}Tiens, {{delay1}}bonsoir."
    }
  },
  {
    "label": "talk34",
    "attribute": "0xD6060000",
    "locale": {
      "CNzh": "{{fun_0003_0001 arg=\"0x0018\"}}这样啊。{{delay3}}\n唔，{{delay1}}你也不像危险的家伙，我放心了。",
      "EUde": "{{fun_0003_0001 arg=\"0x0018\"}}Ach so.{{delay3}}\nDann ist ja alles in Ordnung.",
      "EUen": "{{fun_0003_0001 arg=\"0x0018\"}}Are you, now. {{delay3}}Well, that's fine. {{delay1}}You seem\nharmless enough.",
      "EUes": "{{fun_0003_0001 arg=\"0x0018\"}}Ajá.{{delay3}} Bueno, menos mal que no eres\nun rarito ni nada de eso.",
      "EUfr": "{{fun_0003_0001 arg=\"0x0018\"}}Bien, bien. {{delay3}}Je voulais juste m'assurer\nque t'étais pas un type louche.",
      "EUit": "{{fun_0003_0001 arg=\"0x0018\"}}Capisco... {{delay3}}\nBeh, {{delay1}}almeno non sembri un brutto ceffo.",
      "EUnl": "{{fun_0003_0001 arg=\"0x0018\"}}Oké.{{delay3}} Nou,{{delay1}} ik ben blij dat je niet al te\ngevaarlijk bent.",
      "EUru": "{{fun_0003_0001 arg=\"0x0018\"}}Ясно.{{delay1}} А я уж подумал,\nчто ты грабитель.",
      "JPja": "{{fun_0003_0001 arg=\"0x0018\"}}そうか {{delay3}}\nまぁ {{delay1}}アブナイ{{ruby charSpan=\"1\" value=\"やつ\"}}奴じゃなさそうで {{ruby charSpan=\"2\" value=\"あんしん\"}}安心したよ",
      "KRko": "{{fun_0003_0001 arg=\"0x0018\"}}그렇구나{{delay3}}\n뭐, {{delay1}}위험한 녀석은 아닌 거 같으니 안심이야",
      "TWzh": "{{fun_0003_0001 arg=\"0x0018\"}}這樣啊。{{delay3}}\n是說，{{delay1}}你似乎不是危險的傢伙，我放心了。",
      "USen": "{{fun_0003_0001 arg=\"0x0018\"}}Are you, now. {{delay3}}Well, that's fine. {{delay1}}You seem\nharmless enough.",
      "USes": "{{fun_0003_0001 arg=\"0x0018\"}}Ajá.{{delay3}} Bueno, menos mal que no eres\nun vándalo ni nada de eso.",
      "USfr": "{{fun_0003_0001 arg=\"0x0018\"}}Bien, bien. {{delay3}}Je voulais juste m'assurer\nque t'étais pas un type louche."
    }
  }
]