[
  {
    "label": "0000",
    "attribute": "0x8C000000",
    "locale": {
      "CNzh": "我是旅行者",
      "EUde": "Ein Reisender.",
      "EUen": "Just a traveler...",
      "EUes": "Soy un viajero",
      "EUfr": "À un voyageur.",
      "EUit": "Sono un viandante.",
      "EUnl": "Ik ben een reiziger...",
      "EUru": "Я путешественник",
      "JPja": "{{ruby charSpan=\"1\" value=\"たび\"}}旅の{{ruby charSpan=\"1\" value=\"もの\"}}者です",
      "KRko": "여행자예요",
      "TWzh": "我是旅行者",
      "USen": "Just a traveler...",
      "USes": "Soy un viajero",
      "USfr": "À un voyageur."
    }
  },
  {
    "label": "0001",
    "attribute": "0x8E000000",
    "locale": {
      "CNzh": "无名小卒不足挂齿……",
      "EUde": "Niemand Wichtiges.",
      "EUen": "No one important...",
      "EUes": "Nadie importante...",
      "EUfr": "À peu de chose...",
      "EUit": "Uno qualunque.",
      "EUnl": "Geen bekend iemand.",
      "EUru": "Да так...",
      "JPja": "{{ruby charSpan=\"2\" value=\"なの\"}}名乗るほどでは…",
      "KRko": "이름을 댈 정도는…",
      "TWzh": "沒那麼有名……",
      "USen": "No one important...",
      "USes": "Nadie importante...",
      "USfr": "À peu de chose..."
    }
  },
  {
    "label": "0002",
    "attribute": "0x90000000",
    "locale": {
      "CNzh": "没错",
      "EUde": "Ganz genau.",
      "EUen": "That's right.",
      "EUes": "Así es",
      "EUfr": "Exactement.",
      "EUit": "Esatto.",
      "EUnl": "Dat klopt.",
      "EUru": "Хочу",
      "JPja": "そうです",
      "KRko": "맞아요",
      "TWzh": "沒錯",
      "USen": "That's right.",
      "USes": "Así es",
      "USfr": "Exactement."
    }
  },
  {
    "label": "0003",
    "attribute": "0x92000000",
    "locale": {
      "CNzh": "不是",
      "EUde": "Nö.",
      "EUen": "Um... No.",
      "EUes": "La verdad es que no",
      "EUfr": "Pas du tout, non.",
      "EUit": "No, ti sbagli.",
      "EUnl": "Nee.",
      "EUru": "Нет",
      "JPja": "{{ruby charSpan=\"1\" value=\"ちが\"}}違います",
      "KRko": "아니에요",
      "TWzh": "不是",
      "USen": "Um... No.",
      "USes": "Te equivocas",
      "USfr": "Pas du tout, non."
    }
  },
  {
    "label": "0004",
    "attribute": "0x94000000",
    "locale": {
      "CNzh": "奇怪的东西？",
      "EUde": "Sonderlinge?",
      "EUen": "Any strange things?",
      "EUes": "¿Gente extraña?",
      "EUfr": "De drôles de bêtes ?",
      "EUit": "Tipi strani?",
      "EUnl": "Vreemdelingen?",
      "EUru": "Странности...",
      "JPja": "{{ruby charSpan=\"1\" value=\"へん\"}}変なのって？",
      "KRko": "이상한 거?",
      "TWzh": "奇怪的東西？",
      "USen": "Any strange things?",
      "USes": "¿Gente extraña?",
      "USfr": "De drôles de bêtes?"
    }
  },
  {
    "label": "0005",
    "attribute": "0x96000000",
    "locale": {
      "CNzh": "再见",
      "EUde": "Wiedersehen.",
      "EUen": "Good-bye.",
      "EUes": "Adiós",
      "EUfr": "Au revoir !",
      "EUit": "Arrivederci.",
      "EUnl": "Tot ziens.",
      "EUru": "До свидания",
      "JPja": "さようなら",
      "KRko": "안녕히",
      "TWzh": "再見",
      "USen": "Good-bye.",
      "USes": "Adiós",
      "USfr": "Au revoir!"
    }
  },
  {
    "label": "0006",
    "attribute": "0x98000000",
    "locale": {
      "CNzh": "你擅长下厨吗？",
      "EUde": "Können Sie kochen?",
      "EUen": "You're a chef?",
      "EUes": "¿Cocinas bien?",
      "EUfr": "Tu cuisines bien ?",
      "EUit": "Sai cucinare?",
      "EUnl": "Kun je goed koken?",
      "EUru": "Вы хорошо готовите?",
      "JPja": "{{ruby charSpan=\"4\" value=\"りょうりとくい\"}}料理得意なの？",
      "KRko": "요리가 특기예요?",
      "TWzh": "妳擅長下廚嗎？",
      "USen": "You're a chef?",
      "USes": "¿Cocinas bien?",
      "USfr": "Tu cuisines bien?"
    }
  },
  {
    "label": "0007",
    "attribute": "0x9A000000",
    "locale": {
      "CNzh": "还有吗？",
      "EUde": "Außerdem?",
      "EUen": "\"Also\" what?",
      "EUes": "¿Y qué más?",
      "EUfr": "Quoi d'autre ?",
      "EUit": "Che altro?",
      "EUnl": "Verder nog iets?",
      "EUru": "Что еще?",
      "JPja": "{{ruby charSpan=\"1\" value=\"ほか\"}}他には？",
      "KRko": "다른 거는요?",
      "TWzh": "還有嗎？",
      "USen": "\"Also\" what?",
      "USes": "¿Y qué más?",
      "USfr": "Quoi d'autre?"
    }
  },
  {
    "label": "0008",
    "attribute": "0x9C000000",
    "locale": {
      "CNzh": "怪物蛋糕的食谱",
      "EUde": "{{wordInfo gender=\"1\" defArticle=\"0\" indefArticle=\"0\" isPlural=\"0\"}}Monsterkuchen!",
      "EUen": "Monster-cake recipe?",
      "EUes": "Pastelito de monstruo",
      "EUfr": "Gâteau au monstre ?",
      "EUit": "La torta di mostro...",
      "EUnl": "Monstertaart!",
      "EUru": "Кекс монстрони...",
      "JPja": "マモノケーキのレシピ",
      "KRko": "몬스터 케이크의 조리법",
      "TWzh": "怪物蛋糕的食譜",
      "USen": "Monster-cake recipe?",
      "USes": "Pastel de monstruo",
      "USfr": "Gâteau au monstre?"
    }
  },
  {
    "label": "talk00",
    "attribute": "0x9E000000",
    "locale": {
      "CNzh": "{{fun_0003_0001 arg=\"0x0001\"}}要再聊点其他的事吗？{{fun_0001_0008 arg=\"0x06002E0055004D0069006900560069006C006C006100670065005F004E00500043003000300038005F0043006F006F006B0008003A0055004D0069006900560069006C006C006100670065005F004E00500043003000320037005F004D0061006D006F006E006F00430061006B00650004000000050000000003\"}}",
      "EUde": "{{fun_0003_0001 arg=\"0x0001\"}}Möchten Sie sonst noch irgendetwas\nbereden?{{fun_0001_0008 arg=\"0x06002E0055004D0069006900560069006C006C006100670065005F004E00500043003000300038005F0043006F006F006B0008003A0055004D0069006900560069006C006C006100670065005F004E00500043003000320037005F004D0061006D006F006E006F00430061006B00650004000000050000000003\"}}",
      "EUen": "{{fun_0003_0001 arg=\"0x0001\"}}Shall we talk about something else?{{fun_0001_0008 arg=\"0x06002E0055004D0069006900560069006C006C006100670065005F004E00500043003000300038005F0043006F006F006B0008003A0055004D0069006900560069006C006C006100670065005F004E00500043003000320037005F004D0061006D006F006E006F00430061006B00650004000000050000000003\"}}",
      "EUes": "{{fun_0003_0001 arg=\"0x0001\"}}¿Querías hablar de algo más?{{fun_0001_0008 arg=\"0x06002E0055004D0069006900560069006C006C006100670065005F004E00500043003000300038005F0043006F006F006B0008003A0055004D0069006900560069006C006C006100670065005F004E00500043003000320037005F004D0061006D006F006E006F00430061006B00650004000000050000000003\"}}",
      "EUfr": "{{fun_0003_0001 arg=\"0x0001\"}}Veux-tu parler d'autre chose ?{{fun_0001_0008 arg=\"0x06002E0055004D0069006900560069006C006C006100670065005F004E00500043003000300038005F0043006F006F006B0008003A0055004D0069006900560069006C006C006100670065005F004E00500043003000320037005F004D0061006D006F006E006F00430061006B00650004000000050000000003\"}}",
      "EUit": "{{fun_0003_0001 arg=\"0x0001\"}}Parliamo di qualcos'altro?{{fun_0001_0008 arg=\"0x06002E0055004D0069006900560069006C006C006100670065005F004E00500043003000300038005F0043006F006F006B0008003A0055004D0069006900560069006C006C006100670065005F004E00500043003000320037005F004D0061006D006F006E006F00430061006B00650004000000050000000003\"}}",
      "EUnl": "{{fun_0003_0001 arg=\"0x0001\"}}Zullen we over iets anders praten?{{fun_0001_0008 arg=\"0x06002E0055004D0069006900560069006C006C006100670065005F004E00500043003000300038005F0043006F006F006B0008003A0055004D0069006900560069006C006C006100670065005F004E00500043003000320037005F004D0061006D006F006E006F00430061006B00650004000000050000000003\"}}",
      "EUru": "{{fun_0003_0001 arg=\"0x0001\"}}Еще что-нибудь?{{fun_0001_0008 arg=\"0x06002E0055004D0069006900560069006C006C006100670065005F004E00500043003000300038005F0043006F006F006B0008003A0055004D0069006900560069006C006C006100670065005F004E00500043003000320037005F004D0061006D006F006E006F00430061006B00650004000000050000000003\"}}",
      "JPja": "{{fun_0003_0001 arg=\"0x0001\"}}{{ruby charSpan=\"1\" value=\"ほか\"}}他に{{ruby charSpan=\"1\" value=\"なに\"}}何か お{{ruby charSpan=\"1\" value=\"はな\"}}話ししましょうかねぇ？{{fun_0001_0008 arg=\"0x06002E0055004D0069006900560069006C006C006100670065005F004E00500043003000300038005F0043006F006F006B0008003A0055004D0069006900560069006C006C006100670065005F004E00500043003000320037005F004D0061006D006F006E006F00430061006B00650004000000050000000003\"}}",
      "KRko": "{{fun_0003_0001 arg=\"0x0001\"}}또 뭐가 궁금하신가?{{fun_0001_0008 arg=\"0x06002E0055004D0069006900560069006C006C006100670065005F004E00500043003000300038005F0043006F006F006B0008003A0055004D0069006900560069006C006C006100670065005F004E00500043003000320037005F004D0061006D006F006E006F00430061006B00650004000000050000000003\"}}",
      "TWzh": "{{fun_0003_0001 arg=\"0x0001\"}}要再聊點其他的事嗎？{{fun_0001_0008 arg=\"0x06002E0055004D0069006900560069006C006C006100670065005F004E00500043003000300038005F0043006F006F006B0008003A0055004D0069006900560069006C006C006100670065005F004E00500043003000320037005F004D0061006D006F006E006F00430061006B00650004000000050000000003\"}}",
      "USen": "{{fun_0003_0001 arg=\"0x0001\"}}Shall we talk about something else?{{fun_0001_0008 arg=\"0x06002E0055004D0069006900560069006C006C006100670065005F004E00500043003000300038005F0043006F006F006B0008003A0055004D0069006900560069006C006C006100670065005F004E00500043003000320037005F004D0061006D006F006E006F00430061006B00650004000000050000000003\"}}",
      "USes": "{{fun_0003_0001 arg=\"0x0001\"}}¿Querías hablar de algo más?{{fun_0001_0008 arg=\"0x06002E0055004D0069006900560069006C006C006100670065005F004E00500043003000300038005F0043006F006F006B0008003A0055004D0069006900560069006C006C006100670065005F004E00500043003000320037005F004D0061006D006F006E006F00430061006B00650004000000050000000003\"}}",
      "USfr": "{{fun_0003_0001 arg=\"0x0001\"}}Veux-tu parler d'autre chose?{{fun_0001_0008 arg=\"0x06002E0055004D0069006900560069006C006C006100670065005F004E00500043003000300038005F0043006F006F006B0008003A0055004D0069006900560069006C006C006100670065005F004E00500043003000320037005F004D0061006D006F006E006F00430061006B00650004000000050000000003\"}}"
    }
  },
  {
    "label": "talk01",
    "attribute": "0xC4000000",
    "locale": {
      "CNzh": "{{fun_0003_0001 arg=\"0x0B00\"}}请问你是？{{fun_0001_0004 arg=\"0x000001000002\"}}",
      "EUde": "{{fun_0003_0001 arg=\"0x0B00\"}}Wer sind Sie bitte?{{fun_0001_0004 arg=\"0x000001000002\"}}",
      "EUen": "{{fun_0003_0001 arg=\"0x0B00\"}}And who might you be?{{fun_0001_0004 arg=\"0x000001000002\"}}",
      "EUes": "{{fun_0003_0001 arg=\"0x0B00\"}}¿Quién eres?{{fun_0001_0004 arg=\"0x000001000002\"}}",
      "EUfr": "{{fun_0003_0001 arg=\"0x0B00\"}}À qui ai-je l'honneur ?{{fun_0001_0004 arg=\"0x000001000002\"}}",
      "EUit": "{{fun_0003_0001 arg=\"0x0B00\"}}E tu chi saresti?{{fun_0001_0004 arg=\"0x000001000002\"}}",
      "EUnl": "{{fun_0003_0001 arg=\"0x0B00\"}}En wie ben jij?{{fun_0001_0004 arg=\"0x000001000002\"}}",
      "EUru": "{{fun_0003_0001 arg=\"0x0B00\"}}Ты кто будешь?{{fun_0001_0004 arg=\"0x000001000002\"}}",
      "JPja": "{{fun_0003_0001 arg=\"0x0B00\"}}どちらさんでしょう？{{fun_0001_0004 arg=\"0x000001000002\"}}",
      "KRko": "{{fun_0003_0001 arg=\"0x0B00\"}}누구신가?{{fun_0001_0004 arg=\"0x000001000002\"}}",
      "TWzh": "{{fun_0003_0001 arg=\"0x0B00\"}}請問你是？{{fun_0001_0004 arg=\"0x000001000002\"}}",
      "USen": "{{fun_0003_0001 arg=\"0x0B00\"}}And who might you be?{{fun_0001_0004 arg=\"0x000001000002\"}}",
      "USes": "{{fun_0003_0001 arg=\"0x0B00\"}}¿Quién eres?{{fun_0001_0004 arg=\"0x000001000002\"}}",
      "USfr": "{{fun_0003_0001 arg=\"0x0B00\"}}À qui ai-je l'honneur?{{fun_0001_0004 arg=\"0x000001000002\"}}"
    }
  },
  {
    "label": "talk02",
    "attribute": "0xEA000000",
    "locale": {
      "CNzh": "{{fun_0003_0001 arg=\"0x0000\"}}哎呀，早上好。",
      "EUde": "{{fun_0003_0001 arg=\"0x0000\"}}Oh, guten Morgen!",
      "EUen": "{{fun_0003_0001 arg=\"0x0000\"}}Oh, good morning.",
      "EUes": "{{fun_0003_0001 arg=\"0x0000\"}}Ah, buenos días.",
      "EUfr": "{{fun_0003_0001 arg=\"0x0000\"}}Oh, bonjour !",
      "EUit": "{{fun_0003_0001 arg=\"0x0000\"}}Oh, buongiorno.",
      "EUnl": "{{fun_0003_0001 arg=\"0x0000\"}}O, goeiemorgen.",
      "EUru": "{{fun_0003_0001 arg=\"0x0000\"}}Доброе утро.",
      "JPja": "{{fun_0003_0001 arg=\"0x0000\"}}あら おはよう",
      "KRko": "{{fun_0003_0001 arg=\"0x0000\"}}오, 안녕하신가",
      "TWzh": "{{fun_0003_0001 arg=\"0x0000\"}}哎呀，早安。",
      "USen": "{{fun_0003_0001 arg=\"0x0000\"}}Oh, good morning.",
      "USes": "{{fun_0003_0001 arg=\"0x0000\"}}Ah, buenos días.",
      "USfr": "{{fun_0003_0001 arg=\"0x0000\"}}Oh, bonjour!"
    }
  },
  {
    "label": "talk03",
    "attribute": "0x10010000",
    "locale": {
      "CNzh": "{{fun_0003_0001 arg=\"0x0000\"}}哎呀，你好。",
      "EUde": "{{fun_0003_0001 arg=\"0x0000\"}}Oh, guten Tag!",
      "EUen": "{{fun_0003_0001 arg=\"0x0000\"}}Oh, hello.",
      "EUes": "{{fun_0003_0001 arg=\"0x0000\"}}Ah, hola, buenas.",
      "EUfr": "{{fun_0003_0001 arg=\"0x0000\"}}Oh, bonjour. ",
      "EUit": "{{fun_0003_0001 arg=\"0x0000\"}}Oh, salve.",
      "EUnl": "{{fun_0003_0001 arg=\"0x0000\"}}O, hallo.",
      "EUru": "{{fun_0003_0001 arg=\"0x0000\"}}Здравствуй.",
      "JPja": "{{fun_0003_0001 arg=\"0x0000\"}}あら こんにちは",
      "KRko": "{{fun_0003_0001 arg=\"0x0000\"}}오, 안녕하신가",
      "TWzh": "{{fun_0003_0001 arg=\"0x0000\"}}哎呀，你好。",
      "USen": "{{fun_0003_0001 arg=\"0x0000\"}}Oh, hello.",
      "USes": "{{fun_0003_0001 arg=\"0x0000\"}}Ah, hola, buenas.",
      "USfr": "{{fun_0003_0001 arg=\"0x0000\"}}Oh, bonjour."
    }
  },
  {
    "label": "talk04",
    "attribute": "0x36010000",
    "locale": {
      "CNzh": "{{fun_0003_0001 arg=\"0x0000\"}}哎呀，晚上好。",
      "EUde": "{{fun_0003_0001 arg=\"0x0000\"}}Oh, guten Abend!",
      "EUen": "{{fun_0003_0001 arg=\"0x0000\"}}Oh, good evening.",
      "EUes": "{{fun_0003_0001 arg=\"0x0000\"}}Buenas noches.",
      "EUfr": "{{fun_0003_0001 arg=\"0x0000\"}}Oh, bonsoir.",
      "EUit": "{{fun_0003_0001 arg=\"0x0000\"}}Oh, buonasera.",
      "EUnl": "{{fun_0003_0001 arg=\"0x0000\"}}O, goeienavond.",
      "EUru": "{{fun_0003_0001 arg=\"0x0000\"}}Не спится тебе, юноша?",
      "JPja": "{{fun_0003_0001 arg=\"0x0000\"}}あら こんばんは",
      "KRko": "{{fun_0003_0001 arg=\"0x0000\"}}오, 안녕하신가",
      "TWzh": "{{fun_0003_0001 arg=\"0x0000\"}}哎呀，晚安。",
      "USen": "{{fun_0003_0001 arg=\"0x0000\"}}Oh, good evening.",
      "USes": "{{fun_0003_0001 arg=\"0x0000\"}}Buenas noches.",
      "USfr": "{{fun_0003_0001 arg=\"0x0000\"}}Oh, bonsoir."
    }
  },
  {
    "label": "talk05",
    "attribute": "0x5C010000",
    "locale": {
      "CNzh": "{{fun_0003_0001 arg=\"0x0000\"}}来了～",
      "EUde": "{{fun_0003_0001 arg=\"0x0000\"}}Ja, ja.",
      "EUen": "{{fun_0003_0001 arg=\"0x0000\"}}Yes, yes.",
      "EUes": "{{fun_0003_0001 arg=\"0x0000\"}}Sí, sí.",
      "EUfr": "{{fun_0003_0001 arg=\"0x0000\"}}Oui, oui.",
      "EUit": "{{fun_0003_0001 arg=\"0x0000\"}}Eh già.",
      "EUnl": "{{fun_0003_0001 arg=\"0x0000\"}}Ja, ja.",
      "EUru": "{{fun_0003_0001 arg=\"0x0000\"}}Здравствуй.",
      "JPja": "{{fun_0003_0001 arg=\"0x0000\"}}はいはい",
      "KRko": "{{fun_0003_0001 arg=\"0x0000\"}}예이, 예이",
      "TWzh": "{{fun_0003_0001 arg=\"0x0000\"}}來了～",
      "USen": "{{fun_0003_0001 arg=\"0x0000\"}}Yes, yes.",
      "USes": "{{fun_0003_0001 arg=\"0x0000\"}}Sí, sí.",
      "USfr": "{{fun_0003_0001 arg=\"0x0000\"}}Oui, oui."
    }
  },
  {
    "label": "talk06",
    "attribute": "0x82010000",
    "locale": {
      "CNzh": "{{fun_0003_0001 arg=\"0x0000\"}}呼……呼……",
      "EUde": "{{fun_0003_0001 arg=\"0x0000\"}}ZZZzzz...",
      "EUen": "{{fun_0003_0001 arg=\"0x0000\"}}So...sleepy...",
      "EUes": "{{fun_0003_0001 arg=\"0x0000\"}}Zzz... Zzz...",
      "EUfr": "{{fun_0003_0001 arg=\"0x0000\"}}Zzz... Zzz...",
      "EUit": "{{fun_0003_0001 arg=\"0x0000\"}}Zzz... Zzz...",
      "EUnl": "{{fun_0003_0001 arg=\"0x0000\"}}Zzz... Zzz...",
      "EUru": "{{fun_0003_0001 arg=\"0x0000\"}}Хр-р-р...",
      "JPja": "{{fun_0003_0001 arg=\"0x0000\"}}スゥ… スゥ…",
      "KRko": "{{fun_0003_0001 arg=\"0x0000\"}}색… 색…",
      "TWzh": "{{fun_0003_0001 arg=\"0x0000\"}}呼……呼……",
      "USen": "{{fun_0003_0001 arg=\"0x0000\"}}So...sleepy...",
      "USes": "{{fun_0003_0001 arg=\"0x0000\"}}Zzz... Zzz...",
      "USfr": "{{fun_0003_0001 arg=\"0x0000\"}}Zzz... Zzz..."
    }
  },
  {
    "label": "talk07",
    "attribute": "0xA8010000",
    "locale": {
      "CNzh": "{{fun_0003_0001 arg=\"0x0000\"}}我得准备去睡了，{{delay1}}\n你也早点休息吧。",
      "EUde": "{{fun_0003_0001 arg=\"0x0000\"}}Ich mache mich gerade bettfertig.{{delay1}}\nSie sollten auch langsam zu Bett\ngehen.",
      "EUen": "{{fun_0003_0001 arg=\"0x0000\"}}I have to get ready for bed.{{delay1}}\nYou should do the same.",
      "EUes": "{{fun_0003_0001 arg=\"0x0000\"}}Tengo que prepararme para irme a\ndormir.{{delay1}} Y tú deberías hacer lo mismo.",
      "EUfr": "{{fun_0003_0001 arg=\"0x0000\"}}Je me prépare à aller me coucher.{{delay1}}\nEt toi, jeune homme, tu devrais en\nfaire autant !",
      "EUit": "{{fun_0003_0001 arg=\"0x0000\"}}Devo prepararmi per andare a dormire.{{delay1}}\nE anche tu faresti bene a riposare.",
      "EUnl": "{{fun_0003_0001 arg=\"0x0000\"}}Ik maak me klaar om naar bed te gaan.{{delay1}}\nJij zou hetzelfde moeten doen.",
      "EUru": "{{fun_0003_0001 arg=\"0x0000\"}}Мне нужно спать.{{delay1}} И тебе советую.",
      "JPja": "{{fun_0003_0001 arg=\"0x0000\"}}{{ruby charSpan=\"1\" value=\"ね\"}}寝る{{ruby charSpan=\"2\" value=\"したく\"}}支度しなきゃね{{delay1}}\nあなたも{{ruby charSpan=\"1\" value=\"はや\"}}早く お{{ruby charSpan=\"1\" value=\"やす\"}}休みなさい",
      "KRko": "{{fun_0003_0001 arg=\"0x0000\"}}잘 준비를 해야겠어{{delay1}}\n그쪽도 얼른 쉬러 가시게나",
      "TWzh": "{{fun_0003_0001 arg=\"0x0000\"}}我得準備去睡了，{{delay1}}\n你也早點休息吧。",
      "USen": "{{fun_0003_0001 arg=\"0x0000\"}}I have to get ready for bed.{{delay1}}\nYou should do the same.",
      "USes": "{{fun_0003_0001 arg=\"0x0000\"}}Tengo que prepararme para irme a\ndormir.{{delay1}} Y tú deberías hacer lo mismo.",
      "USfr": "{{fun_0003_0001 arg=\"0x0000\"}}Je me prépare à aller me coucher.{{delay1}}\nEt toi, jeune homme, tu devrais en\nfaire autant!"
    }
  },
  {
    "label": "talk08",
    "attribute": "0xCE010000",
    "locale": {
      "CNzh": "{{fun_0003_0001 arg=\"0x0000\"}}我差不多该睡了，{{delay1}}\n不然身体会出毛病……",
      "EUde": "{{fun_0003_0001 arg=\"0x0000\"}}Ich muss langsam ins Bett.{{delay1}}\nSchlaf ist sehr wichtig für den Körper.",
      "EUen": "{{fun_0003_0001 arg=\"0x0000\"}}Now then, I've got to get to bed.{{delay1}}\nIt's rough on my body if I don't get a\ngood night's rest.",
      "EUes": "{{fun_0003_0001 arg=\"0x0000\"}}Va siendo hora de irme a dormir.{{delay1}}\nMi anciano cuerpo lo necesita.",
      "EUfr": "{{fun_0003_0001 arg=\"0x0000\"}}Eh bien, ce n'est pas tout, mais je ne\nvais pas tarder à me coucher, moi.{{delay1}}\nSinon mes vieux os vont faire des leurs...",
      "EUit": "{{fun_0003_0001 arg=\"0x0000\"}}Adesso vorrei prepararmi per la notte.{{delay1}}\nAlla mia età non bisogna affaticarsi.",
      "EUnl": "{{fun_0003_0001 arg=\"0x0000\"}}Nou, ik moet zo langzamerhand naar bed.\n{{delay1}}Mijn lichaam heeft veel rust nodig...",
      "EUru": "{{fun_0003_0001 arg=\"0x0000\"}}Пора спать.{{delay1}} Устала...",
      "JPja": "{{fun_0003_0001 arg=\"0x0000\"}}さて そろそろ{{ruby charSpan=\"1\" value=\"ね\"}}寝ないとねぇ{{delay1}}\n{{ruby charSpan=\"1\" value=\"からだ\"}}体に{{ruby charSpan=\"1\" value=\"さわ\"}}障りますからねぇ…",
      "KRko": "{{fun_0003_0001 arg=\"0x0000\"}}자, 슬슬 자야지{{delay1}}\n늦게 자면 몸에 해롭다네…",
      "TWzh": "{{fun_0003_0001 arg=\"0x0000\"}}我差不多該睡了，{{delay1}}\n不然身體會出毛病……",
      "USen": "{{fun_0003_0001 arg=\"0x0000\"}}Now then, I've got to get to bed.{{delay1}}\nIt's rough on my body if I don't get a\ngood night's rest.",
      "USes": "{{fun_0003_0001 arg=\"0x0000\"}}Va siendo hora de irme a dormir.{{delay1}}\nMi anciano cuerpo lo necesita.",
      "USfr": "{{fun_0003_0001 arg=\"0x0000\"}}Eh bien, ce n'est pas tout, mais je ne\nvais pas tarder à me coucher, moi.{{delay1}}\nSinon mes vieux os vont faire des leurs..."
    }
  },
  {
    "label": "talk09",
    "attribute": "0xF4010000",
    "locale": {
      "CNzh": "{{fun_0003_0001 arg=\"0x0000\"}}哦……{{delay1}}这样呀……",
      "EUde": "{{fun_0003_0001 arg=\"0x0000\"}}Hm... {{delay1}}Verstehe...",
      "EUen": "{{fun_0003_0001 arg=\"0x0000\"}}Oh... {{delay1}}Is that so?",
      "EUes": "{{fun_0003_0001 arg=\"0x0000\"}}Bah...{{delay1}} ¿En serio?",
      "EUfr": "{{fun_0003_0001 arg=\"0x0000\"}}Ah bon ? {{delay1}}Ma foi...",
      "EUit": "{{fun_0003_0001 arg=\"0x0000\"}}Oh... {{delay1}}ma davvero?",
      "EUnl": "{{fun_0003_0001 arg=\"0x0000\"}}O... {{delay1}}Echt waar...?",
      "EUru": "{{fun_0003_0001 arg=\"0x0000\"}}Ясно.",
      "JPja": "{{fun_0003_0001 arg=\"0x0000\"}}まぁ… {{delay1}}そうですか…",
      "KRko": "{{fun_0003_0001 arg=\"0x0000\"}}오… {{delay1}}그렇구려…",
      "TWzh": "{{fun_0003_0001 arg=\"0x0000\"}}喔……{{delay1}}這樣呀……",
      "USen": "{{fun_0003_0001 arg=\"0x0000\"}}Oh... {{delay1}}Is that so?",
      "USes": "{{fun_0003_0001 arg=\"0x0000\"}}Bah...{{delay1}} ¿En serio?",
      "USfr": "{{fun_0003_0001 arg=\"0x0000\"}}Ah bon? {{delay1}}Ma foi..."
    }
  },
  {
    "label": "talk10",
    "attribute": "0x1A020000",
    "locale": {
      "CNzh": "{{fun_0003_0001 arg=\"0x0001\"}}话说回来，你也是{{delay1}}\n到这座{{color id=\"2\"}}一始村{{color id=\"65535\"}}来买房子的？{{fun_0001_0004 arg=\"0x020003000002\"}}",
      "EUde": "{{fun_0003_0001 arg=\"0x0001\"}}Sagen Sie, sind Sie auch hier, um sich in\n{{color id=\"2\"}}Taburasa{{color id=\"65535\"}} ein Haus zuzulegen?{{fun_0001_0004 arg=\"0x020003000002\"}}",
      "EUen": "{{fun_0003_0001 arg=\"0x0001\"}}By the way... I don't suppose you came\nto {{color id=\"2\"}}Tarrey Town{{color id=\"65535\"}} to purchase a\nholiday home, did you?{{fun_0001_0004 arg=\"0x020003000002\"}}",
      "EUes": "{{fun_0003_0001 arg=\"0x0001\"}}Dime...{{delay1}} ¿Tú también has venido a\nla {{color id=\"2\"}}aldea Arkadia{{color id=\"65535\"}} a comprarte una casa?{{fun_0001_0004 arg=\"0x020003000002\"}}",
      "EUfr": "{{fun_0003_0001 arg=\"0x0001\"}}Au fait, jeune homme,{{delay1}} toi aussi tu es\nau {{color id=\"2\"}}village d'Euzero {{color id=\"65535\"}}pour acheter une\nmaison ?{{fun_0001_0004 arg=\"0x020003000002\"}}",
      "EUit": "{{fun_0003_0001 arg=\"0x0001\"}}Senti,{{delay1}} sei venuto qui al {{color id=\"2\"}}villaggio Daccapo{{color id=\"65535\"}}\nper comprare una casa?{{fun_0001_0004 arg=\"0x020003000002\"}}",
      "EUnl": "{{fun_0003_0001 arg=\"0x0001\"}}Ben je trouwens naar {{color id=\"2\"}}Tarrey{{color id=\"65535\"}} gekomen\nom een huis te kopen?{{fun_0001_0004 arg=\"0x020003000002\"}}",
      "EUru": "{{fun_0003_0001 arg=\"0x0001\"}}Ты, случайно, здесь дом\nкупить не хочешь?{{fun_0001_0004 arg=\"0x020003000002\"}}",
      "JPja": "{{fun_0003_0001 arg=\"0x0001\"}}ところで あなたも{{delay1}}\nこの{{color id=\"2\"}}イチカラ{{ruby charSpan=\"1\" value=\"むら\"}}村{{color id=\"65535\"}}に {{ruby charSpan=\"1\" value=\"いえ\"}}家をお{{ruby charSpan=\"1\" value=\"か\"}}買いに？{{fun_0001_0004 arg=\"0x020003000002\"}}",
      "KRko": "{{fun_0003_0001 arg=\"0x0001\"}}그나저나 그쪽도{{delay1}}\n{{color id=\"2\"}}시자기 마을{{color id=\"65535\"}}에 집을 사러 오셨소?{{fun_0001_0004 arg=\"0x020003000002\"}}",
      "TWzh": "{{fun_0003_0001 arg=\"0x0001\"}}話說回來，你也是{{delay1}}\n到這座{{color id=\"2\"}}一始村{{color id=\"65535\"}}來買房子的？{{fun_0001_0004 arg=\"0x020003000002\"}}",
      "USen": "{{fun_0003_0001 arg=\"0x0001\"}}By the way... I don't suppose you came\nto {{color id=\"2\"}}Tarrey Town{{color id=\"65535\"}} to purchase a\nholiday home, did you?{{fun_0001_0004 arg=\"0x020003000002\"}}",
      "USes": "{{fun_0003_0001 arg=\"0x0001\"}}A propósito...{{delay1}} ¿Tú también vienes a\nla {{color id=\"2\"}}aldea Arkadia{{color id=\"65535\"}} a comprarte una casa?{{fun_0001_0004 arg=\"0x020003000002\"}}",
      "USfr": "{{fun_0003_0001 arg=\"0x0001\"}}Au fait, jeune homme,{{delay1}} toi aussi tu\nes au {{color id=\"2\"}}village d'Euzero {{color id=\"65535\"}}pour acheter\nune maison de vacances?{{fun_0001_0004 arg=\"0x020003000002\"}}"
    }
  },
  {
    "label": "talk11",
    "attribute": "0x40020000",
    "locale": {
      "CNzh": "{{fun_0003_0001 arg=\"0x0000\"}}你也要当心。\n\n我的丈夫好像很喜欢这里，{{delay1}}\n但一踏出村子，就有很多奇怪的东西。",
      "EUde": "{{fun_0003_0001 arg=\"0x0000\"}}Passen Sie gut auf sich auf.{{pageBreak}}Meinem Mann gefällt es hier sehr gut,\naber wenn man einen Schritt aus dem\nDorf tut, ist alles voller Sonderlinge.",
      "EUen": "{{fun_0003_0001 arg=\"0x0000\"}}Anyway, please be careful.\n\n\nMy husband is taking great care of this\narea, but there seem to be a lot of\nstrange folks just outside of town.",
      "EUes": "{{fun_0003_0001 arg=\"0x0000\"}}En cualquier caso, ve con cuidado.{{pageBreak}}Mi marido se ocupa de vigilar la zona,{{delay1}}\npero no hay que alejarse mucho de\nla aldea para toparse con gente extraña.",
      "EUfr": "{{fun_0003_0001 arg=\"0x0000\"}}Quoi qu'il en soit, fais bien attention\nà toi.\n\nMon mari aime beaucoup cet endroit,{{delay1}}\nmais dès qu'on sort du village, il y a\nde drôles de bêtes un peu partout.",
      "EUit": "{{fun_0003_0001 arg=\"0x0000\"}}Comunque sia, stai attento.\n\n\nMio marito si prende molta cura del\nvillaggio{{delay1}}, ma basta fare un passo fuori\nper incontrare un sacco di tipi strani.",
      "EUnl": "{{fun_0003_0001 arg=\"0x0000\"}}Nou ja, kijk in ieder geval maar goed uit!{{pageBreak}}Mijn man houdt hier alles goed in de\ngaten, maar buiten het dorp wemelt het\nvan de vreemde snuiters.",
      "EUru": "{{fun_0003_0001 arg=\"0x0000\"}}Ну ладно. Будь осторожен.{{pageBreak}}Мой муж следит за порядком\nв деревне, но в окрестностях\nполно всяких странностей.",
      "JPja": "{{fun_0003_0001 arg=\"0x0000\"}}とにかく お{{ruby charSpan=\"1\" value=\"き\"}}気を{{ruby charSpan=\"1\" value=\"つ\"}}付けくださいね\n\n{{ruby charSpan=\"2\" value=\"しゅじん\"}}主人は ここを{{ruby charSpan=\"1\" value=\"き\"}}気に{{ruby charSpan=\"1\" value=\"い\"}}入ってるようですけど{{delay1}}\n{{ruby charSpan=\"3\" value=\"いっぽむら\"}}一歩村を{{ruby charSpan=\"1\" value=\"で\"}}出たら {{ruby charSpan=\"1\" value=\"へん\"}}変なのがいっぱい{{ruby charSpan=\"1\" value=\"い\"}}居ますからね",
      "KRko": "{{fun_0003_0001 arg=\"0x0000\"}}그나저나 조심하시게나\n\n남편은 여길 맘에 들어하는 것 같지만{{delay1}}\n마을에서 한 발짝만 나가도 이상한 게 잔뜩이니까",
      "TWzh": "{{fun_0003_0001 arg=\"0x0000\"}}你也要當心喔。\n\n我的丈夫好像很喜歡這裡，{{delay1}}\n但一踏出村子，就有很多奇怪的東西。",
      "USen": "{{fun_0003_0001 arg=\"0x0000\"}}Anyway, please be careful.\n\n\nMy husband is taking great care of this\narea, but there seem to be a lot of\nstrange folks just outside of town.",
      "USes": "{{fun_0003_0001 arg=\"0x0000\"}}En cualquier caso, ve con cuidado.{{pageBreak}}Mi marido controla esta zona,{{delay1}} pero\nno hay que salir mucho de la aldea\npara toparse con gente extraña.",
      "USfr": "{{fun_0003_0001 arg=\"0x0000\"}}Quoi qu'il en soit, fais bien\nattention à toi.\n\nMon mari aime beaucoup cet endroit,{{delay1}}\nmais dès qu'on sort du village, il y a\nde drôles de bêtes un peu partout."
    }
  },
  {
    "label": "talk12",
    "attribute": "0x66020000",
    "locale": {
      "CNzh": "{{fun_0003_0001 arg=\"0x0001\"}}找我有事吗？{{fun_0001_0008 arg=\"0x06002E0055004D0069006900560069006C006C006100670065005F004E00500043003000300038005F0043006F006F006B0008003A0055004D0069006900560069006C006C006100670065005F004E00500043003000320037005F004D0061006D006F006E006F00430061006B00650004000000050000000003\"}}",
      "EUde": "{{fun_0003_0001 arg=\"0x0001\"}}Kann ich Ihnen helfen?{{fun_0001_0008 arg=\"0x06002E0055004D0069006900560069006C006C006100670065005F004E00500043003000300038005F0043006F006F006B0008003A0055004D0069006900560069006C006C006100670065005F004E00500043003000320037005F004D0061006D006F006E006F00430061006B00650004000000050000000003\"}}",
      "EUen": "{{fun_0003_0001 arg=\"0x0001\"}}Do you need me for something?{{fun_0001_0008 arg=\"0x06002E0055004D0069006900560069006C006C006100670065005F004E00500043003000300038005F0043006F006F006B0008003A0055004D0069006900560069006C006C006100670065005F004E00500043003000320037005F004D0061006D006F006E006F00430061006B00650004000000050000000003\"}}",
      "EUes": "{{fun_0003_0001 arg=\"0x0001\"}}¿Qué querías?{{fun_0001_0008 arg=\"0x06002E0055004D0069006900560069006C006C006100670065005F004E00500043003000300038005F0043006F006F006B0008003A0055004D0069006900560069006C006C006100670065005F004E00500043003000320037005F004D0061006D006F006E006F00430061006B00650004000000050000000003\"}}",
      "EUfr": "{{fun_0003_0001 arg=\"0x0001\"}}Je peux faire quelque chose pour toi ?{{fun_0001_0008 arg=\"0x06002E0055004D0069006900560069006C006C006100670065005F004E00500043003000300038005F0043006F006F006B0008003A0055004D0069006900560069006C006C006100670065005F004E00500043003000320037005F004D0061006D006F006E006F00430061006B00650004000000050000000003\"}}",
      "EUit": "{{fun_0003_0001 arg=\"0x0001\"}}In cosa posso esserti utile?{{fun_0001_0008 arg=\"0x06002E0055004D0069006900560069006C006C006100670065005F004E00500043003000300038005F0043006F006F006B0008003A0055004D0069006900560069006C006C006100670065005F004E00500043003000320037005F004D0061006D006F006E006F00430061006B00650004000000050000000003\"}}",
      "EUnl": "{{fun_0003_0001 arg=\"0x0001\"}}Kan ik je helpen?{{fun_0001_0008 arg=\"0x06002E0055004D0069006900560069006C006C006100670065005F004E00500043003000300038005F0043006F006F006B0008003A0055004D0069006900560069006C006C006100670065005F004E00500043003000320037005F004D0061006D006F006E006F00430061006B00650004000000050000000003\"}}",
      "EUru": "{{fun_0003_0001 arg=\"0x0001\"}}Чем могу помочь?{{fun_0001_0008 arg=\"0x06002E0055004D0069006900560069006C006C006100670065005F004E00500043003000300038005F0043006F006F006B0008003A0055004D0069006900560069006C006C006100670065005F004E00500043003000320037005F004D0061006D006F006E006F00430061006B00650004000000050000000003\"}}",
      "JPja": "{{fun_0003_0001 arg=\"0x0001\"}}{{ruby charSpan=\"1\" value=\"わたし\"}}私に ご{{ruby charSpan=\"1\" value=\"よう\"}}用かしら？{{fun_0001_0008 arg=\"0x06002E0055004D0069006900560069006C006C006100670065005F004E00500043003000300038005F0043006F006F006B0008003A0055004D0069006900560069006C006C006100670065005F004E00500043003000320037005F004D0061006D006F006E006F00430061006B00650004000000050000000003\"}}",
      "KRko": "{{fun_0003_0001 arg=\"0x0001\"}}나한테 무슨 볼일이라도?{{fun_0001_0008 arg=\"0x06002E0055004D0069006900560069006C006C006100670065005F004E00500043003000300038005F0043006F006F006B0008003A0055004D0069006900560069006C006C006100670065005F004E00500043003000320037005F004D0061006D006F006E006F00430061006B00650004000000050000000003\"}}",
      "TWzh": "{{fun_0003_0001 arg=\"0x0001\"}}找我有事嗎？{{fun_0001_0008 arg=\"0x06002E0055004D0069006900560069006C006C006100670065005F004E00500043003000300038005F0043006F006F006B0008003A0055004D0069006900560069006C006C006100670065005F004E00500043003000320037005F004D0061006D006F006E006F00430061006B00650004000000050000000003\"}}",
      "USen": "{{fun_0003_0001 arg=\"0x0001\"}}Do you need me for something?{{fun_0001_0008 arg=\"0x06002E0055004D0069006900560069006C006C006100670065005F004E00500043003000300038005F0043006F006F006B0008003A0055004D0069006900560069006C006C006100670065005F004E00500043003000320037005F004D0061006D006F006E006F00430061006B00650004000000050000000003\"}}",
      "USes": "{{fun_0003_0001 arg=\"0x0001\"}}¿Me buscabas por algún asunto?{{fun_0001_0008 arg=\"0x06002E0055004D0069006900560069006C006C006100670065005F004E00500043003000300038005F0043006F006F006B0008003A0055004D0069006900560069006C006C006100670065005F004E00500043003000320037005F004D0061006D006F006E006F00430061006B00650004000000050000000003\"}}",
      "USfr": "{{fun_0003_0001 arg=\"0x0001\"}}Je peux faire quelque chose pour toi?{{fun_0001_0008 arg=\"0x06002E0055004D0069006900560069006C006C006100670065005F004E00500043003000300038005F0043006F006F006B0008003A0055004D0069006900560069006C006C006100670065005F004E00500043003000320037005F004D0061006D006F006E006F00430061006B00650004000000050000000003\"}}"
    }
  },
  {
    "label": "talk13",
    "attribute": "0x8C020000",
    "locale": {
      "CNzh": "{{fun_0003_0001 arg=\"0x0000\"}}村子外面不是有很多{{delay1}}\n外观丑陋的奇怪植物吗？\n尤其是位于这座{{color id=\"2\"}}一始村{{color id=\"65535\"}}{{color id=\"0\"}}东南方{{color id=\"65535\"}}的{{color id=\"0\"}}巨大花朵{{color id=\"65535\"}}……{{delay1}}\n\n“原来有那么巨大的花朵呀”，{{delay1}}\n我才在跟老爷子讲这件事呢。",
      "EUde": "{{fun_0003_0001 arg=\"0x0000\"}}Ja, Herrschaften mit ganz abscheulichen\nGesichtern und absonderliche Pflanzen!{{delay1}}\nDie findet man dort zuhauf!{{pageBreak}}Besonders diese {{color id=\"0\"}}große Blume{{color id=\"65535\"}} im\n{{color id=\"0\"}}Südosten{{color id=\"65535\"}} von {{color id=\"2\"}}Taburasa{{color id=\"65535\"}} ist mir nicht\ngeheuer...{{delay1}}\nIch habe mit meinem Mann über diese\nmonströse Blume geredet.",
      "EUen": "{{fun_0003_0001 arg=\"0x0000\"}}Strange plants and guys with ugly faces{{delay1}}\nlive just outside the village. There are\na lot of them, right?\nEspecially the {{color id=\"0\"}}big flower{{color id=\"65535\"}} that's to the\n{{color id=\"0\"}}southeast{{color id=\"65535\"}} of {{color id=\"2\"}}Tarrey Town{{color id=\"65535\"}}...{{delay1}}\n\nI was chatting with my husband{{delay1}} about\nhow there's a huge flower out there.",
      "EUes": "{{fun_0003_0001 arg=\"0x0000\"}}Ya sabes, tipos horriblemente feos y\nplantas fuera de lo normal.{{delay1}} Los hay\npor todas partes fuera de aquí.\nEn especial, hay una {{color id=\"0\"}}flor gigantesca{{color id=\"65535\"}}\nyendo en dirección {{color id=\"0\"}}sureste{{color id=\"65535\"}}{{delay1}} desde la\n{{color id=\"2\"}}aldea Arkadia{{color id=\"65535\"}}.\nMi marido y yo hemos estado hablando\nde ella hace poco.",
      "EUfr": "{{fun_0003_0001 arg=\"0x0000\"}}Des créatures à la trogne abominable,\ndes plantes bizarres...{{delay1}} il y en a plein à\nl'extérieur du village, tu n'as pas vu ?\nEt puis, surtout, il y a cette {{color id=\"0\"}}grande fleur{{color id=\"65535\"}}\nau {{color id=\"0\"}}sud-est{{color id=\"65535\"}} du village...{{delay1}}\n\nComme je le disais il y a peu à mon vieil\nhomme de mari,{{delay1}} je ne savais pas qu'il\nexistait des fleurs aussi grandes.",
      "EUit": "{{fun_0003_0001 arg=\"0x0000\"}}Dei tipi con delle brutte facce e delle\nstrane piante{{delay1}} vivono proprio fuori\ndal villaggio e sono in tanti.\nSoprattutto quel {{color id=\"0\"}}grosso fiore{{color id=\"65535\"}} che è\na {{color id=\"0\"}}sud-est{{color id=\"65535\"}} di qua.{{delay1}}\n\nL'ho detto pure a mio marito.{{delay1}} È strano\nvedere dei fiori così grossi.",
      "EUnl": "{{fun_0003_0001 arg=\"0x0000\"}}Buiten het dorp kom je overal mannen\nmet lelijke gezichten en vreemde planten\ntegen.{{pageBreak}}Vooral die {{color id=\"0\"}}grote bloem{{color id=\"65535\"}} ten {{color id=\"0\"}}zuidoosten{{color id=\"65535\"}}\nvan {{color id=\"2\"}}Tarrey {{color id=\"65535\"}}bevalt me niet...{{pageBreak}}Ik had het mijn man nog over die\nreusachtige bloem...",
      "EUru": "{{fun_0003_0001 arg=\"0x0000\"}}Ой, тут их полно.{{delay1}} Стоит из деревни\nвыйти — такого насмотришься!{{pageBreak}}Бандиты всякие страшные,\nнеобычные растения...{{pageBreak}}Вот к {{color id=\"0\"}}юго-востоку{{color id=\"65535\"}} от деревни\nесть какой-то {{color id=\"0\"}}большой цветок{{color id=\"65535\"}}.{{pageBreak}}Мы с мужем про него как\nраз недавно вспоминали.",
      "JPja": "{{fun_0003_0001 arg=\"0x0000\"}}{{ruby charSpan=\"1\" value=\"みにく\"}}醜い{{ruby charSpan=\"1\" value=\"かお\"}}顔したのとか {{ruby charSpan=\"1\" value=\"か\"}}変わった{{ruby charSpan=\"2\" value=\"しょくぶつ\"}}植物が{{delay1}}\n{{ruby charSpan=\"1\" value=\"むら\"}}村の{{ruby charSpan=\"1\" value=\"そと\"}}外に いっぱい{{ruby charSpan=\"1\" value=\"い\"}}居るでしょう？\n{{ruby charSpan=\"1\" value=\"とく\"}}特に この{{color id=\"2\"}}イチカラ{{ruby charSpan=\"1\" value=\"むら\"}}村{{color id=\"65535\"}}の{{color id=\"0\"}}{{ruby charSpan=\"2\" value=\"なんとう\"}}南東{{color id=\"65535\"}}にある{{color id=\"0\"}}{{ruby charSpan=\"1\" value=\"おお\"}}大きな{{ruby charSpan=\"1\" value=\"はな\"}}花{{color id=\"65535\"}}…{{delay1}}\n\n「あんな{{ruby charSpan=\"1\" value=\"おお\"}}大きな{{ruby charSpan=\"1\" value=\"はな\"}}花が あるんだね」って{{delay1}}\nお{{ruby charSpan=\"1\" value=\"じい\"}}爺さんと {{ruby charSpan=\"1\" value=\"はな\"}}話してたんですよ",
      "KRko": "{{fun_0003_0001 arg=\"0x0000\"}}흉측한 놈들이랑 이상한 식물이{{delay1}}\n마을 밖에 잔뜩이잖소?\n특히 이 {{color id=\"2\"}}시자기 마을{{color id=\"65535\"}}의 {{color id=\"0\"}}남동쪽{{color id=\"65535\"}}에 있는 {{color id=\"0\"}}커다란 꽃{{color id=\"65535\"}}…{{delay1}}\n\n「저렇게 큰 꽃도 있구나」하고{{delay1}}\n남편과 얘기했었지",
      "TWzh": "{{fun_0003_0001 arg=\"0x0000\"}}村子外面不是有很多{{delay1}}\n外觀醜陋的奇怪植物嗎？\n尤其是位於這座{{color id=\"2\"}}一始村{{color id=\"65535\"}}\n{{color id=\"0\"}}東南方{{color id=\"65535\"}}的{{color id=\"0\"}}巨大花朵{{color id=\"65535\"}}……{{delay1}}\n「原來有那麼巨大的花朵呀」，{{delay1}}\n我才在跟老爺子講這件事呢。",
      "USen": "{{fun_0003_0001 arg=\"0x0000\"}}Strange plants and guys with ugly faces{{delay1}}\nlive just outside the village. There are\na lot of them, right?\nEspecially the {{color id=\"0\"}}big flower{{color id=\"65535\"}} that's to the\n{{color id=\"0\"}}southeast{{color id=\"65535\"}} of {{color id=\"2\"}}Tarrey Town{{color id=\"65535\"}}...{{delay1}}\n\nI was chatting with my husband{{delay1}} about\nhow there's a huge flower out there.",
      "USes": "{{fun_0003_0001 arg=\"0x0000\"}}Ya sabes, tipos horriblemente feos y\nplantas fuera de lo normal.{{delay1}} Los hay\npor todas partes fuera de aquí.\nEn especial, hay una {{color id=\"0\"}}flor gigantesca{{color id=\"65535\"}}\nyendo en dirección {{color id=\"0\"}}sureste{{color id=\"65535\"}}{{delay1}} desde la\n{{color id=\"2\"}}aldea Arkadia{{color id=\"65535\"}}.\nMi marido y yo hemos estado hablando\nde ella hace poco.",
      "USfr": "{{fun_0003_0001 arg=\"0x0000\"}}Des créatures à la bette abominable,\ndes plantes bizarres...{{delay1}} il y en a plein à\nl'extérieur du village, tu n'as pas vu?\nEt puis, surtout, il y a cette {{color id=\"0\"}}grande fleur{{color id=\"65535\"}}\nau {{color id=\"0\"}}sud-est{{color id=\"65535\"}} du village...{{delay1}}\n\nComme je le disais il y a peu à mon vieil\nhomme de mari,{{delay1}} je ne savais pas qu'il\nexistait des fleurs aussi grandes."
    }
  },
  {
    "label": "talk14",
    "attribute": "0xB2020000",
    "locale": {
      "CNzh": "{{fun_0003_0001 arg=\"0x0001\"}}位于{{color id=\"2\"}}一始村{{color id=\"65535\"}}{{color id=\"0\"}}东南方{{color id=\"65535\"}}的{{color id=\"0\"}}巨大花朵{{color id=\"65535\"}}……{{delay1}}\n\n{{fun_0003_0001 arg=\"0x0010\"}}我是在来这里的途中看到的，{{delay1}}\n看上去真是恶趣味……",
      "EUde": "{{fun_0003_0001 arg=\"0x0001\"}}Diese {{color id=\"0\"}}große Blume{{color id=\"65535\"}} im {{color id=\"0\"}}Südosten{{color id=\"65535\"}} von\n{{color id=\"2\"}}Taburasa{{color id=\"65535\"}}...{{delay1}}{{pageBreak}}{{fun_0003_0001 arg=\"0x0010\"}}Ich habe sie auf dem Weg hierhin\nentdeckt.{{delay1}} Was für eine vulgäre Pflanze!",
      "EUen": "{{fun_0003_0001 arg=\"0x0001\"}}The {{color id=\"0\"}}big flower{{color id=\"65535\"}} that's to the {{color id=\"0\"}}southeast{{color id=\"65535\"}} of\n{{color id=\"2\"}}Tarrey Town{{color id=\"65535\"}}...{{delay1}}\n\n{{fun_0003_0001 arg=\"0x0010\"}}We saw it while walking the path here,{{delay1}}\nand it's really quite awful...",
      "EUes": "{{fun_0003_0001 arg=\"0x0001\"}}Esa {{color id=\"0\"}}flor gigantesca{{color id=\"65535\"}} se encuentra\nal {{color id=\"0\"}}sureste{{color id=\"65535\"}} de la {{color id=\"2\"}}aldea Arkadia{{color id=\"65535\"}}.{{pageBreak}}{{fun_0003_0001 arg=\"0x0010\"}}La hemos visto siguiendo el camino\nque lleva hasta aquí.{{delay1}} Y tiene una pinta\nbastante vulgar...",
      "EUfr": "{{fun_0003_0001 arg=\"0x0001\"}}La {{color id=\"0\"}}grande fleur{{color id=\"65535\"}} au {{color id=\"0\"}}sud-est{{color id=\"65535\"}} du village...{{delay1}}\n\n\n{{fun_0003_0001 arg=\"0x0010\"}}On l'a aperçue sur le chemin, en venant,\net ma foi...{{delay1}} la nature fait parfois preuve\nd'une grossièreté surprenante.",
      "EUit": "{{fun_0003_0001 arg=\"0x0001\"}}Il {{color id=\"0\"}}grande fiore{{color id=\"65535\"}} che si trova a {{color id=\"0\"}}sud-est{{color id=\"65535\"}} del\n{{color id=\"2\"}}villaggio Daccapo{{color id=\"65535\"}}...{{delay1}}\n\n{{fun_0003_0001 arg=\"0x0010\"}}Lo abbiamo visto mentre seguivamo\nil sentiero che porta qui.{{delay1}}\nNon è particolarmente bello.",
      "EUnl": "{{fun_0003_0001 arg=\"0x0001\"}}Die {{color id=\"0\"}}grote bloem{{color id=\"65535\"}} ten {{color id=\"0\"}}zuidoosten{{color id=\"65535\"}} van\n{{color id=\"2\"}}Tarrey{{color id=\"65535\"}}...{{delay1}}{{pageBreak}}{{fun_0003_0001 arg=\"0x0010\"}}We zagen hem op de weg hiernaartoe.{{delay1}} \nWat een vulgaire plant...",
      "EUru": "{{fun_0003_0001 arg=\"0x0001\"}}Тут их полно.{{delay1}} Например, к {{color id=\"0\"}}юго-востоку{{color id=\"65535\"}}\nот деревни растет какой-то {{color id=\"0\"}}большой\nцветок{{color id=\"65535\"}}.{{pageBreak}}{{fun_0003_0001 arg=\"0x0010\"}}Я его видела по дороге сюда.{{delay1}}\nНа вид просто безобразие.",
      "JPja": "{{fun_0003_0001 arg=\"0x0001\"}}この{{color id=\"2\"}}イチカラ{{ruby charSpan=\"1\" value=\"むら\"}}村{{color id=\"65535\"}}の{{color id=\"0\"}}{{ruby charSpan=\"2\" value=\"なんとう\"}}南東{{color id=\"65535\"}}にある{{color id=\"0\"}}{{ruby charSpan=\"1\" value=\"おお\"}}大きな{{ruby charSpan=\"1\" value=\"はな\"}}花{{color id=\"65535\"}}…{{delay1}}\n\n{{fun_0003_0001 arg=\"0x0010\"}}ここに{{ruby charSpan=\"1\" value=\"く\"}}来る{{ruby charSpan=\"1\" value=\"みち\"}}道すがら {{ruby charSpan=\"1\" value=\"み\"}}見えたんだけど{{delay1}}\nなんとも お{{ruby charSpan=\"2\" value=\"げひん\"}}下品な…",
      "KRko": "{{fun_0003_0001 arg=\"0x0001\"}}이 {{color id=\"2\"}}시자기 마을{{color id=\"65535\"}}의 {{color id=\"0\"}}남동쪽{{color id=\"65535\"}}에 있는 {{color id=\"0\"}}커다란 꽃{{color id=\"65535\"}}…{{delay1}}\n\n{{fun_0003_0001 arg=\"0x0010\"}}여기 올 적에 봤는데{{delay1}}\n어찌나 요란스럽던지…",
      "TWzh": "{{fun_0003_0001 arg=\"0x0001\"}}位於這座{{color id=\"2\"}}一始村{{color id=\"65535\"}}\n{{color id=\"0\"}}東南方{{color id=\"65535\"}}的{{color id=\"0\"}}巨大花朵{{color id=\"65535\"}}……{{delay1}}\n{{fun_0003_0001 arg=\"0x0010\"}}我是在來這裡的途中看到的，{{delay1}}\n看上去真是粗俗……",
      "USen": "{{fun_0003_0001 arg=\"0x0001\"}}The {{color id=\"0\"}}big flower{{color id=\"65535\"}} that's to the {{color id=\"0\"}}southeast{{color id=\"65535\"}} of\n{{color id=\"2\"}}Tarrey Town{{color id=\"65535\"}}...{{delay1}}\n\n{{fun_0003_0001 arg=\"0x0010\"}}We saw it while walking the path here,{{delay1}}\nand it's really quite awful...",
      "USes": "{{fun_0003_0001 arg=\"0x0000\"}}Esa {{color id=\"0\"}}flor gigantesca{{color id=\"65535\"}} se encuentra\nal {{color id=\"0\"}}sureste{{color id=\"65535\"}} de la {{color id=\"2\"}}aldea Arkadia{{color id=\"65535\"}}.{{pageBreak}}{{fun_0003_0001 arg=\"0x0010\"}}La vimos al seguir el camino que\nviene hasta aquí.{{delay1}} Y tiene un\naspecto muy malo...",
      "USfr": "{{fun_0003_0001 arg=\"0x0001\"}}La {{color id=\"0\"}}grande fleur{{color id=\"65535\"}} au {{color id=\"0\"}}sud-est{{color id=\"65535\"}} du village...{{delay1}}\n\n\n{{fun_0003_0001 arg=\"0x0010\"}}On l'a aperçue sur le chemin, en venant,\net ma foi...{{delay1}} la nature fait parfois preuve\nd'une grossièreté surprenante."
    }
  },
  {
    "label": "talk15",
    "attribute": "0xD8020000",
    "locale": {
      "CNzh": "{{fun_0003_0001 arg=\"0x0000\"}}再见啰。",
      "EUde": "{{fun_0003_0001 arg=\"0x0000\"}}Auf Wiedersehen.",
      "EUen": "{{fun_0003_0001 arg=\"0x0000\"}}See you later.",
      "EUes": "{{fun_0003_0001 arg=\"0x0000\"}}Hasta luego.",
      "EUfr": "{{fun_0003_0001 arg=\"0x0000\"}}Allez, à plus tard.",
      "EUit": "{{fun_0003_0001 arg=\"0x0000\"}}Ci vediamo dopo.",
      "EUnl": "{{fun_0003_0001 arg=\"0x0000\"}}Tot ziens.",
      "EUru": "{{fun_0003_0001 arg=\"0x0000\"}}До свидания.",
      "JPja": "{{fun_0003_0001 arg=\"0x0000\"}}それじゃあね",
      "KRko": "{{fun_0003_0001 arg=\"0x0000\"}}다음에 또 봅세",
      "TWzh": "{{fun_0003_0001 arg=\"0x0000\"}}那再見囉。",
      "USen": "{{fun_0003_0001 arg=\"0x0000\"}}See you later.",
      "USes": "{{fun_0003_0001 arg=\"0x0000\"}}Hasta luego.",
      "USfr": "{{fun_0003_0001 arg=\"0x0000\"}}Allez, à plus tard."
    }
  },
  {
    "label": "talk16",
    "attribute": "0xFE020000",
    "locale": {
      "CNzh": "{{fun_0003_0001 arg=\"0x0000\"}}别去碰那种来路不明的东西。",
      "EUde": "{{fun_0003_0001 arg=\"0x0000\"}}So etwas Ungeheuerliches sollte man\nbesser nicht anfassen.",
      "EUen": "{{fun_0003_0001 arg=\"0x0000\"}}You really shouldn't mess with things\nyou don't understand...",
      "EUes": "{{fun_0003_0001 arg=\"0x0000\"}}¡No se deben tocar las cosas que uno\nno comprende!",
      "EUfr": "{{fun_0003_0001 arg=\"0x0000\"}}Il ne faut pas y toucher, on ne sait pas\nce que ça peut être !",
      "EUit": "{{fun_0003_0001 arg=\"0x0000\"}}Senti, non dovresti proprio toccare\ncose del genere senza prima\ncomprenderle.",
      "EUnl": "{{fun_0003_0001 arg=\"0x0000\"}}Je kunt dingen die je niet begrijpt beter\nniet aanraken...",
      "EUru": "{{fun_0003_0001 arg=\"0x0000\"}}Ты к тому цветку лучше не лезь.",
      "JPja": "{{fun_0003_0001 arg=\"0x0000\"}}あんな よく{{ruby charSpan=\"1\" value=\"わ\"}}分からない{{ruby charSpan=\"1\" value=\"もの\"}}物は {{ruby charSpan=\"1\" value=\"さわ\"}}触っちゃダメよ",
      "KRko": "{{fun_0003_0001 arg=\"0x0000\"}}그런 정체 모를 것은 건들면 안 돼",
      "TWzh": "{{fun_0003_0001 arg=\"0x0000\"}}別去碰那種來路不明的東西喔。",
      "USen": "{{fun_0003_0001 arg=\"0x0000\"}}You really shouldn't mess with things\nyou don't understand...",
      "USes": "{{fun_0003_0001 arg=\"0x0000\"}}¡No se deben tocar las cosas que uno\nno comprende!",
      "USfr": "{{fun_0003_0001 arg=\"0x0000\"}}Il ne faut pas y toucher, on ne sait pas\nce que ça peut être!"
    }
  },
  {
    "label": "talk17",
    "attribute": "0x24030000",
    "locale": {
      "CNzh": "{{fun_0003_0001 arg=\"0x0006\"}}下厨……？{{delay3}}\n你是听老爷子说的吗？\n{{fun_0003_0001 arg=\"0x0B01\"}}那个人又在随便乱说了……\n",
      "EUde": "{{fun_0003_0001 arg=\"0x0006\"}}Hat mein Mann Ihnen davon erzählt?{{pageBreak}}{{fun_0003_0001 arg=\"0x0B01\"}}Was er nur immer redet...",
      "EUen": "{{fun_0003_0001 arg=\"0x0006\"}}Cooking? Oh, my, where did you hear\nabout that?{{delay3}} It was from my husband,\nwasn't it?\n{{fun_0003_0001 arg=\"0x0B01\"}}That man can be so misleading about\nthings sometimes...",
      "EUes": "{{fun_0003_0001 arg=\"0x0006\"}}¡Vaya! ¿Te lo ha contado tal vez\nmi marido?{{pageBreak}}{{fun_0003_0001 arg=\"0x0B01\"}}Este hombre, siempre dándole\na la lengua...",
      "EUfr": "{{fun_0003_0001 arg=\"0x0006\"}}Ah...{{delay3}} C'est mon vieil homme de mari\nqui t'a dit ça ?\n\n{{fun_0003_0001 arg=\"0x0B01\"}}Il ne peut pas s'empêcher d'ouvrir\nsa bouche...",
      "EUit": "{{fun_0003_0001 arg=\"0x0006\"}}Oh, è stato mio marito a parlartene?\n\n\n{{fun_0003_0001 arg=\"0x0B01\"}}Come al solito, quell'uomo parla a\nvanvera...",
      "EUnl": "{{fun_0003_0001 arg=\"0x0006\"}}Jeetje, heeft mijn man je dat verteld?{{pageBreak}}{{fun_0003_0001 arg=\"0x0B01\"}}Hij kan ook nooit z'n mond houden...",
      "EUru": "{{fun_0003_0001 arg=\"0x0006\"}}Этот тебе мой муж похвастался?{{pageBreak}}{{fun_0003_0001 arg=\"0x0B01\"}}Вот ведь болтун!",
      "JPja": "{{fun_0003_0001 arg=\"0x0006\"}}お{{ruby charSpan=\"2\" value=\"りょうり\"}}料理…？{{delay3}}\nお{{ruby charSpan=\"1\" value=\"じい\"}}爺さんにでも {{ruby charSpan=\"1\" value=\"き\"}}聞いたのかしら？\n{{fun_0003_0001 arg=\"0x0B01\"}}また あの{{ruby charSpan=\"1\" value=\"ひと\"}}人ったら {{ruby charSpan=\"2\" value=\"てきとう\"}}適当な{{ruby charSpan=\"2\" value=\"ことい\"}}事言って…\n",
      "KRko": "{{fun_0003_0001 arg=\"0x0006\"}}요리…?{{delay3}}\n남편한테 들었으려나?\n{{fun_0003_0001 arg=\"0x0B01\"}}그이는 또 쓸데없는 소릴…\n",
      "TWzh": "{{fun_0003_0001 arg=\"0x0006\"}}下廚……？{{delay3}}\n你是聽老爺子說的嗎？\n{{fun_0003_0001 arg=\"0x0B01\"}}那個人又在隨便亂說了……\n",
      "USen": "{{fun_0003_0001 arg=\"0x0006\"}}Cooking? Oh, my, where did you hear\nabout that?{{delay3}} It was from my husband,\nwasn't it?\n{{fun_0003_0001 arg=\"0x0B01\"}}That man can be so misleading about\nthings sometimes...",
      "USes": "{{fun_0003_0001 arg=\"0x0006\"}}¡Vaya! ¿Te lo contó tal vez mi marido?{{pageBreak}}{{fun_0003_0001 arg=\"0x0B01\"}}Este hombre, siempre habla mucho y\ndice muchas incoherencias. Es mejor\nque no le hagas caso...",
      "USfr": "{{fun_0003_0001 arg=\"0x0006\"}}Ah... C'est mon vieil homme de mari\nqui t'a dit ça?\n\n{{fun_0003_0001 arg=\"0x0B01\"}}Il ne peut pas s'empêcher d'ouvrir\nsa bouche..."
    }
  },
  {
    "label": "talk18",
    "attribute": "0x4A030000",
    "locale": {
      "CNzh": "{{fun_0003_0001 arg=\"0x0109\"}}不过，你看起来也不像爱吃点心的人。\n\n{{fun_0003_0001 arg=\"0x0001\"}}你得先多吃点饭，{{delay1}}\n先长高长壮才行。",
      "EUde": "{{fun_0003_0001 arg=\"0x0109\"}}Sie sehen gar nicht wie jemand aus,\nder Süßigkeiten naschen sollte.{{pageBreak}}{{fun_0003_0001 arg=\"0x0001\"}}Essen Sie lieber erst einmal etwas\nOrdentliches, damit Sie groß und stark\nwerden!",
      "EUen": "{{fun_0003_0001 arg=\"0x0109\"}}But...you don't look like someone who\nneeds sweets.\n\n{{fun_0003_0001 arg=\"0x0001\"}}You should eat a lot of food{{delay1}} and put\nsome meat on your bones first!",
      "EUes": "{{fun_0003_0001 arg=\"0x0109\"}}No tienes mucha pinta de que te chiflen\nlos dulces...{{pageBreak}}{{fun_0003_0001 arg=\"0x0001\"}}Es importante comer lo suficiente{{delay1}}\npara que tu cuerpo se desarrolle bien.",
      "EUfr": "{{fun_0003_0001 arg=\"0x0109\"}}Toi, je crois que ce n'est pas un dessert\nqu'il te faut...\n\n{{fun_0003_0001 arg=\"0x0001\"}}Tu devrais commencer par te remplir la\npanse,{{delay1}} pour prendre un peu d'épaisseur.",
      "EUit": "{{fun_0003_0001 arg=\"0x0109\"}}Ma tu sembri abbastanza cresciutello\nper andare in giro a chiedere dolcini.\n\n{{fun_0003_0001 arg=\"0x0001\"}}A te serve mangiare tanto{{delay1}} e mettere\nun po' di muscoli attorno a quelle\nossa.",
      "EUnl": "{{fun_0003_0001 arg=\"0x0109\"}}Maar jij ziet er helemaal niet uit als\niemand die behoefte heeft aan\nzoetigheid.\n{{fun_0003_0001 arg=\"0x0001\"}}Je moet eerst eens fatsoenlijk eten om\neen beetje vlees op de botten te krijgen!",
      "EUru": "{{fun_0003_0001 arg=\"0x0109\"}}Но ты сладким не увлекайся!{{pageBreak}}{{fun_0003_0001 arg=\"0x0001\"}}Лучше кушай что-нибудь приличное,\nнабирайся сил, расти здоровым.",
      "JPja": "{{fun_0003_0001 arg=\"0x0109\"}}でも あなたは お{{ruby charSpan=\"2\" value=\"かし\"}}菓子って{{ruby charSpan=\"1\" value=\"かん\"}}感じじゃないね\n\n{{fun_0003_0001 arg=\"0x0001\"}}まずは ご{{ruby charSpan=\"1\" value=\"はん\"}}飯をいっぱい{{ruby charSpan=\"1\" value=\"た\"}}食べて{{delay1}}\n{{ruby charSpan=\"1\" value=\"おお\"}}大きくならなきゃね",
      "KRko": "{{fun_0003_0001 arg=\"0x0109\"}}그치만 보아하니 과자 먹을 때가 아닌 것 같은데\n\n{{fun_0003_0001 arg=\"0x0001\"}}우선 밥을 든든히 먹고{{delay1}}\n쑥쑥 자라야지",
      "TWzh": "{{fun_0003_0001 arg=\"0x0109\"}}不過，你感覺不太適合吃點心之類的呢。\n\n{{fun_0003_0001 arg=\"0x0001\"}}你得先多吃點飯，{{delay1}}\n先長高長壯才行。",
      "USen": "{{fun_0003_0001 arg=\"0x0109\"}}But...you don't look like someone who\nneeds sweets.\n\n{{fun_0003_0001 arg=\"0x0001\"}}You should eat a lot of food{{delay1}} and put\nsome meat on your bones first!",
      "USes": "{{fun_0003_0001 arg=\"0x0109\"}}No parece que a ti te gusten los\nalimentos dulces...{{pageBreak}}{{fun_0003_0001 arg=\"0x0001\"}}Lo importante es alimentarte bien{{delay1}}\npara que tu cuerpo se desarrolle.",
      "USfr": "{{fun_0003_0001 arg=\"0x0109\"}}Toi, je crois que ce n'est pas un dessert\nqu'il te faut...\n\n{{fun_0003_0001 arg=\"0x0001\"}}Tu devrais commencer par te remplir la\npanse,{{delay1}} pour prendre un peu d'épaisseur."
    }
  },
  {
    "label": "talk19",
    "attribute": "0x70030000",
    "locale": {
      "CNzh": "{{fun_0003_0001 arg=\"0x0000\"}}比方说，{{color id=\"2\"}}胡萝卜蛋糕{{color id=\"65535\"}}和{{color id=\"2\"}}南瓜蛋糕{{color id=\"65535\"}}……{{delay1}}\n还有……{{fun_0001_000A arg=\"0x070001CD\"}}",
      "EUde": "{{fun_0003_0001 arg=\"0x0000\"}}Zum Beispiel {{color id=\"2\"}}{{wordInfo gender=\"1\" defArticle=\"0\" indefArticle=\"0\" isPlural=\"0\"}}Karottenkuchen{{color id=\"65535\"}} und\n{{color id=\"2\"}}{{wordInfo gender=\"1\" defArticle=\"0\" indefArticle=\"0\" isPlural=\"0\"}}Kürbiskuchen{{color id=\"65535\"}}...{{delay1}} Und außerdem...{{fun_0001_000A arg=\"0x070001CD\"}}",
      "EUen": "{{fun_0003_0001 arg=\"0x0000\"}}For example, {{color id=\"2\"}}carrot cake{{color id=\"65535\"}} or\n{{color id=\"2\"}}pumpkin pie{{color id=\"65535\"}}...{{delay1}} Also...{{fun_0001_000A arg=\"0x070001CD\"}}",
      "EUes": "{{fun_0003_0001 arg=\"0x0000\"}}Por ejemplo, {{color id=\"2\"}}pastel de zanahoria{{color id=\"65535\"}},\n{{color id=\"2\"}}pastel de calabaza{{color id=\"65535\"}}...{{delay1}} y otros.{{fun_0001_000A arg=\"0x070001CD\"}}",
      "EUfr": "{{fun_0003_0001 arg=\"0x0000\"}}Le {{color id=\"2\"}}gâteau à la carotte{{color id=\"65535\"}} par exemple,\net le {{color id=\"2\"}}gâteau à la citrouille{{color id=\"65535\"}}...{{delay1}} Et aussi...{{fun_0001_000A arg=\"0x070001CD\"}}",
      "EUit": "{{fun_0003_0001 arg=\"0x0000\"}}Per esempio, una {{color id=\"2\"}}torta di carote{{color id=\"65535\"}} o\nuna {{color id=\"2\"}}torta di zucca{{color id=\"65535\"}}...{{delay1}} Insomma...{{fun_0001_000A arg=\"0x070001CD\"}}",
      "EUnl": "{{fun_0003_0001 arg=\"0x0000\"}}Bijvoorbeeld {{color id=\"2\"}}worteltaart{{color id=\"65535\"}} of\n{{color id=\"2\"}}pompoentaart{{color id=\"65535\"}}...{{delay1}} En...{{fun_0001_000A arg=\"0x070001CD\"}}",
      "EUru": "{{fun_0003_0001 arg=\"0x0000\"}}Вот, например, {{color id=\"2\"}}морковный{{color id=\"65535\"}}\nили {{color id=\"2\"}}тыквенный пирог{{color id=\"65535\"}}...{{fun_0001_000A arg=\"0x070001CD\"}}",
      "JPja": "{{fun_0003_0001 arg=\"0x0000\"}}{{ruby charSpan=\"1\" value=\"たと\"}}例えば {{color id=\"2\"}}ニンジンケーキ{{color id=\"65535\"}}に{{color id=\"2\"}}カボチャケーキ{{color id=\"65535\"}}…{{delay1}}\nそれから…{{fun_0001_000A arg=\"0x070001CD\"}}",
      "KRko": "{{fun_0003_0001 arg=\"0x0000\"}}예를 들어 {{color id=\"2\"}}당근 케이크{{color id=\"65535\"}}에 {{color id=\"2\"}}호박 케이크{{color id=\"65535\"}}…{{delay1}}\n그리고…{{fun_0001_000A arg=\"0x070001CD\"}}",
      "TWzh": "{{fun_0003_0001 arg=\"0x0000\"}}比方說，{{color id=\"2\"}}胡蘿蔔蛋糕{{color id=\"65535\"}}和{{color id=\"2\"}}南瓜蛋糕{{color id=\"65535\"}}……{{delay1}}\n還有……{{fun_0001_000A arg=\"0x070001CD\"}}",
      "USen": "{{fun_0003_0001 arg=\"0x0000\"}}For example, {{color id=\"2\"}}carrot cake{{color id=\"65535\"}} or\n{{color id=\"2\"}}pumpkin pie{{color id=\"65535\"}}...{{delay1}} Also...{{fun_0001_000A arg=\"0x070001CD\"}}",
      "USes": "{{fun_0003_0001 arg=\"0x0000\"}}Por ejemplo, {{color id=\"2\"}}pastel de zanahoria{{color id=\"65535\"}},\n{{color id=\"2\"}}pay de calabaza{{color id=\"65535\"}}...{{delay1}} y otros.{{fun_0001_000A arg=\"0x070001CD\"}}",
      "USfr": "{{fun_0003_0001 arg=\"0x0000\"}}Le {{color id=\"2\"}}gâteau aux carottes{{color id=\"65535\"}} par exemple,\net le {{color id=\"2\"}}gâteau à la citrouille{{color id=\"65535\"}}...{{delay1}}\nEt aussi...{{fun_0001_000A arg=\"0x070001CD\"}}"
    }
  },
  {
    "label": "talk20",
    "attribute": "0x96030000",
    "locale": {
      "CNzh": "{{fun_0003_0001 arg=\"0x0001\"}}其他……我还学了怎么做{{color id=\"2\"}}怪物蛋糕{{color id=\"65535\"}}。\n\n{{fun_0003_0001 arg=\"0x0100\"}}作法很简单！{{delay3}}\n只要在{{color id=\"2\"}}塔邦挞小麦{{color id=\"65535\"}}、{{delay1}}{{color id=\"2\"}}蔗糖{{color id=\"65535\"}}、{{delay1}}{{color id=\"2\"}}山羊黄油{{color id=\"65535\"}}里{{delay1}}\n加入{{color id=\"0\"}}怪物精华{{color id=\"65535\"}}就行了……\n\n{{fun_0003_0001 arg=\"0x0501\"}}不过最近{{delay1}}很难拿到{{color id=\"0\"}}怪物精华{{color id=\"65535\"}}呢。",
      "EUde": "{{fun_0003_0001 arg=\"0x0001\"}}Außerdem habe ich auch gelernt, wie\nman {{color id=\"2\"}}{{wordInfo gender=\"1\" defArticle=\"0\" indefArticle=\"0\" isPlural=\"0\"}}Monsterkuchen{{color id=\"65535\"}} backt.{{pageBreak}}{{fun_0003_0001 arg=\"0x0100\"}}Es ist eigentlich kinderleicht:{{delay3}}\n{{color id=\"2\"}}{{wordInfo gender=\"1\" defArticle=\"4\" indefArticle=\"4\" isPlural=\"0\"}}Tabanta-Weizen{{color id=\"65535\"}},{{delay1}} {{color id=\"2\"}}{{wordInfo gender=\"1\" defArticle=\"4\" indefArticle=\"4\" isPlural=\"0\"}}Rohrzucker{{color id=\"65535\"}},{{delay1}}\n{{color id=\"2\"}}{{wordInfo gender=\"2\" defArticle=\"4\" indefArticle=\"4\" isPlural=\"0\"}}Ziegenbutter{{color id=\"65535\"}}{{delay1}} und {{color id=\"0\"}}{{wordInfo gender=\"2\" defArticle=\"4\" indefArticle=\"4\" isPlural=\"0\"}}Monster-Essenz{{color id=\"65535\"}}.\n{{fun_0003_0001 arg=\"0x0501\"}}Mehr braucht man nicht.{{delay1}} {{color id=\"0\"}}{{wordInfo gender=\"2\" defArticle=\"4\" indefArticle=\"4\" isPlural=\"0\"}}Monster-Essenz{{color id=\"65535\"}}\nist aber in letzter Zeit nicht mehr leicht\nzu bekommen...",
      "EUen": "{{fun_0003_0001 arg=\"0x0001\"}}Well, I was taught how to make\nsomething called a {{color id=\"2\"}}monster cake{{color id=\"65535\"}} too.\n\n{{fun_0003_0001 arg=\"0x0100\"}}It's easy to make.{{delay3}} You just need\n{{color id=\"2\"}}Tabantha wheat{{color id=\"65535\"}},{{delay1}} {{color id=\"2\"}}cane sugar{{color id=\"65535\"}},{{delay1}} and\n{{color id=\"2\"}}goat butter{{color id=\"65535\"}}...{{delay1}}\n{{fun_0003_0001 arg=\"0x0501\"}}And you also have to add some\n{{color id=\"0\"}}monster extract{{color id=\"65535\"}}{{delay1}}, but that's been\ntough to come by lately...",
      "EUes": "{{fun_0003_0001 arg=\"0x0001\"}}Además de eso, también aprendí a hacer\nuno llamado {{color id=\"2\"}}pastelito de monstruo{{color id=\"65535\"}}.{{delay3}}\nEs bastante fácil de preparar.{{pageBreak}}{{fun_0003_0001 arg=\"0x0100\"}}Solo necesitarás {{color id=\"2\"}}{{wordInfo gender=\"1\" defArticle=\"0\" indefArticle=\"0\" isPlural=\"0\"}}trigo de Tabanta{{color id=\"65535\"}},{{delay1}}\n{{color id=\"2\"}}{{wordInfo gender=\"2\" defArticle=\"1\" indefArticle=\"1\" isPlural=\"0\"}}caña de azúcar{{color id=\"65535\"}}{{delay1}} y {{color id=\"2\"}}{{wordInfo gender=\"2\" defArticle=\"1\" indefArticle=\"1\" isPlural=\"0\"}}manteca de cabra{{color id=\"65535\"}}.{{delay1}}\nDespués se añade {{color id=\"0\"}}{{wordInfo gender=\"2\" defArticle=\"1\" indefArticle=\"1\" isPlural=\"0\"}}esencia de monstruo{{color id=\"65535\"}}.\n{{fun_0003_0001 arg=\"0x0501\"}}Aunque la {{color id=\"0\"}}{{wordInfo gender=\"2\" defArticle=\"1\" indefArticle=\"1\" isPlural=\"0\"}}esencia de monstruo{{color id=\"65535\"}}\nno es fácil de encontrar últimamente.",
      "EUfr": "{{fun_0003_0001 arg=\"0x0001\"}}Quoi d'autre... Ah, j'ai aussi appris à\nfaire le {{color id=\"2\"}}gâteau au monstre{{color id=\"65535\"}}.\n\n{{fun_0003_0001 arg=\"0x0100\"}}Ce n'est pas compliqué.{{delay3}} Tu mélanges\nun {{color id=\"2\"}}{{wordInfo gender=\"1\" defArticle=\"0\" indefArticle=\"0\" isPlural=\"0\"}}boisseau de blé{{color id=\"65535\"}},{{delay1}} une {{color id=\"2\"}}{{wordInfo gender=\"2\" defArticle=\"1\" indefArticle=\"1\" isPlural=\"0\"}}canne à sucre{{color id=\"65535\"}},{{delay1}}\nune {{color id=\"2\"}}{{wordInfo gender=\"2\" defArticle=\"1\" indefArticle=\"1\" isPlural=\"0\"}}motte de beurre{{color id=\"65535\"}}, et pour finir...{{delay1}}\n... tu ajoutes un {{color id=\"0\"}}{{wordInfo gender=\"1\" defArticle=\"4\" indefArticle=\"0\" isPlural=\"0\"}}extrait de monstre{{color id=\"65535\"}}.\n\n\n{{fun_0003_0001 arg=\"0x0501\"}}Malheureusement, ces derniers temps,\nil est devenu difficile de s'en procurer.",
      "EUit": "{{fun_0003_0001 arg=\"0x0001\"}}Mi hanno insegnato anche a fare\nla {{color id=\"2\"}}torta di mostro{{color id=\"65535\"}}, se ti pare.\n\n{{fun_0003_0001 arg=\"0x0100\"}}Non è difficile.{{delay3}} Ti servono\n{{color id=\"2\"}}{{wordInfo gender=\"1\" defArticle=\"0\" indefArticle=\"7\" isPlural=\"0\"}}grano di Colbacco{{color id=\"65535\"}},{{delay1}} {{color id=\"2\"}}{{wordInfo gender=\"2\" defArticle=\"2\" indefArticle=\"2\" isPlural=\"0\"}}canna da zucchero{{color id=\"65535\"}},{{delay1}}\ne {{color id=\"2\"}}{{wordInfo gender=\"1\" defArticle=\"0\" indefArticle=\"7\" isPlural=\"0\"}}burro di capra{{color id=\"65535\"}}...{{delay1}}\n{{fun_0003_0001 arg=\"0x0501\"}}Ma non dimenticare la fondamentale\n{{color id=\"0\"}}{{wordInfo gender=\"2\" defArticle=\"3\" indefArticle=\"9\" isPlural=\"0\"}}essenza di mostro{{color id=\"65535\"}}{{delay1}}, anche se\nultimamente è diventata rarissima.",
      "EUnl": "{{fun_0003_0001 arg=\"0x0001\"}}Ik heb ook geleerd hoe ik een\n{{color id=\"2\"}}monstertaart {{color id=\"65535\"}}moet maken.{{pageBreak}}{{fun_0003_0001 arg=\"0x0100\"}}Het is heel eenvoudig.{{delay3}} Je hebt\n{{color id=\"2\"}}Tabantha-tarwe {{color id=\"65535\"}}nodig, en {{color id=\"2\"}}rietsuiker{{color id=\"65535\"}}, en\n{{color id=\"2\"}}geitenboter{{color id=\"65535\"}}...\n{{fun_0003_0001 arg=\"0x0501\"}}Je moet ook een beetje {{color id=\"0\"}}monsterextract{{color id=\"65535\"}}\ntoevoegen, maar dat is de laatste tijd\nniet meer zo makkelijk te verkrijgen...",
      "EUru": "{{fun_0003_0001 arg=\"0x0001\"}}Что еще?..{{delay1}} Пробовал {{color id=\"2\"}}кекс монстрони{{color id=\"65535\"}}?{{pageBreak}}{{fun_0003_0001 arg=\"0x0100\"}}Состав простой: {{color id=\"2\"}}табантская пшеница{{color id=\"65535\"}},\n{{color id=\"2\"}}сахарный тростник{{color id=\"65535\"}} и {{color id=\"2\"}}козье масло{{color id=\"65535\"}}...{{pageBreak}}{{fun_0003_0001 arg=\"0x0501\"}}Правда, нужен еще {{color id=\"0\"}}экстракт монстра{{color id=\"65535\"}},\nа достать его довольно сложно.",
      "JPja": "{{fun_0003_0001 arg=\"0x0001\"}}{{ruby charSpan=\"1\" value=\"ほか\"}}他には… {{color id=\"2\"}}マモノケーキ{{color id=\"65535\"}}ってのも{{ruby charSpan=\"1\" value=\"おそ\"}}教わったわね\n\n{{fun_0003_0001 arg=\"0x0100\"}}{{ruby charSpan=\"1\" value=\"つく\"}}作り{{ruby charSpan=\"1\" value=\"かた\"}}方は{{ruby charSpan=\"2\" value=\"かんたん\"}}簡単よ{{delay3}}\n{{color id=\"2\"}}タバンタ{{ruby charSpan=\"2\" value=\"こむぎ\"}}小麦{{color id=\"65535\"}} {{delay1}}{{color id=\"2\"}}きび{{ruby charSpan=\"2\" value=\"ざとう\"}}砂糖{{color id=\"65535\"}}{{delay1}} {{color id=\"2\"}}ヤギのバター{{color id=\"65535\"}}に{{delay1}}\n{{color id=\"0\"}}マモノエキス{{color id=\"65535\"}}を {{ruby charSpan=\"1\" value=\"くわ\"}}加えるだけなんだけど…\n\n{{fun_0003_0001 arg=\"0x0501\"}}{{ruby charSpan=\"2\" value=\"さいきん\"}}最近は{{color id=\"0\"}}マモノエキス{{color id=\"65535\"}}が{{delay1}}\n{{ruby charSpan=\"2\" value=\"めった\"}}滅多に{{ruby charSpan=\"1\" value=\"て\"}}手に{{ruby charSpan=\"1\" value=\"はい\"}}入らなくてねぇ",
      "KRko": "{{fun_0003_0001 arg=\"0x0001\"}}그밖엔… {{color id=\"2\"}}몬스터 케이크{{color id=\"65535\"}}라는 것도 배웠지\n\n{{fun_0003_0001 arg=\"0x0100\"}}만드는 법은 간단해{{delay3}}\n{{color id=\"2\"}}타반타 밀{{color id=\"65535\"}} {{delay1}}{{color id=\"2\"}}사탕수수{{color id=\"65535\"}}{{delay1}} {{color id=\"2\"}}염소 버터{{color id=\"65535\"}}에{{delay1}}\n{{color id=\"0\"}}몬스터엑기스{{color id=\"65535\"}}를 넣기만 하면 되는데…\n\n{{fun_0003_0001 arg=\"0x0501\"}}요즘은 {{color id=\"0\"}}몬스터엑기스 {{color id=\"65535\"}}손에 넣기가{{delay1}}\n좀처럼 쉽지 않아서 말야",
      "TWzh": "{{fun_0003_0001 arg=\"0x0001\"}}其他……我還學了怎麼做{{color id=\"2\"}}怪物蛋糕{{color id=\"65535\"}}呢。\n\n{{fun_0003_0001 arg=\"0x0100\"}}作法很簡單，{{delay3}}\n只要在{{color id=\"2\"}}塔邦撻小麥{{color id=\"65535\"}}、{{delay1}}{{color id=\"2\"}}蔗糖{{color id=\"65535\"}}、{{delay1}}{{color id=\"2\"}}山羊奶油{{color id=\"65535\"}}裡，{{delay1}}\n加入{{color id=\"0\"}}怪物精華{{color id=\"65535\"}}就行了……\n\n{{fun_0003_0001 arg=\"0x0501\"}}不過最近{{delay1}}\n很難取得{{color id=\"0\"}}怪物精華{{color id=\"65535\"}}呢。",
      "USen": "{{fun_0003_0001 arg=\"0x0001\"}}Well, I was taught how to make\nsomething called a {{color id=\"2\"}}monster cake{{color id=\"65535\"}} too.\n\n{{fun_0003_0001 arg=\"0x0100\"}}It's easy to make.{{delay3}} You just need\n{{color id=\"2\"}}Tabantha wheat{{color id=\"65535\"}},{{delay1}} {{color id=\"2\"}}cane sugar{{color id=\"65535\"}},{{delay1}} and\n{{color id=\"2\"}}goat butter{{color id=\"65535\"}}...{{delay1}}\n{{fun_0003_0001 arg=\"0x0501\"}}And you also have to add some\n{{color id=\"0\"}}monster extract{{color id=\"65535\"}}{{delay1}}, but that's been\ntough to come by lately...",
      "USes": "{{fun_0003_0001 arg=\"0x0001\"}}Además de eso, también aprendí a\nhacer uno llamado {{color id=\"2\"}}pastel de monstruo{{color id=\"65535\"}}.{{delay3}}\nEs bastante fácil de preparar.{{pageBreak}}{{fun_0003_0001 arg=\"0x0100\"}}Solo necesitarás {{color id=\"2\"}}{{wordInfo gender=\"1\" defArticle=\"0\" indefArticle=\"0\" isPlural=\"0\"}}Trigo de Tabanta{{color id=\"65535\"}},{{delay1}}\n{{color id=\"2\"}}{{wordInfo gender=\"1\" defArticle=\"0\" indefArticle=\"0\" isPlural=\"0\"}}azúcar de caña{{color id=\"65535\"}}{{delay1}} y {{color id=\"2\"}}{{wordInfo gender=\"2\" defArticle=\"1\" indefArticle=\"1\" isPlural=\"0\"}}mantequilla de cabra{{color id=\"65535\"}}.{{delay1}}\nDespués se añade {{color id=\"0\"}}{{wordInfo gender=\"2\" defArticle=\"1\" indefArticle=\"1\" isPlural=\"0\"}}esencia de monstruo{{color id=\"65535\"}}.\n{{fun_0003_0001 arg=\"0x0501\"}}Aunque la {{color id=\"0\"}}{{wordInfo gender=\"2\" defArticle=\"1\" indefArticle=\"1\" isPlural=\"0\"}}esencia de monstruo{{color id=\"65535\"}}\nno es fácil de encontrar últimamente.",
      "USfr": "{{fun_0003_0001 arg=\"0x0001\"}}Quoi d'autre... Ah, j'ai aussi appris à\nfaire le {{color id=\"2\"}}gâteau au monstre{{color id=\"65535\"}}.\n\n{{fun_0003_0001 arg=\"0x0100\"}}Ce n'est pas compliqué.{{delay3}} Tu mélanges\nun {{color id=\"2\"}}{{wordInfo gender=\"1\" defArticle=\"0\" indefArticle=\"0\" isPlural=\"0\"}}boisseau de blé{{color id=\"65535\"}},{{delay1}} une {{color id=\"2\"}}{{wordInfo gender=\"2\" defArticle=\"1\" indefArticle=\"1\" isPlural=\"0\"}}canne à sucre{{color id=\"65535\"}},{{delay1}}\nune {{color id=\"2\"}}{{wordInfo gender=\"2\" defArticle=\"1\" indefArticle=\"1\" isPlural=\"0\"}}motte de beurre{{color id=\"65535\"}}, et pour finir...{{delay1}}\n... tu ajoutes un {{color id=\"0\"}}{{wordInfo gender=\"1\" defArticle=\"4\" indefArticle=\"0\" isPlural=\"0\"}}extrait de monstre{{color id=\"65535\"}}.\n\n\n{{fun_0003_0001 arg=\"0x0501\"}}Malheureusement, ces derniers temps,\nil est devenu difficile de s'en procurer."
    }
  },
  {
    "label": "talk21",
    "attribute": "0xBC030000",
    "locale": {
      "CNzh": "{{fun_0003_0001 arg=\"0x0001\"}}我虽然还算擅长下厨，{{delay1}}\n不过更擅长制作蛋糕之类的点心。\n因为我的奶奶以前曾是{{delay1}}\n王族御用的点心师傅呢。\n{{fun_0003_0001 arg=\"0x000B\"}}所以我年轻时，{{delay1}}\n就跟她学了不少蛋糕的作法。",
      "EUde": "{{fun_0003_0001 arg=\"0x0001\"}}Ich kann zwar auch gut kochen, aber\nmeine Spezialität sind Süßigkeiten,\nbesonders Kuchen.{{pageBreak}}Meine Großmutter war königliche\nHofbäckerin.{{pageBreak}}{{fun_0003_0001 arg=\"0x000B\"}}Von ihr habe ich viele Kuchenrezepte\ngelernt.",
      "EUen": "{{fun_0003_0001 arg=\"0x0001\"}}Sure, I can keep from burning water, but\nmy real gift is baking cakes and sweets\nand the like.\n{{fun_0003_0001 arg=\"0x000B\"}}My grandmother{{delay1}}—wonderful woman—{{delay1}}\nran a sweet shop for the royal family.\nShe taught me everything I know!",
      "EUes": "{{fun_0003_0001 arg=\"0x0001\"}}No se me da mal cocinar en general,{{delay1}}\naunque mi especialidad es la repostería.{{pageBreak}}{{fun_0003_0001 arg=\"0x000B\"}}Mi abuela era pastelera de la familia\nreal,{{delay1}} y fue ella la que me enseñó a\npreparar muchas tartas y pasteles.",
      "EUfr": "{{fun_0003_0001 arg=\"0x0001\"}}Ma foi, on peut dire que je cuisine bien,\noui...{{delay1}} surtout les gâteaux, les pâtisseries\net ce genre de choses.\nVois-tu, ma grand-mère était pâtissière\nà la cour.\n\n{{fun_0003_0001 arg=\"0x000B\"}}Et quand j'étais jeune, elle m'a appris à\nfaire toutes sortes de gâteaux.",
      "EUit": "{{fun_0003_0001 arg=\"0x0001\"}}Sì, so cucinare,{{delay1}} ma sono molto più\nbrava in pasticceria.\n\n{{fun_0003_0001 arg=\"0x000B\"}}Mia nonna era la pasticciera della\nfamiglia reale!{{delay1}} Fu lei a insegnarmi\na fare un sacco di torte!",
      "EUnl": "{{fun_0003_0001 arg=\"0x0001\"}}Ik kan inderdaad goed koken, maar ik\nben nog veel beter in het bakken van\ntaarten en andere zoetigheden.\n{{fun_0003_0001 arg=\"0x000B\"}}Mijn oma runde een snoepwinkel voor de\nkoninklijke familie, dus zij heeft me de\nfijne kneepjes van het vak bijgebracht.",
      "EUru": "{{fun_0003_0001 arg=\"0x0001\"}}Да, готовлю я хорошо, но лучше\nвсего у меня получается выпечка.{{pageBreak}}{{fun_0003_0001 arg=\"0x000B\"}}Моя бабушка была придворным\nпекарем.{{delay1}} Это она научила меня\nпечь пироги да кексы.",
      "JPja": "{{fun_0003_0001 arg=\"0x0001\"}}{{ruby charSpan=\"1\" value=\"わたし\"}}私は {{ruby charSpan=\"2\" value=\"りょうり\"}}料理も{{ruby charSpan=\"2\" value=\"とくい\"}}得意だけど{{delay1}}\nケーキとかの お{{ruby charSpan=\"2\" value=\"かし\"}}菓子の{{ruby charSpan=\"1\" value=\"ほう\"}}方が{{ruby charSpan=\"2\" value=\"とくい\"}}得意でね\n{{ruby charSpan=\"1\" value=\"わたし\"}}私のお{{ruby charSpan=\"2\" value=\"ばあさま\"}}婆様が {{ruby charSpan=\"5\" value=\"おうしつごようたし\"}}王室御用達の{{delay1}}\nお{{ruby charSpan=\"3\" value=\"かしや\"}}菓子屋をやっとりましたからね\n{{fun_0003_0001 arg=\"0x000B\"}}だから {{ruby charSpan=\"1\" value=\"わか\"}}若い{{ruby charSpan=\"1\" value=\"ころ\"}}頃 いろんなケーキの{{ruby charSpan=\"1\" value=\"つく\"}}作り{{ruby charSpan=\"1\" value=\"かた\"}}方を{{delay1}}\n{{ruby charSpan=\"1\" value=\"おし\"}}教えてもらったりして",
      "KRko": "{{fun_0003_0001 arg=\"0x0001\"}}요리도 특기지만{{delay1}}\n케이크나 과자는 더 잘 만든다네\n할머니가 왕실에{{delay1}}\n과자를 납품했었거든\n{{fun_0003_0001 arg=\"0x000B\"}}그래서 젊었을 때{{delay1}}\n온갖 케이크 만드는 법을 배우곤 했지",
      "TWzh": "{{fun_0003_0001 arg=\"0x0001\"}}我雖然還算擅長下廚，{{delay1}}\n不過更擅長製作蛋糕之類的點心。\n因為我的奶奶以前曾是{{delay1}}\n王族御用的點心師傅呢。\n{{fun_0003_0001 arg=\"0x000B\"}}所以我年輕時，{{delay1}}\n就跟她學了不少蛋糕的作法。",
      "USen": "{{fun_0003_0001 arg=\"0x0001\"}}Sure, I can keep from burning water, but\nmy real gift is baking cakes and sweets\nand the like.\n{{fun_0003_0001 arg=\"0x000B\"}}My grandmother{{delay1}}—wonderful woman—{{delay1}}\nran a sweet shop for the royal family.\nShe taught me everything I know!",
      "USes": "{{fun_0003_0001 arg=\"0x0001\"}}Creo que no soy mala para cocinar,{{delay1}}\npero mi especialidad es la repostería.{{pageBreak}}{{fun_0003_0001 arg=\"0x000B\"}}Mi abuela era pastelera de la familia\nreal,{{delay1}} y fue ella la que me enseñó a\npreparar muchos pasteles.",
      "USfr": "{{fun_0003_0001 arg=\"0x0001\"}}Ma foi, on peut dire que je cuisine bien,\noui...{{delay1}} surtout les gâteaux, les pâtisseries\net ce genre de choses.\nVois-tu, ma grand-mère était pâtissière\nà la cour.\n\n{{fun_0003_0001 arg=\"0x000B\"}}Et quand j'étais jeune, elle m'a appris à\nfaire toutes sortes de gâteaux."
    }
  },
  {
    "label": "talk22",
    "attribute": "0xE2030000",
    "locale": {
      "CNzh": "{{fun_0003_0001 arg=\"0x0004\"}}没问题……{{delay1}}没问题……{{delay3}}\n要我教几次都行。\n{{fun_0003_0001 arg=\"0x0001\"}}你试着在{{color id=\"2\"}}塔邦挞小麦{{color id=\"65535\"}}、{{delay1}}{{color id=\"2\"}}蔗糖{{color id=\"65535\"}}、{{delay1}}{{color id=\"2\"}}山羊黄油{{color id=\"65535\"}}里{{delay1}}\n加入{{color id=\"0\"}}怪物精华{{color id=\"65535\"}}看看。",
      "EUde": "{{fun_0003_0001 arg=\"0x0004\"}}Ich sage Ihnen das Rezept gerne, so oft\nSie wollen.{{pageBreak}}{{color id=\"2\"}}{{fun_0003_0001 arg=\"0x0001\"}}{{wordInfo gender=\"1\" defArticle=\"4\" indefArticle=\"4\" isPlural=\"0\"}}Tabanta-Weizen{{color id=\"65535\"}}, {{delay1}}{{color id=\"2\"}}{{wordInfo gender=\"1\" defArticle=\"4\" indefArticle=\"4\" isPlural=\"0\"}}Rohrzucker{{color id=\"65535\"}},{{delay1}}\n{{color id=\"2\"}}{{wordInfo gender=\"2\" defArticle=\"4\" indefArticle=\"4\" isPlural=\"0\"}}Ziegenbutter{{color id=\"65535\"}}{{delay1}} und {{color id=\"0\"}}{{wordInfo gender=\"2\" defArticle=\"4\" indefArticle=\"4\" isPlural=\"0\"}}Monster-Essenz{{color id=\"65535\"}}.{{delay1}}\nAlles gut verkneten!",
      "EUen": "{{fun_0003_0001 arg=\"0x0004\"}}Sure...{{delay1}}sure...{{delay3}}\nI'll teach you as many times as you like.\n\n{{fun_0003_0001 arg=\"0x0001\"}}You need to add some {{color id=\"0\"}}monster extract{{color id=\"65535\"}}{{delay1}}\nto some {{color id=\"2\"}}Tabantha wheat{{color id=\"65535\"}},{{delay1}} {{color id=\"2\"}}cane sugar{{color id=\"65535\"}},{{delay1}}\nand {{color id=\"2\"}}goat butter{{color id=\"65535\"}}.",
      "EUes": "{{fun_0003_0001 arg=\"0x0004\"}}Claro, no te preocupes;{{delay1}} te lo repito\nlas veces que haga falta.{{pageBreak}}{{fun_0003_0001 arg=\"0x0001\"}}Tienes que usar {{color id=\"2\"}}{{wordInfo gender=\"1\" defArticle=\"0\" indefArticle=\"0\" isPlural=\"0\"}}trigo de Tabanta{{color id=\"65535\"}},{{delay1}}\n{{color id=\"2\"}}{{wordInfo gender=\"2\" defArticle=\"1\" indefArticle=\"1\" isPlural=\"0\"}}caña de azúcar{{color id=\"65535\"}}{{delay1}} y {{color id=\"2\"}}{{wordInfo gender=\"2\" defArticle=\"1\" indefArticle=\"1\" isPlural=\"0\"}}manteca de cabra{{color id=\"65535\"}},{{delay1}}\ny luego añadir {{color id=\"0\"}}{{wordInfo gender=\"2\" defArticle=\"1\" indefArticle=\"1\" isPlural=\"0\"}}esencia de monstruo{{color id=\"65535\"}}.",
      "EUfr": "{{fun_0003_0001 arg=\"0x0004\"}}Ah, oui... le gâteau au monstre...{{delay1}}\nJe peux te répéter la recette, bien sûr.{{delay1}}\nAutant de fois que tu le voudras.\n{{fun_0003_0001 arg=\"0x0001\"}}Tu mélanges un {{color id=\"2\"}}{{wordInfo gender=\"1\" defArticle=\"0\" indefArticle=\"0\" isPlural=\"0\"}}boisseau de blé{{color id=\"65535\"}},{{delay1}} une\n{{color id=\"2\"}}{{wordInfo gender=\"2\" defArticle=\"1\" indefArticle=\"1\" isPlural=\"0\"}}canne à sucre{{color id=\"65535\"}}{{delay1}} et une {{color id=\"2\"}}{{wordInfo gender=\"2\" defArticle=\"1\" indefArticle=\"1\" isPlural=\"0\"}}motte de beurre{{color id=\"65535\"}},{{delay1}}\net tu rajoutes un {{color id=\"0\"}}{{wordInfo gender=\"1\" defArticle=\"4\" indefArticle=\"0\" isPlural=\"0\"}}extrait de monstre{{color id=\"65535\"}}.",
      "EUit": "{{fun_0003_0001 arg=\"0x0004\"}}Sì...{{delay1}} sì...{{delay3}}\nTi insegnerò ogni volta che vuoi.\n\n{{fun_0003_0001 arg=\"0x0001\"}}Devi mescolare {{color id=\"2\"}}{{wordInfo gender=\"1\" defArticle=\"0\" indefArticle=\"7\" isPlural=\"0\"}}grano di Colbacco{{color id=\"65535\"}},{{delay1}}\n{{color id=\"2\"}}{{wordInfo gender=\"2\" defArticle=\"2\" indefArticle=\"2\" isPlural=\"0\"}}canna da zucchero{{color id=\"65535\"}}{{delay1}} e {{color id=\"2\"}}{{wordInfo gender=\"1\" defArticle=\"0\" indefArticle=\"7\" isPlural=\"0\"}}burro di capra{{color id=\"65535\"}},{{delay1}}\npoi aggiungere dell'{{color id=\"0\"}}{{wordInfo gender=\"2\" defArticle=\"3\" indefArticle=\"9\" isPlural=\"0\"}}essenza di mostro{{color id=\"65535\"}}.",
      "EUnl": "{{fun_0003_0001 arg=\"0x0004\"}}Uiteraard... Ik leg het je uit zo vaak je\nmaar wilt.{{pageBreak}}{{fun_0003_0001 arg=\"0x0001\"}}Je moet een beetje {{color id=\"0\"}}monsterextract{{color id=\"65535\"}}{{delay1}} \nmengen met {{color id=\"2\"}}Tabantha-tarwe{{color id=\"65535\"}},{{delay1}} {{color id=\"2\"}}rietsuiker{{color id=\"65535\"}}\nen {{color id=\"2\"}}geitenboter {{color id=\"65535\"}}en dan goed roeren.",
      "EUru": "{{fun_0003_0001 arg=\"0x0004\"}}Забыл состав?{{delay1}} Тогда слушай еще раз...{{pageBreak}}{{fun_0003_0001 arg=\"0x0001\"}}Нужно взять {{color id=\"0\"}}экстракт монстра{{color id=\"65535\"}},\n{{color id=\"2\"}}табантскую пшеницу{{color id=\"65535\"}}, {{color id=\"2\"}}сахарный\nтростник {{color id=\"65535\"}}и {{color id=\"2\"}}козье масло{{color id=\"65535\"}}.",
      "JPja": "{{fun_0003_0001 arg=\"0x0004\"}}ええ… {{delay1}}ええ…{{delay3}}\n{{ruby charSpan=\"2\" value=\"なんど\"}}何度でも {{ruby charSpan=\"1\" value=\"おし\"}}教えて{{ruby charSpan=\"1\" value=\"さ\"}}差し{{ruby charSpan=\"1\" value=\"あ\"}}上げるわ\n{{fun_0003_0001 arg=\"0x0001\"}}{{color id=\"2\"}}タバンタ{{ruby charSpan=\"2\" value=\"こむぎ\"}}小麦{{color id=\"65535\"}} {{delay1}}{{color id=\"2\"}}きび{{ruby charSpan=\"2\" value=\"ざとう\"}}砂糖{{color id=\"65535\"}}{{delay1}} {{color id=\"2\"}}ヤギのバター{{color id=\"65535\"}}に{{delay1}}\n{{color id=\"0\"}}マモノエキス{{color id=\"65535\"}}を{{ruby charSpan=\"1\" value=\"くわ\"}}加えてごらん",
      "KRko": "{{fun_0003_0001 arg=\"0x0004\"}}그래… {{delay1}}그래…{{delay3}}\n몇 번이고 알려줄 수 있지\n{{fun_0003_0001 arg=\"0x0001\"}}{{color id=\"2\"}}타반타 밀{{color id=\"65535\"}} {{delay1}}{{color id=\"2\"}}사탕수수{{color id=\"65535\"}}{{delay1}} {{color id=\"2\"}}염소 버터{{color id=\"65535\"}}에{{delay1}}\n{{color id=\"0\"}}몬스터엑기스{{color id=\"65535\"}}를 넣어 보시게나",
      "TWzh": "{{fun_0003_0001 arg=\"0x0004\"}}沒問題……{{delay1}}沒問題……{{delay3}}\n要我教幾次都行。\n{{fun_0003_0001 arg=\"0x0001\"}}你試著在{{color id=\"2\"}}塔邦撻小麥{{color id=\"65535\"}}、{{delay1}}{{color id=\"2\"}}蔗糖{{color id=\"65535\"}}、{{delay1}}{{color id=\"2\"}}山羊奶油{{color id=\"65535\"}}裡，{{delay1}}\n加入{{color id=\"0\"}}怪物精華{{color id=\"65535\"}}看看。",
      "USen": "{{fun_0003_0001 arg=\"0x0004\"}}Sure...{{delay1}}sure...{{delay3}}\nI'll teach you as many times as you like.\n\n{{fun_0003_0001 arg=\"0x0001\"}}You need to add some {{color id=\"0\"}}monster extract{{color id=\"65535\"}}{{delay1}}\nto some {{color id=\"2\"}}Tabantha wheat{{color id=\"65535\"}},{{delay1}} {{color id=\"2\"}}cane sugar{{color id=\"65535\"}},{{delay1}}\nand {{color id=\"2\"}}goat butter{{color id=\"65535\"}}.",
      "USes": "{{fun_0003_0001 arg=\"0x0004\"}}Claro, no te preocupes;{{delay1}} te lo repito\nlas veces que hagan falta.{{pageBreak}}{{fun_0003_0001 arg=\"0x0001\"}}Tienes que usar {{color id=\"2\"}}{{wordInfo gender=\"1\" defArticle=\"0\" indefArticle=\"0\" isPlural=\"0\"}}trigo de Tabanta{{color id=\"65535\"}},{{delay1}}\n{{color id=\"2\"}}{{wordInfo gender=\"1\" defArticle=\"0\" indefArticle=\"0\" isPlural=\"0\"}}azúcar de caña{{color id=\"65535\"}}{{delay1}} y {{color id=\"2\"}}{{wordInfo gender=\"2\" defArticle=\"1\" indefArticle=\"1\" isPlural=\"0\"}}mantequilla de cabra{{color id=\"65535\"}}.{{delay1}}\nLuego añades {{color id=\"0\"}}{{wordInfo gender=\"2\" defArticle=\"1\" indefArticle=\"1\" isPlural=\"0\"}}esencia de monstruo{{color id=\"65535\"}}.",
      "USfr": "{{fun_0003_0001 arg=\"0x0004\"}}Ah, oui... le gâteau au monstre...{{delay1}}\nJe peux te répéter la recette, bien sûr.{{delay1}}\nAutant de fois que tu le voudras.\n{{fun_0003_0001 arg=\"0x0001\"}}Tu mélanges un {{color id=\"2\"}}{{wordInfo gender=\"1\" defArticle=\"0\" indefArticle=\"0\" isPlural=\"0\"}}boisseau de blé{{color id=\"65535\"}},{{delay1}} une\n{{color id=\"2\"}}{{wordInfo gender=\"2\" defArticle=\"1\" indefArticle=\"1\" isPlural=\"0\"}}canne à sucre{{color id=\"65535\"}}{{delay1}} et une {{color id=\"2\"}}{{wordInfo gender=\"2\" defArticle=\"1\" indefArticle=\"1\" isPlural=\"0\"}}motte de beurre{{color id=\"65535\"}},{{delay1}}\net tu rajoutes un {{color id=\"0\"}}{{wordInfo gender=\"1\" defArticle=\"4\" indefArticle=\"0\" isPlural=\"0\"}}extrait de monstre{{color id=\"65535\"}}."
    }
  },
  {
    "label": "talk23",
    "attribute": "0x08040000",
    "locale": {
      "CNzh": "{{fun_0003_0001 arg=\"0x0001\"}}{{color id=\"2\"}}怪物蛋糕{{color id=\"65535\"}}虽然卖相不佳，味道也不好闻，{{delay1}}\n但能让人变得生龙活虎。",
      "EUde": "{{fun_0003_0001 arg=\"0x0001\"}}Ein {{color id=\"2\"}}{{wordInfo gender=\"1\" defArticle=\"0\" indefArticle=\"0\" isPlural=\"0\"}}Monsterkuchen{{color id=\"65535\"}} ist keine Zierde und\nstreng riechen tut er auch.{{pageBreak}}Aber um die Lebensgeister zu erfrischen,\ngibt es nichts Besseres!",
      "EUen": "{{fun_0003_0001 arg=\"0x0001\"}}{{color id=\"2\"}}Monster cake{{color id=\"65535\"}} may look a little gross{{delay1}}\nand smell a little nauseating,{{delay1}} but it'll fill\nyou right up!",
      "EUes": "{{fun_0003_0001 arg=\"0x0001\"}}Quizá el {{color id=\"2\"}}pastelito de monstruo{{color id=\"65535\"}} tenga\nun olor un tanto desagradable,{{delay1}} ¡pero es\nincreíble la vitalidad que te proporciona!",
      "EUfr": "{{fun_0003_0001 arg=\"0x0001\"}}Le {{color id=\"2\"}}gâteau au monstre{{color id=\"65535\"}} n'est sans doute\npas très appétissant,{{delay1}} mais ça vous\nrevigore un homme !",
      "EUit": "{{fun_0003_0001 arg=\"0x0001\"}}La {{color id=\"2\"}}torta di mostro{{color id=\"65535\"}} ha un aspetto un po'\ndisgustoso,{{delay1}} ma ti riempie di vitalità!",
      "EUnl": "{{color id=\"2\"}}{{fun_0003_0001 arg=\"0x0001\"}}Monstertaart{{color id=\"65535\"}} ziet er misschien een\nbeetje onsmakelijk uit,{{delay1}} maar zit wel\nboordevol energie!",
      "EUru": "{{fun_0003_0001 arg=\"0x0001\"}}{{color id=\"2\"}}Кекс монстрони {{color id=\"65535\"}}выглядит не очень,\nда и пахнет плохо, зато он ужасно\nпитательный.",
      "JPja": "{{fun_0003_0001 arg=\"0x0001\"}}{{color id=\"2\"}}マモノケーキ{{color id=\"65535\"}}は{{ruby charSpan=\"1\" value=\"み\"}}見た{{ruby charSpan=\"1\" value=\"め\"}}目は{{ruby charSpan=\"1\" value=\"わる\"}}悪いし{{ruby charSpan=\"1\" value=\"にお\"}}臭いもキツいけど{{delay1}}\nとっても{{ruby charSpan=\"2\" value=\"せいりょく\"}}精力が {{ruby charSpan=\"1\" value=\"つ\"}}付くんだから",
      "KRko": "{{fun_0003_0001 arg=\"0x0001\"}}{{color id=\"2\"}}몬스터 케이크{{color id=\"65535\"}}는 겉보기도 냄새도 별로지만{{delay1}}\n엄청난 정력을 얻을 수 있지",
      "TWzh": "{{fun_0003_0001 arg=\"0x0001\"}}{{color id=\"2\"}}怪物蛋糕{{color id=\"65535\"}}雖然外型難看，味道也不好聞，{{delay1}}\n但能幫人增添許多精力。",
      "USen": "{{fun_0003_0001 arg=\"0x0001\"}}{{color id=\"2\"}}Monster cake{{color id=\"65535\"}} may look a little gross{{delay1}}\nand smell a little nauseating,{{delay1}} but it'll fill\nyou right up!",
      "USes": "{{fun_0003_0001 arg=\"0x0001\"}}Quizá el {{color id=\"2\"}}pastel de monstruo{{color id=\"65535\"}} tenga un\nolor muy desagradable,{{delay1}} ¡pero es increíble\nla vitalidad que te proporciona!",
      "USfr": "{{fun_0003_0001 arg=\"0x0001\"}}Le {{color id=\"2\"}}gâteau au monstre{{color id=\"65535\"}} n'est sans doute\npas très appétissant,{{delay1}} mais ça vous\nrevigore un homme!"
    }
  }
]