[
  {
    "label": "near00",
    "attribute": "0x18000000",
    "locale": {
      "CNzh": "{{fun_0004_0001 arg=\"0x2ACD\"}}好痛！",
      "EUde": "{{fun_0004_0001 arg=\"0x2ACD\"}}Autsch.",
      "EUen": "{{fun_0004_0001 arg=\"0x2ACD\"}}Ouch.",
      "EUes": "{{fun_0004_0001 arg=\"0x2ACD\"}}¡Au!",
      "EUfr": "{{fun_0004_0001 arg=\"0x2ACD\"}}Aïeuh !",
      "EUit": "{{fun_0004_0001 arg=\"0x2ACD\"}}Ahia.",
      "EUnl": "{{fun_0004_0001 arg=\"0x2ACD\"}}Au.",
      "EUru": "{{fun_0004_0001 arg=\"0x2ACD\"}}Ой!",
      "JPja": "{{fun_0004_0001 arg=\"0x2ACD\"}}イテッ",
      "KRko": "{{fun_0004_0001 arg=\"0x2ACD\"}}아야",
      "TWzh": "{{fun_0004_0001 arg=\"0x2ACD\"}}好痛！",
      "USen": "{{fun_0004_0001 arg=\"0x2ACD\"}}Ouch.",
      "USes": "{{fun_0004_0001 arg=\"0x2ACD\"}}¡Au!",
      "USfr": "{{fun_0004_0001 arg=\"0x2ACD\"}}Aïeuh!"
    }
  },
  {
    "label": "near01",
    "attribute": "0x1A000000",
    "locale": {
      "CNzh": "{{fun_0004_0001 arg=\"0x2ACD\"}}啊！",
      "EUde": "{{fun_0004_0001 arg=\"0x2ACD\"}}Kyah!",
      "EUen": "{{fun_0004_0001 arg=\"0x2ACD\"}}Gya!",
      "EUes": "{{fun_0004_0001 arg=\"0x2ACD\"}}¡Ay!",
      "EUfr": "{{fun_0004_0001 arg=\"0x2ACD\"}}Hiii !",
      "EUit": "{{fun_0004_0001 arg=\"0x2ACD\"}}Ohi!",
      "EUnl": "{{fun_0004_0001 arg=\"0x2ACD\"}}Aagh!",
      "EUru": "{{fun_0004_0001 arg=\"0x2ACD\"}}Ай!",
      "JPja": "{{fun_0004_0001 arg=\"0x2ACD\"}}ギャッ",
      "KRko": "{{fun_0004_0001 arg=\"0x2ACD\"}}끄악",
      "TWzh": "{{fun_0004_0001 arg=\"0x2ACD\"}}啊！",
      "USen": "{{fun_0004_0001 arg=\"0x2ACD\"}}Gya!",
      "USes": "{{fun_0004_0001 arg=\"0x2ACD\"}}¡Ay!",
      "USfr": "{{fun_0004_0001 arg=\"0x2ACD\"}}Hiii!"
    }
  },
  {
    "label": "near02",
    "attribute": "0x1C000000",
    "locale": {
      "CNzh": "{{fun_0004_0001 arg=\"0x2ACD\"}}呜！",
      "EUde": "{{fun_0004_0001 arg=\"0x2ACD\"}}Uuuh.",
      "EUen": "{{fun_0004_0001 arg=\"0x2ACD\"}}Unngh.",
      "EUes": "{{fun_0004_0001 arg=\"0x2ACD\"}}Ugh.",
      "EUfr": "{{fun_0004_0001 arg=\"0x2ACD\"}}Ouille...",
      "EUit": "{{fun_0004_0001 arg=\"0x2ACD\"}}Uuuh.",
      "EUnl": "{{fun_0004_0001 arg=\"0x2ACD\"}}Unh...",
      "EUru": "{{fun_0004_0001 arg=\"0x2ACD\"}}Ох...",
      "JPja": "{{fun_0004_0001 arg=\"0x2ACD\"}}ウッ",
      "KRko": "{{fun_0004_0001 arg=\"0x2ACD\"}}으윽",
      "TWzh": "{{fun_0004_0001 arg=\"0x2ACD\"}}嗚！",
      "USen": "{{fun_0004_0001 arg=\"0x2ACD\"}}Unngh.",
      "USes": "{{fun_0004_0001 arg=\"0x2ACD\"}}¡Uf!",
      "USfr": "{{fun_0004_0001 arg=\"0x2ACD\"}}Ouille..."
    }
  },
  {
    "label": "talk00",
    "attribute": "0x1E000000",
    "locale": {
      "CNzh": "{{fun_0003_0001 arg=\"0x0700\"}}改天见～",
      "EUde": "{{fun_0003_0001 arg=\"0x0700\"}}Tschühüüüs!",
      "EUen": "{{fun_0003_0001 arg=\"0x0700\"}}Twee hee!",
      "EUes": "{{fun_0003_0001 arg=\"0x0700\"}}¡Hasta la próxima!",
      "EUfr": "{{fun_0003_0001 arg=\"0x0700\"}}À la revoyure !",
      "EUit": "{{fun_0003_0001 arg=\"0x0700\"}}Alla prossima!",
      "EUnl": "{{fun_0003_0001 arg=\"0x0700\"}}Tot de volgende keer!",
      "EUru": "{{fun_0003_0001 arg=\"0x0700\"}}Еще увидимся!",
      "JPja": "{{fun_0003_0001 arg=\"0x0700\"}}またネェ～",
      "KRko": "{{fun_0003_0001 arg=\"0x0700\"}}또 만나~",
      "TWzh": "{{fun_0003_0001 arg=\"0x0700\"}}改天見～",
      "USen": "{{fun_0003_0001 arg=\"0x0700\"}}Twee hee!",
      "USes": "{{fun_0003_0001 arg=\"0x0700\"}}¡Hasta la próxima!",
      "USfr": "{{fun_0003_0001 arg=\"0x0700\"}}À la revoyure!"
    }
  }
]