[
  {
    "label": "near00",
    "attribute": "0x48000000",
    "locale": {
      "CNzh": "诶！你听说了吗？",
      "EUde": "Weißt du das Neuste?",
      "EUen": "Hey, have you heard?",
      "EUes": "¿Te has enterado?",
      "EUfr": "Tu connais la dernière ?",
      "EUit": "Hai sentito?",
      "EUnl": "Hé, heb je het gehoord?",
      "EUru": "Слышала уже?",
      "JPja": "ねぇ？ {{ruby charSpan=\"1\" value=\"き\"}}聞いたぁ？",
      "KRko": "그 얘기 들었어?",
      "TWzh": "欸！妳聽說了嗎？",
      "USen": "Hey, have you heard?",
      "USes": "¿Te has enterado?",
      "USfr": "Tu connais la dernière?"
    }
  },
  {
    "label": "near01",
    "attribute": "0x72000000",
    "locale": {
      "CNzh": "呼噜噜噜……",
      "EUde": "Mh hm hm...",
      "EUen": "Hnng...",
      "EUes": "Ajá, ajá...",
      "EUfr": "Mgnnn, allez allez allez...",
      "EUit": "Mmhg, mh mh mh...",
      "EUnl": "Hng, kom op...",
      "EUru": "М-м-н-н...",
      "JPja": "ングゴゴゴ…",
      "KRko": "드르러엉…",
      "TWzh": "呼嚕嚕嚕……",
      "USen": "Hnng...",
      "USes": "Ajá, ajá...",
      "USfr": "Mgnnn, allez allez allez..."
    }
  },
  {
    "label": "talk00",
    "attribute": "0x9C000000",
    "locale": {
      "CNzh": "{{fun_0003_0001 arg=\"0x0800\"}}那个{{color id=\"2\"}}蓝色的东西{{color id=\"65535\"}}是什么？{{delay3}}\n实在很危险，别拿进来！",
      "EUde": "{{fun_0003_0001 arg=\"0x0800\"}}Was ist denn das {{color id=\"2\"}}blaue Ding{{color id=\"65535\"}} da?{{delay3}}\nGeh weg damit, das ist bestimmt\ngefährlich!",
      "EUen": "{{fun_0003_0001 arg=\"0x0800\"}}Put that{{color id=\"2\"}} blue thing{{color id=\"65535\"}} away!{{delay2}} \nWhatever it is, it's not a toy!",
      "EUes": "{{fun_0003_0001 arg=\"0x0800\"}}¿Qué es esa {{color id=\"2\"}}cosa azul{{color id=\"65535\"}}?{{delay3}} ¡Quítala de ahí!\nVaya peligro...",
      "EUfr": "{{fun_0003_0001 arg=\"0x0800\"}}Qu'est-ce que c'est que ce {{color id=\"2\"}}truc bleu {{color id=\"65535\"}}?{{delay3}}\nÇa a l'air dangereux, ne t'approche pas\nde moi avec ça !",
      "EUit": "{{fun_0003_0001 arg=\"0x0800\"}}Metti via quell'{{color id=\"2\"}}affare blu{{color id=\"65535\"}}!{{delay2}} Non è mica\nun giocattolo!",
      "EUnl": "{{fun_0003_0001 arg=\"0x0800\"}}Wat is dat{{color id=\"2\"}} blauwe ding{{color id=\"65535\"}}?{{delay3}} Het ziet er\ngevaarlijk uit, dus ik wil het niet in mijn\nbuurt hebben! ",
      "EUru": "{{fun_0003_0001 arg=\"0x0800\"}}Опять {{color id=\"2\"}}синий огонь{{color id=\"65535\"}}!{{delay1}}\nЭто тебе не игрушка!",
      "JPja": "{{fun_0003_0001 arg=\"0x0800\"}}{{ruby charSpan=\"1\" value=\"なに\"}}何その{{color id=\"2\"}}{{ruby charSpan=\"1\" value=\"あお\"}}青いの{{color id=\"65535\"}}？{{delay3}}\n{{ruby charSpan=\"1\" value=\"あぶ\"}}危ないから {{ruby charSpan=\"1\" value=\"ひ\"}}引っ{{ruby charSpan=\"1\" value=\"こ\"}}込めな！",
      "KRko": "{{fun_0003_0001 arg=\"0x0800\"}}그 {{color id=\"2\"}}파란 거{{color id=\"65535\"}} 뭐야?{{delay3}}\n위험하니까 저리 치워!",
      "TWzh": "{{fun_0003_0001 arg=\"0x0800\"}}那個{{color id=\"2\"}}藍色的東西{{color id=\"65535\"}}是什麼？{{delay3}}\n實在很危險，別拿進來！",
      "USen": "{{fun_0003_0001 arg=\"0x0800\"}}Put that{{color id=\"2\"}} blue thing{{color id=\"65535\"}} away!{{delay2}} \nWhatever it is, it's not a toy!",
      "USes": "{{fun_0003_0001 arg=\"0x0800\"}}¿Qué es esa{{color id=\"2\"}} cosa azul{{color id=\"65535\"}}?{{delay3}} ¡Quítala de ahí!\nVaya peligro...",
      "USfr": "{{fun_0003_0001 arg=\"0x0800\"}}Qu'est-ce que c'est que ce {{color id=\"2\"}}truc bleu{{color id=\"65535\"}}?{{delay3}}\nÇa a l'air dangereux, ne t'approche pas\nde moi avec ça!"
    }
  },
  {
    "label": "talk01",
    "attribute": "0xC6000000",
    "locale": {
      "CNzh": "{{fun_0003_0001 arg=\"0x0B06\"}}……？{{delay1}}是我听错了吗？",
      "EUde": "{{fun_0003_0001 arg=\"0x0B06\"}}Hm?{{delay1}} Hab ich mir das Geräusch nur\neingebildet?",
      "EUen": "{{fun_0003_0001 arg=\"0x0B06\"}}...Huh?{{delay1}} Did I hear something?",
      "EUes": "{{fun_0003_0001 arg=\"0x0B06\"}}¿Eh?{{delay1}} Me ha parecido oír algo.",
      "EUfr": "{{fun_0003_0001 arg=\"0x0B06\"}}Hein ?{{delay1}} J'ai dû rêver...",
      "EUit": "{{fun_0003_0001 arg=\"0x0B06\"}}Mh...?{{delay1}} \nMi sembra di aver sentito qualcosa...",
      "EUnl": "{{fun_0003_0001 arg=\"0x0B06\"}}...?{{delay1}} Wat was dat voor een geluid?",
      "EUru": "{{fun_0003_0001 arg=\"0x0B06\"}}А?{{delay3}} Показалось, наверное...",
      "JPja": "{{fun_0003_0001 arg=\"0x0B06\"}}…？{{delay1}} {{ruby charSpan=\"2\" value=\"そらみみ\"}}空耳かしら",
      "KRko": "{{fun_0003_0001 arg=\"0x0B06\"}}…?{{delay1}} 잘못 들었나",
      "TWzh": "{{fun_0003_0001 arg=\"0x0B06\"}}……？{{delay1}}是我聽錯了嗎？",
      "USen": "{{fun_0003_0001 arg=\"0x0B06\"}}...Huh?{{delay1}} Did I hear something?",
      "USes": "{{fun_0003_0001 arg=\"0x0B06\"}}¿Eh?{{delay1}} Me pareció oír algo.",
      "USfr": "{{fun_0003_0001 arg=\"0x0B06\"}}Hein?{{delay1}} J'ai dû rêver..."
    }
  },
  {
    "label": "talk02",
    "attribute": "0xF0000000",
    "locale": {
      "CNzh": "{{fun_0003_0001 arg=\"0x0021\"}}呼噜噜噜……",
      "EUde": "{{fun_0003_0001 arg=\"0x0021\"}}Grrrrrrrrn...",
      "EUen": "{{fun_0003_0001 arg=\"0x0021\"}}Groooooaar...",
      "EUes": "{{fun_0003_0001 arg=\"0x0021\"}}Uaaah...",
      "EUfr": "{{fun_0003_0001 arg=\"0x0021\"}}Grooooooaah...",
      "EUit": "{{fun_0003_0001 arg=\"0x0021\"}}Grroooh...",
      "EUnl": "{{fun_0003_0001 arg=\"0x0021\"}}Grrrrrrrr...",
      "EUru": "{{size value=\"125\"}}{{fun_0003_0001 arg=\"0x0021\"}}Хр-р-р!{{size value=\"100\"}}",
      "JPja": "{{fun_0003_0001 arg=\"0x0021\"}}んごおおおぉ…",
      "KRko": "{{fun_0003_0001 arg=\"0x0021\"}}크어어어어엉…",
      "TWzh": "{{fun_0003_0001 arg=\"0x0021\"}}呼嚕嚕嚕……",
      "USen": "{{fun_0003_0001 arg=\"0x0021\"}}Groooooaar...",
      "USes": "{{fun_0003_0001 arg=\"0x0021\"}}Uaaah...",
      "USfr": "{{fun_0003_0001 arg=\"0x0021\"}}Grooooooaah..."
    }
  },
  {
    "label": "talk03",
    "attribute": "0x1A010000",
    "locale": {
      "CNzh": "{{fun_0003_0001 arg=\"0x0021\"}}呼噜噜……",
      "EUde": "{{fun_0003_0001 arg=\"0x0021\"}}Hmgrrr...",
      "EUen": "{{fun_0003_0001 arg=\"0x0021\"}}Mmrraggghrr...",
      "EUes": "{{fun_0003_0001 arg=\"0x0021\"}}Mmm...",
      "EUfr": "{{fun_0003_0001 arg=\"0x0021\"}}Rhm-gnh-gnh...",
      "EUit": "{{fun_0003_0001 arg=\"0x0021\"}}Mhgahgrrr...",
      "EUnl": "{{fun_0003_0001 arg=\"0x0021\"}}Hmgrrr...",
      "EUru": "{{fun_0003_0001 arg=\"0x0021\"}}Хр-р-р...",
      "JPja": "{{fun_0003_0001 arg=\"0x0021\"}}んがぐぐ…",
      "KRko": "{{fun_0003_0001 arg=\"0x0021\"}}드르르렁…",
      "TWzh": "{{fun_0003_0001 arg=\"0x0021\"}}呼嚕嚕……",
      "USen": "{{fun_0003_0001 arg=\"0x0021\"}}Mmrraggghrr...",
      "USes": "{{fun_0003_0001 arg=\"0x0021\"}}Mmm...",
      "USfr": "{{fun_0003_0001 arg=\"0x0021\"}}Rhm-gnh-gnh..."
    }
  },
  {
    "label": "talk04",
    "attribute": "0x44010000",
    "locale": {
      "CNzh": "{{fun_0003_0001 arg=\"0x000C\"}}我要来准备明天要用的东西。{{delay3}}\n你别妨碍我。",
      "EUde": "{{fun_0003_0001 arg=\"0x000C\"}}Ich muss alles für morgen vorbereiten...{{delay3}}\nIch kann jetzt keine Störungen\ngebrauchen.",
      "EUen": "{{fun_0003_0001 arg=\"0x000C\"}}Time to get ready for tomorrow...",
      "EUes": "{{fun_0003_0001 arg=\"0x000C\"}}Será mejor que me prepare\npara mañana.",
      "EUfr": "{{fun_0003_0001 arg=\"0x000C\"}}Bien, il faut que je me prépare pour\ndemain... {{delay2}}Je te prierais de ne pas me\ndéranger.",
      "EUit": "{{fun_0003_0001 arg=\"0x000C\"}}Sarà meglio che inizi a prepararmi per\ndomani...{{delay3}} Non disturbarmi, per favore.",
      "EUnl": "{{fun_0003_0001 arg=\"0x000C\"}}Ik moet alles voorbereiden voor\nmorgen...",
      "EUru": "{{fun_0003_0001 arg=\"0x000C\"}}Хочу как следует выспаться.{{delay1}}\nУстала...{{delay1}} Не приставай ко мне.",
      "JPja": "{{fun_0003_0001 arg=\"0x000C\"}}{{ruby charSpan=\"1\" value=\"いま\"}}今から {{ruby charSpan=\"1\" value=\"つぎ\"}}次の{{ruby charSpan=\"1\" value=\"ひ\"}}日の{{ruby charSpan=\"2\" value=\"ようい\"}}用意をするんだよ{{delay3}}\n{{ruby charSpan=\"2\" value=\"じゃま\"}}邪魔しないでおくれ",
      "KRko": "{{fun_0003_0001 arg=\"0x000C\"}}이제 내일 할 거 준비해야 돼{{delay3}}\n방해하지 마",
      "TWzh": "{{fun_0003_0001 arg=\"0x000C\"}}我要來準備明天要用的東西。{{delay3}}\n你別妨礙我。",
      "USen": "{{fun_0003_0001 arg=\"0x000C\"}}Time to get ready for tomorrow...",
      "USes": "{{fun_0003_0001 arg=\"0x000C\"}}Será mejor que me prepare\npara mañana.",
      "USfr": "{{fun_0003_0001 arg=\"0x000C\"}}Bien, il faut que je me prépare\npour demain..."
    }
  },
  {
    "label": "talk05",
    "attribute": "0x6E010000",
    "locale": {
      "CNzh": "{{fun_0003_0001 arg=\"0x0012\"}}我今天的工作已经结束了。{{delay1}}\n你也快点回去吧。",
      "EUde": "{{fun_0003_0001 arg=\"0x0012\"}}Für heute ist Schluss mit Arbeit.{{delay1}}\nGeh besser auch schnell nach Hause.",
      "EUen": "{{fun_0003_0001 arg=\"0x0012\"}}You should hurry up and head back, too.",
      "EUes": "{{fun_0003_0001 arg=\"0x0012\"}}Tú también deberías ir corriendo a casa.",
      "EUfr": "{{fun_0003_0001 arg=\"0x0012\"}}Moi, là, j'ai terminé ma journée. {{delay3}}Quant à\ntoi, tu ferais bien de ne pas traîner\ndehors trop tard. ",
      "EUit": "{{fun_0003_0001 arg=\"0x0012\"}}Per oggi ho finito.{{delay1}} Anche tu dovresti\ntornartene a casa.",
      "EUnl": "{{fun_0003_0001 arg=\"0x0012\"}}Het wordt tijd dat je terug gaat.",
      "EUru": "{{fun_0003_0001 arg=\"0x0012\"}}Я устала...{{delay1}} Иди по своим делам.",
      "JPja": "{{fun_0003_0001 arg=\"0x0012\"}}{{ruby charSpan=\"2\" value=\"きょう\"}}今日の{{ruby charSpan=\"2\" value=\"しごと\"}}仕事はおしまいだよ{{delay1}}\nあんたも{{ruby charSpan=\"1\" value=\"はや\"}}早く{{ruby charSpan=\"1\" value=\"かえ\"}}帰んな",
      "KRko": "{{fun_0003_0001 arg=\"0x0012\"}}오늘 일은 이제 끝났어{{delay1}}\n너도 어서 집에 가렴",
      "TWzh": "{{fun_0003_0001 arg=\"0x0012\"}}我今天的工作已經結束了。{{delay1}}\n你也快點回去吧。",
      "USen": "{{fun_0003_0001 arg=\"0x0012\"}}You should hurry up and head back, too.",
      "USes": "{{fun_0003_0001 arg=\"0x0012\"}}Tú también deberías ir corriendo a casa.",
      "USfr": "{{fun_0003_0001 arg=\"0x0012\"}}Tu ferais bien de ne pas traîner\ndehors trop tard."
    }
  },
  {
    "label": "talk06",
    "attribute": "0x98010000",
    "locale": {
      "CNzh": "{{fun_0003_0001 arg=\"0x0800\"}}我今天也要工作！{{delay3}}别跟来！",
      "EUde": "{{fun_0003_0001 arg=\"0x0800\"}}Ich muss heute wieder arbeiten!{{delay3}}\nLauf mir nicht nach!",
      "EUen": "{{fun_0003_0001 arg=\"0x0800\"}}Don't follow me! I'm on my way to work!",
      "EUes": "{{fun_0003_0001 arg=\"0x0800\"}}{{size value=\"80\"}}A trabajar... {{delay1}}Qué remedio.{{size value=\"100\"}}",
      "EUfr": "{{fun_0003_0001 arg=\"0x0800\"}}Ah, j'ai encore beaucoup de travail\naujourd'hui... {{delay1}}Allez, courage !",
      "EUit": "{{fun_0003_0001 arg=\"0x0800\"}}E anche oggi lavoro e solo lavoro...{{delay3}}\nNon venirmi dietro!",
      "EUnl": "{{fun_0003_0001 arg=\"0x0800\"}}Zo veel te doen {{delay1}}in zo weinig tijd...",
      "EUru": "{{fun_0003_0001 arg=\"0x0800\"}}Я на работу! Не ходи за мной!",
      "JPja": "{{fun_0003_0001 arg=\"0x0800\"}}{{ruby charSpan=\"1\" value=\"わたし\"}}私は{{ruby charSpan=\"2\" value=\"きょう\"}}今日も{{ruby charSpan=\"2\" value=\"しごと\"}}仕事だよ！ {{delay3}}{{ruby charSpan=\"1\" value=\"つ\"}}付いて{{ruby charSpan=\"1\" value=\"こ\"}}来ないの！",
      "KRko": "{{fun_0003_0001 arg=\"0x0800\"}}나는 오늘도 일해야 돼! {{delay3}}따라오지 마!",
      "TWzh": "{{fun_0003_0001 arg=\"0x0800\"}}我今天也要工作！{{delay3}}別跟來！",
      "USen": "{{fun_0003_0001 arg=\"0x0800\"}}Don't follow me! I'm on my way to work!",
      "USes": "{{fun_0003_0001 arg=\"0x0800\"}}{{size value=\"80\"}}A trabajar...{{delay2}} Qué remedio.{{size value=\"100\"}}",
      "USfr": "{{fun_0003_0001 arg=\"0x0800\"}}Ah, j'ai encore beaucoup de travail\naujourd'hui... {{delay1}}Allez, courage!"
    }
  },
  {
    "label": "talk07",
    "attribute": "0xC2010000",
    "locale": {
      "CNzh": "{{fun_0003_0001 arg=\"0x0800\"}}你为什么要跟来啦！",
      "EUde": "{{fun_0003_0001 arg=\"0x0800\"}}Warum kommst du mir hinterher?",
      "EUen": "{{fun_0003_0001 arg=\"0x0800\"}}Are you...{{delay1}}following me?",
      "EUes": "{{fun_0003_0001 arg=\"0x0800\"}}¿Por qué me persigues?",
      "EUfr": "{{fun_0003_0001 arg=\"0x0800\"}}Pourquoi tu me suis ?!",
      "EUit": "{{fun_0003_0001 arg=\"0x0800\"}}Perché mi stai seguendo?",
      "EUnl": "{{fun_0003_0001 arg=\"0x0800\"}}Waarom achtervolg je mij?",
      "EUru": "{{fun_0003_0001 arg=\"0x0800\"}}Не надо за мной ходить!",
      "JPja": "{{fun_0003_0001 arg=\"0x0800\"}}なんで{{ruby charSpan=\"1\" value=\"つ\"}}付いて{{ruby charSpan=\"1\" value=\"く\"}}来んのよ！",
      "KRko": "{{fun_0003_0001 arg=\"0x0800\"}}왜 자꾸 따라오니!",
      "TWzh": "{{fun_0003_0001 arg=\"0x0800\"}}你為什麼要跟來啦！",
      "USen": "{{fun_0003_0001 arg=\"0x0800\"}}Are you...{{delay1}}following me?",
      "USes": "{{fun_0003_0001 arg=\"0x0800\"}}¿Por qué me persigues?",
      "USfr": "{{fun_0003_0001 arg=\"0x0800\"}}Pourquoi tu me suis?!"
    }
  },
  {
    "label": "talk08",
    "attribute": "0xEC010000",
    "locale": {
      "CNzh": "{{fun_0003_0001 arg=\"0x0206\"}}我接下来要来聊天……{{delay1}}不，是工作！{{delay3}}\n要是你敢{{color id=\"0\"}}偷听{{color id=\"65535\"}}，我可不放过你！",
      "EUde": "{{fun_0003_0001 arg=\"0x0206\"}}Ich muss jetzt gleich hier plaudern...{{delay1}} äh,\narbeiten.{{delay3}} Wag es bloß nicht, uns zu\n{{color id=\"0\"}}belauschen{{color id=\"65535\"}}!",
      "EUen": "{{fun_0003_0001 arg=\"0x0206\"}}Um, excuse me?{{delay3}} Are you running around\ntrying to {{color id=\"0\"}}eavesdrop {{color id=\"65535\"}}on everyone's\nconversation?{{delay2}} And so obviously...?\nYou really need to work on your craft.",
      "EUes": "{{fun_0003_0001 arg=\"0x0206\"}}Ahora voy a chismor...{{delay3}} digo, ¡a hablar\nsobre trabajo!{{delay1}} Así que ni se te ocurra\n{{color id=\"0\"}}cotillear{{color id=\"65535\"}}, ¿me oyes?",
      "EUfr": "{{fun_0003_0001 arg=\"0x0206\"}}Bon, il est temps d'aller papot...{{delay1}} Euh...\nNon, travailler !{{delay3}} Et tu n'as pas intérêt à\n{{color id=\"0\"}}m'espionner{{color id=\"65535\"}}, toi !",
      "EUit": "{{fun_0003_0001 arg=\"0x0206\"}}Dobbiamo spettegolar...{{delay1}} ehm, voglio\ndire, discutere di importanti questioni\ndi lavoro.{{delay2}} Perciò non {{color id=\"0\"}}origliare{{color id=\"65535\"}}, intesi?!",
      "EUnl": "{{fun_0003_0001 arg=\"0x0206\"}}Ik stond op het punt om te gaan roddel...\neh...{{delay1}} over werk te praten!{{delay3}} Denk maar niet\ndat je ons zomaar kunt {{color id=\"0\"}}afluisteren{{color id=\"65535\"}}!",
      "EUru": "{{fun_0003_0001 arg=\"0x0206\"}}Я, вообще-то, хотела поболтать...{{delay1}}\nточнее, обсудить кое-что очень\nважное.{{delay1}} Не вздумай {{color id=\"0\"}}подслушивать{{color id=\"65535\"}}!",
      "JPja": "{{fun_0003_0001 arg=\"0x0206\"}}{{ruby charSpan=\"1\" value=\"わたし\"}}私 {{ruby charSpan=\"1\" value=\"いま\"}}今からおしゃべり…{{delay1}} いや {{ruby charSpan=\"2\" value=\"しごと\"}}仕事なのよ！{{delay3}}\n{{color id=\"0\"}}{{ruby charSpan=\"1\" value=\"ぬす\"}}盗み{{ruby charSpan=\"1\" value=\"ぎ\"}}聞き{{color id=\"65535\"}}なんて {{ruby charSpan=\"1\" value=\"ゆる\"}}許さないからね！",
      "KRko": "{{fun_0003_0001 arg=\"0x0206\"}}난 지금부터 수다… {{delay1}}아니 일 해야 돼!{{delay3}}\n{{color id=\"0\"}}엿듣거나 {{color id=\"65535\"}}하면 용서 안 해!",
      "TWzh": "{{fun_0003_0001 arg=\"0x0206\"}}我接下來要來聊天……{{delay1}}不，是工作！{{delay3}}\n要是你敢{{color id=\"0\"}}偷聽{{color id=\"65535\"}}，我可不放過你！",
      "USen": "{{fun_0003_0001 arg=\"0x0206\"}}Um, excuse me?{{delay3}} Are you running around\ntrying to {{color id=\"0\"}}eavesdrop {{color id=\"65535\"}}on everyone's\nconversation?{{delay2}} And so obviously...?\nYou really need to work on your craft.",
      "USes": "{{fun_0003_0001 arg=\"0x0206\"}}Ahora voy a chismor...{{delay3}} digo, ¡a hablar\nsobre trabajo!{{delay1}} Así que ni se te ocurra\n{{color id=\"0\"}}chismear{{color id=\"65535\"}}, ¿me oyes?",
      "USfr": "{{fun_0003_0001 arg=\"0x0206\"}}Bon, il est temps d'aller placot...{{delay1}} Euh...\nNon, travailler!{{delay3}} Et tu n'as pas intérêt à\n{{color id=\"0\"}}m'espionner{{color id=\"65535\"}}, toi!"
    }
  },
  {
    "label": "talk10",
    "attribute": "0x16020000",
    "locale": {
      "CNzh": "{{fun_0003_0001 arg=\"0x0019\"}}……啊，对了对了，{{delay1}}\n这是从我家孩子那听来的……\n最近在{{color id=\"2\"}}哈特诺古代研究所{{color id=\"65535\"}}，\n好像有个小{{color id=\"0\"}}女孩{{color id=\"65535\"}}出没，你听说过吗？",
      "EUde": "{{fun_0003_0001 arg=\"0x0019\"}}Du wirst nicht glauben, was mein\nKind neulich gehört hat!{{pageBreak}}Im {{color id=\"2\"}}Hateno-Institut {{color id=\"65535\"}}geht seit Kurzem ein\nkleines {{color id=\"0\"}}Mädchen {{color id=\"65535\"}}ein und aus!",
      "EUen": "{{fun_0003_0001 arg=\"0x0019\"}}Oh, and that reminds me, my little one\nwas gabbing about something interesting\nthe other day...\nApparently a{{color id=\"0\"}} young girl{{color id=\"65535\"}} was seen going\nin and out of the {{color id=\"2\"}}Hateno Ancient\nTech Lab{{color id=\"65535\"}}.",
      "EUes": "{{fun_0003_0001 arg=\"0x0019\"}}Por cierto, mi churumbel me ha contado\nuna cosa curiosísima.{{pageBreak}}Dice que últimamente han visto a\nuna {{color id=\"0\"}}niña{{color id=\"65535\"}} por el {{color id=\"2\"}}laboratorio de Hatelia{{color id=\"65535\"}}.",
      "EUfr": "{{fun_0003_0001 arg=\"0x0019\"}}Tu sais ce que mon fils m'a dit,\nl'autre jour ?\n\nFigure-toi qu'il raconte avoir aperçu\nune {{color id=\"0\"}}petite fille{{color id=\"65535\"}} entrer et sortir\ndu {{color id=\"2\"}}laboratoire antique d'Elimith{{color id=\"65535\"}}.",
      "EUit": "{{fun_0003_0001 arg=\"0x0019\"}}Non è certo per spettegolare, però...\n\n\nUltimamente hanno visto spesso una\n{{color id=\"0\"}}ragazzina{{color id=\"65535\"}} che entrava nel {{color id=\"2\"}}centro di\nricerca di Finterra{{color id=\"65535\"}}.",
      "EUnl": "{{fun_0003_0001 arg=\"0x0019\"}}Heb je het al gehoord?{{pageBreak}}Ze zeggen dat er de laatste tijd wel vaker\neen{{color id=\"0\"}} klein meisje{{color id=\"65535\"}} bij het {{color id=\"2\"}}Hateno-instituut{{color id=\"65535\"}}\nrondhangt!",
      "EUru": "{{fun_0003_0001 arg=\"0x0019\"}}Ага, понятно.{{delay1}} А мне дочка недавно\nсказала, что в {{color id=\"2\"}}Хатенском институте{{color id=\"65535\"}}\nживет какая-то {{color id=\"0\"}}девочка{{color id=\"65535\"}}.",
      "JPja": "{{fun_0003_0001 arg=\"0x0019\"}}…あっ そうそう{{delay1}}\nうちの{{ruby charSpan=\"1\" value=\"こ\"}}子が{{ruby charSpan=\"1\" value=\"き\"}}聞いてきたんだけど…\n{{ruby charSpan=\"2\" value=\"さいきん\"}}最近 {{color id=\"2\"}}ハテノ{{ruby charSpan=\"5\" value=\"こだいけんきゅうじょ\"}}古代研究所{{color id=\"65535\"}}に\n{{ruby charSpan=\"1\" value=\"ちい\"}}小さい{{color id=\"0\"}}{{ruby charSpan=\"1\" value=\"おんな\"}}女の{{ruby charSpan=\"1\" value=\"こ\"}}子{{color id=\"65535\"}}が {{ruby charSpan=\"2\" value=\"でい\"}}出入りしてるって{{ruby charSpan=\"1\" value=\"はなし\"}}話 ご{{ruby charSpan=\"1\" value=\"ぞん\"}}存じ？",
      "KRko": "{{fun_0003_0001 arg=\"0x0019\"}}…앗, 맞다{{delay1}}\n우리 애가 들었다는데…\n요즘 {{color id=\"2\"}}하테노 고대 연구소{{color id=\"65535\"}}에\n작은 {{color id=\"0\"}}여자애{{color id=\"65535\"}}가 들락거린대. 알고 있었어?",
      "TWzh": "{{fun_0003_0001 arg=\"0x0019\"}}……啊，對了對了，{{delay1}}\n這是從我家孩子那聽來的……\n最近在{{color id=\"2\"}}哈特諾古代研究所{{color id=\"65535\"}}，\n好像有個小{{color id=\"0\"}}女孩{{color id=\"65535\"}}出沒，妳聽說過嗎？",
      "USen": "{{fun_0003_0001 arg=\"0x0019\"}}Oh, and that reminds me, my little one\nwas gabbing about something interesting\nthe other day...\nApparently a{{color id=\"0\"}} young girl{{color id=\"65535\"}} was seen going\nin and out of the {{color id=\"2\"}}Hateno Ancient\nTech Lab{{color id=\"65535\"}}.",
      "USes": "{{fun_0003_0001 arg=\"0x0000\"}}¿Ya te enteraste?{{pageBreak}}Dicen que últimamente han visto a una\n{{color id=\"0\"}}niña {{color id=\"65535\"}}por el {{color id=\"2\"}}laboratorio de Hatelia{{color id=\"65535\"}}.",
      "USfr": "{{fun_0003_0001 arg=\"0x0019\"}}Tu sais ce que mon fils m'a dit,\nl'autre jour?\n\nFigure-toi qu'il raconte avoir aperçu\nune {{color id=\"0\"}}petite fille{{color id=\"65535\"}} entrer et sortir\ndu {{color id=\"2\"}}laboratoire antique d'Elimith{{color id=\"65535\"}}."
    }
  },
  {
    "label": "talk11",
    "attribute": "0x40020000",
    "locale": {
      "CNzh": "{{fun_0003_0001 arg=\"0x0010\"}}哎呀，真是的。{{delay2}}\n该不会是收养的小孩吧。",
      "EUde": "{{fun_0003_0001 arg=\"0x0010\"}}Hmmm, wie seltsam!{{delay1}}\nWie kam das denn zustande? {{delay1}}Adoption?",
      "EUen": "{{fun_0003_0001 arg=\"0x0010\"}}Oh, weird.{{delay1}} Think they adopted or\nsomething?",
      "EUes": "{{fun_0003_0001 arg=\"0x0010\"}}¿Habrán adoptado una niña o algo?",
      "EUfr": "{{fun_0003_0001 arg=\"0x0010\"}}Ça alors, manquait plus que ça !{{delay1}}\nTu crois qu'ils l'ont adoptée ?",
      "EUit": "{{fun_0003_0001 arg=\"0x0010\"}}Qualcuno avrà mica avuto...{{delay1}} una figlia?",
      "EUnl": "{{fun_0003_0001 arg=\"0x0010\"}}O, vreemd!{{delay1}} Ik vraag me af of ze iemand\nhebben geadopteerd.",
      "EUru": "{{fun_0003_0001 arg=\"0x0010\"}}Правда?{{delay1}} Может, приемная?",
      "JPja": "{{fun_0003_0001 arg=\"0x0010\"}}あら イヤだ{{delay2}}\n{{ruby charSpan=\"4\" value=\"ようしえんぐみ\"}}養子縁組でもしたのかしらねぇ",
      "KRko": "{{fun_0003_0001 arg=\"0x0010\"}}어머, 이상하네{{delay2}}\n입양이라도 했나?",
      "TWzh": "{{fun_0003_0001 arg=\"0x0010\"}}哎呀，真是的。{{delay2}}\n該不會是收養的小孩吧。",
      "USen": "{{fun_0003_0001 arg=\"0x0010\"}}Oh, weird.{{delay1}} Think they adopted or\nsomething?",
      "USes": "{{fun_0003_0001 arg=\"0x0010\"}}¿Habrán tenido una hija o algo?",
      "USfr": "{{fun_0003_0001 arg=\"0x0010\"}}Ça alors, manquait plus que ça!{{delay1}}\nTu crois qu'ils l'ont adoptée?"
    }
  },
  {
    "label": "talk12",
    "attribute": "0x6A020000",
    "locale": {
      "CNzh": "{{fun_0003_0001 arg=\"0x0B06\"}}但是那里的{{color id=\"2\"}}所长{{color id=\"65535\"}}……{{delay1}}\n感觉不像会做这种事吧？\n那个女孩难道是……{{delay1}}\n幽{{delay1}}灵{{delay1}}……\n{{fun_0003_0001 arg=\"0x0612\"}}应该不可能吧。",
      "EUde": "{{fun_0003_0001 arg=\"0x0B06\"}}Ich weiß ja nicht...{{delay1}} Das würde diesen\nForschern gar nicht ähnlich sehen.{{pageBreak}}Ob das Mädchen in Wirklichkeit...{{pageBreak}}{{fun_0003_0001 arg=\"0x0612\"}}Nein, das kann nicht sein.",
      "EUen": "{{fun_0003_0001 arg=\"0x0B06\"}}But the {{color id=\"2\"}}director{{color id=\"65535\"}}...{{delay1}}just doesn't seem the\nadopting type, you know?\n\nI just have to wonder if the girl is... {{delay1}}\nac-{{delay1}}tu-{{delay1}}ally... {{delay3}}{{fun_0003_0001 arg=\"0x0612\"}}No, that can't be.",
      "EUes": "{{fun_0003_0001 arg=\"0x0B06\"}}La {{color id=\"2\"}}jefa{{color id=\"65535\"}} es bastante mayor,{{delay1}} así que\nno creo que sea eso... ¿no?{{pageBreak}}A ver{{delay1}} si va a resultar{{delay1}} que la niña{{delay1}} en\nrealidad es...{{pageBreak}}{{fun_0003_0001 arg=\"0x0612\"}}No, no puede ser.",
      "EUfr": "{{fun_0003_0001 arg=\"0x0B06\"}}Moi j'te dis, adopter c'est pas{{delay3}} du{{delay3}} tout{{delay3}}\nle genre du {{color id=\"2\"}}chef {{color id=\"65535\"}}du laboratoire.\n\n{{fun_0003_0001 arg=\"0x0612\"}}Tu crois que c'est leur propre...{{delay3}}\nNon, ce serait complètement aberrant,\nvu leur âge !",
      "EUit": "{{fun_0003_0001 arg=\"0x0B06\"}}Mah... il{{color id=\"2\"}} centro di ricerca{{color id=\"65535\"}} non mi sembra\nun posto per bambini...{{delay1}} E se fosse\nun...{{delay1}} fantasma?!{{delay1}}\n{{fun_0003_0001 arg=\"0x0612\"}}Naaa, ma che vado a pensare!",
      "EUnl": "{{fun_0003_0001 arg=\"0x0B06\"}}Maar het {{color id=\"2\"}}hoofd {{color id=\"65535\"}}is al behoorlijk oud...{{delay1}} Ze\nlijkt me niet het type om zoiets te doen.{{pageBreak}}Ik vraag me af of dit meisje...{{pageBreak}}{{fun_0003_0001 arg=\"0x0612\"}}Nee, dat is onmogelijk.",
      "EUru": "{{fun_0003_0001 arg=\"0x0B06\"}}Даже не знаю.{{delay1}} Зачем {{color id=\"2\"}}профессору{{color id=\"65535\"}}\nв таком возрасте брать ребенка?{{delay1}}\nСлу-ушай, а может...{{pageBreak}}{{fun_0003_0001 arg=\"0x0612\"}}Да нет, вряд ли.",
      "JPja": "{{fun_0003_0001 arg=\"0x0B06\"}}でも あそこの{{color id=\"2\"}}{{ruby charSpan=\"2\" value=\"しょちょう\"}}所長さん{{color id=\"65535\"}}…{{delay1}}\nそういう{{ruby charSpan=\"1\" value=\"こと\"}}事しそうなタイプじゃないじゃない？\nもしかしたら その{{ruby charSpan=\"1\" value=\"おんな\"}}女の{{ruby charSpan=\"1\" value=\"こ\"}}子… {{delay1}}\nオ{{delay1}}バ{{delay1}}ケ…\n{{fun_0003_0001 arg=\"0x0612\"}}そんなわけないか",
      "KRko": "{{fun_0003_0001 arg=\"0x0B06\"}}근데 거기 {{color id=\"2\"}}소장님{{color id=\"65535\"}}…{{delay1}}\n그런 걸 하실 타입도 아니잖아?\n설마 그 여자애… {{delay1}}\n귀{{delay1}}신…\n{{fun_0003_0001 arg=\"0x0612\"}}일 리가 없지",
      "TWzh": "{{fun_0003_0001 arg=\"0x0B06\"}}但是那裡的{{color id=\"2\"}}所長{{color id=\"65535\"}}……{{delay1}}\n感覺不像會做這種事吧？\n那個女孩難道是……{{delay1}}\n幽{{delay1}}靈{{delay1}}……\n{{fun_0003_0001 arg=\"0x0612\"}}應該不可能吧。",
      "USen": "{{fun_0003_0001 arg=\"0x0B06\"}}But the {{color id=\"2\"}}director{{color id=\"65535\"}}...{{delay1}}just doesn't seem the\nadopting type, you know?\n\nI just have to wonder if the girl is... {{delay1}}\nac-{{delay1}}tu-{{delay1}}ally... {{delay3}}{{fun_0003_0001 arg=\"0x0612\"}}No, that can't be.",
      "USes": "{{fun_0003_0001 arg=\"0x0B06\"}}La {{color id=\"2\"}}jefa{{color id=\"65535\"}} es bastante mayor,{{delay1}} así que\nno creo que sea eso... ¿no?{{pageBreak}}A ver{{delay1}} si va a resultar{{delay1}} que la niña{{delay1}} en\nrealidad es...{{delay3}} {{fun_0003_0001 arg=\"0x0612\"}}No, no puede ser.",
      "USfr": "{{fun_0003_0001 arg=\"0x0B06\"}}Moi j'te dis, adopter c'est pas{{delay3}} du{{delay3}} tout{{delay3}}\nle genre de la {{color id=\"2\"}}chef {{color id=\"65535\"}}du laboratoire.\n\n{{fun_0003_0001 arg=\"0x0612\"}}Tu crois que c'est leur propre...{{delay3}}\nNon, ce serait complètement absurde,\nvu leur âge!"
    }
  },
  {
    "label": "talk13",
    "attribute": "0x94020000",
    "locale": {
      "CNzh": "{{fun_0003_0001 arg=\"0x0800\"}}喂，你在干嘛！{{delay3}}\n想{{color id=\"0\"}}偷听{{color id=\"65535\"}}我们说话？没那么简单！",
      "EUde": "{{fun_0003_0001 arg=\"0x0800\"}}Was fällt dir denn ein?!{{delay3}}\nVersuchst du etwa, uns zu {{color id=\"0\"}}belauschen{{color id=\"65535\"}}?!{{delay1}}\nDas kannst du vergessen!",
      "EUen": "{{fun_0003_0001 arg=\"0x0800\"}}What's your problem?!{{delay3}} How DARE you \ntry to {{color id=\"0\"}}eavesdrop{{color id=\"65535\"}}? Mind your business!",
      "EUes": "{{fun_0003_0001 arg=\"0x0800\"}}¿Pero a ti qué te pasa?{{delay3}} ¿Te parece\nbonito {{color id=\"0\"}}cotillear{{color id=\"65535\"}} lo que hablan los demás?",
      "EUfr": "{{fun_0003_0001 arg=\"0x0800\"}}Dis donc, toi, là !{{delay3}} Ça t'arrive souvent,\nd'{{color id=\"0\"}}espionner {{color id=\"65535\"}}les conversations des gens,\ncomme ça ?!",
      "EUit": "{{fun_0003_0001 arg=\"0x0800\"}}Ma come ti permetti{{delay1}} di {{color id=\"0\"}}origliare{{color id=\"65535\"}} le\nconversazioni altrui! Che maleducato!",
      "EUnl": "{{fun_0003_0001 arg=\"0x0800\"}}Waar ben jij mee bezig!?{{delay3}} Probeer je ons\n{{color id=\"0\"}}af te luisteren{{color id=\"65535\"}}? Als je het maar laat!",
      "EUru": "{{fun_0003_0001 arg=\"0x0800\"}}В чем дело?!{{delay1}} Ты что,\n{{color id=\"0\"}}подслушиваешь{{color id=\"65535\"}}?{{delay1}} Нахал!",
      "JPja": "{{fun_0003_0001 arg=\"0x0800\"}}{{ruby charSpan=\"1\" value=\"なに\"}}何よ あんたっ！{{delay3}}\n{{color id=\"0\"}}{{ruby charSpan=\"1\" value=\"ぬす\"}}盗み{{ruby charSpan=\"1\" value=\"ぎ\"}}聞き{{color id=\"65535\"}}しようたって そうはいかないよ！",
      "KRko": "{{fun_0003_0001 arg=\"0x0800\"}}뭐니 너!{{delay3}}\n{{color id=\"0\"}}엿들으려{{color id=\"65535\"}} 해도 니 마음대로 안 될걸!",
      "TWzh": "{{fun_0003_0001 arg=\"0x0800\"}}喂，你在幹嘛！{{delay3}}\n想{{color id=\"0\"}}偷聽{{color id=\"65535\"}}我們說話？沒那麼簡單！",
      "USen": "{{fun_0003_0001 arg=\"0x0800\"}}What's your problem?!{{delay3}} How DARE you \ntry to {{color id=\"0\"}}eavesdrop{{color id=\"65535\"}}? Mind your business!",
      "USes": "{{fun_0003_0001 arg=\"0x0800\"}}¿Pero a ti qué te pasa?{{delay3}} ¿Te parece\nbien {{color id=\"0\"}}entrometerte {{color id=\"65535\"}}en asuntos ajenos?",
      "USfr": "{{fun_0003_0001 arg=\"0x0800\"}}Dis donc, toi, là!{{delay3}} Ça t'arrive souvent,\nd'{{color id=\"0\"}}espionner {{color id=\"65535\"}}les conversations des gens,\ncomme ça?!"
    }
  },
  {
    "label": "talk14",
    "attribute": "0xBE020000",
    "locale": {
      "CNzh": "{{fun_0003_0001 arg=\"0x0000\"}}最近的年轻人真的是……{{delay1}}\n就连{{color id=\"0\"}}偷听{{color id=\"65535\"}}都那么光明正大。",
      "EUde": "{{fun_0003_0001 arg=\"0x0000\"}}Die Jugend von heute...{{delay1}} Ich muss mal\nein Wörtchen mit deinen Eltern reden!{{delay1}}\nMan {{color id=\"0\"}}belauscht {{color id=\"65535\"}}keine fremden Gespräche!",
      "EUen": "{{fun_0003_0001 arg=\"0x0000\"}}Honestly, young people these days...{{delay1}}\nWhat kind of scamp just {{color id=\"0\"}}eavesdrops {{color id=\"65535\"}}\nlike it's no big deal? How rude.",
      "EUes": "{{fun_0003_0001 arg=\"0x0000\"}}Los jóvenes de hoy en día no tienen\neducación.{{delay1}} ¡Hay que tener morro para\nponerse a {{color id=\"0\"}}cotillear{{color id=\"65535\"}} tan descaradamente!",
      "EUfr": "{{fun_0003_0001 arg=\"0x0000\"}}Je te jure, les jeunes, de nos jours...{{delay1}} qui\n{{color id=\"0\"}}espionnent{{color id=\"65535\"}} les conversations... J'aurais\ndeux mots à dire à ses parents, tiens...",
      "EUit": "{{fun_0003_0001 arg=\"0x0000\"}}I giovani di oggi...{{delay1}} {{color id=\"0\"}}origliano {{color id=\"65535\"}}in giro\ncome niente fosse.",
      "EUnl": "{{fun_0003_0001 arg=\"0x0000\"}}Bah, die jeugd van tegenwoordig...{{delay1}}\nWelke vreemde vogel {{color id=\"0\"}}luistert zomaar mee{{color id=\"65535\"}}\nmet andermans gesprekken?",
      "EUru": "{{fun_0003_0001 arg=\"0x0000\"}}Ну и молодежь пошла!{{delay1}} Разве\nможно так нагло {{color id=\"0\"}}подслушивать{{color id=\"65535\"}}?{{delay1}}\nРодителям-то все расскажу!",
      "JPja": "{{fun_0003_0001 arg=\"0x0000\"}}ホント {{ruby charSpan=\"2\" value=\"さいきん\"}}最近の{{ruby charSpan=\"1\" value=\"わか\"}}若い{{ruby charSpan=\"1\" value=\"こ\"}}子は…{{delay1}}\n{{color id=\"0\"}}{{ruby charSpan=\"1\" value=\"ぬす\"}}盗み{{ruby charSpan=\"1\" value=\"ぎ\"}}聞き{{color id=\"65535\"}}でさえ ヘンに{{ruby charSpan=\"2\" value=\"どうどう\"}}堂々としちゃってさ",
      "KRko": "{{fun_0003_0001 arg=\"0x0000\"}}정말이지 요즘 애들은…{{delay1}}\n{{color id=\"0\"}}엿듣는 것{{color id=\"65535\"}}도 참 당당하게도 듣네",
      "TWzh": "{{fun_0003_0001 arg=\"0x0000\"}}最近的年輕人真的是……{{delay1}}\n就連{{color id=\"0\"}}偷聽{{color id=\"65535\"}}都那麼光明正大。",
      "USen": "{{fun_0003_0001 arg=\"0x0000\"}}Honestly, young people these days...{{delay1}}\nWhat kind of scamp just {{color id=\"0\"}}eavesdrops {{color id=\"65535\"}}\nlike it's no big deal? How rude.",
      "USes": "{{fun_0003_0001 arg=\"0x0000\"}}Los jóvenes de hoy en día no tienen\neducación.{{delay1}} ¡Lo que hay que aguantar!",
      "USfr": "{{fun_0003_0001 arg=\"0x0000\"}}Je te jure, les jeunes, de nos jours...{{delay1}} qui\n{{color id=\"0\"}}espionnent{{color id=\"65535\"}} les conversations... J'aurais\ndeux mots à dire à ses parents, tiens..."
    }
  }
]