[
  {
    "label": "Npc_kokiri012_Talk000",
    "attribute": "0x30000000",
    "locale": {
      "CNzh": "{{fun_0003_0001 arg=\"0x0700\"}}哇！{{delay1}}你该不会是勇者大人吧？{{delay2}}\n欢迎来到克洛格森林！！\n勇者大人比想象中……{{delay2}}\n还要……{{delay1}}帅多了！",
      "EUde": "{{fun_0003_0001 arg=\"0x0700\"}}Wooooaaaah!{{delay1}} Bis du etwa der Held?{{delay2}}\nWillkommen im Wald der Krogs!{{pageBreak}}Ich hatte ein Bild im Kopf, wie der Held\nwohl aussieht.{{delay2}} Aber du bist noch viel,\nviel, viiiel...{{delay1}} heldenhafter!",
      "EUen": "{{fun_0003_0001 arg=\"0x0700\"}}Ack!{{delay1}} Could it be?!{{delay2}}\nYes! It's the hero of legend! {{delay2}}\nWelcome to Korok Forest!\nI always wondered what you looked like.{{delay2}}\nYou're much younger than I imagined!",
      "EUes": "{{fun_0003_0001 arg=\"0x0700\"}}¡Corcho!{{delay1}} Tienes toda la pinta de ser\nel famosísimo señor héroe.\n¿Tengo razón o no?{{delay2}}\n¡Bienvenido al Bosque Kolog!{{pageBreak}}Llevo siglos preguntándome qué aspecto\ntendrías{{delay2}} y ahora que te veo...{{pageBreak}}¡He de decir que eres incluso\nmás {{delay1}}guay de lo que esperaba!",
      "EUfr": "{{fun_0003_0001 arg=\"0x0700\"}}Wouawouawoua !{{delay1}} Tu ne serais pas le\nHéros, par le plus grand des hasards ?{{delay2}}\nBienvenue dans la forêt Korogu !\nTu es encore plus,{{delay1}} encore pluuus\nchevaleresque que je l'imaginais !",
      "EUit": "{{fun_0003_0001 arg=\"0x0700\"}}Appinicchia!{{delay1}} Ma tu per caso sei\nil pinosissimo signor Eroe?{{delay2}}\nBenvenuto nel bosco dei Korogu!\nMi sono sempre chiesto che aspetto\navessi...{{delay2}} E ora che ti vedo, {{delay1}}ammetto che\nsei più fantastico di quanto pinaginassi!",
      "EUnl": "{{fun_0003_0001 arg=\"0x0700\"}}Oei!{{delay1}} Ben jij misschien de legendarische\nheld?!{{pageBreak}}Welkom in het Korok-woud!{{pageBreak}}Ik zat me al af te vragen hoe jij eruit zou\nzien...{{delay2}} maar nu ik je zie, ben je nog veel\ncooler dan ik me had voorgesteld!",
      "EUru": "{{fun_0003_0001 arg=\"0x0700\"}}Ух ты!{{delay1}} Неужели ты тот самый герой?!{{delay1}}\nДобро пожаловать в лес Короков!{{pageBreak}}Всегда мечтал увидеть настоящего\nгероя!{{delay1}} Ты намного героичнее, чем\nя себе представлял!",
      "JPja": "{{fun_0003_0001 arg=\"0x0700\"}}わぁ！{{delay1}} アナタひょっとして ゆうしゃサマ？{{delay2}}\nようこそコログの{{ruby charSpan=\"1\" value=\"もり\"}}森へ！！\nワタシが{{ruby charSpan=\"1\" value=\"おも\"}}思ってたより ずっとずっと…{{delay2}}\nゆうしゃサマって{{delay1}} かっこいい！",
      "KRko": "{{fun_0003_0001 arg=\"0x0700\"}}와아!{{delay1}} 당신은 설마 용사님?{{delay2}}\n코로그의 숲에 어서 와!!\n내가 생각한 것보다 훨씬 훨씬…{{delay2}}\n용사님,{{delay1}} 멋있다!",
      "TWzh": "{{fun_0003_0001 arg=\"0x0700\"}}哇！{{delay1}}你該不會是勇者大人吧？{{delay2}}\n歡迎來到克洛格森林！！\n勇者大人比想像中……{{delay2}}\n還要……{{delay1}}帥多了呢！",
      "USen": "{{fun_0003_0001 arg=\"0x0700\"}}Ack!{{delay1}} Could it be?!{{delay2}}\nYes! It's the hero of legend! {{delay2}}\nWelcome to Korok Forest!\nI always wondered what you looked like.{{delay2}}\nYou're much younger than I imagined!",
      "USes": "{{fun_0003_0001 arg=\"0x0700\"}}¡Ujú!{{delay1}} ¿Será posible? {{delay2}}¡Sí! Es el\nfamosísimo héroe de la leyenda!\n¡Bienvenido al Bosque Kolog!{{pageBreak}}Llevo aaaños preguntándome qué\naspecto tendrías{{delay2}} y ahora que te veo...{{pageBreak}}¡He de decir que eres más {{delay1}}joven de\nlo que esperaba!",
      "USfr": "{{fun_0003_0001 arg=\"0x0700\"}}Wouawouawoua!{{delay1}} Tu ne serais pas le\nHéros, par le plus grand des hasards?{{delay2}}\nBienvenue dans la forêt Korogu!\nTu es encore plus,{{delay1}} encore pluuus\nchevaleresque que je l'imaginais!"
    }
  },
  {
    "label": "Npc_kokiri012_Talk001",
    "attribute": "0x4C000000",
    "locale": {
      "CNzh": "{{fun_0003_0001 arg=\"0x0000\"}}快点过去{{color id=\"0\"}}剑{{color id=\"65535\"}}那边吧！{{delay1}}勇者大人！",
      "EUde": "{{fun_0003_0001 arg=\"0x0000\"}}Schnell, geh zum {{color id=\"0\"}}Schwert{{color id=\"65535\"}},{{delay1}} werter Held!",
      "EUen": "{{fun_0003_0001 arg=\"0x0000\"}}Hurry, hero! {{delay1}}The {{color id=\"0\"}}sword {{color id=\"65535\"}}is waiting!",
      "EUes": "{{fun_0003_0001 arg=\"0x0000\"}}Tío guay... {{delay1}}¿No crees que deberías\nir corriendo adonde está la {{color id=\"0\"}}espada{{color id=\"65535\"}}?{{pageBreak}}Tampoco quiero decirte lo que tienes\nque hacer, pero me da que sería\nuna buena idea.",
      "EUfr": "{{fun_0003_0001 arg=\"0x0000\"}}Vite, va voir l'{{color id=\"0\"}}épée{{color id=\"65535\"}}, {{delay1}}ami Héros !",
      "EUit": "{{fun_0003_0001 arg=\"0x0000\"}}Sbrigati, signor Eroe! {{delay1}}La {{color id=\"0\"}}spada{{color id=\"65535\"}}\nti aspetta!",
      "EUnl": "{{fun_0003_0001 arg=\"0x0000\"}}Schiet op en ga naar waar het {{color id=\"0\"}}zwaard{{color id=\"65535\"}} op\nje wacht,{{delay1}} held!",
      "EUru": "{{fun_0003_0001 arg=\"0x0000\"}}Давай же, иди скорее к {{color id=\"0\"}}мечу{{color id=\"65535\"}}!",
      "JPja": "{{fun_0003_0001 arg=\"0x0000\"}}はやく {{color id=\"0\"}}{{ruby charSpan=\"1\" value=\"つるぎ\"}}剣{{color id=\"65535\"}}のところにいってね{{delay1}} ゆうしゃサマ！",
      "KRko": "{{fun_0003_0001 arg=\"0x0000\"}}얼른 {{color id=\"0\"}}검{{color id=\"65535\"}}이 있는 곳으로 가,{{delay1}} 용사님!",
      "TWzh": "{{fun_0003_0001 arg=\"0x0000\"}}快點過去{{color id=\"0\"}}劍{{color id=\"65535\"}}那邊吧！{{delay1}}勇者大人！",
      "USen": "{{fun_0003_0001 arg=\"0x0000\"}}Hurry, hero! {{delay1}}The {{color id=\"0\"}}sword {{color id=\"65535\"}}is waiting!",
      "USes": "{{fun_0003_0001 arg=\"0x0000\"}}¡Rápido, señor héroe!\n¡La {{color id=\"0\"}}espada{{color id=\"65535\"}} te está esperando!",
      "USfr": "{{fun_0003_0001 arg=\"0x0000\"}}Vite, va voir l'{{color id=\"0\"}}épée{{color id=\"65535\"}}, {{delay1}}ami Héros!"
    }
  },
  {
    "label": "Npc_kokiri012_Talk002",
    "attribute": "0x68000000",
    "locale": {
      "CNzh": "{{fun_0003_0001 arg=\"0x0700\"}}冷冰冰！{{delay1}}闪亮亮！\n帅气的勇者大人，{{delay1}}你好吗？\n魔杖除了冰的力量，\n还有火的力量跟雷的力量。\n{{fun_0003_0001 arg=\"0x0600\"}}请储存满满的力量，\n替森林和海拉鲁带来和平吧……{{delay1}}勇者大人。",
      "EUde": "{{fun_0003_0001 arg=\"0x0700\"}}Zisch! {{delay1}}Klirr!{{delay1}}\nSo heldenhaft bist du, es ist\nkaum zu fassen, werter Held!{{pageBreak}}Hier, übrigens: Es gibt nicht nur Stäbe\nmit Eiskraft, sondern auch welche mit\nFeuer- und Elektrokräften!\n{{fun_0003_0001 arg=\"0x0600\"}}Ich hoffe, du wirst immer stärker und\nbringst dem Wald und ganz Hyrule den\nFrieden... {{delay1}}Immerhin bist du der Held!",
      "EUen": "{{fun_0003_0001 arg=\"0x0700\"}}He sparkles! {{delay1}}He shines!\nYou're very handsome...for a hero.{{delay1}}\n\nThere are many magical rods in this land.\nNot just ice magic, but fire magic and\nelectric magic too!\n{{fun_0003_0001 arg=\"0x0600\"}}Prepare yourself, hero!\nYou must bring peace back to Hyrule!",
      "EUes": "{{fun_0003_0001 arg=\"0x0700\"}}¡Chispitas! {{delay1}}¡Chiribitas!{{pageBreak}}Jo, hay que reconocerlo: eres un héroe\nde lo más atractivo.{{delay1}} Aunque seguro\nque te lo dicen todo el rato.\nAl grano... Aquí donde me ves, estoy\nalgo obsesionado con los cetros.\n¡No hay un arma más guay!\nAl parecer, no solo existen cetros con\nel poder mágico del hielo. ¡No, no!{{pageBreak}}¡También pueden albergar el poder\ndel fuego o de la electricidad!\n¿Que por qué te cuento esto?{{pageBreak}}{{fun_0003_0001 arg=\"0x0600\"}}Porque hasta que no vuelva a reinar\nla paz en Hyrule, no tendremos respiro.{{pageBreak}}¡Así que tienes que hacerte muy fuerte\ny prepararte como sea necesario para\nsalvarnos a todos, tío guay!",
      "EUfr": "{{fun_0003_0001 arg=\"0x0700\"}}Fioooouuu ! {{delay1}} Tadaaa ! Comment vas-tu,{{delay1}}\nvaillant ami Héros ?\n\nIl n'existe pas que des baguettes de\nglace ! Non, non, non ! Il y a aussi des\nbaguettes de feu et d'électricité !\n{{fun_0003_0001 arg=\"0x0600\"}}Alors trouves-en plein et ramène la paix\nen Hyrule et dans notre forêt...{{delay1}} S'il te\nplaît, ami Héros !",
      "EUit": "{{fun_0003_0001 arg=\"0x0700\"}}Pataplin! {{delay1}}Brill brill! Come va, {{delay1}}pinoggioso\nsignor Eroe?\n\nSai che le bacchette possono avere non\nsolo il potere del ghiaccio, ma anche\nquello elettrico o quello del fuoco?\n{{fun_0003_0001 arg=\"0x0600\"}}Accumula tanta forza e riporta la pace\nnel bosco e a Hyrule, {{delay1}}signor Eroe!",
      "EUnl": "{{fun_0003_0001 arg=\"0x0700\"}}Glitterend!{{delay1}} Glanzend! Wat een knappe\nheld!{{delay1}} Hoe gaat het met je?{{pageBreak}}Er zijn ook staven met een andere kracht\ndan ijs, bijvoorbeeld vuur of elektriciteit.{{pageBreak}}{{fun_0003_0001 arg=\"0x0600\"}}Hopelijk word je heel sterk, held, zodat je\nde vrede kunt laten terugkeren in het\nwoud en heel Hyrule...",
      "EUru": "{{fun_0003_0001 arg=\"0x0700\"}}Красота!{{delay1}} Загляденье!{{pageBreak}}Ну, как твои геройские дела?\nПродвигаются?{{pageBreak}}А ты знал, что кроме ледяных палочек\nесть еще огненные и электрические?{{pageBreak}}{{fun_0003_0001 arg=\"0x0600\"}}Дорогой герой, я хочу, чтобы ты стал\nеще сильнее и навел порядок в нашем\nлесу...{{delay1}} ну и во всем Хайруле, ладно.",
      "JPja": "{{fun_0003_0001 arg=\"0x0700\"}}しゅるりーん！ {{delay1}}きらきら！\nかっこいい ゆうしゃサマ {{delay1}}ごきげんいかが？\nロッドには こおりのちカラだけじゃなくて\nほのおと でんきの ちカラもあるノ\n{{fun_0003_0001 arg=\"0x0600\"}}ちカラいっぱい たくわえて\n{{ruby charSpan=\"1\" value=\"もり\"}}森と ハイラルを{{ruby charSpan=\"2\" value=\"へいわ\"}}平和にしてネ… {{delay1}}ゆうしゃサマ",
      "KRko": "{{fun_0003_0001 arg=\"0x0700\"}}샤랄라! {{delay1}}반짝반짝!\n멋있는 용사님,{{delay1}} 안녕해?\n로드에는 얼음의 힘뿐만 아니라\n불꽃과 전기의 힘도 있어\n{{fun_0003_0001 arg=\"0x0600\"}}힘을 가득 모아서\n숲과 하이랄을 평화롭게 만들어 줘… {{delay1}}용사님",
      "TWzh": "{{fun_0003_0001 arg=\"0x0700\"}}冷冰冰！{{delay1}}閃亮亮！\n帥氣的勇者大人，{{delay1}}你好嗎？\n魔杖除了冰的力量，\n還有火的力量跟雷的力量哦。\n{{fun_0003_0001 arg=\"0x0600\"}}請儲存滿滿的力量，\n替森林和海拉魯帶來和平吧……{{delay1}}勇者大人。",
      "USen": "{{fun_0003_0001 arg=\"0x0700\"}}He sparkles! {{delay1}}He shines!\nYou're very handsome...for a hero.{{delay1}}\n\nThere are many magical rods in this land.\nNot just ice magic, but fire magic and\nelectric magic too!\n{{fun_0003_0001 arg=\"0x0600\"}}Prepare yourself, hero!\nYou must bring peace back to Hyrule!",
      "USes": "{{fun_0003_0001 arg=\"0x0700\"}}¡Es el héroe más ilustre y lustroso de\ntodo el reino!{{pageBreak}}¿Sabías que en el reino existen todo\ntipo de cetros? No solo de hielo, sino\ntambién de fuego ¡e incluso eléctricos!{{pageBreak}}{{fun_0003_0001 arg=\"0x0600\"}}¡Prepárate, señor héroe! ¡Usa todas las\narmas que necesites para devolver la\npaz a Hyrule!",
      "USfr": "{{fun_0003_0001 arg=\"0x0700\"}}Fioooouuu!{{delay1}} Tadaaa! Comment vas-tu,{{delay1}}\nvaillant ami Héros?\n\nIl n'existe pas que des baguettes de\nglace! Non, non, non! Il y a aussi des\nbaguettes de feu et d'électricité!\n{{fun_0003_0001 arg=\"0x0600\"}}Alors, trouves-en plein et ramène la paix\nà Hyrule et dans notre forêt...{{delay1}} S'il te\nplaît, ami Héros!"
    }
  },
  {
    "label": "Npc_kokiri012_Talk003",
    "attribute": "0x84000000",
    "locale": {
      "CNzh": "{{fun_0003_0001 arg=\"0x0700\"}}冷冰冰！{{delay1}}闪亮亮！\n勇者大人拔起{{color id=\"2\"}}大师之剑{{color id=\"65535\"}}了吧！\n要是{{color id=\"2\"}}大师之剑{{color id=\"65535\"}}无精打采的，\n记得想起魔杖的事。\n{{fun_0003_0001 arg=\"0x0600\"}}魔杖除了冰的力量，\n还有火的力量跟雷的力量！",
      "EUde": "{{fun_0003_0001 arg=\"0x0700\"}}Zisch! {{delay1}}Klirr!{{delay1}}\nDu hast das {{color id=\"2\"}}{{wordInfo gender=\"3\" defArticle=\"2\" indefArticle=\"2\" isPlural=\"0\"}}Master-Schwert{{color id=\"65535\"}}\nherausgezogen!{{pageBreak}}Aber wenn das {{color id=\"2\"}}{{wordInfo gender=\"3\" defArticle=\"2\" indefArticle=\"2\" isPlural=\"0\"}}Master-Schwert{{color id=\"65535\"}} dich mal\nanödet, denk an die magischen Stäbe!{{pageBreak}}{{fun_0003_0001 arg=\"0x0600\"}}Es gibt nicht nur welche mit Eiskraft,\nsondern auch welche mit Feuer- und\nElektrokräften!",
      "EUen": "{{fun_0003_0001 arg=\"0x0700\"}}Sparkly! {{delay1}}Shiny!\nYou were able to pull out the \n{{color id=\"2\"}}Master Sword{{color id=\"65535\"}}!\nIf the {{color id=\"2\"}}Master Sword {{color id=\"65535\"}}isn't feeling well, \nyou could always use a magic rod!\n\n{{fun_0003_0001 arg=\"0x0600\"}}There's more than just ice rods—there\nare also rods with fire or electric \nmagic too!",
      "EUes": "{{fun_0003_0001 arg=\"0x0700\"}}¡Chispitas! {{delay1}}¡Centellas!{{pageBreak}}¡Has logrado sacar la {{color id=\"2\"}}{{wordInfo gender=\"2\" defArticle=\"1\" indefArticle=\"1\" isPlural=\"0\"}}Espada Maestra{{color id=\"65535\"}}\ndel pedestal! Tiene mérito la cosa.{{pageBreak}}Pero, si en algún momento crees que\ndebes darle un respiro, recuerda que\nsiempre puedes tirar de los cetros.\n{{fun_0003_0001 arg=\"0x0600\"}}No solo albergan el poder del hielo, ¡no!\nTambién existen cetros cargados de\nmagia eléctrica... ¡e incluso ígnea!",
      "EUfr": "{{fun_0003_0001 arg=\"0x0700\"}}Fioooouuu !{{delay1}} Tadaaa ! Oh, tu as retiré\nl'{{color id=\"2\"}}{{wordInfo gender=\"2\" defArticle=\"4\" indefArticle=\"1\" isPlural=\"0\"}}épée de légende{{color id=\"65535\"}} !\n\nRappelle-toi, ami Héros ! Si l'{{color id=\"2\"}}épée de\nlégende{{color id=\"65535\"}} est fatiguée, n'oublie pas les\nbaguettes !\n{{fun_0003_0001 arg=\"0x0600\"}}Il n'existe pas que des baguettes de\nglace ! Non, non, non ! Il y a aussi des\nbaguettes de feu et d'électricité !",
      "EUit": "{{fun_0003_0001 arg=\"0x0700\"}}Pataplin!{{delay1}} Brill Brill!\nSignor Eroe, hai tirato fuori\nla {{color id=\"2\"}}{{wordInfo gender=\"2\" defArticle=\"2\" indefArticle=\"2\" isPlural=\"0\"}}spada suprema{{color id=\"65535\"}}!\nSe la {{color id=\"2\"}}{{wordInfo gender=\"2\" defArticle=\"2\" indefArticle=\"2\" isPlural=\"0\"}}spada suprema{{color id=\"65535\"}} si sente un po'\nfiacca, ricorda che puoi usare anche\nle bacchette!\n{{fun_0003_0001 arg=\"0x0600\"}}Non ci sono solo le bacchette con il\npotere del freddo, ma anche quelle col\npotere del caldo e delle scosse!",
      "EUnl": "{{fun_0003_0001 arg=\"0x0700\"}}Glitterend!{{delay1}} Glanzend! Je hebt het\n{{color id=\"2\"}}Meesterzwaard{{color id=\"65535\"}} losgetrokken!{{pageBreak}}Vergeet niet dat je staven hebt voor de\nmomenten dat het {{color id=\"2\"}}Meesterzwaard{{color id=\"65535\"}} er\neven geen zin in heeft!\n{{fun_0003_0001 arg=\"0x0600\"}}Er zijn niet alleen staven met magische\nijskracht, je hebt er ook met vuur\nof elektriciteit!",
      "EUru": "{{fun_0003_0001 arg=\"0x0700\"}}Красота!{{delay1}} Загляденье!{{pageBreak}}Даже {{color id=\"2\"}}Высший Меч{{color id=\"65535\"}} вытащил!{{delay1}} Геро-о-ой!{{delay1}}\nНу а если меч устанет, ты про палочки\nне забывай, да?{{pageBreak}}{{fun_0003_0001 arg=\"0x0600\"}}Они не только ледяные бывают, но и\nогненные и — ух-х! — электрические!",
      "JPja": "{{fun_0003_0001 arg=\"0x0700\"}}しゅるりーん！ {{delay1}}きらきら！\nゆうしゃサマ {{color id=\"2\"}}マスターソード{{color id=\"65535\"}}{{ruby charSpan=\"1\" value=\"ぬ\"}}抜けたね！\n{{color id=\"2\"}}マスターソード{{color id=\"65535\"}}の {{ruby charSpan=\"2\" value=\"げんき\"}}元気がなくなったら\nロッドのことも {{ruby charSpan=\"1\" value=\"おも\"}}思い{{ruby charSpan=\"1\" value=\"だ\"}}出してネ\n{{fun_0003_0001 arg=\"0x0600\"}}ロッドには こおりのちカラだけじゃなくて\nほのおと でんきの ちカラもあるからネ！",
      "KRko": "{{fun_0003_0001 arg=\"0x0700\"}}샤랄라! {{delay1}}반짝반짝!\n용사님, {{color id=\"2\"}}마스터 소드{{color id=\"65535\"}} 뽑았구나!\n{{color id=\"2\"}}마스터 소드{{color id=\"65535\"}}의 기운이 없어지면\n로드의 존재도 떠올려 줘\n{{fun_0003_0001 arg=\"0x0600\"}}로드에는 얼음의 힘뿐만 아니라\n불꽃과 전기의 힘도 있으니까!",
      "TWzh": "{{fun_0003_0001 arg=\"0x0700\"}}冷冰冰！{{delay1}}閃亮亮！\n勇者大人拔起{{color id=\"2\"}}大師之劍{{color id=\"65535\"}}了吧！\n要是{{color id=\"2\"}}大師之劍{{color id=\"65535\"}}無精打采的，\n記得想起魔杖的事哦。\n{{fun_0003_0001 arg=\"0x0600\"}}魔杖除了冰的力量，\n還有火的力量跟雷的力量哦！",
      "USen": "{{fun_0003_0001 arg=\"0x0700\"}}Sparkly! {{delay1}}Shiny!\nYou were able to pull out the \n{{color id=\"2\"}}Master Sword{{color id=\"65535\"}}!\nIf the {{color id=\"2\"}}Master Sword {{color id=\"65535\"}}isn't feeling well, \nyou could always use a magic rod!\n\n{{fun_0003_0001 arg=\"0x0600\"}}There's more than just ice rods—there\nare also rods with fire or electric \nmagic too!",
      "USes": "{{fun_0003_0001 arg=\"0x0700\"}}¡Héroe ilustre y lustroso! ¡Lograste sacar\nla {{color id=\"2\"}}{{wordInfo gender=\"2\" defArticle=\"1\" indefArticle=\"1\" isPlural=\"0\"}}Espada Maestra {{color id=\"65535\"}}del pedestal!{{pageBreak}}Pero si en algún momento necesitas\ndarle un respiro, siempre puedes\nusar un cetro.\n{{fun_0003_0001 arg=\"0x0600\"}}No solo albergan el poder del hielo, ¡no!\nTambién existen cetros cargados de\nmagia eléctrica... ¡e incluso de fuego!",
      "USfr": "{{fun_0003_0001 arg=\"0x0700\"}}Fioooouuu!{{delay1}} Tadaaa! Oh, tu as retiré\nl'{{color id=\"2\"}}{{wordInfo gender=\"2\" defArticle=\"4\" indefArticle=\"1\" isPlural=\"0\"}}épée de légende{{color id=\"65535\"}}!\n\nRappelle-toi, ami Héros! Si l'{{color id=\"2\"}}épée de\nlégende{{color id=\"65535\"}} est fatiguée, n'oublie pas les\nbaguettes!\n{{fun_0003_0001 arg=\"0x0600\"}}Il n'existe pas que des baguettes de\nglace! Non, non, non! Il y a aussi des\nbaguettes de feu et d'électricité!"
    }
  },
  {
    "label": "Npc_kokiri012_Talk004",
    "attribute": "0xA0000000",
    "locale": {
      "CNzh": "{{fun_0003_0001 arg=\"0x0600\"}}勇者大人，\n秀出大师之剑{{delay1}}让我瞧瞧吧！{{fun_0001_0004 arg=\"0x000001000001\"}}",
      "EUde": "{{fun_0003_0001 arg=\"0x0600\"}}Zeig mir das {{wordInfo gender=\"3\" defArticle=\"2\" indefArticle=\"2\" isPlural=\"0\"}}Master-Schwert, werter\nHeld!{{delay1}} Bitte, bitte, bitte!{{fun_0001_0004 arg=\"0x000001000001\"}}",
      "EUen": "{{fun_0003_0001 arg=\"0x0600\"}}Hey hey, hero!\nCan you show me the Master Sword? {{delay1}}\nShow me, show me!{{fun_0001_0004 arg=\"0x000001000001\"}}",
      "EUes": "{{fun_0003_0001 arg=\"0x0600\"}}¡Tío guay! Enróllate y enséñame\nesa pasada de Espada Maestra.{{delay1}}\n¡A ver, a ver!{{fun_0001_0004 arg=\"0x000001000001\"}}",
      "EUfr": "{{fun_0003_0001 arg=\"0x0600\"}}Dis, dis, ami Héros ! Montre-moi l'épée\nde légende !{{delay1}} Tu veux bien ? Montre,\nmontre !{{fun_0001_0004 arg=\"0x000001000001\"}}",
      "EUit": "{{fun_0003_0001 arg=\"0x0600\"}}Signor Eroe!\nMi fai vedere{{delay1}} la {{wordInfo gender=\"2\" defArticle=\"2\" indefArticle=\"2\" isPlural=\"0\"}}spada suprema?!{{fun_0001_0004 arg=\"0x000001000001\"}}",
      "EUnl": "{{fun_0003_0001 arg=\"0x0600\"}}Hé, hé, held! Mag ik het Meesterzwaard\nzien? Ah, toe, mag ik, mag ik, mag\nik?{{fun_0001_0004 arg=\"0x000001000001\"}}",
      "EUru": "{{fun_0003_0001 arg=\"0x0600\"}}Дорогой геро-о-ой, а ты покажешь\nмне Высший Меч?{{delay1}} Ну пазязя!{{fun_0001_0004 arg=\"0x000001000001\"}}",
      "JPja": "{{fun_0003_0001 arg=\"0x0600\"}}ねえねえ ゆうしゃサマ\nわたしに マスターソード {{delay1}}{{ruby charSpan=\"1\" value=\"み\"}}見せて{{ruby charSpan=\"1\" value=\"み\"}}見せテ！{{fun_0001_0004 arg=\"0x000001000001\"}}",
      "KRko": "{{fun_0003_0001 arg=\"0x0600\"}}있지, 있지, 용사님\n나한테 마스터 소드 {{delay1}}보여 줘, 보여 줘!{{fun_0001_0004 arg=\"0x000001000001\"}}",
      "TWzh": "{{fun_0003_0001 arg=\"0x0600\"}}勇者大人，\n秀出大師之劍{{delay1}}讓我瞧瞧吧！{{fun_0001_0004 arg=\"0x000001000001\"}}",
      "USen": "{{fun_0003_0001 arg=\"0x0600\"}}Hey hey, hero!\nCan you show me the Master Sword? {{delay1}}\nShow me, show me!{{fun_0001_0004 arg=\"0x000001000001\"}}",
      "USes": "{{fun_0003_0001 arg=\"0x0600\"}}¡Señor héroe!\n¿Me enseñas la Espada Maestra? {{delay1}}\n¡Quiero verla, quiero verla!{{fun_0001_0004 arg=\"0x000001000001\"}}",
      "USfr": "{{fun_0003_0001 arg=\"0x0600\"}}Dis, dis, ami Héros! Montre-moi l'épée\nde légende!{{delay1}} Tu veux bien? Montre,\nmontre!{{fun_0001_0004 arg=\"0x000001000001\"}}"
    }
  },
  {
    "label": "0000",
    "attribute": "0xBC000000",
    "locale": {
      "CNzh": "好啊",
      "EUde": "Gerne!",
      "EUen": "All right.",
      "EUes": "Venga, va",
      "EUfr": "D'accord.",
      "EUit": "Certo.",
      "EUnl": "Oké.",
      "EUru": "Ладно",
      "JPja": "いいよ",
      "KRko": "좋아",
      "TWzh": "好啊",
      "USen": "All right.",
      "USes": "Claro que sí",
      "USfr": "D'accord."
    }
  },
  {
    "label": "0001",
    "attribute": "0xBE000000",
    "locale": {
      "CNzh": "下次吧",
      "EUde": "Ein andermal.",
      "EUen": "Another time.",
      "EUes": "Otra vez será",
      "EUfr": "Une autre fois.",
      "EUit": "Un'altra volta.",
      "EUnl": "Ander keertje.",
      "EUru": "В другой раз",
      "JPja": "また{{ruby charSpan=\"2\" value=\"こんど\"}}今度",
      "KRko": "다음에",
      "TWzh": "下次吧",
      "USen": "Another time.",
      "USes": "Otra vez será",
      "USfr": "Une autre fois."
    }
  },
  {
    "label": "Npc_kokiri012_Talk005",
    "attribute": "0xC0000000",
    "locale": {
      "CNzh": "{{fun_0003_0001 arg=\"0x0700\"}}好耶～！{{delay2}}\n紧张紧张～{{delay2}}刺激刺激～",
      "EUde": "{{fun_0003_0001 arg=\"0x0700\"}}Jippie!{{delay2}}\nIch bin ganz gespannt!{{delay2}}\nIch dreh fast durch!",
      "EUen": "{{fun_0003_0001 arg=\"0x0700\"}}YAAAAAAAAAAAY!{{delay2}}\nSo exciting!",
      "EUes": "{{fun_0003_0001 arg=\"0x0700\"}}¡Ay, que no me lo creo!{{delay2}} ¡Este es{{delay2}}\nel momento más emocionante de mi vida!",
      "EUfr": "{{fun_0003_0001 arg=\"0x0700\"}}Fantastique ! Merveilleux !{{delay2}} Oh là là !{{delay2}}\nOh là là !!!",
      "EUit": "{{fun_0003_0001 arg=\"0x0700\"}}Evviva!{{delay2}}\nChe emozione! {{delay2}}Che gioia!",
      "EUnl": "{{fun_0003_0001 arg=\"0x0700\"}}Jeeeee! Zo spannend! Zo spannend!",
      "EUru": "{{fun_0003_0001 arg=\"0x0700\"}}Ура-а-а!{{delay1}} Показывай!",
      "JPja": "{{fun_0003_0001 arg=\"0x0700\"}}ヤッター！{{delay2}}\nわくわく {{delay2}}わくわくわく",
      "KRko": "{{fun_0003_0001 arg=\"0x0700\"}}와아~!{{delay2}}\n두근두근 {{delay2}}두근두근두근",
      "TWzh": "{{fun_0003_0001 arg=\"0x0700\"}}好耶～！{{delay2}}\n緊張緊張～{{delay2}}刺激刺激～",
      "USen": "{{fun_0003_0001 arg=\"0x0700\"}}YAAAAAAAAAAAY!{{delay2}}\nSo exciting!",
      "USes": "{{fun_0003_0001 arg=\"0x0700\"}}¡Ay, que no me lo creo!{{delay2}} ¡Este es{{delay2}}\nel momento más emocionante de mi vida!",
      "USfr": "{{fun_0003_0001 arg=\"0x0700\"}}Fantastique! Merveilleux!{{delay2}} Oh là là!{{delay2}}\nOh là là!!!"
    }
  },
  {
    "label": "Npc_kokiri012_Talk006",
    "attribute": "0xDC000000",
    "locale": {
      "CNzh": "{{fun_0003_0001 arg=\"0x070A\"}}拔出！{{delay1}}咻咻咻～！\n呀！帅毙了！\n{{fun_0003_0001 arg=\"0x0600\"}}谢谢勇者大人秀给我看！\n超开心的啦～\n请用那把剑救出公主殿下吧！",
      "EUde": "{{fun_0003_0001 arg=\"0x070A\"}}Kaziiiing! {{delay1}}Swosch-swosch!\nIch werd nicht mehr!{{pageBreak}}{{fun_0003_0001 arg=\"0x0600\"}}Vielen Dank, Held!\nDu hast einen glücklichen Krog\naus mir gemacht!\nUnd jetzt nimm das Schwert und\nrette die Prinzessin!",
      "EUen": "{{fun_0003_0001 arg=\"0x070A\"}}Schving! {{delay1}}Fssssssshew!\nWow! So cool!\n{{fun_0003_0001 arg=\"0x0600\"}}Thanks, hero!\nI'm so happy I got to see it!\nNow please go use that sword to save\nthe princess!",
      "EUes": "{{fun_0003_0001 arg=\"0x070A\"}}¡Chiribitas! {{delay1}}¡Centellas!\n¡Rayos, cómo mola!{{pageBreak}}{{fun_0003_0001 arg=\"0x0600\"}}¡Gracias, tío guay! Ahora que sé fijo\nque la tienes, ya puedo pedirte que\nvayas corriendo a por la princesa.",
      "EUfr": "{{fun_0003_0001 arg=\"0x070A\"}}Wouaaaouh ! Ce qu'elle brille ! {{delay1}}Tchiiing !\nElle a l'air si héroïque ! Si vaillante !\n\n{{fun_0003_0001 arg=\"0x0600\"}}Merci, ami Héros ! C'est gentil à toi\nde m'avoir montré cette épée !\n\nMaintenant, sers-t'en pour aider\nla princesse !",
      "EUit": "{{fun_0003_0001 arg=\"0x070A\"}}Pataplin! {{delay1}}Pataplan!\nOoooh! Che bella!!!\n\n{{fun_0003_0001 arg=\"0x0600\"}}Grazie, signor Eroe!\n\n\nAdesso vai a salvare la principessa\ncon quella spada!",
      "EUnl": "{{fun_0003_0001 arg=\"0x070A\"}}Zwiep!{{delay1}} Boem! Wauw! Zo cool!{{pageBreak}}{{fun_0003_0001 arg=\"0x0600\"}}Bedankt dat ik het mocht zien, held! Ga\nnu de prinses redden met dat zwaard!",
      "EUru": "{{fun_0003_0001 arg=\"0x070A\"}}У-у-у!{{delay1}} «Получай, злодей!»{{delay1}} БЫДЫЩЬ!{{pageBreak}}{{fun_0003_0001 arg=\"0x0600\"}}Спасибо, дорогой герой!{{delay1}} Я так рад,\nчто ты мне показал этот меч!{{delay1}} Ах!{{delay1}}\nА теперь иди, спасай принцессу.",
      "JPja": "{{fun_0003_0001 arg=\"0x070A\"}}しゃきーん！ {{delay1}}しゅばばーん！\nきゃー！ かっこいい！\n{{fun_0003_0001 arg=\"0x0600\"}}ありがとう ゆうしゃサマ！\n{{ruby charSpan=\"1\" value=\"み\"}}見せてもらえて うれしいワ\nその{{ruby charSpan=\"1\" value=\"つるぎ\"}}剣で お{{ruby charSpan=\"1\" value=\"ひめ\"}}姫サマを\n{{ruby charSpan=\"1\" value=\"たす\"}}助けてあげてネ！",
      "KRko": "{{fun_0003_0001 arg=\"0x070A\"}}촤악~! {{delay1}}번쩍~!\n꺄~! 멋있어!\n{{fun_0003_0001 arg=\"0x0600\"}}고마워, 용사님!\n보여 줘서 기뻐\n그 검으로 공주님을\n구해 줘!",
      "TWzh": "{{fun_0003_0001 arg=\"0x070A\"}}拔出！{{delay1}}咻咻咻～！\n呀！帥斃了！\n{{fun_0003_0001 arg=\"0x0600\"}}謝謝勇者大人秀給我看！\n超開心的啦～\n請用那把劍救出\n公主殿下吧！",
      "USen": "{{fun_0003_0001 arg=\"0x070A\"}}Schving! {{delay1}}Fssssssshew!\nWow! So cool!\n{{fun_0003_0001 arg=\"0x0600\"}}Thanks, hero!\nI'm so happy I got to see it!\nNow please go use that sword to save\nthe princess!",
      "USes": "{{fun_0003_0001 arg=\"0x070A\"}}¡Ji, ji! ¡Cómo brilla! ¡Me encanta!{{pageBreak}}{{fun_0003_0001 arg=\"0x0600\"}}¡Gracias, señor héroe! Ahora que la\ntienes, irás corriendo a salvar a la\nprincesa, ¿no?",
      "USfr": "{{fun_0003_0001 arg=\"0x070A\"}}Wouaaaouh! Ce qu'elle brille! {{delay1}}Diiing!\nElle a l'air si héroïque! Si vaillante!\n\n{{fun_0003_0001 arg=\"0x0600\"}}Merci, ami Héros! C'est gentil à toi\nde m'avoir montré cette épée!\n\nMaintenant, sers-t'en pour aider\nla princesse!"
    }
  },
  {
    "label": "Npc_kokiri012_Talk007",
    "attribute": "0xF8000000",
    "locale": {
      "CNzh": "{{fun_0003_0001 arg=\"0x0900\"}}是吗……{{delay1}}真可惜……",
      "EUde": "{{fun_0003_0001 arg=\"0x0900\"}}Nicht jetzt? {{delay1}}Nein?",
      "EUen": "{{fun_0003_0001 arg=\"0x0900\"}}Oh...{{delay3}} OK.",
      "EUes": "{{fun_0003_0001 arg=\"0x0900\"}}Jo, qué poco guay... {{delay1}}Ya me había\nhecho ilusiones con el tema.",
      "EUfr": "{{fun_0003_0001 arg=\"0x0900\"}}Ah... Ah bon... ?{{delay1}} C'est dommage... Oui,\noui, dommage... Snif.",
      "EUit": "{{fun_0003_0001 arg=\"0x0900\"}}Capisco... {{delay1}}che peccato...",
      "EUnl": "{{fun_0003_0001 arg=\"0x0900\"}}O...{{delay1}} jammer...",
      "EUru": "{{fun_0003_0001 arg=\"0x0900\"}}О-о-о...{{delay1}} печалька...",
      "JPja": "{{fun_0003_0001 arg=\"0x0900\"}}そう… {{delay1}}ざんねんだワ…",
      "KRko": "{{fun_0003_0001 arg=\"0x0900\"}}그래… {{delay1}}아쉽다…",
      "TWzh": "{{fun_0003_0001 arg=\"0x0900\"}}是嗎……{{delay1}}真可惜……",
      "USen": "{{fun_0003_0001 arg=\"0x0900\"}}Oh...{{delay3}} OK.",
      "USes": "{{fun_0003_0001 arg=\"0x0900\"}}Mi gozo en un pozo...",
      "USfr": "{{fun_0003_0001 arg=\"0x0900\"}}Ah... Ah bon...?{{delay1}} C'est dommage... Oui,\noui, dommage... Snif."
    }
  }
]