[
  {
    "label": "near00",
    "attribute": "0x68000000",
    "locale": {
      "CNzh": "滚滚滚……",
      "EUde": "Kuller...",
      "EUen": "Raaaarghhhh!!!",
      "EUes": "Fiuuu...",
      "EUfr": "Roule... Roule...",
      "EUit": "Rotola... rotola...",
      "EUnl": "Sssnrrrggg...",
      "EUru": "Тр-р-р-р-р!",
      "JPja": "もももも…",
      "KRko": "므므므므…",
      "TWzh": "滾滾滾……",
      "USen": "Raaaarghhhh!!!",
      "USes": "Fiuuu...",
      "USfr": "Roule... Roule..."
    }
  },
  {
    "label": "near01",
    "attribute": "0x82000000",
    "locale": {
      "CNzh": "呼噜……呼噜……",
      "EUde": "ZZZzzz...",
      "EUen": "Zzz...zzz...",
      "EUes": "Zzz... zzz...",
      "EUfr": "Zzz...",
      "EUit": "Zzz... zzz...",
      "EUnl": "Zzz... Zzz...",
      "EUru": "Пс-с-с...",
      "JPja": "スヤ… スヤ…",
      "KRko": "새근… 새근…",
      "TWzh": "呼嚕……呼嚕……",
      "USen": "Zzz...zzz...",
      "USes": "Zzz... zzz...",
      "USfr": "Zzz..."
    }
  },
  {
    "label": "near02",
    "attribute": "0x9C000000",
    "locale": {
      "CNzh": "哈啊……",
      "EUde": "Gähn...",
      "EUen": "Yaaaargh...",
      "EUes": "Qué sueñooo...",
      "EUfr": "Haaa...",
      "EUit": "Yaaawn...",
      "EUnl": "Hoewaaah...",
      "EUru": "Эх...",
      "JPja": "ふぁぁぁ…",
      "KRko": "흐아아아…",
      "TWzh": "哈啊……",
      "USen": "Yaaaargh...",
      "USes": "Qué sueñooo...",
      "USfr": "Haaa..."
    }
  },
  {
    "label": "0000",
    "attribute": "0xB6000000",
    "locale": {
      "CNzh": "什么？",
      "EUde": "Was soll ich kaufen?",
      "EUen": "What now?",
      "EUes": "¿Qué?",
      "EUfr": "Quoi donc ?",
      "EUit": "Cosa?",
      "EUnl": "Wat?",
      "EUru": "Что именно?",
      "JPja": "{{ruby charSpan=\"1\" value=\"なに\"}}何を？",
      "KRko": "뭘?",
      "TWzh": "什麼？",
      "USen": "What now?",
      "USes": "¿Qué?",
      "USfr": "Quoi donc?"
    }
  },
  {
    "label": "0001",
    "attribute": "0xB8000000",
    "locale": {
      "CNzh": "不用了",
      "EUde": "Nein, danke.",
      "EUen": "No, I'm good.",
      "EUes": "Paso, gracias",
      "EUfr": "Pas besoin, merci.",
      "EUit": "No, grazie.",
      "EUnl": "Ik heb niets nodig.",
      "EUru": "Я лучше пойду",
      "JPja": "{{ruby charSpan=\"2\" value=\"けっこう\"}}結構です",
      "KRko": "괜찮아",
      "TWzh": "不用了",
      "USen": "No, I'm good.",
      "USes": "No, gracias",
      "USfr": "Pas besoin, merci."
    }
  },
  {
    "label": "0002",
    "attribute": "0xBA000000",
    "locale": {
      "CNzh": "或许需要",
      "EUde": "Kann sein...",
      "EUen": "I probably do.",
      "EUes": "Quizás",
      "EUfr": "Peut-être...",
      "EUit": "Forse sì.",
      "EUnl": "Waarschijnlijk wel.",
      "EUru": "Ну давай",
      "JPja": "{{ruby charSpan=\"1\" value=\"い\"}}要るかも",
      "KRko": "필요할지도",
      "TWzh": "或許需要",
      "USen": "I probably do.",
      "USes": "Quizás",
      "USfr": "Peut-être..."
    }
  },
  {
    "label": "0003",
    "attribute": "0xBC000000",
    "locale": {
      "CNzh": "买",
      "EUde": "Nehme ich!",
      "EUen": "I'll buy it.",
      "EUes": "¡Compro!",
      "EUfr": "J'achète.",
      "EUit": "Compro.",
      "EUnl": "Ik koop het.",
      "EUru": "Беру!",
      "JPja": "{{ruby charSpan=\"1\" value=\"か\"}}買います",
      "KRko": "살게",
      "TWzh": "買",
      "USen": "I'll buy it.",
      "USes": "¡Compro!",
      "USfr": "J'achète."
    }
  },
  {
    "label": "0004",
    "attribute": "0xBE000000",
    "locale": {
      "CNzh": "还是算了",
      "EUde": "Brauch ich nicht.",
      "EUen": "Never mind.",
      "EUes": "Déjalo",
      "EUfr": "Laisse tomber.",
      "EUit": "Non importa.",
      "EUnl": "Laat maar.",
      "EUru": "Не пойдет",
      "JPja": "やめとく",
      "KRko": "관둘래",
      "TWzh": "還是算了",
      "USen": "Never mind.",
      "USes": "Mejor no",
      "USfr": "Laisse tomber."
    }
  },
  {
    "label": "talk00",
    "attribute": "0xC0000000",
    "locale": {
      "CNzh": "{{fun_0003_0001 arg=\"0x0100\"}}{{size value=\"80\"}}{{color id=\"3\"}}明明只要把{{color id=\"65535\"}}{{color id=\"2\"}}耐火蜥{{color id=\"3\"}}和{{color id=\"2\"}}怪物材料{{color id=\"65535\"}}{{color id=\"3\"}}加在一起烹饪……{{color id=\"65535\"}}{{size value=\"100\"}}",
      "EUde": "{{fun_0003_0001 arg=\"0x0100\"}}{{size value=\"80\"}}{{color id=\"3\"}}Einfach eine{{color id=\"65535\"}}{{color id=\"2\"}} {{wordInfo gender=\"2\" defArticle=\"1\" indefArticle=\"1\" isPlural=\"0\"}}Löschechse{{color id=\"65535\"}}{{color id=\"3\"}} und {{color id=\"2\"}}Monsterzutaten{{color id=\"3\"}}\nzusammen kochen...{{color id=\"65535\"}}{{size value=\"100\"}}",
      "EUen": "{{fun_0003_0001 arg=\"0x0100\"}}{{size value=\"80\"}}{{color id=\"2\"}}{{color id=\"3\"}}All you need to do is cook one{{color id=\"2\"}} fireproof lizard\nwith monster parts{{color id=\"65535\"}}{{color id=\"3\"}}, fella...{{color id=\"65535\"}}{{size value=\"100\"}}",
      "EUes": "{{fun_0003_0001 arg=\"0x0100\"}}{{size value=\"80\"}}{{color id=\"3\"}}Si se cocina algún {{color id=\"2\"}}{{wordInfo gender=\"1\" defArticle=\"0\" indefArticle=\"0\" isPlural=\"0\"}}lagarto ignífugo{{color id=\"3\"}} con\n{{color id=\"2\"}}ingredientes monstruosos{{color id=\"3\"}}, pasará algo\nmuy interesante...{{color id=\"65535\"}}{{size value=\"100\"}}",
      "EUfr": "{{fun_0003_0001 arg=\"0x0100\"}}{{size value=\"80\"}}{{color id=\"3\"}}Il sait même pas qu'il faut juste faire cuire des{{color id=\"2\"}}\nlézards ignifus{{color id=\"3\"}} avec des {{color id=\"2\"}}ingrédients de monstre{{color id=\"3\"}}...\nIl est trop nul...{{color id=\"65535\"}}{{size value=\"100\"}}",
      "EUit": "{{fun_0003_0001 arg=\"0x0100\"}}{{size value=\"80\"}}{{color id=\"3\"}}Basta cucinare{{color id=\"65535\"}} {{color id=\"2\"}}una {{wordInfo gender=\"2\" defArticle=\"2\" indefArticle=\"2\" isPlural=\"0\"}}lucertola focus{{color id=\"65535\"}}\n{{color id=\"3\"}}con degli {{color id=\"65535\"}}{{color id=\"2\"}}ingredienti mostruosi{{color id=\"65535\"}}{{color id=\"3\"}}, roccia...{{color id=\"65535\"}}{{size value=\"100\"}}",
      "EUnl": "{{fun_0003_0001 arg=\"0x0100\"}}{{size value=\"80\"}}{{color id=\"3\"}}Kook simpelweg een {{color id=\"2\"}}doofhagedis {{color id=\"3\"}}met\nmonsteronderdelen, kerel...{{color id=\"65535\"}}{{size value=\"100\"}}",
      "EUru": "{{size value=\"80\"}}{{color id=\"3\"}}{{fun_0003_0001 arg=\"0x0100\"}}Наверное, он знает, что пожарное зелье легко\nсварить самому: надо лишь взять{{color id=\"65535\"}} {{color id=\"2\"}}пожарную\nящерицу{{color id=\"65535\"}} {{color id=\"3\"}}и{{color id=\"65535\"}} {{color id=\"2\"}}зуб бокоблина{{color id=\"65535\"}}.{{size value=\"100\"}}",
      "JPja": "{{fun_0003_0001 arg=\"0x0100\"}}{{size value=\"80\"}}{{color id=\"2\"}}ヒケシトカゲ{{color id=\"3\"}}と{{color id=\"2\"}}{{ruby charSpan=\"2\" value=\"まもの\"}}魔物の{{ruby charSpan=\"2\" value=\"そざい\"}}素材{{color id=\"65535\"}}{{color id=\"3\"}}を{{ruby charSpan=\"2\" value=\"りょうり\"}}料理するだけなのに…{{color id=\"65535\"}}{{size value=\"100\"}}",
      "KRko": "{{fun_0003_0001 arg=\"0x0100\"}}{{size value=\"80\"}}{{color id=\"2\"}}방염도마뱀{{color id=\"3\"}}이랑 {{color id=\"2\"}}몬스터 소재{{color id=\"65535\"}}{{color id=\"3\"}}를 요리하면 되는데…{{color id=\"65535\"}}{{size value=\"100\"}}",
      "TWzh": "{{fun_0003_0001 arg=\"0x0100\"}}明明只要把{{size value=\"80\"}}{{color id=\"2\"}}耐火蜥蜴{{color id=\"3\"}}和{{color id=\"2\"}}怪物材料{{color id=\"65535\"}}{{color id=\"3\"}}加在一起料理……{{color id=\"65535\"}}{{size value=\"100\"}}",
      "USen": "{{fun_0003_0001 arg=\"0x0100\"}}{{size value=\"80\"}}{{color id=\"2\"}}{{color id=\"3\"}}All you need to do is cook one{{color id=\"2\"}} fireproof lizard\nwith monster parts{{color id=\"65535\"}}{{color id=\"3\"}}, fella...{{color id=\"65535\"}}{{size value=\"100\"}}",
      "USes": "{{fun_0003_0001 arg=\"0x0100\"}}{{size value=\"80\"}}{{color id=\"3\"}}Si se cocina algún {{color id=\"2\"}}{{wordInfo gender=\"1\" defArticle=\"0\" indefArticle=\"0\" isPlural=\"0\"}}lagarto humero{{color id=\"3\"}} con\n{{color id=\"2\"}}ingredientes monstruosos{{color id=\"3\"}}, pasará algo\nmuy interesante...{{color id=\"65535\"}}{{size value=\"100\"}}",
      "USfr": "{{fun_0003_0001 arg=\"0x0100\"}}{{size value=\"80\"}}{{color id=\"3\"}}Il sait même pas qu'il faut juste faire cuire des{{color id=\"2\"}}\nlézards ignifus{{color id=\"3\"}} avec des {{color id=\"2\"}}matériaux de monstre{{color id=\"3\"}}...\nIl est trop nul...{{color id=\"65535\"}}{{size value=\"100\"}}"
    }
  },
  {
    "label": "talk01",
    "attribute": "0xDA000000",
    "locale": {
      "CNzh": "{{fun_0003_0001 arg=\"0x0109\"}}嘿嘿。\n\n{{color id=\"3\"}}{{size value=\"80\"}}如我所料……{{size value=\"100\"}}\n\n{{fun_0003_0001 arg=\"0x0601\"}}{{color id=\"65535\"}}没什么啦。",
      "EUde": "{{fun_0003_0001 arg=\"0x0109\"}}{{color id=\"3\"}}{{size value=\"80\"}}Den hab ich an der Leine!{{size value=\"100\"}}{{pageBreak}}{{fun_0003_0001 arg=\"0x0601\"}}{{color id=\"65535\"}}Ähm, ich meine...\n",
      "EUen": "{{fun_0003_0001 arg=\"0x0109\"}}{{color id=\"3\"}}{{size value=\"80\"}}Heheh... It all worked out...{{size value=\"100\"}}{{color id=\"65535\"}}\n\n\n{{fun_0003_0001 arg=\"0x0601\"}}Er, nothin'!",
      "EUes": "{{fun_0003_0001 arg=\"0x0109\"}}{{color id=\"3\"}}{{size value=\"80\"}}Todo ha salido a pedir de boca.{{size value=\"100\"}}{{color id=\"65535\"}}{{pageBreak}}{{fun_0003_0001 arg=\"0x0601\"}}Nada, nada... No decía nada.",
      "EUfr": "{{fun_0003_0001 arg=\"0x0109\"}}Héhé...\n\n\n{{color id=\"3\"}}{{size value=\"80\"}}Super, un pigeon...{{size value=\"100\"}}{{color id=\"65535\"}}\n\n\n{{fun_0003_0001 arg=\"0x0601\"}}Euh !",
      "EUit": "{{fun_0003_0001 arg=\"0x0109\"}}Eh eh eh.\n\n\n{{color id=\"3\"}}{{size value=\"80\"}}Finora tutto a posto...{{size value=\"100\"}}{{color id=\"65535\"}}\n\n\n{{fun_0003_0001 arg=\"0x0601\"}}Ehm, niente.",
      "EUnl": "{{fun_0003_0001 arg=\"0x0109\"}}Hahaha.{{pageBreak}}{{size value=\"80\"}}{{color id=\"3\"}}Het is helemaal goed gekomen...{{color id=\"65535\"}}{{pageBreak}}{{fun_0003_0001 arg=\"0x0601\"}}{{size value=\"100\"}}Eh... niets.",
      "EUru": "{{fun_0003_0001 arg=\"0x0109\"}}Хе-хе!{{pageBreak}}{{color id=\"3\"}}{{size value=\"80\"}}Ура!{{size value=\"100\"}}{{color id=\"65535\"}}{{pageBreak}}{{fun_0003_0001 arg=\"0x0601\"}}Итак...",
      "JPja": "{{fun_0003_0001 arg=\"0x0109\"}}へへ\n\n{{color id=\"3\"}}{{size value=\"80\"}}しめしめ…{{size value=\"100\"}}\n\n{{fun_0003_0001 arg=\"0x0601\"}}{{color id=\"65535\"}}じゃなくて",
      "KRko": "{{fun_0003_0001 arg=\"0x0109\"}}헤헤\n\n{{color id=\"3\"}}{{size value=\"80\"}}됐다 됐어…{{size value=\"100\"}}\n\n{{fun_0003_0001 arg=\"0x0601\"}}{{color id=\"65535\"}}아니, 아니지",
      "TWzh": "{{fun_0003_0001 arg=\"0x0109\"}}嘿嘿。\n\n{{color id=\"3\"}}{{size value=\"80\"}}如我所料……{{size value=\"100\"}}\n\n{{fun_0003_0001 arg=\"0x0601\"}}{{color id=\"65535\"}}沒什麼啦。",
      "USen": "{{fun_0003_0001 arg=\"0x0109\"}}{{color id=\"3\"}}{{size value=\"80\"}}Heheh... It all worked out...{{size value=\"100\"}}{{color id=\"65535\"}}\n\n\n{{fun_0003_0001 arg=\"0x0601\"}}Er, nothin'!",
      "USes": "{{fun_0003_0001 arg=\"0x0109\"}}{{color id=\"3\"}}{{size value=\"80\"}}Todo salió mejor de lo que esperaba.{{size value=\"100\"}}{{color id=\"65535\"}}{{pageBreak}}{{fun_0003_0001 arg=\"0x0601\"}}Nada, nada... No decía nada.",
      "USfr": "{{fun_0003_0001 arg=\"0x0109\"}}Héhé...\n\n\n{{color id=\"3\"}}{{size value=\"80\"}}Super, un poisson...{{size value=\"100\"}}{{color id=\"65535\"}}\n\n\n{{fun_0003_0001 arg=\"0x0601\"}}Euh!"
    }
  },
  {
    "label": "talk02",
    "attribute": "0xF4000000",
    "locale": {
      "CNzh": "{{fun_0003_0001 arg=\"0x0700\"}}那么，{{color id=\"2\"}}防火药{{color id=\"65535\"}}特别算大哥哥\n{{color id=\"0\"}}60卢比{{color id=\"65535\"}}就好咕咯！{{fun_0001_0004 arg=\"0x030004000001\"}}",
      "EUde": "{{fun_0003_0001 arg=\"0x0700\"}}Die {{color id=\"2\"}}Brandschutz-{{wordInfo gender=\"2\" defArticle=\"4\" indefArticle=\"4\" isPlural=\"0\"}}Medizin{{color id=\"65535\"}} bekommst du\nfür {{color id=\"0\"}}60 Rubine{{color id=\"65535\"}}. Weil du es bist!{{fun_0001_0004 arg=\"0x030004000001\"}}",
      "EUen": "{{fun_0003_0001 arg=\"0x0700\"}}Here's what I'll do, fella. Just for you,\nI'll sell ya that {{color id=\"2\"}}fireproof elixir{{color id=\"65535\"}} at a\nspecial price of only {{color id=\"0\"}}60 rupees{{color id=\"65535\"}}!{{fun_0001_0004 arg=\"0x030004000001\"}}",
      "EUes": "{{fun_0003_0001 arg=\"0x0700\"}}Vamos a hacer un gorotrato: te vendo\nun {{color id=\"2\"}}elixir ignífugo{{color id=\"65535\"}} por {{color id=\"0\"}}60 rupias{{color id=\"65535\"}}, ¿vale?{{fun_0001_0004 arg=\"0x030004000001\"}}",
      "EUfr": "{{fun_0003_0001 arg=\"0x0700\"}}Alors, je te vends un {{color id=\"2\"}}remède ignifus{{color id=\"65535\"}}\npour seulement {{color id=\"0\"}}60 rubis{{color id=\"65535\"}} ! Une aubaine !{{fun_0001_0004 arg=\"0x030004000001\"}}",
      "EUit": "{{fun_0003_0001 arg=\"0x0700\"}}Guarda, ti faccio un'offerta esclusiva:\nti vendo della {{color id=\"2\"}}{{wordInfo gender=\"2\" defArticle=\"2\" indefArticle=\"2\" isPlural=\"0\"}}pozione ignifuga{{color id=\"65535\"}}\nal prezzo STrocciaTO di {{color id=\"0\"}}60 rupie{{color id=\"65535\"}}!{{fun_0001_0004 arg=\"0x030004000001\"}}",
      "EUnl": "{{fun_0003_0001 arg=\"0x0700\"}}Ik heb een speciale deal... Alleen aan\njou verkoop ik een {{color id=\"2\"}}brandwerend drankje{{color id=\"65535\"}}\nvoor de prijs van {{color id=\"0\"}}60 rupees{{color id=\"65535\"}}, goro!{{fun_0001_0004 arg=\"0x030004000001\"}}",
      "EUru": "{{fun_0003_0001 arg=\"0x0700\"}}Бутылка {{color id=\"2\"}}пожарного зелья{{color id=\"65535\"}}\nобойдется тебе в {{color id=\"0\"}}60 рупий{{color id=\"65535\"}}!{{fun_0001_0004 arg=\"0x030004000001\"}}",
      "JPja": "{{fun_0003_0001 arg=\"0x0700\"}}じゃあ {{color id=\"2\"}}{{ruby charSpan=\"1\" value=\"も\"}}燃えず{{ruby charSpan=\"1\" value=\"やく\"}}薬{{color id=\"65535\"}} {{ruby charSpan=\"1\" value=\"にい\"}}兄ちゃんなら{{ruby charSpan=\"2\" value=\"とくべつ\"}}特別に\n{{color id=\"0\"}}60ルピー{{color id=\"65535\"}}で{{ruby charSpan=\"1\" value=\"う\"}}売ってやるコロ！{{fun_0001_0004 arg=\"0x030004000001\"}}",
      "KRko": "{{fun_0003_0001 arg=\"0x0700\"}}그럼 {{color id=\"2\"}}방염 물약{{color id=\"65535\"}}\n형아한텐 특별히 {{color id=\"0\"}}60루피{{color id=\"65535\"}}에 팔게꼬로!{{fun_0001_0004 arg=\"0x030004000001\"}}",
      "TWzh": "{{fun_0003_0001 arg=\"0x0700\"}}那麼，{{color id=\"2\"}}防火藥{{color id=\"65535\"}}特別算大哥哥\n{{color id=\"0\"}}60盧比{{color id=\"65535\"}}就好咕隆！{{fun_0001_0004 arg=\"0x030004000001\"}}",
      "USen": "{{fun_0003_0001 arg=\"0x0700\"}}Here's what I'll do, fella. Just for you,\nI'll sell ya that {{color id=\"2\"}}fireproof elixir{{color id=\"65535\"}} at a\nspecial price of only {{color id=\"0\"}}60 rupees{{color id=\"65535\"}}!{{fun_0001_0004 arg=\"0x030004000001\"}}",
      "USes": "{{fun_0003_0001 arg=\"0x0700\"}}Vamos a hacer un trato: te vendo\nun {{color id=\"2\"}}elixir ignífugo{{color id=\"65535\"}} por {{color id=\"0\"}}60 rupias{{color id=\"65535\"}},\n¿trato hecho?{{fun_0001_0004 arg=\"0x030004000001\"}}",
      "USfr": "{{fun_0003_0001 arg=\"0x0700\"}}Alors, je te vends un {{color id=\"2\"}}remède ignifus{{color id=\"65535\"}}\npour seulement {{color id=\"0\"}}60 rubis{{color id=\"65535\"}}! Une aubaine!{{fun_0001_0004 arg=\"0x030004000001\"}}"
    }
  },
  {
    "label": "talk03",
    "attribute": "0x0E010000",
    "locale": {
      "CNzh": "{{fun_0003_0001 arg=\"0x0B00\"}}嗯？{{delay1}}你的卢比不够咕咯！\n\n{{fun_0003_0001 arg=\"0x0000\"}}什么嘛……{{delay1}}害我白高兴一场咕咯。",
      "EUde": "{{fun_0003_0001 arg=\"0x0B00\"}}Hm? {{delay1}}Du hast nicht genug Rubine!{{pageBreak}}{{fun_0003_0001 arg=\"0x0000\"}}Na super... {{delay1}}Ein Zechpreller.",
      "EUen": "{{fun_0003_0001 arg=\"0x0B00\"}}Whaa—?! {{delay1}}You don't have enough rupees!\n\n\n{{fun_0003_0001 arg=\"0x0000\"}}Hm... {{delay1}}Times are tough, aren't they?",
      "EUes": "{{fun_0003_0001 arg=\"0x0B00\"}}¿Quéee?{{delay1}} ¡Te faltan gororrupias!{{pageBreak}}{{fun_0003_0001 arg=\"0x0000\"}}Supongo que {{delay1}}no en todas partes\nhay tanta pasta como en esta ciudad...",
      "EUfr": "{{fun_0003_0001 arg=\"0x0B00\"}}Hein ? {{delay1}}Mais t'as pas assez de rubis !\n\n\n{{fun_0003_0001 arg=\"0x0000\"}}T'es fauché !{{delay1}} T'es trop nul !",
      "EUit": "{{fun_0003_0001 arg=\"0x0B00\"}}Eh? {{delay1}}Non hai abbastanza rupie?!\n{{fun_0003_0001 arg=\"0x0000\"}}Ah, {{delay1}}sono tempi duri, eh?",
      "EUnl": "{{fun_0003_0001 arg=\"0x0B00\"}}Huh?{{delay1}} je hebt niet genoeg rupees, goro!\n{{fun_0003_0001 arg=\"0x0000\"}}Hm,{{delay1}} iedereen zit dus krap bij kas...",
      "EUru": "{{fun_0003_0001 arg=\"0x0B00\"}}Но у тебя денег хватает!{{pageBreak}}{{fun_0003_0001 arg=\"0x0000\"}}Видимо, ты совсем на мели...",
      "JPja": "{{fun_0003_0001 arg=\"0x0B00\"}}ん？ {{delay1}}ルピーが{{ruby charSpan=\"1\" value=\"た\"}}足りないコロ！\n\n{{fun_0003_0001 arg=\"0x0000\"}}なんだよー… {{delay1}}シケてんなーコロ",
      "KRko": "{{fun_0003_0001 arg=\"0x0B00\"}}응? {{delay1}}루피가 부족해꼬로!\n\n{{fun_0003_0001 arg=\"0x0000\"}}뭐야… {{delay1}}기운 빠졌어꼬로",
      "TWzh": "{{fun_0003_0001 arg=\"0x0B00\"}}嗯？{{delay1}}你的盧比不夠咕隆！\n\n{{fun_0003_0001 arg=\"0x0000\"}}什麼嘛……{{delay1}}害我白高興一場咕隆。",
      "USen": "{{fun_0003_0001 arg=\"0x0B00\"}}Whaa—?! {{delay1}}You don't have enough rupees!\n\n\n{{fun_0003_0001 arg=\"0x0000\"}}Hm... {{delay1}}Times are tough, aren't they?",
      "USes": "{{fun_0003_0001 arg=\"0x0B00\"}}¿Quééé?{{delay1}} ¡Te faltan rupias!{{pageBreak}}{{fun_0003_0001 arg=\"0x0000\"}}Supongo que {{delay1}}no en todas partes hay\ntanta prosperidad como en esta ciudad...",
      "USfr": "{{fun_0003_0001 arg=\"0x0B00\"}}Hein? {{delay1}}Mais t'as pas assez de rubis!\n\n\n{{fun_0003_0001 arg=\"0x0000\"}}T'es cassé!{{delay1}} T'es trop nul!"
    }
  },
  {
    "label": "talk04",
    "attribute": "0x28010000",
    "locale": {
      "CNzh": "{{fun_0003_0001 arg=\"0x0700\"}}卖掉了卖掉了！{{delay1}}来，给你咕咯。",
      "EUde": "{{fun_0003_0001 arg=\"0x0700\"}}Jippie! Ich hab was verkauft!\n{{delay1}}Hier, bitte!",
      "EUen": "{{fun_0003_0001 arg=\"0x0700\"}}A sale! I actually made a sale!!{{delay1}}\nHere ya go, brother!",
      "EUes": "{{fun_0003_0001 arg=\"0x0700\"}}¡Me encanta gorovender cosas!{{delay1}}\nAquí tienes.",
      "EUfr": "{{fun_0003_0001 arg=\"0x0700\"}}Ouaiiis ! Ouaiiis !{{delay1}} Tiens, c'est pour toi !",
      "EUit": "{{fun_0003_0001 arg=\"0x0700\"}}Ho venduto qualcosa! Evviva!\n{{delay1}}Ecco qua, roccia!",
      "EUnl": "{{fun_0003_0001 arg=\"0x0700\"}}Ik heb iets verkocht, hoera!{{delay1}} Alsjeblieft,\ngoro.",
      "EUru": "{{fun_0003_0001 arg=\"0x0700\"}}Ура! Продано!{{delay1}} Вот, держи.",
      "JPja": "{{fun_0003_0001 arg=\"0x0700\"}}{{ruby charSpan=\"1\" value=\"う\"}}売ーれた{{ruby charSpan=\"1\" value=\"う\"}}売れた！ {{delay1}}はい どうぞコロ",
      "KRko": "{{fun_0003_0001 arg=\"0x0700\"}}팔렸다, 팔렸어! {{delay1}}자, 여기 있어꼬로",
      "TWzh": "{{fun_0003_0001 arg=\"0x0700\"}}賣掉了賣掉了！{{delay1}}來，給你咕隆。",
      "USen": "{{fun_0003_0001 arg=\"0x0700\"}}A sale! I actually made a sale!!{{delay1}}\nHere ya go, brother!",
      "USes": "{{fun_0003_0001 arg=\"0x0700\"}}¡Me encanta vender cosas!{{delay1}}\nAquí tienes.",
      "USfr": "{{fun_0003_0001 arg=\"0x0700\"}}Ouaiiis! Ouaiiis!{{delay1}} Tiens, c'est pour toi!"
    }
  },
  {
    "label": "talk05",
    "attribute": "0x42010000",
    "locale": {
      "CNzh": "如果是{{color id=\"2\"}}{{fun_0003_0001 arg=\"0x0000\"}}海利亚人{{color id=\"65535\"}}，就更需要才对咕咯！{{delay1}}\n{{color id=\"2\"}}防火药{{color id=\"65535\"}}，用{{color id=\"0\"}}60卢比{{color id=\"65535\"}}买吧咕咯！{{fun_0001_0004 arg=\"0x030004000001\"}}",
      "EUde": "{{fun_0003_0001 arg=\"0x0000\"}}Als {{color id=\"2\"}}Hylianer{{color id=\"65535\"}} solltest du mehr davon\nmitnehmen!{{delay1}} Komm schon,\n{{color id=\"2\"}}Brandschutz-{{wordInfo gender=\"2\" defArticle=\"4\" indefArticle=\"4\" isPlural=\"0\"}}Medizin{{color id=\"65535\"}} für {{color id=\"0\"}}60 Rubine{{color id=\"65535\"}}!{{fun_0001_0004 arg=\"0x030004000001\"}}",
      "EUen": "{{fun_0003_0001 arg=\"0x0000\"}}A {{color id=\"2\"}}Hylian{{color id=\"65535\"}} like you will need more\nthan that!{{delay1}} A {{color id=\"2\"}}fireproof elixir{{color id=\"65535\"}} will\ncost ya {{color id=\"0\"}}60 rupees{{color id=\"65535\"}}.{{fun_0001_0004 arg=\"0x030004000001\"}}",
      "EUes": "{{fun_0003_0001 arg=\"0x0000\"}}A un {{color id=\"2\"}}hyliano{{color id=\"65535\"}} como tú le hará gorofalta\nalguno más.{{delay1}} ¡Hazme caso!{{pageBreak}}Venga, solo {{color id=\"0\"}}60 gororrupias{{color id=\"65535\"}} por otro.\n¿Qué me dices?{{fun_0001_0004 arg=\"0x030004000001\"}}",
      "EUfr": "{{fun_0003_0001 arg=\"0x0000\"}}T'es un {{color id=\"2\"}}Hylien{{color id=\"65535\"}}, alors c'est sûr, t'en auras\nbesoin de tout plein !{{delay1}}\n\nMon {{color id=\"2\"}}remède ignifus{{color id=\"65535\"}} est seulement\nà {{color id=\"0\"}}60 rubis{{color id=\"65535\"}} ! C'est une affaire !{{fun_0001_0004 arg=\"0x030004000001\"}}",
      "EUit": "{{fun_0003_0001 arg=\"0x0000\"}}A un {{color id=\"2\"}}Hylia{{color id=\"65535\"}} come te ne servirà di più!{{delay1}}\nUn'altra {{color id=\"2\"}}{{wordInfo gender=\"2\" defArticle=\"2\" indefArticle=\"2\" isPlural=\"0\"}}pozione ignifuga {{color id=\"65535\"}}ti costerà\n{{color id=\"0\"}}60 rupie{{color id=\"65535\"}}, roccia!{{fun_0001_0004 arg=\"0x030004000001\"}}",
      "EUnl": "{{fun_0003_0001 arg=\"0x0000\"}}Een {{color id=\"2\"}}Hyliaan{{color id=\"65535\"}} zoals jij heeft wel meer\nnodig!{{delay1}} {{color id=\"2\"}}Brandwerend drankje{{color id=\"65535\"}} kost\n{{color id=\"0\"}}60 rupees{{color id=\"65535\"}}, goro!{{fun_0001_0004 arg=\"0x030004000001\"}}",
      "EUru": "{{fun_0003_0001 arg=\"0x0000\"}}{{color id=\"2\"}}Хайлийцам {{color id=\"65535\"}}много зелья не бывает.{{delay1}}\nБери еще: одна бутылка — {{color id=\"0\"}}60 рупий{{color id=\"65535\"}}.{{fun_0001_0004 arg=\"0x030004000001\"}}",
      "JPja": "{{color id=\"2\"}}{{fun_0003_0001 arg=\"0x0000\"}}ハイリア{{ruby charSpan=\"1\" value=\"じん\"}}人{{color id=\"65535\"}}なら もっと{{ruby charSpan=\"1\" value=\"い\"}}要るはずコロ！{{delay1}}\n{{color id=\"2\"}}{{ruby charSpan=\"1\" value=\"も\"}}燃えず{{ruby charSpan=\"1\" value=\"やく\"}}薬{{color id=\"65535\"}} {{color id=\"0\"}}60ルピー{{color id=\"65535\"}}で{{ruby charSpan=\"1\" value=\"か\"}}買うコロ！{{fun_0001_0004 arg=\"0x030004000001\"}}",
      "KRko": "{{color id=\"2\"}}{{fun_0003_0001 arg=\"0x0000\"}}하일리아인{{color id=\"65535\"}}이면 더 필요할 거야꼬로!{{delay1}}\n{{color id=\"2\"}}방염 물약{{color id=\"65535\"}} {{color id=\"0\"}}60루피{{color id=\"65535\"}}에 사라꼬로!{{fun_0001_0004 arg=\"0x030004000001\"}}",
      "TWzh": "如果是{{color id=\"2\"}}{{fun_0003_0001 arg=\"0x0000\"}}海利亞人{{color id=\"65535\"}}，就更需要才對咕隆！{{delay1}}\n{{color id=\"2\"}}防火藥{{color id=\"65535\"}}，用{{color id=\"0\"}}60盧比{{color id=\"65535\"}}買吧咕隆！{{fun_0001_0004 arg=\"0x030004000001\"}}",
      "USen": "{{fun_0003_0001 arg=\"0x0000\"}}A {{color id=\"2\"}}Hylian{{color id=\"65535\"}} like you will need more\nthan that!{{delay1}} A {{color id=\"2\"}}fireproof elixir{{color id=\"65535\"}} will\ncost ya {{color id=\"0\"}}60 rupees{{color id=\"65535\"}}.{{fun_0001_0004 arg=\"0x030004000001\"}}",
      "USes": "{{fun_0003_0001 arg=\"0x0000\"}}A un {{color id=\"2\"}}hyliano{{color id=\"65535\"}} como tú le harán falta\nuno que otro más.{{delay1}} ¡Hazme caso!{{pageBreak}}Vamos, solo {{color id=\"0\"}}60 rupias{{color id=\"65535\"}} por otro.\n¿Qué me dices?{{fun_0001_0004 arg=\"0x030004000001\"}}",
      "USfr": "{{fun_0003_0001 arg=\"0x0000\"}}T'es un {{color id=\"2\"}}Hylien{{color id=\"65535\"}}, alors c'est sûr,\nt'en auras besoin de tout plein!{{delay1}}\n\nMon {{color id=\"2\"}}remède ignifus{{color id=\"65535\"}} est seulement\n{{color id=\"0\"}}60 rubis{{color id=\"65535\"}}! C'est une affaire!{{fun_0001_0004 arg=\"0x030004000001\"}}"
    }
  },
  {
    "label": "talk06",
    "attribute": "0x5C010000",
    "locale": {
      "CNzh": "{{fun_0003_0001 arg=\"0x0000\"}}嗯？{{delay1}}你的袋子满了咕咯！{{delay3}}\n清出空间之后再来吧。",
      "EUde": "{{fun_0003_0001 arg=\"0x0000\"}}Hm? {{delay1}}Deine Tasche ist voll!{{delay3}}\nSchaff erst mal etwas freien Platz.",
      "EUen": "{{fun_0003_0001 arg=\"0x0000\"}}Huh? Your pouch is full!{{delay1}}\nMake some room and come back.",
      "EUes": "{{fun_0003_0001 arg=\"0x0000\"}}Ahí va...{{delay1}} ¡Tu alforja está gorollena!{{delay2}}\nHaz un poco de hueco, anda.",
      "EUfr": "{{fun_0003_0001 arg=\"0x0000\"}}Bah ?{{delay1}} Ta sacoche est pleine !{{delay3}}\nTes parents t'ont jamais appris\nà ranger tes affaires ?",
      "EUit": "{{fun_0003_0001 arg=\"0x0000\"}}Eh?{{delay1}} Hai la borsa piena, roccia!{{delay3}} Torna\ndopo averla sistemata e averci fatto\nun po' di spazio!",
      "EUnl": "{{fun_0003_0001 arg=\"0x0000\"}}Huh?{{delay1}} Je hebt geen ruimte meer, goro!{{delay3}}\nKom maar terug als je ruimte hebt\ngemaakt.",
      "EUru": "{{fun_0003_0001 arg=\"0x0000\"}}Но у тебя ведь этого зелья полная\nсумка...{{delay1}} Приходи, когда кончится.",
      "JPja": "{{fun_0003_0001 arg=\"0x0000\"}}ん？ {{delay1}}ポーチがいっぱいコロ！{{delay3}}\n{{ruby charSpan=\"1\" value=\"あ\"}}空きを{{ruby charSpan=\"1\" value=\"つく\"}}作ってから また{{ruby charSpan=\"1\" value=\"き\"}}来てね",
      "KRko": "{{fun_0003_0001 arg=\"0x0000\"}}응? {{delay1}}주머니가 가득해꼬로!{{delay3}}\n공간을 만들고 다시 와 줘",
      "TWzh": "{{fun_0003_0001 arg=\"0x0000\"}}嗯？{{delay1}}你的袋子滿了咕隆！{{delay3}}\n清出空間之後再來吧。",
      "USen": "{{fun_0003_0001 arg=\"0x0000\"}}Huh? Your pouch is full!{{delay1}}\nMake some room and come back.",
      "USes": "{{fun_0003_0001 arg=\"0x0000\"}}Ahí va...{{delay1}} ¡Tu alforja está llena!{{delay3}}\nAsí no se puede hacer un trato.\nHaz un poco de espacio, anda.",
      "USfr": "{{fun_0003_0001 arg=\"0x0000\"}}Bah?{{delay1}} Ta sacoche est pleine!{{delay3}}\nTes parents t'ont jamais appris\nà ranger tes affaires?"
    }
  },
  {
    "label": "talk07",
    "attribute": "0x76010000",
    "locale": {
      "CNzh": "{{fun_0003_0001 arg=\"0x0700\"}}大哥哥，来买吧！{{fun_0001_0004 arg=\"0x000001000001\"}}",
      "EUde": "{{fun_0003_0001 arg=\"0x0700\"}}Los, kauf schon!{{fun_0001_0004 arg=\"0x000001000001\"}}",
      "EUen": "{{fun_0003_0001 arg=\"0x0700\"}}Hey, fella! Buy somethin'!{{fun_0001_0004 arg=\"0x000001000001\"}}",
      "EUes": "{{fun_0003_0001 arg=\"0x0700\"}}¡Oye, tú! ¡Cómprame algo!{{fun_0001_0004 arg=\"0x000001000001\"}}",
      "EUfr": "{{fun_0003_0001 arg=\"0x0700\"}}Achète-moi un truc !{{fun_0001_0004 arg=\"0x000001000001\"}}",
      "EUit": "{{fun_0003_0001 arg=\"0x0700\"}}Ehi, roccia. Compra qualcosa!{{fun_0001_0004 arg=\"0x000001000001\"}}",
      "EUnl": "{{fun_0003_0001 arg=\"0x0700\"}}Hé gozer, koop iets!{{fun_0001_0004 arg=\"0x000001000001\"}}",
      "EUru": "{{fun_0003_0001 arg=\"0x0700\"}}Дядя, купи у меня кое-что!{{fun_0001_0004 arg=\"0x000001000001\"}}",
      "JPja": "{{fun_0003_0001 arg=\"0x0700\"}}{{ruby charSpan=\"1\" value=\"にい\"}}兄ちゃん {{ruby charSpan=\"1\" value=\"か\"}}買って！{{fun_0001_0004 arg=\"0x000001000001\"}}",
      "KRko": "{{fun_0003_0001 arg=\"0x0700\"}}형아, 사 줘!{{fun_0001_0004 arg=\"0x000001000001\"}}",
      "TWzh": "{{fun_0003_0001 arg=\"0x0700\"}}大哥哥，來買吧！{{fun_0001_0004 arg=\"0x000001000001\"}}",
      "USen": "{{fun_0003_0001 arg=\"0x0700\"}}Hey, fella! Buy somethin'!{{fun_0001_0004 arg=\"0x000001000001\"}}",
      "USes": "{{fun_0003_0001 arg=\"0x0700\"}}¡Oye, tú! ¡Cómprame algo!{{fun_0001_0004 arg=\"0x000001000001\"}}",
      "USfr": "{{fun_0003_0001 arg=\"0x0700\"}}Achète-moi un truc!{{fun_0001_0004 arg=\"0x000001000001\"}}"
    }
  },
  {
    "label": "talk08",
    "attribute": "0x90010000",
    "locale": {
      "CNzh": "{{color id=\"2\"}}{{fun_0003_0001 arg=\"0x0310\"}}海利亚人{{color id=\"65535\"}}应该需要吧咕咯？{{delay3}}\n{{color id=\"2\"}}防火药{{color id=\"65535\"}}！{{fun_0001_0004 arg=\"0x020001000001\"}}",
      "EUde": "{{fun_0003_0001 arg=\"0x0310\"}}Als {{color id=\"2\"}}Hylianer{{color id=\"65535\"}} brauchst du die, oder?{{delay3}}\n{{color id=\"2\"}}Brandschutz-{{wordInfo gender=\"2\" defArticle=\"4\" indefArticle=\"4\" isPlural=\"0\"}}Medizin{{color id=\"65535\"}}, meine ich!{{fun_0001_0004 arg=\"0x020001000001\"}}",
      "EUen": "{{fun_0003_0001 arg=\"0x0310\"}}A {{color id=\"2\"}}Hylian{{color id=\"65535\"}} like you needs this, right?{{delay3}}\nIt's a {{color id=\"2\"}}fireproof elixir{{color id=\"65535\"}}!{{fun_0001_0004 arg=\"0x020001000001\"}}",
      "EUes": "{{fun_0003_0001 arg=\"0x0310\"}}Tengo algo goroideal para un {{color id=\"2\"}}hyliano{{color id=\"65535\"}}\ncomo tú...{{delay2}} ¡un {{color id=\"2\"}}elixir ignífugo{{color id=\"65535\"}}!{{fun_0001_0004 arg=\"0x020001000001\"}}",
      "EUfr": "{{fun_0003_0001 arg=\"0x0310\"}}Un {{color id=\"2\"}}remède ignifus{{color id=\"65535\"}} !{{delay3}} T'es un {{color id=\"2\"}}Hylien{{color id=\"65535\"}},\nalors t'en auras sûrement besoin !{{fun_0001_0004 arg=\"0x020001000001\"}}",
      "EUit": "{{fun_0003_0001 arg=\"0x0310\"}}Immagino che a un {{color id=\"2\"}}Hylia{{color id=\"65535\"}} come te serva\nuna {{color id=\"2\"}}{{wordInfo gender=\"2\" defArticle=\"2\" indefArticle=\"2\" isPlural=\"0\"}}pozione ignifuga{{color id=\"65535\"}}, vero?{{fun_0001_0004 arg=\"0x020001000001\"}}",
      "EUnl": "{{fun_0003_0001 arg=\"0x0310\"}}Een {{color id=\"2\"}}Hyliaan{{color id=\"65535\"}} zoals jij heeft een\n{{color id=\"2\"}}brandwerend drankje {{color id=\"65535\"}}nodig, toch?{{fun_0001_0004 arg=\"0x020001000001\"}}",
      "EUru": "{{fun_0003_0001 arg=\"0x0310\"}}Ты же {{color id=\"2\"}}хайлиец{{color id=\"65535\"}}, значит, тебе\nнужно {{color id=\"2\"}}пожарное зелье{{color id=\"65535\"}}!{{fun_0001_0004 arg=\"0x020001000001\"}}",
      "JPja": "{{color id=\"2\"}}{{fun_0003_0001 arg=\"0x0310\"}}ハイリア{{ruby charSpan=\"1\" value=\"じん\"}}人{{color id=\"65535\"}}なら{{ruby charSpan=\"1\" value=\"い\"}}要るコロ？{{delay3}}\n{{color id=\"2\"}}{{ruby charSpan=\"1\" value=\"も\"}}燃えず{{ruby charSpan=\"1\" value=\"やく\"}}薬{{color id=\"65535\"}}！{{fun_0001_0004 arg=\"0x020001000001\"}}",
      "KRko": "{{color id=\"2\"}}{{fun_0003_0001 arg=\"0x0310\"}}하일리아인{{color id=\"65535\"}}이면 필요할걸꼬로?{{delay3}}\n{{color id=\"2\"}}방염 물약{{color id=\"65535\"}}!{{fun_0001_0004 arg=\"0x020001000001\"}}",
      "TWzh": "{{color id=\"2\"}}{{fun_0003_0001 arg=\"0x0310\"}}海利亞人{{color id=\"65535\"}}應該需要吧咕隆？{{delay3}}\n{{color id=\"2\"}}防火藥{{color id=\"65535\"}}！{{fun_0001_0004 arg=\"0x020001000001\"}}",
      "USen": "{{fun_0003_0001 arg=\"0x0310\"}}A {{color id=\"2\"}}Hylian{{color id=\"65535\"}} like you needs this, right?{{delay3}}\nIt's a {{color id=\"2\"}}fireproof elixir{{color id=\"65535\"}}!{{fun_0001_0004 arg=\"0x020001000001\"}}",
      "USes": "{{fun_0003_0001 arg=\"0x0310\"}}Tengo algo ideal para un {{color id=\"2\"}}hyliano{{color id=\"65535\"}}\ncomo tú...{{delay3}} ¡un {{color id=\"2\"}}elixir ignífugo{{color id=\"65535\"}}!\n¿Te interesa?{{fun_0001_0004 arg=\"0x020001000001\"}}",
      "USfr": "{{fun_0003_0001 arg=\"0x0310\"}}Un {{color id=\"2\"}}remède ignifus{{color id=\"65535\"}}!{{delay3}} T'es un {{color id=\"2\"}}Hylien{{color id=\"65535\"}},\nalors t'en auras sûrement besoin!{{fun_0001_0004 arg=\"0x020001000001\"}}"
    }
  },
  {
    "label": "talk09",
    "attribute": "0xAA010000",
    "locale": {
      "CNzh": "{{fun_0003_0001 arg=\"0x0800\"}}要是烫伤我可不管～咕咯！",
      "EUde": "{{fun_0003_0001 arg=\"0x0800\"}}Pfff. Dann verbrenn dich doch!",
      "EUen": "{{fun_0003_0001 arg=\"0x0800\"}}Well, don't come cryin' to me when\nyou're on fire, fella!",
      "EUes": "{{fun_0003_0001 arg=\"0x0800\"}}Como luego empieces a echar gorohumo\nno me vengas llorando, ¿eh?",
      "EUfr": "{{fun_0003_0001 arg=\"0x0800\"}}Tant pis pour toi ! Moi, je m'en fiche\nsi tu te brûles !",
      "EUit": "{{fun_0003_0001 arg=\"0x0800\"}}Se poi finisci in fiamme, non tornare\nda me in lacrime, roccia!",
      "EUnl": "{{fun_0003_0001 arg=\"0x0800\"}}Denk nog even aan me als je straks in\nbrand staat!",
      "EUru": "{{fun_0003_0001 arg=\"0x0800\"}}Если сгоришь, сам виноват!",
      "JPja": "{{fun_0003_0001 arg=\"0x0800\"}}{{ruby charSpan=\"2\" value=\"やけど\"}}火傷したって {{ruby charSpan=\"1\" value=\"し\"}}知らねーコロ！",
      "KRko": "{{fun_0003_0001 arg=\"0x0800\"}}화상 입어도 난 몰라~꼬로!",
      "TWzh": "{{fun_0003_0001 arg=\"0x0800\"}}要是燙傷我可不管～咕隆！",
      "USen": "{{fun_0003_0001 arg=\"0x0800\"}}Well, don't come cryin' to me when\nyou're on fire, fella!",
      "USes": "{{fun_0003_0001 arg=\"0x0800\"}}No me vengas a llorar si luego\ncomienzas a echar humo, ¿eh?",
      "USfr": "{{fun_0003_0001 arg=\"0x0800\"}}Tant pis pour toi! Moi, je m'en fiche\nsi tu te brûles!"
    }
  },
  {
    "label": "talk10",
    "attribute": "0xC4010000",
    "locale": {
      "CNzh": "{{fun_0003_0001 arg=\"0x0600\"}}需要{{color id=\"2\"}}防火药{{color id=\"65535\"}}吗咕咯？{{fun_0001_0004 arg=\"0x020001000001\"}}",
      "EUde": "{{fun_0003_0001 arg=\"0x0600\"}}Brauchst du {{color id=\"2\"}}Brandschutz-{{wordInfo gender=\"2\" defArticle=\"4\" indefArticle=\"4\" isPlural=\"0\"}}Medizin{{color id=\"65535\"}}?{{fun_0001_0004 arg=\"0x020001000001\"}}",
      "EUen": "{{fun_0003_0001 arg=\"0x0600\"}}Need a {{color id=\"2\"}}fireproof elixir{{color id=\"65535\"}}?\nYou do, yeah?{{fun_0001_0004 arg=\"0x020001000001\"}}",
      "EUes": "{{fun_0003_0001 arg=\"0x0600\"}}Tienes gorocara de necesitar\nun {{color id=\"2\"}}elixir ignífugo{{color id=\"65535\"}}, ¿a que sí?{{fun_0001_0004 arg=\"0x020001000001\"}}",
      "EUfr": "{{fun_0003_0001 arg=\"0x0600\"}}Tu veux un {{color id=\"2\"}}remède ignifus{{color id=\"65535\"}} ?{{fun_0001_0004 arg=\"0x020001000001\"}}",
      "EUit": "{{fun_0003_0001 arg=\"0x0600\"}}Ti serve della {{color id=\"2\"}}{{wordInfo gender=\"2\" defArticle=\"2\" indefArticle=\"2\" isPlural=\"0\"}}pozione ignifuga{{color id=\"65535\"}}, roccia?{{fun_0001_0004 arg=\"0x020001000001\"}}",
      "EUnl": "{{fun_0003_0001 arg=\"0x0600\"}}Heb je een {{color id=\"2\"}}brandwerend drankje{{color id=\"65535\"}} nodig,\ngoro?{{fun_0001_0004 arg=\"0x020001000001\"}}",
      "EUru": "{{fun_0003_0001 arg=\"0x0600\"}}Нужно {{color id=\"2\"}}пожарное зелье{{color id=\"65535\"}}?{{fun_0001_0004 arg=\"0x020001000001\"}}",
      "JPja": "{{color id=\"2\"}}{{fun_0003_0001 arg=\"0x0600\"}}{{ruby charSpan=\"1\" value=\"も\"}}燃えず{{ruby charSpan=\"1\" value=\"やく\"}}薬{{color id=\"65535\"}} {{ruby charSpan=\"1\" value=\"い\"}}要るコロ？{{fun_0001_0004 arg=\"0x020001000001\"}}",
      "KRko": "{{color id=\"2\"}}{{fun_0003_0001 arg=\"0x0600\"}}방염 물약{{color id=\"65535\"}} 필요해꼬로?{{fun_0001_0004 arg=\"0x020001000001\"}}",
      "TWzh": "{{fun_0003_0001 arg=\"0x0600\"}}需要{{color id=\"2\"}}防火藥{{color id=\"65535\"}}嗎咕隆？{{fun_0001_0004 arg=\"0x020001000001\"}}",
      "USen": "{{fun_0003_0001 arg=\"0x0600\"}}Need a {{color id=\"2\"}}fireproof elixir{{color id=\"65535\"}}?\nYou do, yeah?{{fun_0001_0004 arg=\"0x020001000001\"}}",
      "USes": "{{fun_0003_0001 arg=\"0x0600\"}}Tienes cara de necesitar\nun {{color id=\"2\"}}elixir ignífugo{{color id=\"65535\"}}, ¿verdad?{{fun_0001_0004 arg=\"0x020001000001\"}}",
      "USfr": "{{fun_0003_0001 arg=\"0x0600\"}}Tu veux un {{color id=\"2\"}}remède ignifus{{color id=\"65535\"}}?{{fun_0001_0004 arg=\"0x020001000001\"}}"
    }
  },
  {
    "label": "talk11",
    "attribute": "0xDE010000",
    "locale": {
      "CNzh": "{{size value=\"80\"}}{{fun_0003_0001 arg=\"0x0900\"}}……唔嗯。{{size value=\"100\"}}\n\n{{fun_0003_0001 arg=\"0x0000\"}}嗯？{{delay1}}有客人！？",
      "EUde": "{{size value=\"80\"}}{{fun_0003_0001 arg=\"0x0900\"}}...Hmbl.{{pageBreak}}{{size value=\"100\"}}{{fun_0003_0001 arg=\"0x0000\"}}Oh! {{delay1}}Ein Kunde?!",
      "EUen": "{{size value=\"80\"}}{{fun_0003_0001 arg=\"0x0900\"}}Hmm hm hmmmm...{{size value=\"100\"}}\n\n\n{{fun_0003_0001 arg=\"0x0000\"}}Whoa! {{delay1}}An actual customer?!",
      "EUes": "{{fun_0003_0001 arg=\"0x0900\"}}{{size value=\"80\"}}Dududú...{{size value=\"100\"}}{{pageBreak}}{{fun_0003_0001 arg=\"0x0000\"}}¡Ostras!{{delay1}} ¡Un gorocliente!",
      "EUfr": "{{size value=\"80\"}}{{fun_0003_0001 arg=\"0x0900\"}}Pff... Pff !{{size value=\"100\"}}\n\n\n{{fun_0003_0001 arg=\"0x0000\"}}Oh ?{{delay1}} Un client ?",
      "EUit": "{{size value=\"80\"}}{{fun_0003_0001 arg=\"0x0900\"}}Uhm... uhm...{{size value=\"100\"}}\n\n\n{{fun_0003_0001 arg=\"0x0000\"}}Uha! {{delay1}}Un cliente?!",
      "EUnl": "{{fun_0003_0001 arg=\"0x0900\"}}{{size value=\"80\"}}Hum dum dum...{{size value=\"100\"}}\n{{fun_0003_0001 arg=\"0x0000\"}}Wauw!{{delay1}} Een klant?!",
      "EUru": "{{size value=\"80\"}}{{fun_0003_0001 arg=\"0x0900\"}}Бдр-гр...{{size value=\"100\"}}{{pageBreak}}{{fun_0003_0001 arg=\"0x0000\"}}А, клиент...",
      "JPja": "{{size value=\"80\"}}{{fun_0003_0001 arg=\"0x0900\"}}…んがんぐ{{size value=\"100\"}}\n\n{{fun_0003_0001 arg=\"0x0000\"}}ん？ {{delay1}}お{{ruby charSpan=\"1\" value=\"きゃく\"}}客さん？！",
      "KRko": "{{size value=\"80\"}}{{fun_0003_0001 arg=\"0x0900\"}}…우우웅{{size value=\"100\"}}\n\n{{fun_0003_0001 arg=\"0x0000\"}}응? {{delay1}}손님?!",
      "TWzh": "{{size value=\"80\"}}{{fun_0003_0001 arg=\"0x0900\"}}……唔嗯。{{size value=\"100\"}}\n\n{{fun_0003_0001 arg=\"0x0000\"}}嗯？{{delay1}}有客人！？",
      "USen": "{{size value=\"80\"}}{{fun_0003_0001 arg=\"0x0900\"}}Hmm hm hmmmm...{{size value=\"100\"}}\n\n\n{{fun_0003_0001 arg=\"0x0000\"}}Whoa! {{delay1}}An actual customer?!",
      "USes": "{{fun_0003_0001 arg=\"0x0900\"}}{{size value=\"80\"}}Dududú...{{size value=\"100\"}}{{pageBreak}}{{fun_0003_0001 arg=\"0x0000\"}}¡Cenizas!{{delay1}} ¡Un cliente!",
      "USfr": "{{size value=\"80\"}}{{fun_0003_0001 arg=\"0x0900\"}}Pff... Pff!{{size value=\"100\"}}\n\n\n{{fun_0003_0001 arg=\"0x0000\"}}Oh?{{delay1}} Un client?"
    }
  },
  {
    "label": "talk12",
    "attribute": "0xF8010000",
    "locale": {
      "CNzh": "{{fun_0003_0001 arg=\"0x0800\"}}那就别叫我起来咕咯！",
      "EUde": "{{fun_0003_0001 arg=\"0x0800\"}}Dann weck mich doch nicht!",
      "EUen": "{{fun_0003_0001 arg=\"0x0800\"}}Then why'd you wake me up?!\nSheesh!",
      "EUes": "{{fun_0003_0001 arg=\"0x0800\"}}¿Entonces para qué me goromolestas?",
      "EUfr": "{{fun_0003_0001 arg=\"0x0800\"}}Me réveille pas, alors ! Espèce\nde méchant !",
      "EUit": "{{fun_0003_0001 arg=\"0x0800\"}}Allora lasciami dormire!",
      "EUnl": "{{fun_0003_0001 arg=\"0x0800\"}}Laat me dan lekker slapen, goro!",
      "EUru": "{{fun_0003_0001 arg=\"0x0800\"}}Зачем тогда разбудил?!",
      "JPja": "{{fun_0003_0001 arg=\"0x0800\"}}だったら{{ruby charSpan=\"1\" value=\"お\"}}起こすなコロ！",
      "KRko": "{{fun_0003_0001 arg=\"0x0800\"}}그럼 깨우지 마꼬로!",
      "TWzh": "{{fun_0003_0001 arg=\"0x0800\"}}那就別叫我起來咕隆！",
      "USen": "{{fun_0003_0001 arg=\"0x0800\"}}Then why'd you wake me up?!\nSheesh!",
      "USes": "{{fun_0003_0001 arg=\"0x0800\"}}¿Entonces para qué me molestas?\n{{delay1}}¿No sabes que el tiempo es goro?",
      "USfr": "{{fun_0003_0001 arg=\"0x0800\"}}Me réveille pas, alors!\nEspèce de méchant!"
    }
  },
  {
    "label": "talk13",
    "attribute": "0x12020000",
    "locale": {
      "CNzh": "{{fun_0003_0001 arg=\"0x0104\"}}再见了～！",
      "EUde": "{{fun_0003_0001 arg=\"0x0104\"}}Bis später!",
      "EUen": "{{fun_0003_0001 arg=\"0x0104\"}}See ya later!",
      "EUes": "{{fun_0003_0001 arg=\"0x0104\"}}¡Hasta la gorovista!",
      "EUfr": "{{fun_0003_0001 arg=\"0x0104\"}}Ciao !",
      "EUit": "{{fun_0003_0001 arg=\"0x0104\"}}Alla prossima!",
      "EUnl": "{{fun_0003_0001 arg=\"0x0104\"}}Later!",
      "EUru": "{{fun_0003_0001 arg=\"0x0104\"}}Ну как хочешь!",
      "JPja": "{{fun_0003_0001 arg=\"0x0104\"}}またね～！",
      "KRko": "{{fun_0003_0001 arg=\"0x0104\"}}또 봐~!",
      "TWzh": "{{fun_0003_0001 arg=\"0x0104\"}}再見了～！",
      "USen": "{{fun_0003_0001 arg=\"0x0104\"}}See ya later!",
      "USes": "{{fun_0003_0001 arg=\"0x0104\"}}¡Hasta la vista!",
      "USfr": "{{fun_0003_0001 arg=\"0x0104\"}}Salut!"
    }
  },
  {
    "label": "talk14",
    "attribute": "0x2C020000",
    "locale": {
      "CNzh": "{{fun_0003_0001 arg=\"0x0700\"}}来，给你咕咯。",
      "EUde": "{{fun_0003_0001 arg=\"0x0700\"}}Hier, bitte!",
      "EUen": "{{fun_0003_0001 arg=\"0x0700\"}}Here ya go!",
      "EUes": "{{fun_0003_0001 arg=\"0x0700\"}}Ahí tienes.",
      "EUfr": "{{fun_0003_0001 arg=\"0x0700\"}}Voilà pour toi !",
      "EUit": "{{fun_0003_0001 arg=\"0x0700\"}}Ecco, tieni!",
      "EUnl": "{{fun_0003_0001 arg=\"0x0700\"}}Alsjeblieft.",
      "EUru": "{{fun_0003_0001 arg=\"0x0700\"}}Получай!",
      "JPja": "{{fun_0003_0001 arg=\"0x0700\"}}はい どうぞコロ",
      "KRko": "{{fun_0003_0001 arg=\"0x0700\"}}자, 여기 있어꼬로",
      "TWzh": "{{fun_0003_0001 arg=\"0x0700\"}}來，給你咕隆。",
      "USen": "{{fun_0003_0001 arg=\"0x0700\"}}Here ya go!",
      "USes": "{{fun_0003_0001 arg=\"0x0700\"}}Ahí tienes.",
      "USfr": "{{fun_0003_0001 arg=\"0x0700\"}}Voilà pour toi!"
    }
  },
  {
    "label": "talk15",
    "attribute": "0x46020000",
    "locale": {
      "CNzh": "{{fun_0003_0001 arg=\"0x0600\"}}嗨，海利亚人！\n\n就算{{color id=\"2\"}}鲁达尼亚{{color id=\"65535\"}}已经变乖了，{{delay1}}\n这一带还是很热呢咕咯～\n这种时候就要涂点{{color id=\"2\"}}防火药{{color id=\"65535\"}}咕咯！{{delay3}}\n需要吗咕咯？{{fun_0001_0004 arg=\"0x020001000001\"}}",
      "EUde": "{{fun_0003_0001 arg=\"0x0600\"}}Hallo, Hylianer!{{pageBreak}}{{color id=\"2\"}}Rudania{{color id=\"65535\"}} tobt zwar nicht mehr rum,{{delay1}} aber\nFeuer fangen kann man hier immer noch!{{pageBreak}}Aber keine Angst: Ein bisschen\n{{color id=\"2\"}}Brandschutz-{{wordInfo gender=\"2\" defArticle=\"4\" indefArticle=\"4\" isPlural=\"0\"}}Medizin{{color id=\"65535\"}} hinter die\nOhren, und du bist gewappnet!{{pageBreak}}Willst du welche?{{fun_0001_0004 arg=\"0x020001000001\"}}",
      "EUen": "{{fun_0003_0001 arg=\"0x0600\"}}Hey, it's the Hylian!\n\n\nI know {{color id=\"2\"}}Rudania {{color id=\"65535\"}}has chilled out, but the\ntemperature here is still burnin' hot!\n\nIf ya get too hot, try some good ol'\n{{color id=\"2\"}}fireproof elixir{{color id=\"65535\"}}, OK?{{delay2}} Speakin' of...\nNeed some?{{fun_0001_0004 arg=\"0x020001000001\"}}",
      "EUes": "{{fun_0003_0001 arg=\"0x0600\"}}Anda, ¡el hyliano otra vez!{{pageBreak}}{{color id=\"2\"}}Rudania{{color id=\"65535\"}} se habrá gorocalmado,{{delay1}}\n¡pero no se puede decir lo mismo\nde las temperaturas!\nCuando ya no puedas soportar el calor,\nusa un poco de {{color id=\"2\"}}elixir ignífugo{{color id=\"65535\"}} y ya verás;\n¡como nuevo!{{delay3}} Necesitas más, ¿a que sí?{{fun_0001_0004 arg=\"0x020001000001\"}}",
      "EUfr": "{{fun_0003_0001 arg=\"0x0600\"}}Oh, salut l'Hylien !\n\n\nTu sais, {{color id=\"2\"}}Rudania{{color id=\"65535\"}}, il est tout sage,\nmaintenant,{{delay1}} mais il fait quand même\ntrès chaud !\nLe mieux pour toi, c'est de te mettre\ndu {{color id=\"2\"}}remède ignifus{{color id=\"65535\"}} !{{delay3}} T'en veux ?{{fun_0001_0004 arg=\"0x020001000001\"}}",
      "EUit": "{{fun_0003_0001 arg=\"0x0600\"}}Oh! Salve, Hylia!\n\n\nSo che {{color id=\"2\"}}Rudania {{color id=\"65535\"}}si è placato,{{delay1}} ma fa\nancora un caldo che sembra di arrostire!\n\nQuando non ce la fai più a resistere,\nusa una {{color id=\"2\"}}{{wordInfo gender=\"2\" defArticle=\"2\" indefArticle=\"2\" isPlural=\"0\"}}pozione ignifuga{{color id=\"65535\"}}!{{delay3}}\nTe ne serve un po'?{{fun_0001_0004 arg=\"0x020001000001\"}}",
      "EUnl": "{{fun_0003_0001 arg=\"0x0600\"}}O, hé, de Hyliaan!{{pageBreak}}Ik weet dat {{color id=\"2\"}}Rudania{{color id=\"65535\"}} is gekalmeerd, maar\nhet is nog steeds zinderend heet!{{pageBreak}}Als het je te veel wordt, gebruik dan een\n{{color id=\"2\"}}brandwerend drankje{{color id=\"65535\"}}, goro!\nHeb je nodig?{{fun_0001_0004 arg=\"0x020001000001\"}}",
      "EUru": "{{fun_0003_0001 arg=\"0x0600\"}}Слушай, хайлиец, {{color id=\"2\"}}Рудания{{color id=\"65535\"}}, конечно,\nугомонился, но у нас по-прежнему\nдля тебя жарковато.{{pageBreak}}Чтобы не сгореть, купи\nу меня {{color id=\"2\"}}пожарное зелье{{color id=\"65535\"}}.{{fun_0001_0004 arg=\"0x020001000001\"}}",
      "JPja": "{{fun_0003_0001 arg=\"0x0600\"}}やぁハイラルの{{ruby charSpan=\"1\" value=\"ひと\"}}人！\n\n{{color id=\"2\"}}ルーダニア{{color id=\"65535\"}}が{{ruby charSpan=\"2\" value=\"おとな\"}}大人しくなっても{{delay1}}\nまだまだ{{ruby charSpan=\"1\" value=\"あつ\"}}熱いコロね～\nそんな{{ruby charSpan=\"1\" value=\"とき\"}}時は{{color id=\"2\"}}{{ruby charSpan=\"1\" value=\"も\"}}燃えず{{ruby charSpan=\"1\" value=\"やく\"}}薬{{color id=\"65535\"}}を {{ruby charSpan=\"1\" value=\"ぬ\"}}塗るといいコロ！{{delay3}}\n{{ruby charSpan=\"1\" value=\"い\"}}要るコロ？{{fun_0001_0004 arg=\"0x020001000001\"}}",
      "KRko": "{{fun_0003_0001 arg=\"0x0600\"}}안녕, 하이랄 사람!\n\n{{color id=\"2\"}}루다니아{{color id=\"65535\"}}는 잠잠해졌지만{{delay1}}\n여긴 아직도 뜨거워꼬로~\n그럴 땐 {{color id=\"2\"}}방염 물약{{color id=\"65535\"}}을 바르면 좋아꼬로!{{delay3}}\n필요해꼬로?{{fun_0001_0004 arg=\"0x020001000001\"}}",
      "TWzh": "{{fun_0003_0001 arg=\"0x0600\"}}嗨，海拉魯的人！\n\n就算{{color id=\"2\"}}魯達尼亞{{color id=\"65535\"}}已經變乖了，{{delay1}}\n這一帶還是很熱呢咕隆～\n這種時候就要塗點{{color id=\"2\"}}防火藥{{color id=\"65535\"}}咕隆！{{delay3}}\n需要嗎咕隆？{{fun_0001_0004 arg=\"0x020001000001\"}}",
      "USen": "{{fun_0003_0001 arg=\"0x0600\"}}Hey, it's the Hylian!\n\n\nI know {{color id=\"2\"}}Rudania {{color id=\"65535\"}}has chilled out, but the\ntemperature here is still burnin' hot!\n\nIf ya get too hot, try some good ol'\n{{color id=\"2\"}}fireproof elixir{{color id=\"65535\"}}, OK?{{delay2}} Speakin' of...\nNeed some?{{fun_0001_0004 arg=\"0x020001000001\"}}",
      "USes": "{{fun_0003_0001 arg=\"0x0600\"}}Mira, ¡el hyliano otra vez!{{pageBreak}}Tal vez {{color id=\"2\"}}Rudania{{color id=\"65535\"}} se habrá calmado,{{delay1}}\n¡pero no se puede decir lo mismo\nde las temperaturas!\nCuando ya no puedas soportar el calor,\néchate un poco de {{color id=\"2\"}}elixir ignífugo{{color id=\"65535\"}} y ya\nverás, ¡como nuevo!{{delay3}} ¿Te vendo un poco?{{fun_0001_0004 arg=\"0x020001000001\"}}",
      "USfr": "{{fun_0003_0001 arg=\"0x0600\"}}Oh, salut l'Hylien!\n\n\nTu sais, {{color id=\"2\"}}Rudania{{color id=\"65535\"}}, il est tout sage,\nmaintenant,{{delay1}} mais il fait quand même\ntrès chaud!\nLe mieux pour toi, c'est de boire\ndu {{color id=\"2\"}}remède ignifus{{color id=\"65535\"}}!{{delay3}} T'en veux?{{fun_0001_0004 arg=\"0x020001000001\"}}"
    }
  }
]