[
  {
    "label": "Wander00",
    "attribute": "0xCC000000",
    "locale": {
      "CNzh": "{{fun_0003_0001 arg=\"0x0006\"}}怎么了？{{delay2}}\n你也想找人聊天吗？{{fun_0001_0005 arg=\"0x0000010002000002\"}}",
      "EUde": "{{fun_0003_0001 arg=\"0x0006\"}}Na?{{delay1}} Suchst du auch jemanden zum\nQuatschen?{{fun_0001_0005 arg=\"0x0000010002000002\"}}",
      "EUen": "{{fun_0003_0001 arg=\"0x0006\"}}Hello?{{delay2}} Are you looking for someone to\nchat with too?{{fun_0001_0005 arg=\"0x0000010002000002\"}}",
      "EUes": "{{fun_0003_0001 arg=\"0x0006\"}}¡Hola! ¿Estás de paso? Espero que\ntu viaje transcurra sin dificultades.{{fun_0001_0005 arg=\"0x0000010002000002\"}}",
      "EUfr": "{{fun_0003_0001 arg=\"0x0006\"}}Hmm... Quoi ?{{delay2}} Toi aussi, tu cherches\nquelqu'un à qui parler ?{{fun_0001_0005 arg=\"0x0000010002000002\"}}",
      "EUit": "{{fun_0003_0001 arg=\"0x0006\"}}Che c'è?{{delay2}} Anche tu hai voglia di\nchiacchierare?{{fun_0001_0005 arg=\"0x0000010002000002\"}}",
      "EUnl": "{{fun_0003_0001 arg=\"0x0006\"}}Wat is er?{{delay2}} Ben jij ook op zoek naar\niemand om mee te praten?{{fun_0001_0005 arg=\"0x0000010002000002\"}}",
      "EUru": "{{fun_0003_0001 arg=\"0x0006\"}}Скукота, поговорить не с кем...{{fun_0001_0005 arg=\"0x0000010002000002\"}}",
      "JPja": "{{fun_0003_0001 arg=\"0x0006\"}}どうした？{{delay2}}\nおまえも {{ruby charSpan=\"1\" value=\"はな\"}}話し{{ruby charSpan=\"2\" value=\"あいて\"}}相手がほしいのか？{{fun_0001_0005 arg=\"0x0000010002000002\"}}",
      "KRko": "{{fun_0003_0001 arg=\"0x0006\"}}뭐야?{{delay2}}\n너도 대화 나눌 상대가 필요한가?{{fun_0001_0005 arg=\"0x0000010002000002\"}}",
      "TWzh": "{{fun_0003_0001 arg=\"0x0006\"}}怎麼了？{{delay2}}\n你也想找人聊天嗎？{{fun_0001_0005 arg=\"0x0000010002000002\"}}",
      "USen": "{{fun_0003_0001 arg=\"0x0006\"}}Hello?{{delay2}} Are you looking for someone to\nchat with too?{{fun_0001_0005 arg=\"0x0000010002000002\"}}",
      "USes": "{{fun_0003_0001 arg=\"0x0006\"}}¡Hola! ¿Quieres charlar un rato?{{fun_0001_0005 arg=\"0x0000010002000002\"}}",
      "USfr": "{{fun_0003_0001 arg=\"0x0006\"}}Hmm... Quoi?{{delay2}} Toi aussi, tu cherches\nquelqu'un à qui parler?{{fun_0001_0005 arg=\"0x0000010002000002\"}}"
    }
  },
  {
    "label": "WanderRain00",
    "attribute": "0xF0000000",
    "locale": {
      "CNzh": "{{fun_0003_0001 arg=\"0x0002\"}}你觉得雨会停吗？{{fun_0001_0004 arg=\"0x010002000001\"}}",
      "EUde": "{{fun_0003_0001 arg=\"0x0002\"}}Was denkst du?{{delay1}} Hört's bald auf?{{fun_0001_0004 arg=\"0x010002000001\"}}",
      "EUen": "{{fun_0003_0001 arg=\"0x0002\"}}So... Think the rain will let up soon?{{fun_0001_0004 arg=\"0x010002000001\"}}",
      "EUes": "{{fun_0003_0001 arg=\"0x0002\"}}Odio patrullar bajo la lluvia...{{fun_0001_0004 arg=\"0x010002000001\"}}",
      "EUfr": "{{fun_0003_0001 arg=\"0x0002\"}}Tu crois que la pluie va bientôt\ns'arrêter... ?{{fun_0001_0004 arg=\"0x010002000001\"}}",
      "EUit": "{{fun_0003_0001 arg=\"0x0002\"}}Dici che smette?{{fun_0001_0004 arg=\"0x010002000001\"}}",
      "EUnl": "{{fun_0003_0001 arg=\"0x0002\"}}Denk je dat het snel opklaart?{{fun_0001_0004 arg=\"0x010002000001\"}}",
      "EUru": "{{fun_0003_0001 arg=\"0x0002\"}}Все льет и льет...{{fun_0001_0004 arg=\"0x010002000001\"}}",
      "JPja": "{{fun_0003_0001 arg=\"0x0002\"}}どうだ {{ruby charSpan=\"1\" value=\"や\"}}止みそうか？{{fun_0001_0004 arg=\"0x010002000001\"}}",
      "KRko": "{{fun_0003_0001 arg=\"0x0002\"}}어때, 그칠 것 같나?{{fun_0001_0004 arg=\"0x010002000001\"}}",
      "TWzh": "{{fun_0003_0001 arg=\"0x0002\"}}你覺得雨會停嗎？{{fun_0001_0004 arg=\"0x010002000001\"}}",
      "USen": "{{fun_0003_0001 arg=\"0x0002\"}}So... Think the rain will let up soon?{{fun_0001_0004 arg=\"0x010002000001\"}}",
      "USes": "{{fun_0003_0001 arg=\"0x0002\"}}¿Crees que la lluvia parará pronto?{{fun_0001_0004 arg=\"0x010002000001\"}}",
      "USfr": "{{fun_0003_0001 arg=\"0x0002\"}}Tu crois que la pluie va bientôt\ns'arrêter...?{{fun_0001_0004 arg=\"0x010002000001\"}}"
    }
  },
  {
    "label": "Action5_00",
    "attribute": "0x14010000",
    "locale": {
      "CNzh": "{{fun_0003_0001 arg=\"0x0012\"}}呼～好累啊。{{fun_0001_0004 arg=\"0x010002000001\"}}",
      "EUde": "{{fun_0003_0001 arg=\"0x0012\"}}Ich bin fix und fertig...{{fun_0001_0004 arg=\"0x010002000001\"}}",
      "EUen": "{{fun_0003_0001 arg=\"0x0012\"}}Ahhh... I'm exhausted.{{fun_0001_0004 arg=\"0x010002000001\"}}",
      "EUes": "{{fun_0003_0001 arg=\"0x0012\"}}Estoy hecho polvo.{{fun_0001_0004 arg=\"0x010002000001\"}}",
      "EUfr": "{{fun_0003_0001 arg=\"0x0012\"}}Pfiou... Je suis crevé...{{fun_0001_0004 arg=\"0x010002000001\"}}",
      "EUit": "{{fun_0003_0001 arg=\"0x0012\"}}Che stanchezza.{{fun_0001_0004 arg=\"0x010002000001\"}}",
      "EUnl": "{{fun_0003_0001 arg=\"0x0012\"}}Pfff, ik ben bekaf.{{fun_0001_0004 arg=\"0x010002000001\"}}",
      "EUru": "{{fun_0003_0001 arg=\"0x0012\"}}Устал как собака...{{fun_0001_0004 arg=\"0x010002000001\"}}",
      "JPja": "{{fun_0003_0001 arg=\"0x0012\"}}あー {{ruby charSpan=\"1\" value=\"つか\"}}疲れた{{fun_0001_0004 arg=\"0x010002000001\"}}",
      "KRko": "{{fun_0003_0001 arg=\"0x0012\"}}아이고, 힘들다{{fun_0001_0004 arg=\"0x010002000001\"}}",
      "TWzh": "{{fun_0003_0001 arg=\"0x0012\"}}呼～好累啊。{{fun_0001_0004 arg=\"0x010002000001\"}}",
      "USen": "{{fun_0003_0001 arg=\"0x0012\"}}Ahhh... I'm exhausted.{{fun_0001_0004 arg=\"0x010002000001\"}}",
      "USes": "{{fun_0003_0001 arg=\"0x0012\"}}Estoy molido.{{fun_0001_0004 arg=\"0x010002000001\"}}",
      "USfr": "{{fun_0003_0001 arg=\"0x0012\"}}Pfiou... Je suis brûlé...{{fun_0001_0004 arg=\"0x010002000001\"}}"
    }
  },
  {
    "label": "Action5_01",
    "attribute": "0x38010000",
    "locale": {
      "CNzh": "{{fun_0003_0001 arg=\"0x0006\"}}怎么了？{{delay2}}\n你要不要也稍微休息一下？{{fun_0001_0004 arg=\"0x010002000001\"}}",
      "EUde": "{{fun_0003_0001 arg=\"0x0006\"}}Was'n los? Machst du Pause?{{fun_0001_0004 arg=\"0x010002000001\"}}",
      "EUen": "{{fun_0003_0001 arg=\"0x0006\"}}Hello?{{delay2}} Are you taking a break?{{fun_0001_0004 arg=\"0x010002000001\"}}",
      "EUes": "{{fun_0003_0001 arg=\"0x0006\"}}Hola. ¿Tú también vas a tomarte\nun descanso?{{fun_0001_0004 arg=\"0x010002000001\"}}",
      "EUfr": "{{fun_0003_0001 arg=\"0x0006\"}}Hmm... Quoi ? Toi aussi, tu prends\nune pause ?{{fun_0001_0004 arg=\"0x010002000001\"}}",
      "EUit": "{{fun_0003_0001 arg=\"0x0006\"}}Che c'è?{{delay2}} Anche tu in pausa?{{fun_0001_0004 arg=\"0x010002000001\"}}",
      "EUnl": "{{fun_0003_0001 arg=\"0x0006\"}}Hallo!{{delay2}} Neem je even pauze?{{fun_0001_0004 arg=\"0x010002000001\"}}",
      "EUru": "{{fun_0003_0001 arg=\"0x0006\"}}Что, отдохнуть решил?{{fun_0001_0004 arg=\"0x010002000001\"}}",
      "JPja": "{{fun_0003_0001 arg=\"0x0006\"}}どうした？{{delay2}}\nおまえも ひと{{ruby charSpan=\"1\" value=\"やす\"}}休みしていくか？{{fun_0001_0004 arg=\"0x010002000001\"}}",
      "KRko": "{{fun_0003_0001 arg=\"0x0006\"}}왜 그래?{{delay2}}\n너도 잠시 쉬다 갈래?{{fun_0001_0004 arg=\"0x010002000001\"}}",
      "TWzh": "{{fun_0003_0001 arg=\"0x0006\"}}怎麼了？{{delay2}}\n你要不要也稍微休息一下？{{fun_0001_0004 arg=\"0x010002000001\"}}",
      "USen": "{{fun_0003_0001 arg=\"0x0006\"}}Hello?{{delay2}} Are you taking a break?{{fun_0001_0004 arg=\"0x010002000001\"}}",
      "USes": "{{fun_0003_0001 arg=\"0x0006\"}}Hola. ¿Tú también vas a tomarte\nun descanso?{{fun_0001_0004 arg=\"0x010002000001\"}}",
      "USfr": "{{fun_0003_0001 arg=\"0x0006\"}}Hmm... Quoi? Toi aussi,\ntu fais une pause?{{fun_0001_0004 arg=\"0x010002000001\"}}"
    }
  },
  {
    "label": "0000",
    "attribute": "0x5C010000",
    "locale": {
      "CNzh": "你在做什么？",
      "EUde": "Was machst du?",
      "EUen": "What are you doing?",
      "EUes": "¿Qué haces?",
      "EUfr": "Tu fais quoi ?",
      "EUit": "Che fai?",
      "EUnl": "Wat doe je?",
      "EUru": "Что ты делаешь?",
      "JPja": "{{ruby charSpan=\"1\" value=\"なに\"}}何してるの？",
      "KRko": "뭐 하고 있어?",
      "TWzh": "你在做什麼？",
      "USen": "What are you doing?",
      "USes": "¿Qué haces?",
      "USfr": "Tu fais quoi?"
    }
  },
  {
    "label": "0001",
    "attribute": "0x5E010000",
    "locale": {
      "CNzh": "我要问路",
      "EUde": "Zeig mir den Weg.",
      "EUen": "I need directions.",
      "EUes": "¿Podrías indicarme?",
      "EUfr": "Tu connais le coin ?",
      "EUit": "Indicazioni.",
      "EUnl": "Wijs me de weg.",
      "EUru": "Подскажи дорогу",
      "JPja": "{{ruby charSpan=\"1\" value=\"みち\"}}道を{{ruby charSpan=\"1\" value=\"おし\"}}教えて",
      "KRko": "길 가르쳐 줘",
      "TWzh": "我要問路",
      "USen": "I need directions.",
      "USes": "Necesito direcciones",
      "USfr": "Tu connais le coin?"
    }
  },
  {
    "label": "0002",
    "attribute": "0x60010000",
    "locale": {
      "CNzh": "再见",
      "EUde": "Wiedersehen.",
      "EUen": "Good-bye.",
      "EUes": "Adiós",
      "EUfr": "À plus !",
      "EUit": "Arrivederci.",
      "EUnl": "Tot ziens.",
      "EUru": "Я пойду",
      "JPja": "さようなら",
      "KRko": "안녕히",
      "TWzh": "再見",
      "USen": "Good-bye.",
      "USes": "Adiós",
      "USfr": "À plus!"
    }
  },
  {
    "label": "Wander01",
    "attribute": "0x62010000",
    "locale": {
      "CNzh": "{{fun_0003_0001 arg=\"0x0000\"}}我在巡逻啦，巡逻。{{delay2}}\n毕竟这座桥是交通要道嘛。\n为了不让怪物盘踞在桥上，\n我得赶走它们之类的，辛苦得很。",
      "EUde": "{{fun_0003_0001 arg=\"0x0000\"}}Ich bin auf Patrouille, immer auf\nPatrouille.{{delay1}} Die Brücke hier ist wichtig\nfür Reisende und den Handel.{{pageBreak}}Deswegen bin ich damit beschäftigt,\nMonster von der Brücke fernzuhalten.",
      "EUen": "{{fun_0003_0001 arg=\"0x0000\"}}Just patrolling. This bridge is an\nimportant route.\n\nI keep really busy making sure monsters\ndon't nest here by chasing them off the\nbridge and stuff.",
      "EUes": "{{fun_0003_0001 arg=\"0x0000\"}}Patrullar, patrullar y patrullar.{{pageBreak}}Este puente es un lugar muy transitado,\nasí que me encargo de alejar a\nlos {{wordInfo gender=\"1\" defArticle=\"0\" indefArticle=\"0\" isPlural=\"0\"}}monstruos.",
      "EUfr": "{{fun_0003_0001 arg=\"0x0000\"}}Je patrouille la zone. {{delay2}}Ce pont est\nun point stratégique pour la circulation.\n\nAlors je me charge de refouler les\nmonstres qui voudraient y venir.",
      "EUit": "{{fun_0003_0001 arg=\"0x0000\"}}Sono di pattuglia, tutto qua.{{delay2}}\nQuesto ponte è un punto nevralgico\nper il traffico delle merci.\nIl mio compito è tenerlo sgombero\ndai mostri.",
      "EUnl": "{{fun_0003_0001 arg=\"0x0000\"}}Ik ben aan het patrouilleren. Deze brug\nis een belangrijke oversteekplaats.{{pageBreak}}Ik zorg ervoor dat monsters wegblijven\nvan deze brug, en zo...",
      "EUru": "{{fun_0003_0001 arg=\"0x0000\"}}Патрулирую местность.{{delay1}} По этому\nмосту часто ходят торговцы\nи путешественники.{{pageBreak}}Я стараюсь отгонять монстров,\nчтобы они не устроили где-нибудь\nтут логово.",
      "JPja": "{{fun_0003_0001 arg=\"0x0000\"}}{{ruby charSpan=\"2\" value=\"みまわ\"}}見回りだよ {{ruby charSpan=\"2\" value=\"みまわ\"}}見回り{{delay2}}\nこの{{ruby charSpan=\"1\" value=\"はし\"}}橋は{{ruby charSpan=\"2\" value=\"こうつう\"}}交通の{{ruby charSpan=\"2\" value=\"ようしょ\"}}要所だからな\n{{ruby charSpan=\"2\" value=\"まもの\"}}魔物が {{ruby charSpan=\"1\" value=\"はし\"}}橋に{{ruby charSpan=\"1\" value=\"す\"}}棲みつかないように\n{{ruby charSpan=\"1\" value=\"お\"}}追っ{{ruby charSpan=\"1\" value=\"ぱら\"}}払ったりとか いろいろ{{ruby charSpan=\"2\" value=\"たいへん\"}}大変なんだよ",
      "KRko": "{{fun_0003_0001 arg=\"0x0000\"}}순찰이야 순찰{{delay2}}\n이 다리는 교통의 요지니까\n몬스터가 다리에 들러붙지 않도록\n내쫓기도 해야 하고 여러모로 힘들다구",
      "TWzh": "{{fun_0003_0001 arg=\"0x0000\"}}我在巡邏啦，巡邏。{{delay2}}\n畢竟這座橋是交通要道嘛。\n為了不讓怪物盤踞在橋上，\n我得趕走它們之類的，辛苦得很呢。",
      "USen": "{{fun_0003_0001 arg=\"0x0000\"}}Just patrolling. This bridge is an\nimportant route.\n\nI keep really busy making sure monsters\ndon't nest here by chasing them off the\nbridge and stuff.",
      "USes": "{{fun_0003_0001 arg=\"0x0000\"}}Patrullar, patrullar y patrullar.{{pageBreak}}Este puente es un lugar muy transitado,\nasí que me encargo de alejar a\nlos {{wordInfo gender=\"1\" defArticle=\"0\" indefArticle=\"0\" isPlural=\"0\"}}monstruos.",
      "USfr": "{{fun_0003_0001 arg=\"0x0000\"}}Je patrouille dans la zone.{{delay2}} Ce pont est\nun point stratégique pour la circulation.\n\nAlors, je me charge de refouler les\nmonstres qui voudraient y venir."
    }
  },
  {
    "label": "Wander02",
    "attribute": "0x86010000",
    "locale": {
      "CNzh": "{{fun_0003_0001 arg=\"0x0B01\"}}你想去哪里？{{fun_0001_0006 arg=\"0x03000400050002000003\"}}",
      "EUde": "{{fun_0003_0001 arg=\"0x0B01\"}}Wo willst du hin?{{fun_0001_0006 arg=\"0x03000400050002000003\"}}",
      "EUen": "{{fun_0003_0001 arg=\"0x0B01\"}}Where do you want to go?{{fun_0001_0006 arg=\"0x03000400050002000003\"}}",
      "EUes": "{{fun_0003_0001 arg=\"0x0B01\"}}Claro, ¿adónde te diriges?{{fun_0001_0006 arg=\"0x03000400050002000003\"}}",
      "EUfr": "{{fun_0003_0001 arg=\"0x0B01\"}}Bien sûr. Je peux t'indiquer ta route,\nsi tu veux. Tu vas où ?{{fun_0001_0006 arg=\"0x03000400050002000003\"}}",
      "EUit": "{{fun_0003_0001 arg=\"0x0B01\"}}Dove sei diretto?{{fun_0001_0006 arg=\"0x03000400050002000003\"}}",
      "EUnl": "{{fun_0003_0001 arg=\"0x0B01\"}}Waar wil je naartoe?{{fun_0001_0006 arg=\"0x03000400050002000003\"}}",
      "EUru": "{{fun_0003_0001 arg=\"0x0B01\"}}А куда тебе надо?{{fun_0001_0006 arg=\"0x03000400050002000003\"}}",
      "JPja": "{{fun_0003_0001 arg=\"0x0B01\"}}どこに{{ruby charSpan=\"1\" value=\"い\"}}行きたいんだ？{{fun_0001_0006 arg=\"0x03000400050002000003\"}}",
      "KRko": "{{fun_0003_0001 arg=\"0x0B01\"}}어디로 가고 싶은데?{{fun_0001_0006 arg=\"0x03000400050002000003\"}}",
      "TWzh": "{{fun_0003_0001 arg=\"0x0B01\"}}你想去哪裡？{{fun_0001_0006 arg=\"0x03000400050002000003\"}}",
      "USen": "{{fun_0003_0001 arg=\"0x0B01\"}}Where do you want to go?{{fun_0001_0006 arg=\"0x03000400050002000003\"}}",
      "USes": "{{fun_0003_0001 arg=\"0x0B01\"}}Claro, ¿adónde quieres ir?{{fun_0001_0006 arg=\"0x03000400050002000003\"}}",
      "USfr": "{{fun_0003_0001 arg=\"0x0B01\"}}Bien sûr. Je peux t'indiquer ta route,\nsi tu veux. Tu vas où?{{fun_0001_0006 arg=\"0x03000400050002000003\"}}"
    }
  },
  {
    "label": "0003",
    "attribute": "0xAA010000",
    "locale": {
      "CNzh": "卡卡利科村",
      "EUde": "Kakariko.",
      "EUen": "Kakariko Village.",
      "EUes": "A la aldea Kakariko",
      "EUfr": "À Cocorico.",
      "EUit": "Villaggio Calbarico.",
      "EUnl": "Kakariko.",
      "EUru": "В деревню Какарико",
      "JPja": "カカリコ{{ruby charSpan=\"1\" value=\"むら\"}}村",
      "KRko": "카카리코 마을",
      "TWzh": "卡卡利科村",
      "USen": "Kakariko Village.",
      "USes": "A la aldea Kakariko",
      "USfr": "À Cocorico."
    }
  },
  {
    "label": "0004",
    "attribute": "0xAC010000",
    "locale": {
      "CNzh": "海拉鲁城堡",
      "EUde": "Schloss Hyrule.",
      "EUen": "Hyrule Castle.",
      "EUes": "Al castillo de Hyrule",
      "EUfr": "Au château d'Hyrule.",
      "EUit": "Castello di Hyrule.",
      "EUnl": "Kasteel Hyrule.",
      "EUru": "В замок Хайрул",
      "JPja": "ハイラル{{ruby charSpan=\"1\" value=\"じょう\"}}城",
      "KRko": "하이랄 성",
      "TWzh": "海拉魯城堡",
      "USen": "Hyrule Castle.",
      "USes": "Al castillo de Hyrule",
      "USfr": "Au château d'Hyrule."
    }
  },
  {
    "label": "0005",
    "attribute": "0xAE010000",
    "locale": {
      "CNzh": "初始台地",
      "EUde": "Vergessenes Plateau.",
      "EUen": "Great Plateau.",
      "EUes": "A la meseta",
      "EUfr": "Au plateau du Pré...",
      "EUit": "Altopiano delle origini.",
      "EUnl": "Vergeten Hoogvlakte.",
      "EUru": "На Великое плато",
      "JPja": "{{ruby charSpan=\"1\" value=\"はじ\"}}始まりの{{ruby charSpan=\"2\" value=\"だいち\"}}台地",
      "KRko": "시작의 대지",
      "TWzh": "初始台地",
      "USen": "Great Plateau.",
      "USes": "A la meseta",
      "USfr": "Au plateau de l'Év..."
    }
  },
  {
    "label": "Kakariko00",
    "attribute": "0xB0010000",
    "locale": {
      "CNzh": "{{fun_0003_0001 arg=\"0x0004\"}}卡卡利科村的话，在那个方向。",
      "EUde": "{{fun_0003_0001 arg=\"0x0004\"}}Ah ja... Nach Kakariko geht's da lang.",
      "EUen": "{{fun_0003_0001 arg=\"0x0004\"}}Ah, I see. Kakariko Village is that way.",
      "EUes": "{{fun_0003_0001 arg=\"0x0004\"}}La aldea Kakariko está por allí.",
      "EUfr": "{{fun_0003_0001 arg=\"0x0004\"}}C'est dans cette direction.",
      "EUit": "{{fun_0003_0001 arg=\"0x0004\"}}Il villaggio Calbarico è da quella parte.",
      "EUnl": "{{fun_0003_0001 arg=\"0x0004\"}}Aha... Kakariko is die kant op.",
      "EUru": "{{fun_0003_0001 arg=\"0x0004\"}}А-а, {{lowercaseNextWord}}деревня Какарико...{{delay1}}\nВон туда топай.",
      "JPja": "{{fun_0003_0001 arg=\"0x0004\"}}カカリコ{{ruby charSpan=\"1\" value=\"むら\"}}村なら あっちの{{ruby charSpan=\"2\" value=\"ほうこう\"}}方向だ",
      "KRko": "{{fun_0003_0001 arg=\"0x0004\"}}카카리코 마을은 저쪽 방향이야",
      "TWzh": "{{fun_0003_0001 arg=\"0x0004\"}}卡卡利科村的話，在那個方向。",
      "USen": "{{fun_0003_0001 arg=\"0x0004\"}}Ah, I see. Kakariko Village is that way.",
      "USes": "{{fun_0003_0001 arg=\"0x0004\"}}La aldea Kakariko está por allá.",
      "USfr": "{{fun_0003_0001 arg=\"0x0004\"}}C'est dans cette direction."
    }
  },
  {
    "label": "Kakariko01",
    "attribute": "0xD4010000",
    "locale": {
      "CNzh": "{{fun_0003_0001 arg=\"0x0000\"}}在双子山另一头有间驿站，\n你到了那里再问人就行了。",
      "EUde": "{{fun_0003_0001 arg=\"0x0000\"}}Auf der anderen Seite der Zwillingsberge\ngibt's 'nen Stall.{{delay1}} Frag da noch mal nach\ndem Weg.",
      "EUen": "{{fun_0003_0001 arg=\"0x0000\"}}On the other side of the Dueling Peaks,\nthere's a stable. Stop there and ask\nsomeone for further directions.",
      "EUes": "{{fun_0003_0001 arg=\"0x0000\"}}Cruza los Picos Gemelos y llegarás a\nuna posta. Allí podrán indicarte mejor.",
      "EUfr": "{{fun_0003_0001 arg=\"0x0000\"}}Le plus simple, c'est d'aller d'abord\njusqu'au relais qui se trouve de l'autre\ncôté des monts Géminés.\nIl y aura sûrement quelqu'un pour\nt'indiquer le reste de la route, là-bas.",
      "EUit": "{{fun_0003_0001 arg=\"0x0000\"}}Dall'altra parte dei Monti Gemelli,\nc'è uno stallaggio. Fermati lì e\nchiedi alla gente del posto.",
      "EUnl": "{{fun_0003_0001 arg=\"0x0000\"}}Aan de andere kant van de Tweelingberg\nbevindt zich een stal. Vraag daar maar\niemand naar de weg.",
      "EUru": "{{fun_0003_0001 arg=\"0x0000\"}}За Близнецами есть конюшня —\nтам спросишь, куда дальше идти.",
      "JPja": "{{fun_0003_0001 arg=\"0x0000\"}}{{ruby charSpan=\"3\" value=\"ふたごやま\"}}双子山の{{ruby charSpan=\"1\" value=\"む\"}}向こうに {{ruby charSpan=\"2\" value=\"うまやど\"}}馬宿があるから\nそこに{{ruby charSpan=\"1\" value=\"つ\"}}着いたら {{ruby charSpan=\"1\" value=\"だれ\"}}誰かに{{ruby charSpan=\"1\" value=\"みち\"}}道を{{ruby charSpan=\"1\" value=\"き\"}}聞くといい",
      "KRko": "{{fun_0003_0001 arg=\"0x0000\"}}쌍둥이산 너머에 마구간이 있으니까\n거기 도착해서 다른 사람에게 물어봐",
      "TWzh": "{{fun_0003_0001 arg=\"0x0000\"}}在雙子山另一頭有間驛站，\n你到了那裡再問人就行了。",
      "USen": "{{fun_0003_0001 arg=\"0x0000\"}}On the other side of the Dueling Peaks,\nthere's a stable. Stop there and ask\nsomeone for further directions.",
      "USes": "{{fun_0003_0001 arg=\"0x0000\"}}Cruza los Picos Gemelos y llegarás a\nun rancho. Allí podrán darte mejores\nindicaciones.",
      "USfr": "{{fun_0003_0001 arg=\"0x0000\"}}Le plus simple, c'est d'aller d'abord\njusqu'au relais qui se trouve de l'autre\ncôté des monts Mère et Fille.\nIl y aura sûrement quelqu'un pour\nt'indiquer le reste de la route, là-bas."
    }
  },
  {
    "label": "Hyrule00",
    "attribute": "0xF8010000",
    "locale": {
      "CNzh": "{{fun_0003_0001 arg=\"0x0A00\"}}海拉鲁城堡！？\n\n去那种到处都是守护者徘徊的地方，\n不管有几条命都不够用。",
      "EUde": "{{fun_0003_0001 arg=\"0x0A00\"}}Schloss Hyrule?!{{pageBreak}}Bist du noch bei Trost?{{delay1}} Du hast nur ein\nLeben, und dort gibt's genug Wächter,\num es mehrmals auszulöschen!",
      "EUen": "{{fun_0003_0001 arg=\"0x0A00\"}}Hyrule Castle?!\n\n\nI don't know how many lives you've got,\nbut in a place with that many Guardians,\nI guarantee you it's not enough!",
      "EUes": "{{fun_0003_0001 arg=\"0x0A00\"}}¡¿Al castillo de Hyrule?!{{pageBreak}}Ese sitio está lleno de guardianes, chico.\nSi aprecias tu vida, harás bien en no\nacercarte por allí.",
      "EUfr": "{{fun_0003_0001 arg=\"0x0A00\"}}Au... Au château ?!\n\n\nT'es pas bien ! Il y a plein de Gardiens\nqui traînent par là-bas ! Tu feras pas\nlong feu, je te le garantis !",
      "EUit": "{{fun_0003_0001 arg=\"0x0A00\"}}Vuoi andare al castello di Hyrule?!\n\n\nSenti, io non so quante vite hai...\nma con tutti quei guardiani che stanno\nlì, sono sicuro che non ti basteranno.",
      "EUnl": "{{fun_0003_0001 arg=\"0x0A00\"}}Kasteel Hyrule?!{{pageBreak}}Het zit daar vol met Wachters. Als je\nleven je iets waard is, kun je daar beter\nwegblijven.",
      "EUru": "{{fun_0003_0001 arg=\"0x0A00\"}}В замок Хайрул?!{{pageBreak}}Там же стражей тьма-тьмущая!{{delay1}}\nПогибнешь ведь!",
      "JPja": "{{fun_0003_0001 arg=\"0x0A00\"}}ハイラル{{ruby charSpan=\"1\" value=\"じょう\"}}城？！\n\nあんな ガーディアンがウロついてるところ\n{{ruby charSpan=\"1\" value=\"いのち\"}}命がいくつあっても{{ruby charSpan=\"1\" value=\"た\"}}足りないぞ",
      "KRko": "{{fun_0003_0001 arg=\"0x0A00\"}}하이랄 성?!\n\n가디언이 우글거리는 그런 곳은\n목숨이 열 개라도 부족하다구",
      "TWzh": "{{fun_0003_0001 arg=\"0x0A00\"}}海拉魯城堡！？\n\n去那種到處都是守護者徘徊的地方，\n不管有幾條命都不夠用喔。",
      "USen": "{{fun_0003_0001 arg=\"0x0A00\"}}Hyrule Castle?!\n\n\nI don't know how many lives you've got,\nbut in a place with that many Guardians,\nI guarantee you it's not enough!",
      "USes": "{{fun_0003_0001 arg=\"0x0A00\"}}¡¿Al castillo de Hyrule?!\n\n\nEse lugar está lleno de guardianes,\nmuchacho. Si aprecias tu vida, harías\nbien en no acercarte por ahí.",
      "USfr": "{{fun_0003_0001 arg=\"0x0A00\"}}Au... Au château?!\n\n\nT'es pas bien! Il y a plein de Gardiens\nqui traînent par là-bas! Tu feras pas\nlong feu, je te le garantis!"
    }
  },
  {
    "label": "Hyrule01",
    "attribute": "0x1C020000",
    "locale": {
      "CNzh": "{{fun_0003_0001 arg=\"0x0000\"}}你看，从这里就能看见对面的城堡吧……{{delay2}}\n我劝你在这边眺望上几眼就好了。",
      "EUde": "{{fun_0003_0001 arg=\"0x0000\"}}Da, man kann's von hier aus sehen.{{delay2}}\nUnd viel näher solltest du auch nicht\nrangehen, wenn du mich fragst.",
      "EUen": "{{fun_0003_0001 arg=\"0x0000\"}}See that? You can see it in the distance.{{delay2}}\nHonestly, I think you're better off just\nlooking at it from here.",
      "EUes": "{{fun_0003_0001 arg=\"0x0000\"}}Está en esa dirección, ¿lo ves?{{delay2}} Pero lo\ndicho, será mejor que lo observes desde\nla seguridad de la distancia.",
      "EUfr": "{{fun_0003_0001 arg=\"0x0000\"}}Regarde ! On peut le voir d'ici... {{delay2}}Si tu\nveux rester en vie, je te conseille de\nne pas t'en approcher plus.",
      "EUit": "{{fun_0003_0001 arg=\"0x0000\"}}Lo vedi, laggiù in lontananza?{{delay2}}\nÈ meglio se continui a guardarlo\nsenza avvicinarti.",
      "EUnl": "{{fun_0003_0001 arg=\"0x0000\"}}Je kunt het daarginds in de verte zien\nliggen...{{delay2}} Misschien is het beter als je er\nalleen vanaf hier naar kijkt...",
      "EUru": "{{fun_0003_0001 arg=\"0x0000\"}}Вообще-то вон он, вдалеке.{{delay1}}\nНо правда, не ходи ты туда...",
      "JPja": "{{fun_0003_0001 arg=\"0x0000\"}}ほら {{ruby charSpan=\"1\" value=\"む\"}}向こうの{{ruby charSpan=\"1\" value=\"ほう\"}}方に{{ruby charSpan=\"1\" value=\"み\"}}見えるだろ…{{delay2}}\n{{ruby charSpan=\"1\" value=\"なが\"}}眺めるだけにしといた{{ruby charSpan=\"1\" value=\"ほう\"}}方が いいと{{ruby charSpan=\"1\" value=\"おも\"}}思うぜ",
      "KRko": "{{fun_0003_0001 arg=\"0x0000\"}}봐, 저기 보이잖아…{{delay2}}\n멀리서 그냥 보기만 하는 게 좋을 거야",
      "TWzh": "{{fun_0003_0001 arg=\"0x0000\"}}你看，從這裡就能看見對面的城堡吧……{{delay2}}\n我勸你在這邊眺望個幾眼就好了。",
      "USen": "{{fun_0003_0001 arg=\"0x0000\"}}See that? You can see it in the distance.{{delay2}}\nHonestly, I think you're better off just\nlooking at it from here.",
      "USes": "{{fun_0003_0001 arg=\"0x0000\"}}Está en esa dirección, ¿lo ves?{{delay2}}\nPero como ya dije, es mejor observarlo\ndesde la seguridad de la distancia.",
      "USfr": "{{fun_0003_0001 arg=\"0x0000\"}}Regarde! On peut le voir d'ici... {{delay2}}Si tu\nveux rester en vie, je te conseille de\nne pas t'en approcher plus."
    }
  },
  {
    "label": "Colony00",
    "attribute": "0x40020000",
    "locale": {
      "CNzh": "{{fun_0003_0001 arg=\"0x0006\"}}初始台地？\n\n你去那种渺无人烟的地方做什么？{{delay2}}\n况且，你要怎么爬上那么高的悬崖？",
      "EUde": "{{fun_0003_0001 arg=\"0x0006\"}}Was?{{delay1}} Zum Vergessenen Plateau?{{pageBreak}}Was willst du denn dort?{{delay1}} Da ist doch nix!{{delay1}}\nUnd wie willst du überhaupt die Klippe\nhochkommen?",
      "EUen": "{{fun_0003_0001 arg=\"0x0006\"}}The Great Plateau? \n\n\nWhy would you possibly need to go to an\nabandoned place like that?{{delay2}} How would\nyou even begin to scale that cliff?",
      "EUes": "{{fun_0003_0001 arg=\"0x0006\"}}¿La meseta de los albores? ¿Qué se\nte ha perdido en ese sitio abandonado?\nNo hay más que ruinas...{{pageBreak}}Además, no sé cómo pretendes subir\nhasta arriba.",
      "EUfr": "{{fun_0003_0001 arg=\"0x0006\"}}Hein ?! Au plateau du Prélude ? Y a rien,\nlà-bas ! C'est complètement paumé !\n\nQu'est-ce que tu veux y faire ? Et puis\npour y aller, faudrait déjà que tu trouves\nun moyen d'escalader la paroi.",
      "EUit": "{{fun_0003_0001 arg=\"0x0006\"}}L'altopiano delle origini?\n\n\nE che ci vai a fare?{{delay2}} Lassù non ci vive\nnessuno! E poi non c'è nessun sentiero\ne le pareti sono troppo ripide.",
      "EUnl": "{{fun_0003_0001 arg=\"0x0006\"}}De Vergeten Hoogvlakte?{{pageBreak}}Maar daar is toch helemaal niets te\ndoen? En hoe denk je die bergwand op\nte komen?",
      "EUru": "{{fun_0003_0001 arg=\"0x0006\"}}Куда-куда?{{delay1}} На Великое плато?{{pageBreak}}Что ты на нем забыл?{{delay1}} Там ведь,\nнаверное, нет ни души.{{delay1}} Да и как\nна него забраться — высоко же!",
      "JPja": "{{fun_0003_0001 arg=\"0x0006\"}}{{ruby charSpan=\"1\" value=\"はじ\"}}始まりの{{ruby charSpan=\"2\" value=\"だいち\"}}台地？\n\n{{ruby charSpan=\"1\" value=\"ひと\"}}人っ{{ruby charSpan=\"1\" value=\"こ\"}}子ひとりいないあの{{ruby charSpan=\"2\" value=\"ばしょ\"}}場所に {{ruby charSpan=\"1\" value=\"なん\"}}何の{{ruby charSpan=\"1\" value=\"よう\"}}用だ？{{delay2}}\nだいたい {{ruby charSpan=\"1\" value=\"たか\"}}高い{{ruby charSpan=\"1\" value=\"がけ\"}}崖をどうやって{{ruby charSpan=\"1\" value=\"のぼ\"}}登るってんだよ",
      "KRko": "{{fun_0003_0001 arg=\"0x0006\"}}시작의 대지?\n\n사람 하나 없는 곳에 무슨 볼일이 있길래?{{delay2}}\n애초에 그 높은 암벽을 어떻게 넘으려고",
      "TWzh": "{{fun_0003_0001 arg=\"0x0006\"}}初始台地？\n\n你去那種杳無人煙的地方做什麼？{{delay2}}\n況且，你要怎麼爬上那麼高的懸崖？",
      "USen": "{{fun_0003_0001 arg=\"0x0006\"}}The Great Plateau? \n\n\nWhy would you possibly need to go to an\nabandoned place like that?{{delay2}} How would\nyou even begin to scale that cliff?",
      "USes": "{{fun_0003_0001 arg=\"0x0006\"}}¿La meseta de los albores? ¿Qué se\nte perdió en ese lugar abandonado?\nNo hay más que ruinas...{{pageBreak}}Además, no sé cómo pretendes subir\nhasta arriba.",
      "USfr": "{{fun_0003_0001 arg=\"0x0006\"}}Hein?! Au plateau de l'Éveil? Y'a rien,\nlà-bas! C'est complètement désert!\n\nQu'est-ce que tu veux y faire? Et puis\npour y aller, faudrait déjà que tu trouves\nun moyen d'escalader la paroi."
    }
  },
  {
    "label": "Colony01",
    "attribute": "0x64020000",
    "locale": {
      "CNzh": "{{fun_0003_0001 arg=\"0x0000\"}}哎，要去的话往那里就是了。{{delay2}}\n那里别的不多，倒是怪物还不少，你要小心点啊。",
      "EUde": "{{fun_0003_0001 arg=\"0x0000\"}}Jedenfalls geht's dort entlang.{{delay1}} Da treiben\nsich Monster herum, also halt besser die\nAugen offen.",
      "EUen": "{{fun_0003_0001 arg=\"0x0000\"}}Well, in any case, it's over there.{{delay2}}\nThere are quite a few monsters about,\nthough. So be careful.",
      "EUes": "{{fun_0003_0001 arg=\"0x0000\"}}En fin, tú sabrás. Está por allí.\nTen cuidado con los {{wordInfo gender=\"1\" defArticle=\"0\" indefArticle=\"0\" isPlural=\"0\"}}monstruos\nque acechan por los caminos.",
      "EUfr": "{{fun_0003_0001 arg=\"0x0000\"}}Bon, si tu veux vraiment y aller, c'est\ndans cette direction.{{delay2}} Mais il y a pas mal\nde monstres, alors sois prudent.",
      "EUit": "{{fun_0003_0001 arg=\"0x0000\"}}Comunque, è laggiù. Attento però che\nai suoi piedi vivono parecchi mostri.",
      "EUnl": "{{fun_0003_0001 arg=\"0x0000\"}}Het is in die richting.{{delay2}} Er lopen een paar\nmonsters rond, dus wees op je hoede.",
      "EUru": "{{fun_0003_0001 arg=\"0x0000\"}}В общем, вон твое плато.{{delay1}} Но будь\nосторожен — монстров по пути\nхватает.",
      "JPja": "{{fun_0003_0001 arg=\"0x0000\"}}まあ あっちだけどよ{{delay2}}\n{{ruby charSpan=\"2\" value=\"まもの\"}}魔物だけはそこそこいるから {{ruby charSpan=\"1\" value=\"き\"}}気をつけな",
      "KRko": "{{fun_0003_0001 arg=\"0x0000\"}}일단 방향은 저쪽인데{{delay2}}\n몬스터가 은근히 많으니까 조심하라구",
      "TWzh": "{{fun_0003_0001 arg=\"0x0000\"}}哎，要去的話往那裡就是了。{{delay2}}\n那裡別的不多，倒是怪物還不少，你要小心點啊。",
      "USen": "{{fun_0003_0001 arg=\"0x0000\"}}Well, in any case, it's over there.{{delay2}}\nThere are quite a few monsters about,\nthough. So be careful.",
      "USes": "{{fun_0003_0001 arg=\"0x0000\"}}En fin, tú sabrás. Está por allá.{{delay2}}\nTen cuidado con los {{wordInfo gender=\"1\" defArticle=\"0\" indefArticle=\"0\" isPlural=\"0\"}}monstruos\nque acechan por los caminos.",
      "USfr": "{{fun_0003_0001 arg=\"0x0000\"}}Bon, si tu veux vraiment y aller, c'est\ndans cette direction.{{delay2}} Mais il y a pas mal\nde monstres, alors sois prudent."
    }
  },
  {
    "label": "GoodBye00",
    "attribute": "0x88020000",
    "locale": {
      "CNzh": "{{fun_0003_0001 arg=\"0x0001\"}}再见啦。{{delay2}}\n希望我们彼此都好运。",
      "EUde": "{{fun_0003_0001 arg=\"0x0001\"}}Viel Glück!{{delay1}} Wir können es wohl beide\nbrauchen, was?",
      "EUen": "{{fun_0003_0001 arg=\"0x0001\"}}See ya.{{delay2}} Let's wish each other good luck,\neh? We'll need it!",
      "EUes": "{{fun_0003_0001 arg=\"0x0001\"}}Buen viaje. Y buena suerte.",
      "EUfr": "{{fun_0003_0001 arg=\"0x0001\"}}Bon, ben, à plus !{{delay2}} Et bonne chance,\nhein !",
      "EUit": "{{fun_0003_0001 arg=\"0x0001\"}}Ci vediamo!{{delay2}}\nBuona fortuna a te e a me!",
      "EUnl": "{{fun_0003_0001 arg=\"0x0001\"}}Tot kijk.{{delay2}} Laten we elkaar veel succes\nwensen!",
      "EUru": "{{fun_0003_0001 arg=\"0x0001\"}}Удачи!{{delay1}} В такие времена без нее никак...",
      "JPja": "{{fun_0003_0001 arg=\"0x0001\"}}じゃあな{{delay2}}\nお{{ruby charSpan=\"1\" value=\"たが\"}}互い {{ruby charSpan=\"2\" value=\"こううん\"}}幸運を{{ruby charSpan=\"1\" value=\"いの\"}}祈ろうぜ",
      "KRko": "{{fun_0003_0001 arg=\"0x0001\"}}잘 가{{delay2}}\n서로 행운을 빌자",
      "TWzh": "{{fun_0003_0001 arg=\"0x0001\"}}再見啦。{{delay2}}\n希望我們彼此都好運。",
      "USen": "{{fun_0003_0001 arg=\"0x0001\"}}See ya.{{delay2}} Let's wish each other good luck,\neh? We'll need it!",
      "USes": "{{fun_0003_0001 arg=\"0x0001\"}}Buen viaje.{{delay2}} Que la suerte nos\nsonría a ambos.",
      "USfr": "{{fun_0003_0001 arg=\"0x0001\"}}Bon, ben, à plus!{{delay2}}\nEt bonne chance, hein!"
    }
  },
  {
    "label": "GoodBye01",
    "attribute": "0xAC020000",
    "locale": {
      "CNzh": "{{fun_0003_0001 arg=\"0x0001\"}}不然你就先在这里打发时间吧。",
      "EUde": "{{fun_0003_0001 arg=\"0x0001\"}}Hier ist nicht der schlechteste Ort, um\netwas Zeit totzuschlagen.",
      "EUen": "{{fun_0003_0001 arg=\"0x0001\"}}Why not kill some time here?",
      "EUes": "{{fun_0003_0001 arg=\"0x0001\"}}Este no es mal sitio para descansar.",
      "EUfr": "{{fun_0003_0001 arg=\"0x0001\"}}Tu peux attendre ici, si tu veux.\nÇa ne me dérange pas.",
      "EUit": "{{fun_0003_0001 arg=\"0x0001\"}}Qui non è male per riposarsi un po'!",
      "EUnl": "{{fun_0003_0001 arg=\"0x0001\"}}Als je wilt, kun je hier wel een beetje\ntijd doden.",
      "EUru": "{{fun_0003_0001 arg=\"0x0001\"}}Жаль.{{delay1}} Могли бы поболтать...",
      "JPja": "{{fun_0003_0001 arg=\"0x0001\"}}なんならここで ひまをつぶしていけよ",
      "KRko": "{{fun_0003_0001 arg=\"0x0001\"}}뭐하면 여기서 시간 때우다 가",
      "TWzh": "{{fun_0003_0001 arg=\"0x0001\"}}不然你就先在這裡打發時間吧。",
      "USen": "{{fun_0003_0001 arg=\"0x0001\"}}Why not kill some time here?",
      "USes": "{{fun_0003_0001 arg=\"0x0001\"}}Este no es mal sitio para descansar.",
      "USfr": "{{fun_0003_0001 arg=\"0x0001\"}}Tu peux attendre ici, si tu veux.\nÇa ne me dérange pas."
    }
  },
  {
    "label": "RunRain00",
    "attribute": "0xD0020000",
    "locale": {
      "CNzh": "{{fun_0003_0001 arg=\"0x000E\"}}啐，真不走运！\n有话待会再说！",
      "EUde": "{{fun_0003_0001 arg=\"0x000E\"}}Grad ist schlecht, komm später wieder!",
      "EUen": "{{fun_0003_0001 arg=\"0x000E\"}}Not now. Talk to me where it's dry!",
      "EUes": "{{fun_0003_0001 arg=\"0x000E\"}}¡Ahora no es momento de charlar!",
      "EUfr": "{{fun_0003_0001 arg=\"0x000E\"}}Ça tombe mal, ça ! On parlera plus tard !",
      "EUit": "{{fun_0003_0001 arg=\"0x000E\"}}Tsk, piove a dirotto!\nParliamo dopo!",
      "EUnl": "{{fun_0003_0001 arg=\"0x000E\"}}Dit is niet het beste moment voor een\npraatje!",
      "EUru": "{{fun_0003_0001 arg=\"0x000E\"}}Под крышей поговорим!",
      "JPja": "{{fun_0003_0001 arg=\"0x000E\"}}ちっ ツイてねえぜ！\n{{ruby charSpan=\"1\" value=\"はなし\"}}話は{{ruby charSpan=\"1\" value=\"あと\"}}後だ！",
      "KRko": "{{fun_0003_0001 arg=\"0x000E\"}}쳇, 재수 옴 붙었군!\n얘기는 나중에 하지!",
      "TWzh": "{{fun_0003_0001 arg=\"0x000E\"}}啐，真不走運！\n有話待會再說！",
      "USen": "{{fun_0003_0001 arg=\"0x000E\"}}Not now. Talk to me where it's dry!",
      "USes": "{{fun_0003_0001 arg=\"0x000E\"}}¡Pues qué mal! ¡Hablamos luego!",
      "USfr": "{{fun_0003_0001 arg=\"0x000E\"}}Ça tombe mal, ça!\nOn parlera plus tard!"
    }
  },
  {
    "label": "TalkLoop00",
    "attribute": "0xF4020000",
    "locale": {
      "CNzh": "{{fun_0003_0001 arg=\"0x0004\"}}任何事都可以问我。{{delay2}}\n我会回答你的。{{fun_0001_0005 arg=\"0x0000010002000002\"}}",
      "EUde": "{{fun_0003_0001 arg=\"0x0004\"}}Frag mich, was du willst.{{delay2}} Wir können uns\ngern ein bisschen unterhalten.{{fun_0001_0005 arg=\"0x0000010002000002\"}}",
      "EUen": "{{fun_0003_0001 arg=\"0x0004\"}}Ask me whatever you want!{{delay2}} I'm happy to\nchat with you awhile.{{fun_0001_0005 arg=\"0x0000010002000002\"}}",
      "EUes": "{{fun_0003_0001 arg=\"0x0004\"}}¿Quieres preguntarme algo más?\nYo estoy encantado de charlar un rato\ncon alguien.{{fun_0001_0005 arg=\"0x0000010002000002\"}}",
      "EUfr": "{{fun_0003_0001 arg=\"0x0004\"}}Demande-moi ce que tu veux.{{delay2}} Ça ne me\ndérange pas de discuter avec toi.{{fun_0001_0005 arg=\"0x0000010002000002\"}}",
      "EUit": "{{fun_0003_0001 arg=\"0x0004\"}}Chiedimi quello che vuoi.{{delay2}} Rimarrò qui\na parlare con te ancora un po'.{{fun_0001_0005 arg=\"0x0000010002000002\"}}",
      "EUnl": "{{fun_0003_0001 arg=\"0x0004\"}}Je kunt me alles vragen.{{delay2}} Ik praat wel een\ntijdje met je.{{fun_0001_0005 arg=\"0x0000010002000002\"}}",
      "EUru": "{{fun_0003_0001 arg=\"0x0004\"}}Поболтаем?{{delay1}} Спешить некуда.{{delay1}}\nЕсли что нужно — спрашивай.{{fun_0001_0005 arg=\"0x0000010002000002\"}}",
      "JPja": "{{fun_0003_0001 arg=\"0x0004\"}}なんでも {{ruby charSpan=\"1\" value=\"き\"}}聞いてみな{{delay2}}\n{{ruby charSpan=\"1\" value=\"はな\"}}話し{{ruby charSpan=\"2\" value=\"あいて\"}}相手になってやるぜ{{fun_0001_0005 arg=\"0x0000010002000002\"}}",
      "KRko": "{{fun_0003_0001 arg=\"0x0004\"}}뭐든지 물어봐{{delay2}}\n말동무 정도는 되어 주지{{fun_0001_0005 arg=\"0x0000010002000002\"}}",
      "TWzh": "{{fun_0003_0001 arg=\"0x0004\"}}任何事都可以問我。{{delay2}}\n我會回答你的。{{fun_0001_0005 arg=\"0x0000010002000002\"}}",
      "USen": "{{fun_0003_0001 arg=\"0x0004\"}}Ask me whatever you want!{{delay2}} I'm happy to\nchat with you awhile.{{fun_0001_0005 arg=\"0x0000010002000002\"}}",
      "USes": "{{fun_0003_0001 arg=\"0x0004\"}}¿Quieres preguntarme algo más?\nYo estoy encantado de charlar un rato\ncon alguien.{{fun_0001_0005 arg=\"0x0000010002000002\"}}",
      "USfr": "{{fun_0003_0001 arg=\"0x0004\"}}Demande-moi ce que tu veux.{{delay2}} Ça ne me\ndérange pas de discuter avec toi.{{fun_0001_0005 arg=\"0x0000010002000002\"}}"
    }
  },
  {
    "label": "Warning00",
    "attribute": "0x18030000",
    "locale": {
      "CNzh": "{{fun_0003_0001 arg=\"0x0A00\"}}{{size value=\"125\"}}喂，别冲动啊！{{size value=\"100\"}}",
      "EUde": "{{fun_0003_0001 arg=\"0x0A00\"}}{{size value=\"125\"}}He, tu nichts Unüberlegtes!{{size value=\"100\"}}",
      "EUen": "{{fun_0003_0001 arg=\"0x0A00\"}}{{size value=\"125\"}}Hey! Don't be rash!{{size value=\"100\"}}",
      "EUes": "{{fun_0003_0001 arg=\"0x0A00\"}}{{size value=\"125\"}}¡¿Pero qué haces?!{{size value=\"100\"}}",
      "EUfr": "{{fun_0003_0001 arg=\"0x0A00\"}}{{size value=\"125\"}}Ouh là ! Pas de précipitation !{{size value=\"100\"}}",
      "EUit": "{{fun_0003_0001 arg=\"0x0A00\"}}Ehi, aspetta!",
      "EUnl": "{{fun_0003_0001 arg=\"0x0A00\"}}{{size value=\"125\"}}Hé, wat doe je?!{{size value=\"100\"}}",
      "EUru": "{{fun_0003_0001 arg=\"0x0A00\"}}{{size value=\"125\"}}Эй?! Ты куда залез?!{{size value=\"100\"}}",
      "JPja": "{{fun_0003_0001 arg=\"0x0A00\"}}{{size value=\"125\"}}おい {{ruby charSpan=\"1\" value=\"はや\"}}早まるな！{{size value=\"100\"}}",
      "KRko": "{{fun_0003_0001 arg=\"0x0A00\"}}{{size value=\"125\"}}이봐, 서두르지 마!{{size value=\"100\"}}",
      "TWzh": "{{fun_0003_0001 arg=\"0x0A00\"}}{{size value=\"125\"}}喂，別衝動啊！{{size value=\"100\"}}",
      "USen": "{{fun_0003_0001 arg=\"0x0A00\"}}{{size value=\"125\"}}Hey! Don't be rash!{{size value=\"100\"}}",
      "USes": "{{fun_0003_0001 arg=\"0x0A00\"}}{{size value=\"125\"}}¿¡Pero qué haces!?{{size value=\"100\"}}",
      "USfr": "{{fun_0003_0001 arg=\"0x0A00\"}}{{size value=\"125\"}}Ouh là! Pas de précipitation!{{size value=\"100\"}}"
    }
  },
  {
    "label": "Warning01",
    "attribute": "0x3C030000",
    "locale": {
      "CNzh": "{{size value=\"125\"}}{{fun_0003_0001 arg=\"0x0A00\"}}等一下！你再好好想想！{{size value=\"100\"}}",
      "EUde": "{{fun_0003_0001 arg=\"0x0A00\"}}{{size value=\"125\"}}Denk lieber noch mal nach!{{size value=\"100\"}}",
      "EUen": "{{size value=\"125\"}}{{fun_0003_0001 arg=\"0x0A00\"}}{{size value=\"100\"}}Wait a minute! Please, think about what\nyou're doing!",
      "EUes": "{{size value=\"125\"}}{{fun_0003_0001 arg=\"0x0A00\"}}¡Detente!{{size value=\"100\"}}",
      "EUfr": "{{size value=\"125\"}}{{fun_0003_0001 arg=\"0x0A00\"}}Prends le temps de réfléchir !{{size value=\"100\"}}",
      "EUit": "{{size value=\"125\"}}{{fun_0003_0001 arg=\"0x0A00\"}}Fermo! Pensa a quello che fai!{{size value=\"100\"}}",
      "EUnl": "{{size value=\"125\"}}{{fun_0003_0001 arg=\"0x0A00\"}}Wacht! Denk na over wat je doet!{{size value=\"100\"}}",
      "EUru": "{{size value=\"125\"}}{{fun_0003_0001 arg=\"0x0A00\"}}Cлезай! Это же опасно!{{size value=\"100\"}}",
      "JPja": "{{size value=\"125\"}}{{fun_0003_0001 arg=\"0x0A00\"}}ちょっと{{ruby charSpan=\"1\" value=\"ま\"}}待て！ {{ruby charSpan=\"1\" value=\"かんが\"}}考え{{ruby charSpan=\"1\" value=\"なお\"}}直せ！{{size value=\"100\"}}",
      "KRko": "{{size value=\"125\"}}{{fun_0003_0001 arg=\"0x0A00\"}}잠깐 기다려! 다시 생각해!{{size value=\"100\"}}",
      "TWzh": "{{size value=\"125\"}}{{fun_0003_0001 arg=\"0x0A00\"}}等一下！你再好好想想！{{size value=\"100\"}}",
      "USen": "{{size value=\"125\"}}{{fun_0003_0001 arg=\"0x0A00\"}}{{size value=\"100\"}}Wait a minute! Please, think about what\nyou're doing!",
      "USes": "{{size value=\"125\"}}{{fun_0003_0001 arg=\"0x0A00\"}}¡Detente!{{size value=\"100\"}}",
      "USfr": "{{size value=\"125\"}}{{fun_0003_0001 arg=\"0x0A00\"}}Prends le temps de réfléchir!{{size value=\"100\"}}"
    }
  },
  {
    "label": "Warning02",
    "attribute": "0x60030000",
    "locale": {
      "CNzh": "{{fun_0003_0001 arg=\"0x0A01\"}}虽然我也很年轻，\n但你比我更年轻。\n虽然我已经很努力了，\n但你看起来比我更努力。\n{{fun_0003_0001 arg=\"0x0001\"}}看你的样子，就让我这么觉得。{{delay2}}\n……这只是我的感觉啦。",
      "EUde": "{{fun_0003_0001 arg=\"0x0A01\"}}Du bist doch noch jung, noch jünger als\nich...{{pageBreak}}Die Wenigsten haben es leicht im Leben,\naber man kann mit mehr klarkommen,\nals man denkt.{{pageBreak}}{{fun_0003_0001 arg=\"0x0001\"}}Ich spüre irgendwie, dass du stark genug\nbist, deine Probleme zu lösen.",
      "EUen": "{{fun_0003_0001 arg=\"0x0A01\"}}I'm young, but you're even younger.\n\n\nI'm trying my best out here, but I get the\nfeeling you're going to end up trying\neven harder in this world.\n{{fun_0003_0001 arg=\"0x0001\"}}That's the feeling I get when I look at\nyour face...{{delay2}} But maybe I'm nuts.",
      "EUes": "{{fun_0003_0001 arg=\"0x0A01\"}}Baja de ahí ahora mismo.\n{{fun_0003_0001 arg=\"0x0001\"}}Los puentes no son para\njugar, jovencito.",
      "EUfr": "{{fun_0003_0001 arg=\"0x0A01\"}}Écoute, je suis peut-être jeune, mais toi,\ntu l'es encore plus.\n\nEt comme tu peux le voir, je m'accroche\nà la vie ! Alors tu ferais bien d'en faire\nautant ! Tu peux le faire, je le sais !\n{{fun_0003_0001 arg=\"0x0001\"}}Ça se voit sur ton visage !{{delay2}} Enfin moi,\nje le vois en tout cas !",
      "EUit": "{{fun_0003_0001 arg=\"0x0A01\"}}Io sono ancora giovane, ma tu di più!\n\n\nIo sto facendo del mio meglio, ma\nmi pare che tu abbia intenzione\ndi spingerti ancora oltre...\n{{fun_0003_0001 arg=\"0x0001\"}}Te lo leggo in faccia...{{delay2}} è scritto nei\ntuoi occhi.",
      "EUnl": "{{fun_0003_0001 arg=\"0x0A01\"}}Ik ben jong, maar jij bent nog jonger.{{pageBreak}}Ik doe mijn best, maar jij kan nog veel\nbeter je best doen dan ik.{{pageBreak}}{{fun_0003_0001 arg=\"0x0001\"}}Dat gevoel krijg ik in ieder geval als ik\nnaar je gezicht kijk.{{delay2}} Maar misschien ligt\ndat wel aan mij...",
      "EUru": "{{fun_0003_0001 arg=\"0x0A01\"}}Решил похвастаться, что\nне боишься высоты?{{pageBreak}}{{fun_0003_0001 arg=\"0x0001\"}}Детский сад какой-то...",
      "JPja": "{{fun_0003_0001 arg=\"0x0A01\"}}オレも{{ruby charSpan=\"1\" value=\"わか\"}}若いけど\nおまえは もっと{{ruby charSpan=\"1\" value=\"わか\"}}若い\nオレもがんばってるけど\nおまえは もっとがんばってくれそうだ\n{{fun_0003_0001 arg=\"0x0001\"}}おまえの{{ruby charSpan=\"1\" value=\"かお\"}}顔を{{ruby charSpan=\"1\" value=\"み\"}}見ると そんな{{ruby charSpan=\"1\" value=\"き\"}}気がするんだよ{{delay2}}\n…オレにはね",
      "KRko": "{{fun_0003_0001 arg=\"0x0A01\"}}나도 아직 젊지만\n너는 더욱 젊어\n나도 열심히 하고는 있는데\n네가 더 열심히 할 것 같고\n{{fun_0003_0001 arg=\"0x0001\"}}네 얼굴을 보고 있자면 그런 생각이 들어{{delay2}}\n…내 생각은 그렇다고",
      "TWzh": "{{fun_0003_0001 arg=\"0x0A01\"}}雖然我也很年輕，\n但你比我更年輕。\n雖然我已經很努力了，\n但你看起來比我更努力。\n{{fun_0003_0001 arg=\"0x0001\"}}看你的樣子，就讓我這麼覺得。{{delay2}}\n……這只是我的感覺啦。",
      "USen": "{{fun_0003_0001 arg=\"0x0A01\"}}I'm young, but you're even younger.\n\n\nI'm trying my best out here, but I get the\nfeeling you're going to end up trying\neven harder in this world.\n{{fun_0003_0001 arg=\"0x0001\"}}That's the feeling I get when I look at\nyour face...{{delay2}} But maybe I'm nuts.",
      "USes": "{{fun_0003_0001 arg=\"0x0A01\"}}Baja de ahí ahora mismo.\n{{fun_0003_0001 arg=\"0x0001\"}}Los puentes no son para\njugar, jovencito.",
      "USfr": "{{fun_0003_0001 arg=\"0x0A01\"}}Écoute, je suis peut-être jeune, mais toi,\ntu l'es encore plus.\n\nEt comme tu peux le voir, je m'accroche\nà la vie! Alors, tu ferais bien d'en faire\nautant! Tu peux le faire, je le sais!\n{{fun_0003_0001 arg=\"0x0001\"}}Ça se voit sur ton visage!{{delay2}} Enfin moi,\nje le vois en tout cas!"
    }
  },
  {
    "label": "Warning03",
    "attribute": "0x84030000",
    "locale": {
      "CNzh": "{{fun_0003_0001 arg=\"0x0A01\"}}如果你从这世上消失，\n世界或许不会有什么变化。\n但是，有件事确实会变。{{delay2}}\n那就是……\n{{fun_0003_0001 arg=\"0x0800\"}}我的心情啊！\n\n{{fun_0003_0001 arg=\"0x0001\"}}要是那种事就发生在自己面前，\n任谁都会吓死吧？",
      "EUde": "{{fun_0003_0001 arg=\"0x0A01\"}}Denn selbst wenn...{{delay1}} Wenn du das tust,\ndreht sich die Welt trotzdem einfach\nweiter, es ändert nichts...{{pageBreak}}Bis auf eine Sache...{{pageBreak}}{{fun_0003_0001 arg=\"0x0800\"}}Meinen Geisteszustand...{{pageBreak}}{{fun_0003_0001 arg=\"0x0001\"}}Ich meine, wer will so etwas denn\nmit ansehen?",
      "EUen": "{{fun_0003_0001 arg=\"0x0A01\"}}You won't change the world by jumping\ncarelessly to your doom, don't ya know!\n\nThat would only do one thing...{{delay2}}\nAnd that's...\n\n{{fun_0003_0001 arg=\"0x0800\"}}Drive me batty!\n\n\n{{fun_0003_0001 arg=\"0x0001\"}}Seriously! Think of the shock I'd suffer,\nseeing something like that!",
      "EUes": "{{fun_0003_0001 arg=\"0x0A01\"}}¡Baja de ahí, venga!{{delay2}}\n¿No ves que podrías resbalarte?{{pageBreak}}{{fun_0003_0001 arg=\"0x0800\"}}No entiendo por qué los jóvenes\nsois tan temerarios.{{pageBreak}}{{fun_0003_0001 arg=\"0x0001\"}}Luego vienen los lloros.",
      "EUfr": "{{fun_0003_0001 arg=\"0x0A01\"}}Bon, c'est sûr, le destin du monde\nne changera pas si tu le quittes.\n\nMalgré tout...\n\n\n{{fun_0003_0001 arg=\"0x0800\"}}Tu penses un peu à moi ?!\n\n\n{{fun_0003_0001 arg=\"0x0001\"}}Et à ma santé mentale ? Tu crois que j'ai\nenvie de te voir mettre fin à tes jours ?!",
      "EUit": "{{fun_0003_0001 arg=\"0x0A01\"}}Cosa pensi di ottenere? Guarda\nche sparendo dalla circolazione\nnon cambierai il mondo. \nSolo una cosa cambierà di sicuro...{{delay2}}\ne cioè...\n\n{{fun_0003_0001 arg=\"0x0800\"}}... Il mio umore!\n\n\n{{fun_0003_0001 arg=\"0x0001\"}}Sul serio, voglio dire... pensa che razza\ndi shock subirei da un'esperienza simile!",
      "EUnl": "{{fun_0003_0001 arg=\"0x0A01\"}}Dit is geen oplossing voor je problemen.{{pageBreak}}Je zult er niets mee veranderen,\nbehalve...{{pageBreak}}{{fun_0003_0001 arg=\"0x0800\"}}...mijn gemoedstoestand!{{pageBreak}}{{fun_0003_0001 arg=\"0x0001\"}}Zoiets wil natuurlijk niemand meemaken!",
      "EUru": "{{fun_0003_0001 arg=\"0x0A01\"}}Молодежь пошла совсем дурная!{{pageBreak}}{{fun_0003_0001 arg=\"0x0800\"}}Всюду им нужно залезть!{{pageBreak}}{{fun_0003_0001 arg=\"0x0001\"}}Вот я не такой был в юности.",
      "JPja": "{{fun_0003_0001 arg=\"0x0A01\"}}おまえが この{{ruby charSpan=\"1\" value=\"よ\"}}世からいなくなっても\n{{ruby charSpan=\"2\" value=\"せかい\"}}世界は{{ruby charSpan=\"1\" value=\"か\"}}変わらないかもしれない\nだが ひとつだけ{{ruby charSpan=\"2\" value=\"かくじつ\"}}確実に{{ruby charSpan=\"1\" value=\"か\"}}変わるものがある{{delay2}}\nそれは…\n{{fun_0003_0001 arg=\"0x0800\"}}オレの{{ruby charSpan=\"2\" value=\"きぶん\"}}気分だ！\n\n{{fun_0003_0001 arg=\"0x0001\"}}{{ruby charSpan=\"1\" value=\"め\"}}目の{{ruby charSpan=\"1\" value=\"まえ\"}}前で そんなことをされたら\n{{ruby charSpan=\"1\" value=\"だれ\"}}誰だってショックだろ？",
      "KRko": "{{fun_0003_0001 arg=\"0x0A01\"}}네가 이 세상에서 사라져도\n무엇 하나 변하지 않을지도 몰라\n하지만 한 가지 확실히 변하는 것이 있어{{delay2}}\n그것은…\n{{fun_0003_0001 arg=\"0x0800\"}}내 마음!\n\n{{fun_0003_0001 arg=\"0x0001\"}}눈앞에서 그런 일이 벌어지면\n누구나 충격을 받잖아?",
      "TWzh": "{{fun_0003_0001 arg=\"0x0A01\"}}如果你從這世上消失，\n世界或許不會有什麼變化。\n但是，有件事確實會變。{{delay2}}\n那就是……\n{{fun_0003_0001 arg=\"0x0800\"}}我的心情啊！\n\n{{fun_0003_0001 arg=\"0x0001\"}}要是那種事就發生在自己面前，\n任誰都會嚇死吧？",
      "USen": "{{fun_0003_0001 arg=\"0x0A01\"}}You won't change the world by jumping\ncarelessly to your doom, don't ya know!\n\nThat would only do one thing...{{delay2}}\nAnd that's...\n\n{{fun_0003_0001 arg=\"0x0800\"}}Drive me batty!\n\n\n{{fun_0003_0001 arg=\"0x0001\"}}Seriously! Think of the shock I'd suffer,\nseeing something like that!",
      "USes": "{{fun_0003_0001 arg=\"0x0A01\"}}¡Oye, bájate de ahí!{{delay2}}\n¿No ves que te puedes resbalar?{{pageBreak}}{{fun_0003_0001 arg=\"0x0800\"}}No entiendo por qué los jóvenes\nson tan temerarios.{{pageBreak}}{{fun_0003_0001 arg=\"0x0001\"}}Luego por qué lloran.",
      "USfr": "{{fun_0003_0001 arg=\"0x0A01\"}}Bon, c'est sûr, le destin du monde\nne changera pas si tu le quittes.\n\nMalgré tout...\n\n\n{{fun_0003_0001 arg=\"0x0800\"}}Tu penses un peu à moi?!\n\n\n{{fun_0003_0001 arg=\"0x0001\"}}Et à ma santé mentale? Tu crois que j'ai\nenvie de te voir mettre fin à tes jours?!"
    }
  },
  {
    "label": "Warning04",
    "attribute": "0xA8030000",
    "locale": {
      "CNzh": "{{fun_0003_0001 arg=\"0x0600\"}}冷静点，从栏杆下来吧。{{delay2}}\n我是说下来桥上，可别下到河里。",
      "EUde": "{{fun_0003_0001 arg=\"0x0600\"}}Jetzt komm, kletter vom Geländer.{{delay2}}\nUnd zwar auf meiner Seite, ja?",
      "EUen": "{{fun_0003_0001 arg=\"0x0600\"}}Now calm down and climb off that rail.\n{{delay2}}And don't climb down THAT way.\nClimb down THIS way!",
      "EUes": "{{fun_0003_0001 arg=\"0x0600\"}}De verdad, cómo os gusta meteros\nen líos...",
      "EUfr": "{{fun_0003_0001 arg=\"0x0600\"}}Alors calme-toi, respire un bon coup, et\nsaute de ce parapet.{{delay2}} Enfin, par « saute »,\nje veux dire... reviens sur le pont, quoi !",
      "EUit": "{{fun_0003_0001 arg=\"0x0600\"}}Adesso calmati e scendi da lì.{{delay2}}\nScendi da questa parte, intendo, non\ndall'altra parte!",
      "EUnl": "{{fun_0003_0001 arg=\"0x0600\"}}Kom nou maar van die reling af.{{delay2}} En niet\naan die kant, maar aan deze kant!",
      "EUru": "{{fun_0003_0001 arg=\"0x0600\"}}У тебя других дел нет, что ли?",
      "JPja": "{{fun_0003_0001 arg=\"0x0600\"}}{{ruby charSpan=\"1\" value=\"お\"}}落ち{{ruby charSpan=\"1\" value=\"つ\"}}着いて {{ruby charSpan=\"2\" value=\"らんかん\"}}欄干から{{ruby charSpan=\"1\" value=\"お\"}}下りるんだ{{delay2}}\n{{ruby charSpan=\"1\" value=\"む\"}}向こう{{ruby charSpan=\"1\" value=\"がわ\"}}側じゃないぞ こちら{{ruby charSpan=\"1\" value=\"がわ\"}}側だ",
      "KRko": "{{fun_0003_0001 arg=\"0x0600\"}}진정하고 난간에서 내려와{{delay2}}\n강 쪽으로 내려가지 말고 이쪽으로",
      "TWzh": "{{fun_0003_0001 arg=\"0x0600\"}}冷靜點，從欄杆下來吧。{{delay2}}\n我是說下來橋上，可別下去河裡啊。",
      "USen": "{{fun_0003_0001 arg=\"0x0600\"}}Now calm down and climb off that rail.\n{{delay2}}And don't climb down THAT way.\nClimb down THIS way!",
      "USes": "{{fun_0003_0001 arg=\"0x0600\"}}De verdad, cómo les gusta meterse\nen líos.{{delay2}} ¡Baja de ahí!",
      "USfr": "{{fun_0003_0001 arg=\"0x0600\"}}Alors, calme-toi, respire un bon coup, et\nsaute de ce parapet.{{delay2}} Enfin, par « saute »,\nje veux dire... reviens sur le pont, quoi!"
    }
  },
  {
    "label": "Warning05",
    "attribute": "0xCC030000",
    "locale": {
      "CNzh": "{{fun_0003_0001 arg=\"0x0600\"}}听好了，你可别冲动啊。{{delay2}}\n未来还有很多快乐的事在等你。",
      "EUde": "{{fun_0003_0001 arg=\"0x0600\"}}Es ist alles in Ordnung.{{delay2}} Die Zukunft hält\nnoch einiges für dich bereit.",
      "EUen": "{{fun_0003_0001 arg=\"0x0600\"}}You're fine. Just don't be so careless.{{delay2}}\nThere are too many enjoyable things in\nthe world to gamble with your life!",
      "EUes": "{{fun_0003_0001 arg=\"0x0600\"}}No puedo obligarte a bajar, pero\ntampoco me haré responsable si\nte pasa algo. Allá tú.",
      "EUfr": "{{fun_0003_0001 arg=\"0x0600\"}}Tu as bien compris ? Ne précipite pas\nles choses.{{delay2}} Tu as encore tant à faire !",
      "EUit": "{{fun_0003_0001 arg=\"0x0600\"}}Non prendere decisioni affrettate!{{delay2}}\nLa vita ha ancora tante sorprese in\nserbo per te!",
      "EUnl": "{{fun_0003_0001 arg=\"0x0600\"}}Doe geen overhaaste dingen!{{delay2}} De\ntoekomst heeft nog zoveel moois voor je\nin petto!",
      "EUru": "{{fun_0003_0001 arg=\"0x0600\"}}Это тебе не цирк! Тоже мне,\nканатоходец...",
      "JPja": "{{fun_0003_0001 arg=\"0x0600\"}}いいか {{ruby charSpan=\"1\" value=\"はや\"}}早まるなよ{{delay2}}\n{{ruby charSpan=\"1\" value=\"たの\"}}楽しいことは この{{ruby charSpan=\"1\" value=\"さき\"}}先に{{ruby charSpan=\"1\" value=\"ま\"}}待ってるんだ",
      "KRko": "{{fun_0003_0001 arg=\"0x0600\"}}알겠지, 서두르지 마{{delay2}}\n앞으로 즐거운 일이 기다리고 있다구",
      "TWzh": "{{fun_0003_0001 arg=\"0x0600\"}}聽好了，你可別衝動啊。{{delay2}}\n未來還有很多快樂的事在等你。",
      "USen": "{{fun_0003_0001 arg=\"0x0600\"}}You're fine. Just don't be so careless.{{delay2}}\nThere are too many enjoyable things in\nthe world to gamble with your life!",
      "USes": "{{fun_0003_0001 arg=\"0x0600\"}}No seas tan imprudente.{{delay2}} No arriesgues\ntu futuro haciendo las cosas sin cuidado.",
      "USfr": "{{fun_0003_0001 arg=\"0x0600\"}}Tu as bien compris? Ne précipite pas\nles choses.{{delay2}} Tu as encore tant à faire!"
    }
  },
  {
    "label": "WarningClear00",
    "attribute": "0xF0030000",
    "locale": {
      "CNzh": "{{fun_0003_0001 arg=\"0x0912\"}}以后别再做这种事了！{{delay2}}\n……真是的，吓得我一身冷汗。",
      "EUde": "{{fun_0003_0001 arg=\"0x0912\"}}Mach so was bloß nie wieder.{{delay1}} Ich mein's\nernst!{{delay1}} Mir steht jetzt noch der kalte\nSchweiß auf der Stirn!",
      "EUen": "{{fun_0003_0001 arg=\"0x0912\"}}Man! Don't ever do something like that\nagain, got it? You almost gave me a\nheart attack. Seriously!",
      "EUes": "{{fun_0003_0001 arg=\"0x0912\"}}No vuelvas a intentar hacer algo así,\n¿me oyes?",
      "EUfr": "{{fun_0003_0001 arg=\"0x0912\"}}Ne refais plus JAMAIS ça ! J'te jure...{{delay2}}\nJ'ai failli avoir une crise cardiaque, moi !",
      "EUit": "{{fun_0003_0001 arg=\"0x0912\"}}Ahhh! Per favore non farlo mai più!{{delay2}}\nMi hai fatto davvero sudare freddo!",
      "EUnl": "{{fun_0003_0001 arg=\"0x0912\"}}Doe dat nooit meer... Het zweet stond\nme op de rug!",
      "EUru": "{{fun_0003_0001 arg=\"0x0912\"}}Ну что, наигрался в скалолаза?",
      "JPja": "{{fun_0003_0001 arg=\"0x0912\"}}もう あんな{{ruby charSpan=\"2\" value=\"まね\"}}真似するんじゃないぞ{{delay2}}\n…{{ruby charSpan=\"1\" value=\"ひ\"}}冷や{{ruby charSpan=\"1\" value=\"あせ\"}}汗かいたぜ まったく",
      "KRko": "{{fun_0003_0001 arg=\"0x0912\"}}다시는 그런 짓 하지 마{{delay2}}\n…식은 땀이 다 나네 정말",
      "TWzh": "{{fun_0003_0001 arg=\"0x0912\"}}以後別再做這種事了！{{delay2}}\n……真是的，嚇得我一身冷汗。",
      "USen": "{{fun_0003_0001 arg=\"0x0912\"}}Man! Don't ever do something like that\nagain, got it? You almost gave me a\nheart attack. Seriously!",
      "USes": "{{fun_0003_0001 arg=\"0x0912\"}}No vuelvas a hacer algo así,\n¿me oyes? ¡Casi haces que\nme dé un ataque!",
      "USfr": "{{fun_0003_0001 arg=\"0x0912\"}}Ne refais plus JAMAIS ça! J'te jure...{{delay2}}\nJ'ai failli avoir une crise cardiaque, moi!"
    }
  },
  {
    "label": "WarningClear01",
    "attribute": "0x14040000",
    "locale": {
      "CNzh": "{{fun_0003_0001 arg=\"0x0912\"}}呼，我着急死了。\n可别随便戏弄大人啊！",
      "EUde": "{{fun_0003_0001 arg=\"0x0912\"}}Du hast mir echt Angst eingejagt.{{delay1}}\nMit so was macht man keine Scherze.",
      "EUen": "{{fun_0003_0001 arg=\"0x0912\"}}Phew! You had me worried there. \nDon't mess with people like that.",
      "EUes": "{{fun_0003_0001 arg=\"0x0912\"}}Menos mal que has entrado en razón.\nMe habías puesto nervioso.",
      "EUfr": "{{fun_0003_0001 arg=\"0x0912\"}}Tu m'as fait une peur bleue. Ce n'est pas\nbien de se moquer des adultes.",
      "EUit": "{{fun_0003_0001 arg=\"0x0912\"}}Fiuuu! Mi hai fatto rizzare i capelli!\nNon è un bel modo di scherzare, sai!",
      "EUnl": "{{fun_0003_0001 arg=\"0x0912\"}}Oef, je liet me schrikken. Dat zijn geen\nleuke grappen.",
      "EUru": "{{fun_0003_0001 arg=\"0x0912\"}}Мне вот не до глупых шалостей,\nя работаю.",
      "JPja": "{{fun_0003_0001 arg=\"0x0912\"}}ふぅ {{ruby charSpan=\"1\" value=\"あせ\"}}焦ったぜ\n{{ruby charSpan=\"2\" value=\"おとな\"}}大人を からかうもんじゃないぞ",
      "KRko": "{{fun_0003_0001 arg=\"0x0912\"}}휴우, 당황했네\n어른을 놀리는 거 아니다",
      "TWzh": "{{fun_0003_0001 arg=\"0x0912\"}}呼，我著急死了。\n可別隨便戲弄大人啊！",
      "USen": "{{fun_0003_0001 arg=\"0x0912\"}}Phew! You had me worried there. \nDon't mess with people like that.",
      "USes": "{{fun_0003_0001 arg=\"0x0912\"}}Menos mal que entraste en razón.\nMe habías puesto nervioso.",
      "USfr": "{{fun_0003_0001 arg=\"0x0912\"}}Tu m'as fait une peur bleue. Ce n'est\npas bien de se moquer des adultes."
    }
  },
  {
    "label": "WarningClear02",
    "attribute": "0x38040000",
    "locale": {
      "CNzh": "{{fun_0003_0001 arg=\"0x0006\"}}……不嫌弃的话，\n我来陪你聊聊天吧。{{fun_0001_0005 arg=\"0x0000010002000002\"}}",
      "EUde": "{{fun_0003_0001 arg=\"0x0006\"}}Wenn du möchtest, können wir uns\nein bisschen unterhalten.{{fun_0001_0005 arg=\"0x0000010002000002\"}}",
      "EUen": "{{fun_0003_0001 arg=\"0x0006\"}}I'll stay here and chat with you for a bit,\nif you'd like.{{fun_0001_0005 arg=\"0x0000010002000002\"}}",
      "EUes": "{{fun_0003_0001 arg=\"0x0006\"}}Bueno,{{delay2}} si quieres preguntarme algo,\nadelante.{{fun_0001_0005 arg=\"0x0000010002000002\"}}",
      "EUfr": "{{fun_0003_0001 arg=\"0x0006\"}}On peut discuter, si tu veux...{{fun_0001_0005 arg=\"0x0000010002000002\"}}",
      "EUit": "{{fun_0003_0001 arg=\"0x0006\"}}Ma senti,{{delay2}} se vuoi puoi confidarti con me.{{fun_0001_0005 arg=\"0x0000010002000002\"}}",
      "EUnl": "{{fun_0003_0001 arg=\"0x0006\"}}Als je wilt, kunnen we hier nog wel een\ntijdje blijven praten.{{fun_0001_0005 arg=\"0x0000010002000002\"}}",
      "EUru": "{{fun_0003_0001 arg=\"0x0006\"}}Что-то спросить хочешь?{{fun_0001_0005 arg=\"0x0000010002000002\"}}",
      "JPja": "{{fun_0003_0001 arg=\"0x0006\"}}…オレでよければ\n{{ruby charSpan=\"1\" value=\"はな\"}}話し{{ruby charSpan=\"2\" value=\"あいて\"}}相手になってやるぜ{{fun_0001_0005 arg=\"0x0000010002000002\"}}",
      "KRko": "{{fun_0003_0001 arg=\"0x0006\"}}…괜찮다면 내가\n말동무가 되어 줄게{{fun_0001_0005 arg=\"0x0000010002000002\"}}",
      "TWzh": "{{fun_0003_0001 arg=\"0x0006\"}}……不嫌棄的話，\n我來陪你聊聊天吧。{{fun_0001_0005 arg=\"0x0000010002000002\"}}",
      "USen": "{{fun_0003_0001 arg=\"0x0006\"}}I'll stay here and chat with you for a bit,\nif you'd like.{{fun_0001_0005 arg=\"0x0000010002000002\"}}",
      "USes": "{{fun_0003_0001 arg=\"0x0006\"}}Bueno,{{delay2}} si quieres preguntarme algo,\nadelante.{{fun_0001_0005 arg=\"0x0000010002000002\"}}",
      "USfr": "{{fun_0003_0001 arg=\"0x0006\"}}On peut discuter, si tu veux...{{fun_0001_0005 arg=\"0x0000010002000002\"}}"
    }
  },
  {
    "label": "Talk00",
    "attribute": "0x5C040000",
    "locale": {
      "CNzh": "{{fun_0003_0001 arg=\"0x030C\"}}虽然我对不好的预感早就习惯了，{{delay2}}\n但这次的预感比平常更强烈……",
      "EUde": "{{fun_0003_0001 arg=\"0x030C\"}}Ich habe schon einige ungute Vorzeichen\ngesehen, aber das...{{delay2}} Das schlägt die\nanderen um Längen!",
      "EUen": "{{fun_0003_0001 arg=\"0x030C\"}}I may be somewhat used to seeing bad\nomens by now, but that...{{delay2}} Well, let's just\nsay it's badder than most.",
      "EUes": "{{fun_0003_0001 arg=\"0x030C\"}}Últimamente están sucediendo cosas\nmuy extrañas por estas tierras.{{delay2}} Tengo\nun mal presentimiento...",
      "EUfr": "{{fun_0003_0001 arg=\"0x030C\"}}Vu le monde dans lequel on vit, c'est\ntoujours difficile de savoir ce qui nous\nattend...\nMais là, j'ai vraiment un mauvais\npressentiment...",
      "EUit": "{{fun_0003_0001 arg=\"0x030C\"}}Sono abituato a vedere presagi nefasti,{{delay2}}\nma questo era il più nefasto di tutti.",
      "EUnl": "{{fun_0003_0001 arg=\"0x030C\"}}Ik ben misschien al een beetje gewend\naan slechte voortekens,{{delay2}} maar dat daar\nbelooft heel weinig goeds...",
      "EUru": "{{fun_0003_0001 arg=\"0x030C\"}}Нет, я, конечно, всякое повидал,\nно чтобы такое...{{delay1}} Надеюсь, это\nне дурные знамения.",
      "JPja": "{{fun_0003_0001 arg=\"0x030C\"}}いやな{{ruby charSpan=\"2\" value=\"よかん\"}}予感には {{ruby charSpan=\"1\" value=\"な\"}}慣れっこだけど{{delay2}}\n{{ruby charSpan=\"2\" value=\"こんど\"}}今度のいやな{{ruby charSpan=\"2\" value=\"よかん\"}}予感は いつにも{{ruby charSpan=\"1\" value=\"ま\"}}増して…",
      "KRko": "{{fun_0003_0001 arg=\"0x030C\"}}불길한 예감엔 익숙하지만{{delay2}}\n이번 불길한 예감은 평소보다 더…",
      "TWzh": "{{fun_0003_0001 arg=\"0x030C\"}}雖然我對不好的預感早就習慣了，{{delay2}}\n但這次的預感比平常更強烈……",
      "USen": "{{fun_0003_0001 arg=\"0x030C\"}}I may be somewhat used to seeing bad\nomens by now, but that...{{delay2}} Well, let's just\nsay it's badder than most.",
      "USes": "{{fun_0003_0001 arg=\"0x030C\"}}Últimamente están pasando cosas\nmuy extrañas por estas tierras.{{delay2}}\nTengo un mal presentimiento...",
      "USfr": "{{fun_0003_0001 arg=\"0x030C\"}}Vu le monde dans lequel on vit, c'est\ntoujours difficile de savoir ce qui nous\nattend...\nMais là, j'ai vraiment un mauvais\npressentiment..."
    }
  },
  {
    "label": "Talk01_1",
    "attribute": "0x80040000",
    "locale": {
      "CNzh": "{{fun_0003_0001 arg=\"0x0606\"}}……我说你，{{delay2}}\n是生面孔呢，你是什么人？\n算了，你是谁都无所谓。{{delay2}}\n反正我也自言自语腻了，你来得正好。\n你有看到……{{delay2}}\n地上冒出来的东西吗？",
      "EUde": "{{fun_0003_0001 arg=\"0x0606\"}}Wo kommst du denn her?{{delay2}}\nDich habe ich hier noch nie gesehen!{{delay1}}\nWer bist du?{{pageBreak}}Na ja, ist im Grunde ja auch egal.{{delay2}}\nEndlich ist jemand da!{{delay1}} Ich habe es satt,\nmich nur mit mir selbst zu unterhalten.{{pageBreak}}Ich weiß auch schon ein Thema zum\nQuatschen!{{delay2}} Hast du die Gebilde gesehen,\ndie aus dem Boden gekommen sind?",
      "EUen": "{{fun_0003_0001 arg=\"0x0606\"}}We're doomed! {{delay2}}I mean, don't panic!\nSorry, who are you? Have we met?\n\nWell, doesn't matter who you are, really.{{delay2}}\nI was getting tired of talking to myself,\nso you've come at a good time.\nBy the by, those strange things that\npopped out of the ground...{{delay2}}\nDid you see them?",
      "EUes": "{{fun_0003_0001 arg=\"0x0606\"}}¿Mmm? ¿Y tú quién eres?\nNunca te había visto por aquí.{{pageBreak}}Aunque oye, no me quejaré.{{delay2}} Ya me\nestaba aburriendo de estar solo tanto\nrato, así que eres más que bienvenido.\nPor cierto, ¿has visto esas cosas\nque han salido del suelo?",
      "EUfr": "{{fun_0003_0001 arg=\"0x0606\"}}Hmm ?{{delay2}} T'es qui, toi ? Je te connais pas !\n\n\nBah, peu importe, en fait.{{delay2}} J'en ai marre\nde parler tout seul, alors ça me fera pas\nde mal d'avoir un peu de compagnie.\nDis-moi,{{delay2}} t'as vu ces trucs qui sont sortis\nde sous terre ?",
      "EUit": "{{fun_0003_0001 arg=\"0x0606\"}}E tu da dove spunti fuori?{{delay2}}\nNon ti ho mai visto da queste parti.\n\nMah, non importa...{{delay2}}\ncapiti al momento giusto, sono\nstufo di parlare da solo.\nHai visto{{delay2}} quelle cose che sono spuntate\ndal terreno?",
      "EUnl": "{{fun_0003_0001 arg=\"0x0606\"}}Hela, waar kom jij ineens vandaan?{{delay2}} Ik\nheb je hier nog nooit gezien. Wie ben jij?{{pageBreak}}Nou ja, maakt ook eigenlijk niet uit.{{delay2}} Ik\nwerd er een beetje moe van om de hele\ntijd tegen mezelf te praten.\nHeb je die vreemde dingen gezien die uit\nde grond kwamen geschoten?",
      "EUru": "{{fun_0003_0001 arg=\"0x0606\"}}Ой, ты откуда такой?{{delay1}} Хотя неважно!{{delay1}}\nТы очень кстати.{{pageBreak}}Столько всего творится,\nа впечатлениями поделиться не с кем!{{delay1}}\nВидел эти штуки из-под земли?",
      "JPja": "{{fun_0003_0001 arg=\"0x0606\"}}…おまえ{{delay2}}\n{{ruby charSpan=\"1\" value=\"み\"}}見かけない{{ruby charSpan=\"1\" value=\"かお\"}}顔だけど {{ruby charSpan=\"2\" value=\"なにもの\"}}何者だ？\nまあ {{ruby charSpan=\"1\" value=\"だれ\"}}誰だっていいか{{delay2}}\nひとり{{ruby charSpan=\"1\" value=\"ごと\"}}言にも{{ruby charSpan=\"1\" value=\"あ\"}}飽き{{ruby charSpan=\"1\" value=\"あ\"}}飽きしてたし ちょうどいいや\nおまえは {{ruby charSpan=\"2\" value=\"じめん\"}}地面から{{ruby charSpan=\"1\" value=\"は\"}}生えてきたもの…{{delay2}}\n{{ruby charSpan=\"1\" value=\"み\"}}見たか？",
      "KRko": "{{fun_0003_0001 arg=\"0x0606\"}}…너{{delay2}}\n못 보던 얼굴인데 뭐 하는 녀석이지?\n뭐, 상관없어{{delay2}}\n혼잣말도 지겨웠는데 마침 잘됐다\n너도 땅에서 솟아난 그거…{{delay2}}\n봤어?",
      "TWzh": "{{fun_0003_0001 arg=\"0x0606\"}}……我說你，{{delay2}}\n是生面孔呢，你是什麼人？\n算了，你是誰都無所謂。{{delay2}}\n反正我也自言自語膩了，你來的正好。\n你有看到……{{delay2}}\n地上冒出來的東西嗎？",
      "USen": "{{fun_0003_0001 arg=\"0x0606\"}}We're doomed! {{delay2}}I mean, don't panic!\nSorry, who are you? Have we met?\n\nWell, doesn't matter who you are, really.{{delay2}}\nI was getting tired of talking to myself,\nso you've come at a good time.\nBy the by, those strange things that\npopped out of the ground...{{delay2}}\nDid you see them?",
      "USes": "{{fun_0003_0001 arg=\"0x0606\"}}¡Ey! ¿De dónde saliste?{{delay2}} No recuerdo\nhaberte visto por aquí antes...\nIdentifícate.\nBueno, en realidad no importa quién\nseas.{{delay2}} Estoy cansado de hablar conmigo\nmismo, así que llegas en buen momento.\nPor cierto...{{delay2}} ¿Viste las cosas esas\nraras que salieron del suelo?",
      "USfr": "{{fun_0003_0001 arg=\"0x0606\"}}Hmm?{{delay2}} T'es qui, toi? Je te connais pas!\n\n\nBah, peu importe, en fait.{{delay2}} J'en ai assez\nde parler tout seul, alors ça me fera pas\nde mal d'avoir un peu de compagnie.\nDis-moi,{{delay2}} t'as vu ces trucs qui sont sortis\nde sous terre?"
    }
  },
  {
    "label": "Talk01_2",
    "attribute": "0xA4040000",
    "locale": {
      "CNzh": "{{fun_0003_0001 arg=\"0x0001\"}}不是蘑菇啦，我是说塔。\n\n看来这世界的各处，\n好像都发生了同样的事。",
      "EUde": "{{fun_0003_0001 arg=\"0x0001\"}}Und ich spreche nicht von Pilzen oder\nso!{{delay1}} Ich meine die Türme!{{pageBreak}}Anscheinend sind sie im ganzen Land\naufgetaucht!",
      "EUen": "{{fun_0003_0001 arg=\"0x0001\"}}I'm not talking about mushrooms here!\nI'm talking about those towers!\n\nThey seem to have popped up all over\nthe place!",
      "EUes": "{{fun_0003_0001 arg=\"0x0001\"}}Y no me refiero a las setas,\nsino a esas torres gigantescas.{{pageBreak}}¡Han aparecido por todas partes!",
      "EUfr": "{{fun_0003_0001 arg=\"0x0001\"}}Je te parle pas de truffes !{{delay2}}\nJe te parle des tours, là !\n\nIl paraît qu'il y en a partout,\nmaintenant...",
      "EUit": "{{fun_0003_0001 arg=\"0x0001\"}}Ma no, non dico i funghi! Le torri!\n\n\nE pensa un po', mica solo qui!\nÈ successo in tutto il mondo!",
      "EUnl": "{{fun_0003_0001 arg=\"0x0001\"}}Ik heb het niet over paddenstoelen! Ik\nheb het over die torens!{{pageBreak}}Het lijkt wel alsof ze ineens overal zijn.",
      "EUru": "{{fun_0003_0001 arg=\"0x0001\"}}Обычно из-под земли только\nгрибы вылезают, а тут — башни!\n{{delay1}}Они что, по всему миру так?",
      "JPja": "{{fun_0003_0001 arg=\"0x0001\"}}キノコじゃないぜ {{ruby charSpan=\"1\" value=\"とう\"}}塔の{{ruby charSpan=\"1\" value=\"はなし\"}}話だ\n\nそれもどうやら この{{ruby charSpan=\"2\" value=\"せかい\"}}世界のあちこちで\n{{ruby charSpan=\"1\" value=\"おな\"}}同じことが{{ruby charSpan=\"1\" value=\"お\"}}起きたらしい",
      "KRko": "{{fun_0003_0001 arg=\"0x0001\"}}버섯 말고 탑 말이야\n\n그것도 이 세계 여기저기에서\n같은 현상이 있었다고 하더군",
      "TWzh": "{{fun_0003_0001 arg=\"0x0001\"}}不是蘑菇啦，我是說塔。\n\n看來這世界的各處，\n好像都發生了同樣的事。",
      "USen": "{{fun_0003_0001 arg=\"0x0001\"}}I'm not talking about mushrooms here!\nI'm talking about those towers!\n\nThey seem to have popped up all over\nthe place!",
      "USes": "{{fun_0003_0001 arg=\"0x0001\"}}¡Y no estoy hablando de hongos!\n¡Me refiero a las torres esas!\n\n¡De pronto parecen estar por\ntodos lados!",
      "USfr": "{{fun_0003_0001 arg=\"0x0001\"}}Je te parle pas de truffes!{{delay2}}\nJe te parle des tours, là!\n\nIl paraît qu'il y en a partout,\nmaintenant..."
    }
  },
  {
    "label": "Talk01_3",
    "attribute": "0xC8040000",
    "locale": {
      "CNzh": "{{fun_0003_0001 arg=\"0x0001\"}}而且怪事不只这件。{{delay2}}\n许久无人问津的神庙还突然发出了光芒。\n你明白吗？{{delay2}}\n{{fun_0004_0001 arg=\"0x0ACD\"}}我看是要到世界末日了。",
      "EUde": "{{fun_0003_0001 arg=\"0x0001\"}}Aber das ist ja noch nicht alles...{{pageBreak}}Ganz plötzlich fangen auch all die\nverlassenen Schreine zu leuchten an!{{pageBreak}}Du weißt, was das bedeutet, oder?{{delay2}}\n{{fun_0004_0001 arg=\"0x0ACD\"}}Das Ende der Welt...",
      "EUen": "{{fun_0003_0001 arg=\"0x0001\"}}And that's not the only strange thing\nthat's happened.{{delay2}} Those long-deserted\nshrines suddenly started glowing!\n{{fun_0004_0001 arg=\"0x0ACD\"}}You know what this means, don't you?{{delay2}}\nThe end is here!",
      "EUes": "{{fun_0003_0001 arg=\"0x0001\"}}¡Pero hay algo más!{{delay2}} Esos santuarios que\nllevaban años abandonados de repente\nhan empezado a brillar.\n{{fun_0004_0001 arg=\"0x0ACD\"}}Sabes lo que esto significa, ¿no?{{delay2}}\n¡Que pronto se va a liar muy gorda!",
      "EUfr": "{{fun_0003_0001 arg=\"0x0001\"}}Et c'est pas tout.{{delay2}} Les sanctuaires, qui\nétaient complètement inactifs depuis\ndes lustres, se sont mis à briller !\n{{fun_0004_0001 arg=\"0x0ACD\"}}Tu sais ce que ça veut dire ?{{delay2}} Que la fin\ndu monde est proche !",
      "EUit": "{{fun_0003_0001 arg=\"0x0001\"}}E le cose strane non finiscono qui!{{delay2}}\nQuei sacrari abbandonati da lungo tempo\nhanno cominciato a brillare...\nCapisci cosa significa?{{delay2}}\n{{fun_0004_0001 arg=\"0x0ACD\"}}Sta per arrivare la fine del mondo.",
      "EUnl": "{{fun_0003_0001 arg=\"0x0001\"}}En dat is niet het enige wat vreemd is.{{pageBreak}}De tempels, die al zo lang zijn verlaten,\nzijn plotseling gaan gloeien...{{pageBreak}}Weet je wat dat betekent?{{pageBreak}}{{fun_0004_0001 arg=\"0x0ACD\"}}Dat het einde van de wereld nabij is!",
      "EUru": "{{fun_0003_0001 arg=\"0x0001\"}}И ладно бы только эти башни, так ведь\nеще святилище вдруг стало светиться,\nхотя там все давно заброшено!{{pageBreak}}{{fun_0004_0001 arg=\"0x0ACD\"}}Ты понимаешь, что это значит?{{delay1}}\nСдается мне, конец света близок!",
      "JPja": "{{fun_0003_0001 arg=\"0x0001\"}}おかしな{{ruby charSpan=\"1\" value=\"はなし\"}}話は それだけじゃない{{delay2}}\n{{ruby charSpan=\"1\" value=\"むかし\"}}昔からある{{ruby charSpan=\"1\" value=\"さび\"}}寂れた{{ruby charSpan=\"1\" value=\"ほこら\"}}祠が {{ruby charSpan=\"1\" value=\"きゅう\"}}急に{{ruby charSpan=\"1\" value=\"ひか\"}}光り{{ruby charSpan=\"1\" value=\"だ\"}}出したんだ\nわかるか？{{delay2}}\n{{fun_0004_0001 arg=\"0x0ACD\"}}いよいよ {{ruby charSpan=\"1\" value=\"よ\"}}世も{{ruby charSpan=\"1\" value=\"すえ\"}}末ってことさ",
      "KRko": "{{fun_0003_0001 arg=\"0x0001\"}}신기한 이야기는 그것 뿐이 아니야{{delay2}}\n옛날부터 있었던 낡은 사당이 갑자기 빛나지 뭐야\n무슨 말인지 알아?{{delay2}}\n{{fun_0004_0001 arg=\"0x0ACD\"}}이제 말세라는 소리야",
      "TWzh": "{{fun_0003_0001 arg=\"0x0001\"}}而且怪事不只這件。{{delay2}}\n從前就存在的沒落神廟還突然發出了光芒。\n你明白嗎？{{delay2}}\n{{fun_0004_0001 arg=\"0x0ACD\"}}這表示，世界末日要來了啊。",
      "USen": "{{fun_0003_0001 arg=\"0x0001\"}}And that's not the only strange thing\nthat's happened.{{delay2}} Those long-deserted\nshrines suddenly started glowing!\n{{fun_0004_0001 arg=\"0x0ACD\"}}You know what this means, don't you?{{delay2}}\nThe end is here!",
      "USes": "{{fun_0003_0001 arg=\"0x0001\"}}Y eso no es lo único raro que ha pasado.{{delay2}}\nLos santuarios que llevan aaaños\nabandonados, ¡ahora están brillando!\n{{fun_0004_0001 arg=\"0x0ACD\"}}Sabes lo que significa, ¿verdad?{{delay2}}\n¡El fin se acerca!",
      "USfr": "{{fun_0003_0001 arg=\"0x0001\"}}Et c'est pas tout.{{delay2}} Les sanctuaires, qui\nétaient complètement inactifs depuis\ndes lustres, se sont mis à briller!\n{{fun_0004_0001 arg=\"0x0ACD\"}}Tu sais ce que ça veut dire?{{delay2}} Que la fin\ndu monde est proche!"
    }
  },
  {
    "label": "Talk02",
    "attribute": "0xEC040000",
    "locale": {
      "CNzh": "{{fun_0003_0001 arg=\"0x0000\"}}所以啦，为了预防万一，\n我一直在观察那东西的动向。\n{{fun_0003_0001 arg=\"0x0001\"}}这是为了提防它突然动起来。{{fun_0001_0005 arg=\"0xE803E903EA030002\"}}",
      "EUde": "{{fun_0003_0001 arg=\"0x0000\"}}Aber trotz dieses Trubels habe ich eine\nSache weiter im Auge...{{pageBreak}}{{fun_0003_0001 arg=\"0x0001\"}}Damit mir ja nicht entgeht, wenn sich da\nwas tut...{{fun_0001_0005 arg=\"0xE803E903EA030002\"}}",
      "EUen": "{{fun_0003_0001 arg=\"0x0000\"}}With all this craziness happening,\nI've been keeping an eye on\nthat thing.\n{{fun_0003_0001 arg=\"0x0001\"}}Just to see if it suddenly starts moving,\nya know?{{fun_0001_0005 arg=\"0xE803E903EA030002\"}}",
      "EUes": "{{fun_0003_0001 arg=\"0x0000\"}}No voy a apartar la vista de ese trasto.{{pageBreak}}{{fun_0003_0001 arg=\"0x0001\"}}No vaya a ser que empiece a moverse...{{fun_0001_0005 arg=\"0xE803E903EA030002\"}}",
      "EUfr": "{{fun_0003_0001 arg=\"0x0000\"}}Du coup, je garde un œil sur ce machin,\nlà.\n\n{{fun_0003_0001 arg=\"0x0001\"}}On sait jamais, il pourrait se remettre\nà bouger lui aussi.{{fun_0001_0005 arg=\"0xE803E903EA030002\"}}",
      "EUit": "{{fun_0003_0001 arg=\"0x0000\"}}Quindi insomma, considerando tutto\nquesto sono venuto a tenere d'occhio\nquell'affare.\n{{fun_0003_0001 arg=\"0x0001\"}}Non si sa mai che magari si metta\nin moto all'improvviso.{{fun_0001_0005 arg=\"0xE803E903EA030002\"}}",
      "EUnl": "{{fun_0003_0001 arg=\"0x0000\"}}Na alles wat er is gebeurd, houd ik dat\nding daar voortdurend in de gaten.{{pageBreak}}{{fun_0003_0001 arg=\"0x0001\"}}Ik vraag me af of het ooit gaat bewegen.{{fun_0001_0005 arg=\"0xE803E903EA030002\"}}",
      "EUru": "{{fun_0003_0001 arg=\"0x0000\"}}А раз в последнее время все светится\nда шевелится, я за тем стражем в поле\nприглядываю.{{pageBreak}}{{fun_0003_0001 arg=\"0x0001\"}}На всякий случай.{{fun_0001_0005 arg=\"0xE803E903EA030002\"}}",
      "JPja": "{{fun_0003_0001 arg=\"0x0000\"}}まあ そんなこともあって\nアレの{{ruby charSpan=\"2\" value=\"ようす\"}}様子を{{ruby charSpan=\"1\" value=\"み\"}}見てたってわけだ\n{{fun_0003_0001 arg=\"0x0001\"}}いきなり{{ruby charSpan=\"1\" value=\"うご\"}}動き{{ruby charSpan=\"1\" value=\"だ\"}}出しやしないかってね{{fun_0001_0005 arg=\"0xE803E903EA030002\"}}",
      "KRko": "{{fun_0003_0001 arg=\"0x0000\"}}뭐, 그런 일도 있었으니\n저걸 지켜보고 있었어\n{{fun_0003_0001 arg=\"0x0001\"}}갑자기 움직이는 게 아닐까 해서 말야{{fun_0001_0005 arg=\"0xE803E903EA030002\"}}",
      "TWzh": "{{fun_0003_0001 arg=\"0x0000\"}}所以啦，為了預防萬一，\n我一直在觀察那東西的動向。\n{{fun_0003_0001 arg=\"0x0001\"}}這是為了提防它突然動起來。{{fun_0001_0005 arg=\"0xE803E903EA030002\"}}",
      "USen": "{{fun_0003_0001 arg=\"0x0000\"}}With all this craziness happening,\nI've been keeping an eye on\nthat thing.\n{{fun_0003_0001 arg=\"0x0001\"}}Just to see if it suddenly starts moving,\nya know?{{fun_0001_0005 arg=\"0xE803E903EA030002\"}}",
      "USes": "{{fun_0003_0001 arg=\"0x0000\"}}No voy a apartar la vista de esa cosa{{delay2}}\n{{fun_0003_0001 arg=\"0x0001\"}}por si empieza a moverse.{{fun_0001_0005 arg=\"0xE803E903EA030002\"}}",
      "USfr": "{{fun_0003_0001 arg=\"0x0000\"}}Du coup, je garde un œil sur\nce machin, là.\n\n{{fun_0003_0001 arg=\"0x0001\"}}On sait jamais, il pourrait se remettre\nà bouger lui aussi.{{fun_0001_0005 arg=\"0xE803E903EA030002\"}}"
    }
  },
  {
    "label": "1000",
    "attribute": "0x10050000",
    "locale": {
      "CNzh": "那东西？",
      "EUde": "Welche Sache?",
      "EUen": "What thing?",
      "EUes": "¿Qué trasto?",
      "EUfr": "Quel machin ?",
      "EUit": "Quale affare?",
      "EUnl": "Welk ding?",
      "EUru": "За кем?",
      "JPja": "アレ？",
      "KRko": "저거?",
      "TWzh": "那東西？",
      "USen": "What thing?",
      "USes": "¿Qué cosa?",
      "USfr": "Quel machin?"
    }
  },
  {
    "label": "1001",
    "attribute": "0x12050000",
    "locale": {
      "CNzh": "哦，那东西啊",
      "EUde": "Ah, diese Sache, ja...",
      "EUen": "Yeah, good idea.",
      "EUes": "Ah, ese trasto...",
      "EUfr": "Ah, ce machin !",
      "EUit": "Ah, sì quell'affare!",
      "EUnl": "Aha, dat ding...",
      "EUru": "Вот как...",
      "JPja": "ああ アレね",
      "KRko": "아아, 저거",
      "TWzh": "喔，那東西啊",
      "USen": "Yeah, good idea.",
      "USes": "Ah, esa cosa...",
      "USfr": "Ah, ce machin!"
    }
  },
  {
    "label": "1002",
    "attribute": "0x14050000",
    "locale": {
      "CNzh": "再见",
      "EUde": "Wiedersehen.",
      "EUen": "Good-bye.",
      "EUes": "No me interesa",
      "EUfr": "À plus !",
      "EUit": "Arrivederci.",
      "EUnl": "Tot ziens.",
      "EUru": "Пока",
      "JPja": "さようなら",
      "KRko": "안녕히",
      "TWzh": "再見",
      "USen": "Good-bye.",
      "USes": "Nos vemos",
      "USfr": "À plus!"
    }
  },
  {
    "label": "Talk03",
    "attribute": "0x16050000",
    "locale": {
      "CNzh": "{{fun_0003_0001 arg=\"0x0414\"}}那东西，当然是指{{color id=\"2\"}}守护者{{color id=\"65535\"}}啦！{{delay2}}\n你不知道海拉鲁过去的传说吗？",
      "EUde": "{{fun_0003_0001 arg=\"0x0414\"}}Na, den {{color id=\"2\"}}Wächter{{color id=\"65535\"}} natürlich!{{delay2}}\nDu kennst doch die alten Geschichten\nüber Hyrule, oder?",
      "EUen": "{{fun_0003_0001 arg=\"0x0414\"}}I'm talking about that {{color id=\"2\"}}Guardian{{color id=\"65535\"}},\nof course!{{delay2}} Haven't you heard the\nold stories about Hyrule?",
      "EUes": "{{fun_0003_0001 arg=\"0x0414\"}}¿Qué va a ser? Ese {{color id=\"2\"}}guardián{{color id=\"65535\"}} de allí.\nHabrás oído hablar de ellos en los\nviejos relatos de Hyrule, ¿no?",
      "EUfr": "{{fun_0003_0001 arg=\"0x0414\"}}Bah enfin, le {{color id=\"2\"}}Gardien{{color id=\"65535\"}} !{{delay2}} Tu connais pas\nl'histoire d'Hyrule, ou quoi ?",
      "EUit": "{{fun_0003_0001 arg=\"0x0414\"}}Ma veramente non sai neanche cos'è un\n{{color id=\"2\"}}guardiano{{color id=\"65535\"}}?{{delay2}} Non conosci le leggende\ndi Hyrule?",
      "EUnl": "{{fun_0003_0001 arg=\"0x0414\"}}Ik heb het uiteraard over de {{color id=\"2\"}}Wachter{{color id=\"65535\"}}!\nHeb je de oude verhalen over Hyrule\nnooit gehoord?",
      "EUru": "{{fun_0003_0001 arg=\"0x0414\"}}Ты что, ни разу не видел {{color id=\"2\"}}стража{{color id=\"65535\"}}?{{delay1}}\nХотя бы хайрульские сказки-то\nпро них слышал?",
      "JPja": "{{fun_0003_0001 arg=\"0x0414\"}}アレっていったら {{color id=\"2\"}}ガーディアン{{color id=\"65535\"}}のことだろう！{{delay2}}\nおまえ ハイラルの{{ruby charSpan=\"2\" value=\"むかしばなし\"}}昔話を{{ruby charSpan=\"1\" value=\"し\"}}知らないのか？",
      "KRko": "{{fun_0003_0001 arg=\"0x0414\"}}저거 하면 당연히 {{color id=\"2\"}}가디언{{color id=\"65535\"}}이지!{{delay2}}\n너 하이랄 옛날 이야기 몰라?",
      "TWzh": "{{fun_0003_0001 arg=\"0x0414\"}}那東西，當然是指{{color id=\"2\"}}守護者{{color id=\"65535\"}}啦！{{delay2}}\n你不知道海拉魯過去發生的事嗎？",
      "USen": "{{fun_0003_0001 arg=\"0x0414\"}}I'm talking about that {{color id=\"2\"}}Guardian{{color id=\"65535\"}},\nof course!{{delay2}} Haven't you heard the\nold stories about Hyrule?",
      "USes": "{{fun_0003_0001 arg=\"0x0414\"}}¿Qué va a ser? Ese {{color id=\"2\"}}guardián{{color id=\"65535\"}} de allá.\nHabrás oído sobre ellos en los viejos\nrelatos de Hyrule, ¿no?",
      "USfr": "{{fun_0003_0001 arg=\"0x0414\"}}Bah enfin, le {{color id=\"2\"}}Gardien{{color id=\"65535\"}}!{{delay2}} Tu connais pas\nl'histoire d'Hyrule, ou quoi?"
    }
  },
  {
    "label": "Talk04",
    "attribute": "0x3A050000",
    "locale": {
      "CNzh": "{{fun_0003_0001 arg=\"0x0004\"}}没错，就是{{color id=\"2\"}}守护者{{color id=\"65535\"}}。\n传说里一定会提到的那东西。",
      "EUde": "{{fun_0003_0001 arg=\"0x0004\"}}Genau, den {{color id=\"2\"}}Wächter{{color id=\"65535\"}}! Du weißt schon,\nwie in den alten Geschichten!",
      "EUen": "{{fun_0003_0001 arg=\"0x0004\"}}Yeah, that {{color id=\"2\"}}Guardian {{color id=\"65535\"}}is worth watching.\nIt's just like the ones from those\nold stories.",
      "EUes": "{{fun_0003_0001 arg=\"0x0004\"}}Sí, ese {{color id=\"2\"}}guardián{{color id=\"65535\"}} de allí. Ya sabes lo que\ncuentan los viejos relatos sobre ellos.",
      "EUfr": "{{fun_0003_0001 arg=\"0x0004\"}}Eh ouais, un {{color id=\"2\"}}Gardien{{color id=\"65535\"}}. Comme ceux\ndans les histoires que nous racontent\nles vieux.",
      "EUit": "{{fun_0003_0001 arg=\"0x0004\"}}Sì, quel {{color id=\"2\"}}guardiano{{color id=\"65535\"}}.\nDai, uno di quelli delle leggende!",
      "EUnl": "{{fun_0003_0001 arg=\"0x0004\"}}Ja, ik heb het over {{color id=\"2\"}}Wachters{{color id=\"65535\"}}. Je weet\nwel, van de verhalen van vroeger.",
      "EUru": "{{fun_0003_0001 arg=\"0x0004\"}}Да, у нас тут в поле {{color id=\"2\"}}страж {{color id=\"65535\"}}валяется.{{delay1}}\nТы про них наверняка слышал.{{delay1}}\nЭтот, правда, на старое ведро похож.",
      "JPja": "{{fun_0003_0001 arg=\"0x0004\"}}そうだ {{color id=\"2\"}}ガーディアン{{color id=\"65535\"}}だ\n{{ruby charSpan=\"2\" value=\"むかしばなし\"}}昔話で おなじみのアレだ",
      "KRko": "{{fun_0003_0001 arg=\"0x0004\"}}그래 {{color id=\"2\"}}가디언{{color id=\"65535\"}}말이야\n옛날 이야기에 자주 나오는 그거",
      "TWzh": "{{fun_0003_0001 arg=\"0x0004\"}}沒錯，就是{{color id=\"2\"}}守護者{{color id=\"65535\"}}。\n老故事一定會提到的那東西。",
      "USen": "{{fun_0003_0001 arg=\"0x0004\"}}Yeah, that {{color id=\"2\"}}Guardian {{color id=\"65535\"}}is worth watching.\nIt's just like the ones from those\nold stories.",
      "USes": "{{fun_0003_0001 arg=\"0x0004\"}}Sí, ese {{color id=\"2\"}}guardián{{color id=\"65535\"}} de allá. Ya sabes lo que\ncuentan los viejos relatos sobre ellos.",
      "USfr": "{{fun_0003_0001 arg=\"0x0004\"}}Eh ouais, le {{color id=\"2\"}}Gardien{{color id=\"65535\"}}. Comme ceux\ndans les histoires que nous racontent\nles vieux."
    }
  },
  {
    "label": "Talk05",
    "attribute": "0x5E050000",
    "locale": {
      "CNzh": "{{fun_0003_0001 arg=\"0x0000\"}}你有看到在那边的那个吧？{{delay2}}\n就是形状长得像倒放壶罐的那东西。",
      "EUde": "{{fun_0003_0001 arg=\"0x0000\"}}Das Ding dort drüben, das aussieht wie\n'n umgedrehter Krug.",
      "EUen": "{{fun_0003_0001 arg=\"0x0000\"}}See that thing over there?{{delay2}} The one\nshaped like an overturned urn?\nTHAT is what I'm talking about.",
      "EUes": "{{fun_0003_0001 arg=\"0x0000\"}}¿Ves aquel cacharro que parece\nun embudo del revés? Pues a\neso me refería.",
      "EUfr": "{{fun_0003_0001 arg=\"0x0000\"}}Tu le vois, là-bas ?{{delay2}} Le machin qui\nressemble à une urne à l'envers.",
      "EUit": "{{fun_0003_0001 arg=\"0x0000\"}}Vedi quell'affare laggiù?{{delay2}}\nQuello a forma di urna rovesciata.",
      "EUnl": "{{fun_0003_0001 arg=\"0x0000\"}}Zie je dat ding daarachter, dat eruitziet\nals een omgekeerde vaas?",
      "EUru": "{{fun_0003_0001 arg=\"0x0000\"}}Вон та штука в поле — страж.{{delay1}} Этот,\nправда, больше на перевернутое\nведро похож.",
      "JPja": "{{fun_0003_0001 arg=\"0x0000\"}}あそこにあるのが {{ruby charSpan=\"1\" value=\"み\"}}見えるだろ？{{delay2}}\n{{ruby charSpan=\"1\" value=\"つぼ\"}}壺をひっくり{{ruby charSpan=\"1\" value=\"かえ\"}}返したような{{ruby charSpan=\"1\" value=\"かたち\"}}形のアレだ",
      "KRko": "{{fun_0003_0001 arg=\"0x0000\"}}저기 있는 거 보이지?{{delay2}}\n항아리를 뒤집어 놓은 듯한 모양인 거",
      "TWzh": "{{fun_0003_0001 arg=\"0x0000\"}}你有看到在那邊的那個吧？{{delay2}}\n就是形狀長得像倒放壺罐的那東西。",
      "USen": "{{fun_0003_0001 arg=\"0x0000\"}}See that thing over there?{{delay2}} The one\nshaped like an overturned urn?\nTHAT is what I'm talking about.",
      "USes": "{{fun_0003_0001 arg=\"0x0000\"}}Ese cacharro que parece\nun embudo del revés.",
      "USfr": "{{fun_0003_0001 arg=\"0x0000\"}}Tu le vois, là-bas?{{delay2}} Le machin qui\nressemble à une urne à l'envers."
    }
  },
  {
    "label": "Talk06",
    "attribute": "0x82050000",
    "locale": {
      "CNzh": "{{fun_0003_0001 arg=\"0x0B00\"}}其实我曾经{{delay2}}被动起来的那东西发现，\n还被追得到处跑。{{fun_0001_0004 arg=\"0xEB03EA030001\"}}",
      "EUde": "{{fun_0003_0001 arg=\"0x0B00\"}}Einmal hat mich einer entdeckt, der sich\nnoch bewegen konnte, und schon\nsteckte ich bis zum Hals in der Klemme.{{fun_0001_0004 arg=\"0xEB03EA030001\"}}",
      "EUen": "{{fun_0003_0001 arg=\"0x0B00\"}}Did you know some of them can move?\nOne of them once chased me down and\ntried to kill me!{{fun_0001_0004 arg=\"0xEB03EA030001\"}}",
      "EUes": "{{fun_0003_0001 arg=\"0x0B00\"}}Uno de ellos me vio una vez y\nme persiguió como si no hubiera\nun mañana.{{fun_0001_0004 arg=\"0xEB03EA030001\"}}",
      "EUfr": "{{fun_0003_0001 arg=\"0x0B00\"}}Je me suis déjà fait pourchasser par\nl'un d'entre eux, tu sais !{{fun_0001_0004 arg=\"0xEB03EA030001\"}}",
      "EUit": "{{fun_0003_0001 arg=\"0x0B00\"}}Oh, ma lo sai che una volta{{delay2}} uno di quei\ncosi mi ha visto e ha iniziato a seguirmi?{{fun_0001_0004 arg=\"0xEB03EA030001\"}}",
      "EUnl": "{{fun_0003_0001 arg=\"0x0B00\"}}Weet je... {{delay2}}Eentje die kon bewegen heeft\nme eens ontdekt en achternagezeten.{{fun_0001_0004 arg=\"0xEB03EA030001\"}}",
      "EUru": "{{fun_0003_0001 arg=\"0x0B00\"}}Но однажды такое ведро меня\nзаметило — ох как я от него удирал!..{{fun_0001_0004 arg=\"0xEB03EA030001\"}}",
      "JPja": "{{fun_0003_0001 arg=\"0x0B00\"}}じつはオレ{{delay2}} {{ruby charSpan=\"1\" value=\"うご\"}}動き{{ruby charSpan=\"1\" value=\"だ\"}}出したアレに{{ruby charSpan=\"1\" value=\"み\"}}見つかって\n{{ruby charSpan=\"1\" value=\"お\"}}追いかけ{{ruby charSpan=\"1\" value=\"まわ\"}}回されたことがあるんだ{{fun_0001_0004 arg=\"0xEB03EA030001\"}}",
      "KRko": "{{fun_0003_0001 arg=\"0x0B00\"}}사실 나는{{delay2}} 움직이는 저것한테 들켜서\n쫓겨다닌 적이 있었어{{fun_0001_0004 arg=\"0xEB03EA030001\"}}",
      "TWzh": "{{fun_0003_0001 arg=\"0x0B00\"}}其實我曾經{{delay2}}被動起來的那東西發現，\n還被追得到處跑呢。{{fun_0001_0004 arg=\"0xEB03EA030001\"}}",
      "USen": "{{fun_0003_0001 arg=\"0x0B00\"}}Did you know some of them can move?\nOne of them once chased me down and\ntried to kill me!{{fun_0001_0004 arg=\"0xEB03EA030001\"}}",
      "USes": "{{fun_0003_0001 arg=\"0x0B00\"}}¿Sabías que pueden moverse? Uno de\nellos me vio una vez y me persiguió\nsin descanso.{{fun_0001_0004 arg=\"0xEB03EA030001\"}}",
      "USfr": "{{fun_0003_0001 arg=\"0x0B00\"}}Je me suis déjà fait pourchasser par\nl'un d'entre eux, tu sais!{{fun_0001_0004 arg=\"0xEB03EA030001\"}}"
    }
  },
  {
    "label": "1003",
    "attribute": "0xA6050000",
    "locale": {
      "CNzh": "就是那东西吗？",
      "EUde": "Das dort?!",
      "EUen": "This one here?",
      "EUes": "¿Ese de allí?",
      "EUfr": "Par celui-là ?",
      "EUit": "Proprio quello lì?",
      "EUnl": "Was het die daar?",
      "EUru": "Этот самый страж?",
      "JPja": "すぐそこのアレに？",
      "KRko": "바로 저기 있는 저거에?",
      "TWzh": "就是那裡的那東西嗎？",
      "USen": "This one here?",
      "USes": "¿Ese de allá?",
      "USfr": "Par celui-là?"
    }
  },
  {
    "label": "Talk07",
    "attribute": "0xA8050000",
    "locale": {
      "CNzh": "{{fun_0003_0001 arg=\"0x0B01\"}}不，和那里的不是同一个。\n\n从这里往城堡的方向前进，会途径一座森林，\n当时它是在森林的前面……\n{{fun_0003_0001 arg=\"0x0000\"}}要是被发现，就会有红光射过来。\n\n呼，我当时都已经做好觉悟，觉得自己死定了。\n不过我总算勉强逃进了森林里。\n{{fun_0003_0001 arg=\"0x0B06\"}}咦？因为我的运动神经很好？\n\n不，不是的，那只是运气好罢了。\n\n据说，现在海拉鲁城堡的周围\n就有守护者在到处徘徊。",
      "EUde": "{{fun_0003_0001 arg=\"0x0B01\"}}Nein, ein anderer...{{pageBreak}}Das war von hier aus gesehen Richtung\nSchloss, aber noch vor dem Wald.{{pageBreak}}{{fun_0003_0001 arg=\"0x0000\"}}Als er mich entdeckt hat, hat er mit\nrotem Licht auf mich geschossen!{{delay1}}\nIch dachte schon, jetzt ist es aus...{{pageBreak}}Es ist ein Wunder, dass ich in den Wald\nentkommen und mich verstecken konnte.{{pageBreak}}{{fun_0003_0001 arg=\"0x0B06\"}}Wie? Meine Reflexe? Nein, nein.\nIch mache mir da keine Illusionen,\ndas war reines Glück.{{pageBreak}}In der Gegend um Schloss Hyrule\ngibt es noch so einige Wächter...",
      "EUen": "{{fun_0003_0001 arg=\"0x0B01\"}}No, it was a different one.\n\n\nThat one was closer to the castle but\nbefore the forest...\n\n{{fun_0003_0001 arg=\"0x0000\"}}When they spot you, they shoot blue\nbeams of light at you!\n\nMan, I was so sure that was the end\nfor me. I was prepared for the worst.\n\nBut I somehow managed to escape into\nthe nearby woods.\n\n{{fun_0003_0001 arg=\"0x0B06\"}}You think it was my lightning-fast\nreflexes that saved me?\n\nHa, I wish. Truth is, I just got lucky.\n\n\nAnyway, I hear Guardians like that still\nwander around Hyrule Castle.",
      "EUes": "{{fun_0003_0001 arg=\"0x0B01\"}}No, no, fue otro distinto. Estaba cerca\ndel castillo, justo antes de llegar\nal bosque, si no recuerdo mal.\n{{fun_0003_0001 arg=\"0x0000\"}}¡Cuando te localizan, te apuntan con\nuna luz roja para dispararte! Son muy\nrápidos.\nPor suerte, conseguí esconderme\nentre los árboles del bosque.\nSalí vivo de milagro.{{pageBreak}}{{fun_0003_0001 arg=\"0x0B06\"}}Hay un montón de guardianes en\nla zona del castillo de Hyrule, por\neso es peligroso acercarse.",
      "EUfr": "{{fun_0003_0001 arg=\"0x0B01\"}}Non, c'en était un autre.\n\n\nC'était vers le château d'Hyrule,\njuste avant un bosquet.\n\n{{fun_0003_0001 arg=\"0x0000\"}}Quand ces machins repèrent une cible,\nils la visent avec un pointeur rouge.\n\nEt là, pas moyen de discuter, ils\nte poursuivent jusqu'à la mort !\n\nJ'ai cru que c'en était fini de moi, mais\nj'ai quand même pris mes jambes à mon\ncou et je me suis caché dans le bosquet.\n{{fun_0003_0001 arg=\"0x0B06\"}}Tu crois que c'est mes réflexes qui\nm'ont sauvé ?\n\nSûrement pas. C'est vraiment un miracle\nque j'aie pu en réchapper, je t'assure.\n\nEncore aujourd'hui, il y en a un paquet\nqui se baladent autour du château.",
      "EUit": "{{fun_0003_0001 arg=\"0x0B01\"}}No no, un altro!\n\n\nÈ successo davanti al bosco che\nbisogna attraversare per arrivare\nal castello.\n{{fun_0003_0001 arg=\"0x0000\"}}Quando uno di quei cosi ti vede,\nparte una lucina rossa...\n\nAppena l'ho vista, credevo che per me\nfosse giunta la fine.\n\nE invece in qualche modo sono riuscito\na mettermi in salvo nel bosco.\n\n{{fun_0003_0001 arg=\"0x0B06\"}}Eh? Dici che ho buoni riflessi?\n\n\nMa no, è stata solo fortuna.\n\n\nComunque intorno al castello di Hyrule\nè pieno di quei guardiani...",
      "EUnl": "{{fun_0003_0001 arg=\"0x0B01\"}}Nee, het was een andere.{{pageBreak}}Het was van hier op weg naar het \nkasteel, maar nog voor het bos...{{pageBreak}}Toen hij me ontdekte, schoot hij op me\nmet rood licht...{{pageBreak}}{{fun_0003_0001 arg=\"0x0000\"}}Ik dacht echt dat mijn laatste uur had\ngeslagen. Ik was op het ergste\nvoorbereid.{{pageBreak}}Gelukkig kon ik me in veiligheid brengen\ndoor het bos in te vluchten.{{pageBreak}}{{fun_0003_0001 arg=\"0x0B06\"}}Huh? Mijn snelle reflexen?{{pageBreak}}Nee, ik denk dat ik gewoon geluk heb\ngehad.{{pageBreak}}Hoe dan ook, ik heb gehoord dat er nog\naltijd Wachters rondlopen in de buurt\nvan Kasteel Hyrule.",
      "EUru": "{{fun_0003_0001 arg=\"0x0B01\"}}Нет-нет, другой.{{delay1}} Тот был ближе\nк замку, но не доходя до леса.{{pageBreak}}{{fun_0003_0001 arg=\"0x0000\"}}Страж меня заметил и уже прицелился\nсвоим красным лучом.{{delay1}} Я думал, все...\nУже стал с белым светом прощаться.{{pageBreak}}Но все-таки успел до лесу\nдобежать, там и спрятался.{{pageBreak}}{{fun_0003_0001 arg=\"0x0B06\"}}Что?{{delay1}} Быстро бегаю, говоришь?{{delay1}}\nС перепугу кто угодно ланью\nпомчится.{{delay1}} Повезло, вот и все.{{pageBreak}}Но ты смотри, возле замка Хайрул\nи сейчас стражи бродят, по слухам.",
      "JPja": "{{fun_0003_0001 arg=\"0x0B01\"}}いや そこにあるのとは{{ruby charSpan=\"1\" value=\"べつ\"}}別のアレだ\n\nここから{{ruby charSpan=\"1\" value=\"しろ\"}}城の{{ruby charSpan=\"1\" value=\"ほう\"}}方に{{ruby charSpan=\"1\" value=\"む\"}}向かう{{ruby charSpan=\"2\" value=\"とちゅう\"}}途中にある{{ruby charSpan=\"1\" value=\"もり\"}}森の\n{{ruby charSpan=\"2\" value=\"てまえ\"}}手前だったな…\n{{fun_0003_0001 arg=\"0x0000\"}}{{ruby charSpan=\"1\" value=\"み\"}}見つかると{{ruby charSpan=\"1\" value=\"あか\"}}赤い{{ruby charSpan=\"1\" value=\"ひかり\"}}光が{{ruby charSpan=\"1\" value=\"と\"}}飛んでくるんだぜ？\n\nああ これでオレもおしまいだって\nさすがにあの{{ruby charSpan=\"1\" value=\"とき\"}}時は{{ruby charSpan=\"2\" value=\"かくご\"}}覚悟したね\nそれでも なんとかギリギリ\n{{ruby charSpan=\"1\" value=\"もり\"}}森に{{ruby charSpan=\"1\" value=\"に\"}}逃げ{{ruby charSpan=\"1\" value=\"こ\"}}込むことができたんだ\n{{fun_0003_0001 arg=\"0x0B06\"}}え？ オレの{{ruby charSpan=\"4\" value=\"うんどうしんけい\"}}運動神経が？\n\nいや そうじゃなくて ツイてただけさ\n\nなんでも ハイラル{{ruby charSpan=\"1\" value=\"じょう\"}}城の{{ruby charSpan=\"1\" value=\"まわ\"}}周りには\nそんなガーディアンがウヨウヨいるらしい",
      "KRko": "{{fun_0003_0001 arg=\"0x0B01\"}}아니, 저기 있는 거랑 다른 거\n\n여기서 성 쪽으로 가는 도중에 있는 숲\n바로 앞이었는데…\n{{fun_0003_0001 arg=\"0x0000\"}}들키면 빨간 빛이 날아 온다니까?\n\n아, 이제 나는 죽었구나\n그때는 각오를 했지\n그래도 어떻게든 간신히\n숲 속으로 도망을 쳤어\n{{fun_0003_0001 arg=\"0x0B06\"}}뭐? 내 운동신경?\n\n아냐, 그냥 운이 좋았을 뿐이야\n\n듣자하니 하이랄 성 주변에는\n그런 가디언들이 우글우글하대",
      "TWzh": "{{fun_0003_0001 arg=\"0x0B01\"}}不，和那裡的不是同一個。\n\n從這裡往城堡的方向前進，途中有一座森林，\n當時它是在森林的前面……\n{{fun_0003_0001 arg=\"0x0000\"}}要是被發現，就會有紅光射過來喔。\n\n呼，我當時都已經做好覺悟，\n覺得自己八成死定了。\n不過我總算還是\n勉強逃進了森林裡。\n{{fun_0003_0001 arg=\"0x0B06\"}}咦？因為我的運動神經很好？\n\n不，不是的，那只是運氣好罷了。\n\n據說，現在海拉魯城堡的周圍\n就有守護者在到處徘徊。",
      "USen": "{{fun_0003_0001 arg=\"0x0B01\"}}No, it was a different one.\n\n\nThat one was closer to the castle but\nbefore the forest...\n\n{{fun_0003_0001 arg=\"0x0000\"}}When they spot you, they shoot blue\nbeams of light at you!\n\nMan, I was so sure that was the end\nfor me. I was prepared for the worst.\n\nBut I somehow managed to escape into\nthe nearby woods.\n\n{{fun_0003_0001 arg=\"0x0B06\"}}You think it was my lightning-fast\nreflexes that saved me?\n\nHa, I wish. Truth is, I just got lucky.\n\n\nAnyway, I hear Guardians like that still\nwander around Hyrule Castle.",
      "USes": "{{fun_0003_0001 arg=\"0x0B01\"}}No, no, fue otro.{{pageBreak}}Estaba cerca del castillo, justo\nantes de llegar al bosque,\nsi mal no recuerdo.\n{{fun_0003_0001 arg=\"0x0000\"}}¡Cuando te localizan, te disparan\nrayos azules, y corren como el viento!{{pageBreak}}Por suerte, conseguí esconderme\nentre los árboles del bosque.{{pageBreak}}{{fun_0003_0001 arg=\"0x0B06\"}}En serio que no sé cómo salí vivo.{{pageBreak}}Hay un montón de guardianes en\nla zona del castillo de Hyrule, por\neso es peligroso acercarse.",
      "USfr": "{{fun_0003_0001 arg=\"0x0B01\"}}Non, c'en était un autre.\n\n\nC'était vers le château d'Hyrule,\njuste avant un bosquet.\n\n{{fun_0003_0001 arg=\"0x0000\"}}Quand ces machins repèrent une cible,\nils la visent avec un pointeur rouge.\n\nEt là, pas moyen de discuter, ils\nte poursuivent jusqu'à la mort!\n\nJ'ai cru que c'en était fini de moi, mais\nj'ai quand même pris mes jambes à mon\ncou et je me suis caché dans le bosquet.\n{{fun_0003_0001 arg=\"0x0B06\"}}Tu crois que c'est mes réflexes qui\nm'ont sauvé?\n\nSûrement pas. C'est vraiment un miracle\nque j'aie pu en réchapper, je t'assure.\n\nEncore aujourd'hui, il y en a un paquet\nqui se baladent autour du château."
    }
  },
  {
    "label": "Talk08",
    "attribute": "0xCC050000",
    "locale": {
      "CNzh": "{{fun_0003_0001 arg=\"0x0900\"}}难道我被难得的聊天对象\n讨厌了吗……",
      "EUde": "{{fun_0003_0001 arg=\"0x0900\"}}Da findet man endlich jemanden zum\nQuatschen und dann...{{delay1}} Hab ich\nirgendwas falsch gemacht?",
      "EUen": "{{fun_0003_0001 arg=\"0x0900\"}}*siiigh* Just when I find someone to\ntalk to... I wonder what I did to make\nhim hate me...",
      "EUes": "{{fun_0003_0001 arg=\"0x0900\"}}¿Seguro que no puedes quedarte\nun poco más? Qué lástima...",
      "EUfr": "{{fun_0003_0001 arg=\"0x0900\"}}Pff, dire que j'avais enfin trouvé\nquelqu'un avec qui discuter, il faut qu'il\nme fuie... Tu me détestes, c'est ça ?",
      "EUit": "{{fun_0003_0001 arg=\"0x0900\"}}Era tanto che aspettavo qualcuno con\ncui parlare, ma devo aver detto qualcosa\ndi sbagliato...",
      "EUnl": "{{fun_0003_0001 arg=\"0x0900\"}}Net nu ik iemand heb gevonden om mee\nte praten... Ik vraag me af waarom hij\nzo'n hekel aan me heeft...",
      "EUru": "{{fun_0003_0001 arg=\"0x0900\"}}Вот и поговорили.{{delay1}} Что со мной\nне так-то?..",
      "JPja": "{{fun_0003_0001 arg=\"0x0900\"}}{{ruby charSpan=\"1\" value=\"ひさ\"}}久しぶりの{{ruby charSpan=\"1\" value=\"はな\"}}話し{{ruby charSpan=\"2\" value=\"あいて\"}}相手に\n{{ruby charSpan=\"1\" value=\"きら\"}}嫌われちまったかな…",
      "KRko": "{{fun_0003_0001 arg=\"0x0900\"}}오랜만에 만난 말동무인데\n내가 마음에 안 드나봐…",
      "TWzh": "{{fun_0003_0001 arg=\"0x0900\"}}難道我被難得的聊天對象\n討厭了嗎……",
      "USen": "{{fun_0003_0001 arg=\"0x0900\"}}*siiigh* Just when I find someone to\ntalk to... I wonder what I did to make\nhim hate me...",
      "USes": "{{fun_0003_0001 arg=\"0x0900\"}}¿Seguro que no puedes quedarte\nun poco más? Qué lástima...",
      "USfr": "{{fun_0003_0001 arg=\"0x0900\"}}Pff, dire que j'avais enfin trouvé\nquelqu'un avec qui discuter, il faut qu'il\nme fuie... Tu me détestes, c'est ça?"
    }
  },
  {
    "label": "Talk09",
    "attribute": "0xF0050000",
    "locale": {
      "CNzh": "{{fun_0003_0001 arg=\"0x0001\"}}你自己也要小心。",
      "EUde": "{{fun_0003_0001 arg=\"0x0001\"}}Pass auf dich auf.",
      "EUen": "{{fun_0003_0001 arg=\"0x0001\"}}Be careful.",
      "EUes": "{{fun_0003_0001 arg=\"0x0001\"}}Ve con cuidado.",
      "EUfr": "{{fun_0003_0001 arg=\"0x0001\"}}Sois prudent.",
      "EUit": "{{fun_0003_0001 arg=\"0x0001\"}}Sta' attento!",
      "EUnl": "{{fun_0003_0001 arg=\"0x0001\"}}Wees voorzichtig!",
      "EUru": "{{fun_0003_0001 arg=\"0x0001\"}}Удачи тебе!",
      "JPja": "{{fun_0003_0001 arg=\"0x0001\"}}おまえも {{ruby charSpan=\"1\" value=\"き\"}}気をつけなよ",
      "KRko": "{{fun_0003_0001 arg=\"0x0001\"}}너도 조심해라",
      "TWzh": "{{fun_0003_0001 arg=\"0x0001\"}}你自己也要小心喔。",
      "USen": "{{fun_0003_0001 arg=\"0x0001\"}}Be careful.",
      "USes": "{{fun_0003_0001 arg=\"0x0001\"}}Vete con cuidado.",
      "USfr": "{{fun_0003_0001 arg=\"0x0001\"}}Sois prudent."
    }
  },
  {
    "label": "Near00",
    "attribute": "0x14060000",
    "locale": {
      "CNzh": "{{fun_0004_0001 arg=\"0x0ACD\"}}世界末日要来了……",
      "EUde": "{{fun_0004_0001 arg=\"0x0ACD\"}}Das Ende ist nah...",
      "EUen": "{{fun_0004_0001 arg=\"0x0ACD\"}}The end is here...",
      "EUes": "{{fun_0004_0001 arg=\"0x0ACD\"}}La que se va a montar...",
      "EUfr": "{{fun_0004_0001 arg=\"0x0ACD\"}}C'est la fin du monde...",
      "EUit": "{{fun_0004_0001 arg=\"0x0ACD\"}}La fine del mondo è vicina!",
      "EUnl": "{{fun_0004_0001 arg=\"0x0ACD\"}}De wereld vergaat...",
      "EUru": "{{fun_0004_0001 arg=\"0x0ACD\"}}Конец света, что ли?",
      "JPja": "{{fun_0004_0001 arg=\"0x0ACD\"}}{{ruby charSpan=\"1\" value=\"よ\"}}世も{{ruby charSpan=\"1\" value=\"すえ\"}}末だぜ…",
      "KRko": "{{fun_0004_0001 arg=\"0x0ACD\"}}말세다…",
      "TWzh": "{{fun_0004_0001 arg=\"0x0ACD\"}}世界末日要來了……",
      "USen": "{{fun_0004_0001 arg=\"0x0ACD\"}}The end is here...",
      "USes": "{{fun_0004_0001 arg=\"0x0ACD\"}}La que se va a armar...",
      "USfr": "{{fun_0004_0001 arg=\"0x0ACD\"}}C'est la fin du monde..."
    }
  },
  {
    "label": "Near01",
    "attribute": "0x38060000",
    "locale": {
      "CNzh": "{{fun_0004_0001 arg=\"0x18CD\"}}♪～～",
      "EUde": "{{fun_0004_0001 arg=\"0x18CD\"}}M-m-m... ♪",
      "EUen": "{{fun_0004_0001 arg=\"0x18CD\"}}♪Hm hm hmmmm...♪",
      "EUes": "{{fun_0004_0001 arg=\"0x18CD\"}}Tralarí. ♪",
      "EUfr": "{{fun_0004_0001 arg=\"0x18CD\"}}♪",
      "EUit": "{{fun_0004_0001 arg=\"0x18CD\"}}Du da dì! ♪",
      "EUnl": "{{fun_0004_0001 arg=\"0x18CD\"}}Tralala...",
      "EUru": "{{fun_0004_0001 arg=\"0x18CD\"}}М-м-м...♪",
      "JPja": "{{fun_0004_0001 arg=\"0x18CD\"}}♪～～",
      "KRko": "{{fun_0004_0001 arg=\"0x18CD\"}}~~♪",
      "TWzh": "{{fun_0004_0001 arg=\"0x18CD\"}}♪～～",
      "USen": "{{fun_0004_0001 arg=\"0x18CD\"}}♪Hm hm hmmmm...♪",
      "USes": "{{fun_0004_0001 arg=\"0x18CD\"}}Tralalí. ♪",
      "USfr": "{{fun_0004_0001 arg=\"0x18CD\"}}♪"
    }
  }
]