[
  {
    "label": "talk_03",
    "attribute": "0x48000000",
    "locale": {
      "CNzh": "{{fun_0003_0001 arg=\"0x0A14\"}}哇！我完全没想到\n在这种地方也能见到你！",
      "EUde": "{{fun_0003_0001 arg=\"0x0A14\"}}Owah!{{delay1}} Sie hätte ich hier nicht erwartet!",
      "EUen": "{{fun_0003_0001 arg=\"0x0A14\"}}Ooooooooh! I didn't expect to run into\nyou here!",
      "EUes": "{{fun_0003_0001 arg=\"0x0A14\"}}¡Dichosos los ojos, colega! No contaba\ncon encontrarme contigo por aquí.",
      "EUfr": "{{fun_0003_0001 arg=\"0x0A14\"}}Oh ! Je n'pensais pas vous voir ici,\nm'sieur client !",
      "EUit": "{{fun_0003_0001 arg=\"0x0A14\"}}E chi pensava di incontrarti da queste\nparti!!!",
      "EUnl": "{{fun_0003_0001 arg=\"0x0A14\"}}O, hallo! Ik had nooit gedacht dat ik je\nhier zou aantreffen!",
      "EUru": "{{fun_0003_0001 arg=\"0x0A14\"}}Ого! Вот уж не думал\nвстретить тебя здесь!",
      "JPja": "{{fun_0003_0001 arg=\"0x0A14\"}}オワ！ コンナ{{ruby charSpan=\"1\" value=\"ところ\"}}所デ お{{ruby charSpan=\"1\" value=\"あ\"}}会いデキルトハ\n{{ruby charSpan=\"1\" value=\"おも\"}}思ってナカッタ デース！",
      "KRko": "{{fun_0003_0001 arg=\"0x0A14\"}}오와! 이런 곳에서 만날 줄이야\n생각지도 못했어용~!",
      "TWzh": "{{fun_0003_0001 arg=\"0x0A14\"}}哇！我完全沒想到\n在這種地方也能見到你！",
      "USen": "{{fun_0003_0001 arg=\"0x0A14\"}}Ooooooooh! I didn't expect to run into\nyou here!",
      "USes": "{{fun_0003_0001 arg=\"0x0A14\"}}¡Dichosos los ojos, amigo! No esperaba\nencontrarte por aquí.",
      "USfr": "{{fun_0003_0001 arg=\"0x0A14\"}}Oh! Je n'pensais pas vous voir ici,\nm'sieur client!"
    }
  },
  {
    "label": "Near",
    "attribute": "0x52000000",
    "locale": {
      "CNzh": "{{fun_0004_0001 arg=\"0x18CD\"}}价格合理～",
      "EUde": "{{fun_0004_0001 arg=\"0x18CD\"}}Angemessene Preise!",
      "EUen": "{{fun_0004_0001 arg=\"0x18CD\"}}No one beats my prices!",
      "EUes": "{{fun_0004_0001 arg=\"0x18CD\"}}¡Productos fresquitos!",
      "EUfr": "{{fun_0004_0001 arg=\"0x18CD\"}}Des prix corrects !",
      "EUit": "{{fun_0004_0001 arg=\"0x18CD\"}}Prezzi onesti!",
      "EUnl": "{{fun_0004_0001 arg=\"0x18CD\"}}Alles voor de beste prijs!",
      "EUru": "{{fun_0004_0001 arg=\"0x18CD\"}}Доступные цены!",
      "JPja": "{{fun_0004_0001 arg=\"0x18CD\"}}{{ruby charSpan=\"4\" value=\"てきせいかかく\"}}適正価格デ～",
      "KRko": "{{fun_0004_0001 arg=\"0x18CD\"}}적절한 가격에~",
      "TWzh": "{{fun_0004_0001 arg=\"0x18CD\"}}價格合理～",
      "USen": "{{fun_0004_0001 arg=\"0x18CD\"}}No one beats my prices!",
      "USes": "{{fun_0004_0001 arg=\"0x18CD\"}}¡Productos fresquecitos!",
      "USfr": "{{fun_0004_0001 arg=\"0x18CD\"}}Des prix corrects!"
    }
  },
  {
    "label": "TerrorSword",
    "attribute": "0x76000000",
    "locale": {
      "CNzh": "啊呜！",
      "EUde": "Hilfe!",
      "EUen": "Owww!",
      "EUes": "¡Ay, nooo!",
      "EUfr": "Oh, faites attention !",
      "EUit": "Aaah!",
      "EUnl": "Wat doe je nou?!",
      "EUru": "Ой!",
      "JPja": "アウッ！",
      "KRko": "아윽!",
      "TWzh": "啊嗚！",
      "USen": "Owww!",
      "USes": "¡Ay, no!",
      "USfr": "Oh, faites attention!"
    }
  },
  {
    "label": "TerrorArrow",
    "attribute": "0x78000000",
    "locale": {
      "CNzh": "快住手！",
      "EUde": "Bitte, aufhören!",
      "EUen": "Please stop!",
      "EUes": "¡Para ya!",
      "EUfr": "Arrêtez avec ça !",
      "EUit": "Piantala!",
      "EUnl": "Hou op!",
      "EUru": "Перестань!",
      "JPja": "ヤメテクダサーイ！",
      "KRko": "하지 마세용~!",
      "TWzh": "快住手！",
      "USen": "Please stop!",
      "USes": "¡Déjame tranquilo!",
      "USfr": "Arrêtez avec ça!"
    }
  },
  {
    "label": "TerrorBomb",
    "attribute": "0x7A000000",
    "locale": {
      "CNzh": "哇呜！",
      "EUde": "Wah!",
      "EUen": "WHOA NOW!",
      "EUes": "¡Tíiio, ten cuidado!",
      "EUfr": "Ouaaah !",
      "EUit": "Uaaah!",
      "EUnl": "Wow!",
      "EUru": "Ай!",
      "JPja": "ワォ！",
      "KRko": "와오!",
      "TWzh": "哇嗚！",
      "USen": "WHOA NOW!",
      "USes": "¡Ten cuidado con eso!",
      "USfr": "Ouaaah!"
    }
  },
  {
    "label": "TerrorExplosion",
    "attribute": "0x7C000000",
    "locale": {
      "CNzh": "唔哇！",
      "EUde": "Gaaah!",
      "EUen": "Haaaaeeeeee!",
      "EUes": "¡Qué miedo!",
      "EUfr": "Houlà !",
      "EUit": "Argh!",
      "EUnl": "Aaah!",
      "EUru": "А-а-а!",
      "JPja": "ウワァアッ！",
      "KRko": "으아악!",
      "TWzh": "唔哇！",
      "USen": "Haaaaeeeeee!",
      "USes": "¡Adiós, mundo cruel!",
      "USfr": "Houlà!"
    }
  },
  {
    "label": "TerrorLightning",
    "attribute": "0x7E000000",
    "locale": {
      "CNzh": "啊！",
      "EUde": "Aaah!",
      "EUen": "AHHH!",
      "EUes": "¡Nooo!",
      "EUfr": "Aaah !",
      "EUit": "Aaaaaah!",
      "EUnl": "Ai!",
      "EUru": "А-а!",
      "JPja": "アァッ！",
      "KRko": "아앗!",
      "TWzh": "啊！",
      "USen": "AHHH!",
      "USes": "¡Ay, rayos!",
      "USfr": "Aaah!"
    }
  },
  {
    "label": "TerrorEnemy",
    "attribute": "0x80000000",
    "locale": {
      "CNzh": "哦不～！",
      "EUde": "He!",
      "EUen": "Eeeeeeeeek!",
      "EUes": "¡Ay, ay!",
      "EUfr": "Ah, au secours !",
      "EUit": "Nooo!",
      "EUnl": "Hé!",
      "EUru": "Ай-ай!",
      "JPja": "ノワアァーッ！",
      "KRko": "으아아~!",
      "TWzh": "喔不～！",
      "USen": "Eeeeeeeeek!",
      "USes": "¡Nooo!",
      "USfr": "Ah, au secours!"
    }
  },
  {
    "label": "TerrorGuardian",
    "attribute": "0x82000000",
    "locale": {
      "CNzh": "天啊～！",
      "EUde": "Was...?!",
      "EUen": "Hyeeeeeeehh!",
      "EUes": "¡Adiós, mundo cruel!",
      "EUfr": "Sauve qui peut !",
      "EUit": "Uaaah!",
      "EUnl": "Help!",
      "EUru": "А-а-а!",
      "JPja": "ヒャァアーッ！",
      "KRko": "끼야악~!",
      "TWzh": "天啊～！",
      "USen": "Hyeeeeeeehh!",
      "USes": "¡Socorro!",
      "USfr": "Sauve qui peut!"
    }
  },
  {
    "label": "TerrorImpulse",
    "attribute": "0x84000000",
    "locale": {
      "CNzh": "哦哦！",
      "EUde": "Oooh!",
      "EUen": "Ohhh!",
      "EUes": "¡Auxilio!",
      "EUfr": "Oh là là !",
      "EUit": "Oooh!",
      "EUnl": "Ohhh!",
      "EUru": "Ох!",
      "JPja": "オオゥ！",
      "KRko": "오오우!",
      "TWzh": "哦哦！",
      "USen": "Ohhh!",
      "USes": "¡Auxiliooo!",
      "USfr": "Oh là là!"
    }
  },
  {
    "label": "TerrorFire",
    "attribute": "0x86000000",
    "locale": {
      "CNzh": "我不想着火！",
      "EUde": "Hilfe, Feuer!",
      "EUen": "I don't like fire!",
      "EUes": "¡Que alguien me apague!",
      "EUfr": "Hé, n'me brûlez pas !",
      "EUit": "Non voglio ustionarmi!",
      "EUnl": "Ik ben bang voor vuur!",
      "EUru": "Караул! Огонь!",
      "JPja": "{{ruby charSpan=\"1\" value=\"も\"}}燃エタクナイデース！",
      "KRko": "불타고 싶지 않아용!",
      "TWzh": "我不想著火！",
      "USen": "I don't like fire!",
      "USes": "¡No me quemes!",
      "USfr": "Hé, n'me brûlez pas!"
    }
  },
  {
    "label": "TerrorInsect",
    "attribute": "0x88000000",
    "locale": {
      "CNzh": "我讨厌蜜蜂！",
      "EUde": "Wah, Bienen!",
      "EUen": "NOT BEES! AHHHH!",
      "EUes": "¡Quita, quita!",
      "EUfr": "J'ai peur des abeilles !",
      "EUit": "Odio le api!",
      "EUnl": "Ik haat bijen!",
      "EUru": "Фу, пчелы!",
      "JPja": "ハチはニガテデース！",
      "KRko": "벌 싫어용!",
      "TWzh": "我討厭蜜蜂！",
      "USen": "NOT BEES! AHHHH!",
      "USes": "¡Abajo las abejas!",
      "USfr": "J'ai peur des abeilles!"
    }
  },
  {
    "label": "TerrorHorse",
    "attribute": "0x8A000000",
    "locale": {
      "CNzh": "哎呀！",
      "EUde": "Brrr!",
      "EUen": "Whoa!",
      "EUes": "¡Mira por dónde vas!",
      "EUfr": "Hé, doucement !",
      "EUit": "Oh-oh!",
      "EUnl": "Brrr!",
      "EUru": "Тпру!",
      "JPja": "オォット！",
      "KRko": "아이쿠!",
      "TWzh": "哎呀！",
      "USen": "Whoa!",
      "USes": "¡Oye, ten cuidado!",
      "USfr": "Hé, doucement!"
    }
  },
  {
    "label": "TerrorAnimal",
    "attribute": "0x8C000000",
    "locale": {
      "CNzh": "别过来啊！",
      "EUde": "Fort von mir!",
      "EUen": "Get back!",
      "EUes": "¡Que me zampan!",
      "EUfr": "Va-t'en, sale bête !",
      "EUit": "Non ti avvicinare!",
      "EUnl": "Ga weg!",
      "EUru": "Брысь!",
      "JPja": "{{ruby charSpan=\"1\" value=\"こ\"}}来ナイデクダサーイ！",
      "KRko": "가까이 오지 마세용!",
      "TWzh": "別過來啊！",
      "USen": "Get back!",
      "USes": "¡No te me acerques!",
      "USfr": "Va-t'en, sale bête!"
    }
  },
  {
    "label": "ClearTerrorEnemy",
    "attribute": "0x8E000000",
    "locale": {
      "CNzh": "{{fun_0004_0001 arg=\"0x10CD\"}}呼……",
      "EUde": "{{fun_0004_0001 arg=\"0x10CD\"}}Puh...",
      "EUen": "{{fun_0004_0001 arg=\"0x10CD\"}}Phew...",
      "EUes": "{{fun_0004_0001 arg=\"0x10CD\"}}Ha faltado poco...",
      "EUfr": "{{fun_0004_0001 arg=\"0x10CD\"}}Fiou...",
      "EUit": "{{fun_0004_0001 arg=\"0x10CD\"}}Fiuuu...",
      "EUnl": "{{fun_0004_0001 arg=\"0x10CD\"}}Oef...",
      "EUru": "{{fun_0004_0001 arg=\"0x10CD\"}}Уф...",
      "JPja": "{{fun_0004_0001 arg=\"0x10CD\"}}フゥゥ…",
      "KRko": "휴우우…",
      "TWzh": "{{fun_0004_0001 arg=\"0x10CD\"}}呼……",
      "USen": "{{fun_0004_0001 arg=\"0x10CD\"}}Phew...",
      "USes": "{{fun_0004_0001 arg=\"0x10CD\"}}Ufff...",
      "USfr": "{{fun_0004_0001 arg=\"0x10CD\"}}Fiou..."
    }
  },
  {
    "label": "ClearTerrorGuardian",
    "attribute": "0x90000000",
    "locale": {
      "CNzh": "{{fun_0004_0001 arg=\"0x10CD\"}}刚才真是可怕……",
      "EUde": "{{fun_0004_0001 arg=\"0x10CD\"}}Gerettet...",
      "EUen": "{{fun_0004_0001 arg=\"0x10CD\"}}That was scary...",
      "EUes": "{{fun_0004_0001 arg=\"0x10CD\"}}Qué miedo he pasado...",
      "EUfr": "{{fun_0004_0001 arg=\"0x10CD\"}}Ouh, j'ai eu peur...",
      "EUit": "{{fun_0004_0001 arg=\"0x10CD\"}}Che paura...",
      "EUnl": "{{fun_0004_0001 arg=\"0x10CD\"}}Dat was eng...",
      "EUru": "{{fun_0004_0001 arg=\"0x10CD\"}}Ну и перепугался же я...",
      "JPja": "{{fun_0004_0001 arg=\"0x10CD\"}}コワカッタデース…",
      "KRko": "무서웠어용…",
      "TWzh": "{{fun_0004_0001 arg=\"0x10CD\"}}剛才真是可怕……",
      "USen": "{{fun_0004_0001 arg=\"0x10CD\"}}That was scary...",
      "USes": "{{fun_0004_0001 arg=\"0x10CD\"}}Casi no la cuento...",
      "USfr": "{{fun_0004_0001 arg=\"0x10CD\"}}Ouh, j'ai eu peur..."
    }
  }
]