[
  {
    "label": "near00",
    "attribute": "0x60000000",
    "locale": {
      "CNzh": "喝！哼！",
      "EUde": "Ha! Hepp!",
      "EUen": "Ha! Hep!",
      "EUes": "¡Yaaah! ¡Ah!",
      "EUfr": "Ha ha ! Et hop !",
      "EUit": "Oh! Hop!",
      "EUnl": "Ha! Hup!",
      "EUru": "А-оп!",
      "JPja": "はっ！ ほっ！",
      "KRko": "핫! 헛!",
      "TWzh": "喝！哼！",
      "USen": "Ha! Hep!",
      "USes": "¡Yaaah! ¡Ah!",
      "USfr": "Haha! Et hop!"
    }
  },
  {
    "label": "near01",
    "attribute": "0x86000000",
    "locale": {
      "CNzh": "嘿！",
      "EUde": "Hiyah!",
      "EUen": "Huyah!",
      "EUes": "¡Raaah!",
      "EUfr": "Youhou !",
      "EUit": "Uhiaah!",
      "EUnl": "Jieha!",
      "EUru": "Ха-а!",
      "JPja": "せいっ！",
      "KRko": "이얍!",
      "TWzh": "嘿！",
      "USen": "Huyah!",
      "USes": "¡Raaah!",
      "USfr": "Youhou!"
    }
  },
  {
    "label": "near02",
    "attribute": "0xAC000000",
    "locale": {
      "CNzh": "呀～！",
      "EUde": "Raaaah!",
      "EUen": "Raaargh!",
      "EUes": "¡Zas!",
      "EUfr": "Graaaaah !",
      "EUit": "Graaaur!",
      "EUnl": "Wrauw!",
      "EUru": "Р-р-ра!",
      "JPja": "たぁーっ！",
      "KRko": "야앗~!",
      "TWzh": "呀～！",
      "USen": "Raaargh!",
      "USes": "¡Jua!",
      "USfr": "Graaaaah!"
    }
  },
  {
    "label": "near03",
    "attribute": "0xD2000000",
    "locale": {
      "CNzh": "哼！",
      "EUde": "Hopp!",
      "EUen": "Hup!",
      "EUes": "¡Pataplof!",
      "EUfr": "Hop !",
      "EUit": "Hop-là!",
      "EUnl": "Hup!",
      "EUru": "Хоп!",
      "JPja": "ふんっ！",
      "KRko": "흡!",
      "TWzh": "哼！",
      "USen": "Hup!",
      "USes": "¡Jia!",
      "USfr": "Hop!"
    }
  },
  {
    "label": "near04",
    "attribute": "0xF8000000",
    "locale": {
      "CNzh": "练习练习！",
      "EUde": "Üben, üben!",
      "EUen": "Must...practice...",
      "EUes": "A practicar.",
      "EUfr": "Travailler, travailler !",
      "EUit": "Allenamento! Allenamento!",
      "EUnl": "Oefenen, oefenen!",
      "EUru": "Тренировка!",
      "JPja": "{{ruby charSpan=\"4\" value=\"れんしゅうれんしゅう\"}}練習練習！",
      "KRko": "연습, 연습!",
      "TWzh": "練習練習！",
      "USen": "Must...practice...",
      "USes": "A practicar.",
      "USfr": "Travailler, travailler!"
    }
  },
  {
    "label": "0000",
    "attribute": "0x1E010000",
    "locale": {
      "CNzh": "好厉害！",
      "EUde": "Toll!",
      "EUen": "Amazing!",
      "EUes": "¡No puede ser!",
      "EUfr": "Ça alors !",
      "EUit": "Assurdo!",
      "EUnl": "Geweldig!",
      "EUru": "Класс!",
      "JPja": "すごい！",
      "KRko": "굉장하다!",
      "TWzh": "好厲害！",
      "USen": "Amazing!",
      "USes": "¡No puede ser!",
      "USfr": "Ça alors!"
    }
  },
  {
    "label": "0001",
    "attribute": "0x44010000",
    "locale": {
      "CNzh": "真的吗？",
      "EUde": "Wirklich?",
      "EUen": "Really?",
      "EUes": "¿En serio?",
      "EUfr": "C'est vrai ?",
      "EUit": "Davvero?",
      "EUnl": "Echt waar?",
      "EUru": "Хм, серьезно?",
      "JPja": "ホント？",
      "KRko": "정말?",
      "TWzh": "真的嗎？",
      "USen": "Really?",
      "USes": "¿En serio?",
      "USfr": "C'est vrai?"
    }
  },
  {
    "label": "0002",
    "attribute": "0x6A010000",
    "locale": {
      "CNzh": "是",
      "EUde": "Das stimmt.",
      "EUen": "Something like that.",
      "EUes": "Pues sí",
      "EUfr": "En effet.",
      "EUit": "Proprio così.",
      "EUnl": "Dat klopt!",
      "EUru": "Да",
      "JPja": "そうです",
      "KRko": "맞아요",
      "TWzh": "是",
      "USen": "Something like that.",
      "USes": "Pues sí",
      "USfr": "En effet."
    }
  },
  {
    "label": "0003",
    "attribute": "0x6C010000",
    "locale": {
      "CNzh": "不是",
      "EUde": "Nö.",
      "EUen": "No.",
      "EUes": "No",
      "EUfr": "Euh, non.",
      "EUit": "No.",
      "EUnl": "Nee.",
      "EUru": "Нет",
      "JPja": "{{ruby charSpan=\"1\" value=\"ちが\"}}違います",
      "KRko": "아니에요",
      "TWzh": "不是",
      "USen": "No.",
      "USes": "No",
      "USfr": "Euh, non."
    }
  },
  {
    "label": "0004",
    "attribute": "0x6E010000",
    "locale": {
      "CNzh": "驱魔之剑",
      "EUde": "Bannschwert.",
      "EUen": "The Master Sword.",
      "EUes": "Espada Maestra",
      "EUfr": "La lame purificatrice.",
      "EUit": "Spada suprema!",
      "EUnl": "Meesterzwaard.",
      "EUru": "Сокрушитель Зла",
      "JPja": "{{ruby charSpan=\"2\" value=\"たいま\"}}退魔の{{ruby charSpan=\"1\" value=\"つるぎ\"}}剣",
      "KRko": "퇴마의 검",
      "TWzh": "驅魔之劍",
      "USen": "The Master Sword.",
      "USes": "Espada Maestra",
      "USfr": "La lame purificatrice."
    }
  },
  {
    "label": "0005",
    "attribute": "0x70010000",
    "locale": {
      "CNzh": "{{fun_0003_0001 arg=\"0x0000\"}}不值一提啦……",
      "EUde": "{{fun_0003_0001 arg=\"0x0000\"}}Keinen besonderen...",
      "EUen": "{{fun_0003_0001 arg=\"0x0000\"}}It's not important.",
      "EUes": "{{fun_0003_0001 arg=\"0x0000\"}}No tiene nombre",
      "EUfr": "{{fun_0003_0001 arg=\"0x0000\"}}Pas spécialement.",
      "EUit": "{{fun_0003_0001 arg=\"0x0000\"}}Non sono fatti tuoi.",
      "EUnl": "{{fun_0003_0001 arg=\"0x0000\"}}Niets bijzonders...",
      "EUru": "{{fun_0003_0001 arg=\"0x0000\"}}Меч как меч...",
      "JPja": "{{fun_0003_0001 arg=\"0x0000\"}}{{ruby charSpan=\"1\" value=\"かた\"}}語るほどの{{ruby charSpan=\"1\" value=\"もの\"}}物では…",
      "KRko": "{{fun_0003_0001 arg=\"0x0000\"}}그렇게 대단한 건…",
      "TWzh": "{{fun_0003_0001 arg=\"0x0000\"}}不值一提啦……",
      "USen": "{{fun_0003_0001 arg=\"0x0000\"}}It's not important.",
      "USes": "{{fun_0003_0001 arg=\"0x0000\"}}No tiene nombre",
      "USfr": "{{fun_0003_0001 arg=\"0x0000\"}}Pas spécialement."
    }
  },
  {
    "label": "talk00",
    "attribute": "0x72010000",
    "locale": {
      "CNzh": "{{fun_0003_0001 arg=\"0x0000\"}}谁都行！{{delay3}}\n所以请听我说几句！\n{{fun_0003_0001 arg=\"0x0700\"}}我终于得到传说之剑了！{{fun_0001_0004 arg=\"0x000001000002\"}}",
      "EUde": "{{fun_0003_0001 arg=\"0x0000\"}}Jeder soll es hören!{{delay3}}\nHört meine Worte!{{pageBreak}}{{fun_0003_0001 arg=\"0x0700\"}}Ich habe es endlich gefunden!\nDas legendäre Schwert!{{fun_0001_0004 arg=\"0x000001000002\"}}",
      "EUen": "{{fun_0003_0001 arg=\"0x0000\"}}I don't care who you are!{{delay3}}\nJust lend me an ear!\n\n{{fun_0003_0001 arg=\"0x0700\"}}I've finally got it in my hands—{{delay2}}\nthe legendary weapon!{{fun_0001_0004 arg=\"0x000001000002\"}}",
      "EUes": "{{fun_0003_0001 arg=\"0x0000\"}}La verdad es que me da igual quién seas.{{delay3}}\n{{fun_0003_0001 arg=\"0x0700\"}}¡Solo te diré que tengo en mis manos la\nmismísima espada legendaria!{{fun_0001_0004 arg=\"0x000001000002\"}}",
      "EUfr": "{{fun_0003_0001 arg=\"0x0000\"}}Hé, toi, qui que tu sois !{{delay3}}\nÉcoute un peu ça !\n\n{{fun_0003_0001 arg=\"0x0700\"}}Ça y est, je l'ai enfin trouvée !\nJ'ai trouvé l'épée légendaire !{{fun_0001_0004 arg=\"0x000001000002\"}}",
      "EUit": "{{fun_0003_0001 arg=\"0x0000\"}}Non m'importa chi sei!{{delay3}}\nAscolta quello che ho da dire e basta.\n\n{{fun_0003_0001 arg=\"0x0700\"}}Ho finalmente messo le mani sull'arma\nleggendaria!{{fun_0001_0004 arg=\"0x000001000002\"}}",
      "EUnl": "{{fun_0003_0001 arg=\"0x0000\"}}Het maakt me niet uit wie het is!{{delay3}}\nIedereen moet horen wat ik te vertellen\nheb!{{pageBreak}}{{fun_0003_0001 arg=\"0x0700\"}}Ik heb eindelijk het legendarische zwaard\nin handen!{{fun_0001_0004 arg=\"0x000001000002\"}}",
      "EUru": "{{fun_0003_0001 arg=\"0x0000\"}}Ладно, неважно, кто ты.{{delay1}} Сейчас\nты услышишь нечто потрясающее!{{pageBreak}}{{fun_0003_0001 arg=\"0x0700\"}}Я наконец-то нашел легендарный меч!{{fun_0001_0004 arg=\"0x000001000002\"}}",
      "JPja": "{{fun_0003_0001 arg=\"0x0000\"}}もう{{ruby charSpan=\"1\" value=\"だれ\"}}誰だっていいさ！{{delay3}}\nだから ちょっと{{ruby charSpan=\"1\" value=\"き\"}}聞いてくれよ！\n{{fun_0003_0001 arg=\"0x0700\"}}オレはついに{{ruby charSpan=\"1\" value=\"て\"}}手に{{ruby charSpan=\"1\" value=\"い\"}}入れたんだ！ {{ruby charSpan=\"2\" value=\"でんせつ\"}}伝説の{{ruby charSpan=\"1\" value=\"つるぎ\"}}剣を！{{fun_0001_0004 arg=\"0x000001000002\"}}",
      "KRko": "{{fun_0003_0001 arg=\"0x0000\"}}아무나 좋으니까!{{delay3}}\n내 얘기 좀 들어 줘!\n{{fun_0003_0001 arg=\"0x0700\"}}나는 드디어 손에 넣었다구! 전설의 검을!{{fun_0001_0004 arg=\"0x000001000002\"}}",
      "TWzh": "{{fun_0003_0001 arg=\"0x0000\"}}誰都行！{{delay3}}\n所以請聽我說幾句！\n{{fun_0003_0001 arg=\"0x0700\"}}我終於得到傳說之劍了！{{fun_0001_0004 arg=\"0x000001000002\"}}",
      "USen": "{{fun_0003_0001 arg=\"0x0000\"}}I don't care who you are!{{delay3}}\nJust lend me an ear!\n\n{{fun_0003_0001 arg=\"0x0700\"}}I've finally got it in my hands—{{delay2}}\nthe legendary weapon!{{fun_0001_0004 arg=\"0x000001000002\"}}",
      "USes": "{{fun_0003_0001 arg=\"0x0000\"}}La verdad es que me da igual quien seas.{{delay3}}\n{{fun_0003_0001 arg=\"0x0700\"}}¡Solo te diré que tengo en mis manos la\nmismísima espada legendaria!{{fun_0001_0004 arg=\"0x000001000002\"}}",
      "USfr": "{{fun_0003_0001 arg=\"0x0000\"}}Hé, toi, qui que tu sois!{{delay3}}\nÉcoute un peu ça!\n\n{{fun_0003_0001 arg=\"0x0700\"}}Ça y est, je l'ai enfin trouvée!\nJ'ai trouvé l'épée légendaire!{{fun_0001_0004 arg=\"0x000001000002\"}}"
    }
  },
  {
    "label": "talk01",
    "attribute": "0x98010000",
    "locale": {
      "CNzh": "{{fun_0003_0001 arg=\"0x0709\"}}哈哈哈！就在一旁眼红吧！{{delay3}}\n你应该也有听说过吧？\n{{fun_0003_0001 arg=\"0x0000\"}}传说中……{{delay1}}\n只有受选召者才配拥有的剑……",
      "EUde": "{{fun_0003_0001 arg=\"0x0709\"}}Hahaha! {{delay1}}Macht Euch bereit, vor Neid zu\nerblassen!{{delay3}} Sicher habt Ihr zumindest\nschon von ihm gehört, oder?{{pageBreak}}{{fun_0003_0001 arg=\"0x0000\"}}Ihr wisst schon...{{delay1}} Vom legendären\nSchwert, das nur der auserwählte Held\nzu führen vermag!",
      "EUen": "{{fun_0003_0001 arg=\"0x0709\"}}Ha! Prepare to be jealous!{{delay3}}\nI'm sure you've heard of it...\n\n{{fun_0003_0001 arg=\"0x0000\"}}You know...{{delay1}}\nThe legendary weapon that only the\nchosen hero can wield?",
      "EUes": "{{fun_0003_0001 arg=\"0x0709\"}}¡Je, je! Espero que no te pongas celoso.{{delay3}}\nSeguro que habrás oído hablar de\nesta famosa espada, ¿no?\n{{fun_0003_0001 arg=\"0x0000\"}}La espada que solo el elegido\npuede blandir...",
      "EUfr": "{{fun_0003_0001 arg=\"0x0709\"}}Haha ! Prépare-toi à être jaloux !{{delay3}}\nJe suis sûr que tu en as déjà entendu\nparler...\n{{fun_0003_0001 arg=\"0x0000\"}}Tu sais bien...{{delay1}} la lame de l'élu, celle\nque seul le Héros peut manier...",
      "EUit": "{{fun_0003_0001 arg=\"0x0709\"}}Aha! Guarda, e attento a non strabuzzare\ntroppo gli occhi!{{delay3}} Ne avrai sicuramente\nsentito parlare, vero?\n{{fun_0003_0001 arg=\"0x0000\"}}Dai su...{{delay1}} quell'arma che solo l'eroe\nprescelto può brandire!",
      "EUnl": "{{fun_0003_0001 arg=\"0x0709\"}}Ha! Maak je klaar om groen te zien van\njaloezie!{{delay3}} Je hebt er toch zeker weleens\nvan gehoord, of niet?\n{{fun_0003_0001 arg=\"0x0000\"}}Van het zwaard dat alleen door de\nuitverkoren held kan worden gebruikt,\nbedoel ik...",
      "EUru": "{{fun_0003_0001 arg=\"0x0709\"}}Ха-ха-ха! Что, завидно!{{delay1}}\nА ты слышал об этом мече?{{pageBreak}}{{fun_0003_0001 arg=\"0x0000\"}}Лишь избранный герой\nможет его носить!",
      "JPja": "{{fun_0003_0001 arg=\"0x0709\"}}ハハハ！ うらやむがいい！{{delay3}}\nキミも{{ruby charSpan=\"1\" value=\"き\"}}聞いたことくらい あるだろう？\n{{fun_0003_0001 arg=\"0x0000\"}}{{ruby charSpan=\"1\" value=\"うわさ\"}}噂の…{{delay1}}\n{{ruby charSpan=\"1\" value=\"えら\"}}選ばれし{{ruby charSpan=\"1\" value=\"もの\"}}者だけが {{ruby charSpan=\"1\" value=\"も\"}}持てる{{ruby charSpan=\"1\" value=\"つるぎ\"}}剣…",
      "KRko": "{{fun_0003_0001 arg=\"0x0709\"}}하하하! 엄청 부러울걸?{{delay3}}\n너도 들어본 적 있지?\n{{fun_0003_0001 arg=\"0x0000\"}}소문의…{{delay1}}\n선택받은 자만이 가질 수 있는 검…",
      "TWzh": "{{fun_0003_0001 arg=\"0x0709\"}}哈哈哈！就在一旁眼紅吧！{{delay3}}\n你應該也有聽說過吧？\n{{fun_0003_0001 arg=\"0x0000\"}}傳說中……{{delay1}}\n只有被選中之人才配擁有的劍……",
      "USen": "{{fun_0003_0001 arg=\"0x0709\"}}Ha! Prepare to be jealous!{{delay3}}\nI'm sure you've heard of it...\n\n{{fun_0003_0001 arg=\"0x0000\"}}You know...{{delay1}}\nThe legendary weapon that only the\nchosen hero can wield?",
      "USes": "{{fun_0003_0001 arg=\"0x0709\"}}¡Je, je! Espero que no te pongas celoso.{{delay3}}\nSeguro que habrás oído hablar de\nesta famosa espada, ¿no?\n{{fun_0003_0001 arg=\"0x0000\"}}La espada que solo el elegido\npuede blandir...",
      "USfr": "{{fun_0003_0001 arg=\"0x0709\"}}Haha! Prépare-toi à être jaloux!{{delay3}}\nJe suis sûr que tu en as déjà entendu\nparler...\n{{fun_0003_0001 arg=\"0x0000\"}}Tu sais bien...{{delay1}} la lame de l'élu, celle\nque seul le Héros peut manier..."
    }
  },
  {
    "label": "talk02",
    "attribute": "0xBE010000",
    "locale": {
      "CNzh": "{{fun_0003_0001 arg=\"0x0000\"}}哼哼哼……{{delay1}}会怀疑是人之常情。{{delay3}}\n但是，它就在你眼前！",
      "EUde": "{{fun_0003_0001 arg=\"0x0000\"}}Hehehe... {{delay1}}Ihr mögt an mir zweifeln...{{delay3}}\nAber zweifelt Ihr auch an Euren Augen?",
      "EUen": "{{fun_0003_0001 arg=\"0x0000\"}}Heh... {{delay1}}Prepare to be blown away.{{delay3}}\nAre you ready?",
      "EUes": "{{fun_0003_0001 arg=\"0x0000\"}}Je, je... {{delay1}}Entiendo que parezca increíble,{{delay3}}\n¡pero la tengo aquí mismo!",
      "EUfr": "{{fun_0003_0001 arg=\"0x0000\"}}Héhé... {{delay1}}Tu ne voudras peut-être pas me\ncroire,{{delay3}} mais j'imagine que tu croiras tes\npropres yeux !",
      "EUit": "{{fun_0003_0001 arg=\"0x0000\"}}Eh eh eh... {{delay1}}lo so che non ci credi, ma...{{delay3}}\nguarda, ce l'hai qui davanti agli occhi!",
      "EUnl": "{{fun_0003_0001 arg=\"0x0000\"}}Haha... {{delay1}}Misschien geloof je me niet,\nmaar...{{delay3}} je ogen bedriegen je niet!",
      "EUru": "{{fun_0003_0001 arg=\"0x0000\"}}Хе-хе-хе!{{delay1}} Не веришь, да?{{delay3}}\nТогда сам посмотри!",
      "JPja": "{{fun_0003_0001 arg=\"0x0000\"}}フフフ… {{delay1}}{{ruby charSpan=\"1\" value=\"うたが\"}}疑うのも{{ruby charSpan=\"2\" value=\"むり\"}}無理はない{{delay3}}\nだが {{ruby charSpan=\"1\" value=\"め\"}}目の{{ruby charSpan=\"1\" value=\"まえ\"}}前にあるのだよ！",
      "KRko": "{{fun_0003_0001 arg=\"0x0000\"}}후후후… {{delay1}}의심할 만하지{{delay3}}\n하지만 눈 앞에 있잖아?",
      "TWzh": "{{fun_0003_0001 arg=\"0x0000\"}}哼哼哼……{{delay1}}會懷疑是人之常情。{{delay3}}\n但是，那真的就在你眼前！",
      "USen": "{{fun_0003_0001 arg=\"0x0000\"}}Heh... {{delay1}}Prepare to be blown away.{{delay3}}\nAre you ready?",
      "USes": "{{fun_0003_0001 arg=\"0x0000\"}}Je, je... {{delay1}}Entiendo que parezca increíble,{{delay3}}\n¡pero la tengo aquí mismo!",
      "USfr": "{{fun_0003_0001 arg=\"0x0000\"}}Héhé... {{delay1}}Tu ne voudras peut-être pas me\ncroire,{{delay3}} mais j'imagine que tu croiras tes\npropres yeux!"
    }
  },
  {
    "label": "talk03",
    "attribute": "0xE4010000",
    "locale": {
      "CNzh": "{{fun_0003_0001 arg=\"0x0000\"}}名字就叫……\n\n{{size value=\"125\"}}{{fun_0003_0001 arg=\"0x070A\"}}火把之剑！！{{size value=\"100\"}}\n\n{{fun_0003_0001 arg=\"0x0000\"}}我不是很肯定，{{delay1}}\n但记得名字就叫鸡毛还是火把！\n知道了就快滚！{{delay1}}你妨碍到我练习了！",
      "EUde": "{{fun_0003_0001 arg=\"0x0000\"}}Sein Name lautet...{{pageBreak}}{{size value=\"125\"}}{{fun_0003_0001 arg=\"0x070A\"}}Brandschwert!{{pageBreak}}{{size value=\"100\"}}{{fun_0003_0001 arg=\"0x0000\"}}Oder so ähnlich...{{delay1}} Irgendwas mit Band\noder Brand jedenfalls!{{delay1}}\nSo, und jetzt muss ich weiter üben!",
      "EUen": "{{fun_0003_0001 arg=\"0x0000\"}}It's called...\n\n\n{{size value=\"125\"}}{{fun_0003_0001 arg=\"0x070A\"}}{{size value=\"100\"}}the {{size value=\"125\"}}MASTER TORCH!{{size value=\"100\"}}\n\n\n{{fun_0003_0001 arg=\"0x0000\"}}I'm...{{delay2}}pretty sure that's what it's called,\nanyway.\n\nWhatever... Leave me be, commoner.{{delay1}}\nI'm trying to practice here!",
      "EUes": "{{fun_0003_0001 arg=\"0x0000\"}}Se llama...{{pageBreak}}{{size value=\"125\"}}¡La Espada Menestra!{{size value=\"100\"}}{{pageBreak}}{{fun_0003_0001 arg=\"0x070A\"}}Es verdad que parece más una antorcha,\npero yo creo que tiene esa forma para\ndespistar al enemigo.\n{{fun_0003_0001 arg=\"0x0000\"}}¡Nadie sospecharía que un palo\npueda ser tan poderoso!{{pageBreak}}Pues nada, ya la has visto.\nAhora déjame entrenar tranquilo.",
      "EUfr": "{{fun_0003_0001 arg=\"0x0000\"}}On l'appelle...\n\n\n{{size value=\"125\"}}{{fun_0003_0001 arg=\"0x070A\"}}La lame pure et sécatrice !!!{{size value=\"100\"}}\n\n\n{{fun_0003_0001 arg=\"0x0000\"}}Enfin,{{delay1}} ou quelque chose d'approchant,\nun truc en rapport avec un nettoyage\nbrutal, quoi.\nBon, ben voilà, tu l'as vue.{{delay1}} Tu peux\npartir, maintenant. Je dois reprendre\nl'entraînement !",
      "EUit": "{{fun_0003_0001 arg=\"0x0000\"}}Si chiama...\n\n\n{{size value=\"125\"}}{{fun_0003_0001 arg=\"0x070A\"}}La {{wordInfo gender=\"2\" defArticle=\"2\" indefArticle=\"2\" isPlural=\"0\"}}torcia suprema!{{size value=\"100\"}}\n\n\n{{fun_0003_0001 arg=\"0x0000\"}}Va be', forse,{{delay1}} mi pare {{wordInfo gender=\"2\" defArticle=\"2\" indefArticle=\"2\" isPlural=\"0\"}}torcia suprema o\nestrema, o una cosa del genere!\n\nBene, ora che hai capito chi è l'eroe\nleggendario, puoi circolare.{{delay1}}\nSto cercando di allenarmi qui!",
      "EUnl": "{{fun_0003_0001 arg=\"0x0000\"}}Men noemt het...{{pageBreak}}{{size value=\"125\"}}{{fun_0003_0001 arg=\"0x070A\"}}Het Overmeesterzwaard!{{pageBreak}}{{size value=\"100\"}}{{fun_0003_0001 arg=\"0x0000\"}}Of zoiets... Het was in ieder geval iets\nmet meester...{{delay1}} dacht ik...{{delay1}} Of iets\ndergelijks... maakt ook niet uit.{{pageBreak}}Zo, en nu moet ik weer verder met\noefenen...",
      "EUru": "{{fun_0003_0001 arg=\"0x0000\"}}Он называется...{{pageBreak}}{{size value=\"125\"}}{{fun_0003_0001 arg=\"0x070A\"}}Осветитель Дна!{{size value=\"100\"}}{{pageBreak}}{{fun_0003_0001 arg=\"0x0000\"}}Или Просветитель Тьмы? Забыл...{{pageBreak}}А теперь иди, не мешай.{{delay1}}\nМне нужно тренироваться!",
      "JPja": "{{fun_0003_0001 arg=\"0x0000\"}}その{{ruby charSpan=\"1\" value=\"な\"}}名も…\n\n{{size value=\"125\"}}{{fun_0003_0001 arg=\"0x070A\"}}たいまつの{{ruby charSpan=\"1\" value=\"つるぎ\"}}剣！！{{size value=\"100\"}}\n\n{{fun_0003_0001 arg=\"0x0000\"}}ちょっと{{ruby charSpan=\"3\" value=\"じしんな\"}}自信無いけど{{delay1}}\nタイマーだか たいまつだか {{ruby charSpan=\"1\" value=\"たし\"}}確かそんな{{ruby charSpan=\"2\" value=\"なまえ\"}}名前だ！\n{{ruby charSpan=\"1\" value=\"わ\"}}分かったら{{ruby charSpan=\"1\" value=\"い\"}}行け！ {{delay1}}{{ruby charSpan=\"2\" value=\"れんしゅう\"}}練習の{{ruby charSpan=\"2\" value=\"じゃま\"}}邪魔だっ！",
      "KRko": "{{fun_0003_0001 arg=\"0x0000\"}}이름하야…\n\n{{size value=\"125\"}}{{fun_0003_0001 arg=\"0x070A\"}}퇴물의 검!!{{size value=\"100\"}}\n\n{{fun_0003_0001 arg=\"0x0000\"}}살짝 자신 없지만{{delay1}}\n퇴비인지 퇴물인지 아무튼 그런 이름이야!\n알았으면 저리 가! {{delay1}}연습에 방해돼!",
      "TWzh": "{{fun_0003_0001 arg=\"0x0000\"}}名字就叫……\n\n{{size value=\"125\"}}{{fun_0003_0001 arg=\"0x070A\"}}火把之劍！！{{size value=\"100\"}}\n\n{{fun_0003_0001 arg=\"0x0000\"}}我不是很肯定，{{delay1}}\n但記得名字就叫驅火還是火把！\n知道了就快滾！{{delay1}}你妨礙到我練習了！",
      "USen": "{{fun_0003_0001 arg=\"0x0000\"}}It's called...\n\n\n{{size value=\"125\"}}{{fun_0003_0001 arg=\"0x070A\"}}{{size value=\"100\"}}the {{size value=\"125\"}}MASTER TORCH!{{size value=\"100\"}}\n\n\n{{fun_0003_0001 arg=\"0x0000\"}}I'm...{{delay2}}pretty sure that's what it's called,\nanyway.\n\nWhatever... Leave me be, commoner.{{delay1}}\nI'm trying to practice here!",
      "USes": "{{fun_0003_0001 arg=\"0x0000\"}}Se llama...{{pageBreak}}{{fun_0003_0001 arg=\"0x070A\"}}{{size value=\"125\"}}¡La espada que despeja a la\noscuridad!{{size value=\"100\"}}{{pageBreak}}{{fun_0003_0001 arg=\"0x0000\"}}Es verdad que parece más una\nantorcha...{{delay2}} ¡pero las apariencias\nengañan!{{pageBreak}}¡Nadie sospecharía que un palo\npueda ser tan poderoso!{{pageBreak}}Bueno, ya la viste. Ahora déjame\nentrenar tranquilo.",
      "USfr": "{{fun_0003_0001 arg=\"0x0000\"}}On l'appelle...\n\n\n{{size value=\"125\"}}{{fun_0003_0001 arg=\"0x070A\"}}La lame pure et sécatrice!!!{{size value=\"100\"}}\n\n\n{{fun_0003_0001 arg=\"0x0000\"}}Enfin,{{delay1}} ou quelque chose d'approchant,\nun truc en rapport avec un nettoyage\nbrutal, quoi.\nBon, ben voilà, tu l'as vue.{{delay1}} Tu peux\npartir, maintenant. Je dois reprendre\nl'entraînement!"
    }
  },
  {
    "label": "talk04",
    "attribute": "0x0A020000",
    "locale": {
      "CNzh": "{{fun_0003_0001 arg=\"0x000A\"}}哈哈哈！{{delay3}}火把之剑{{delay1}}\n是很厉害的剑哦！",
      "EUde": "{{fun_0003_0001 arg=\"0x000A\"}}Hahaha! {{delay3}}Fürwahr ein treffliches Schwert,\ndas Brandschwert!",
      "EUen": "{{fun_0003_0001 arg=\"0x000A\"}}The flame that lights the darkness...{{delay2}}\nThe MASTER TORCH!",
      "EUes": "{{fun_0003_0001 arg=\"0x000A\"}}¡Je, je!{{delay3}} No hay un arma más maravillosa\nque la Espada Menestra.",
      "EUfr": "{{fun_0003_0001 arg=\"0x000A\"}}Haha !{{delay3}} La lame pure et sécatrice est\nl'arme la plus noble qui soit !",
      "EUit": "{{fun_0003_0001 arg=\"0x000A\"}}Aha!{{delay3}} Che arma formidabile{{delay1}}\nquesta {{wordInfo gender=\"2\" defArticle=\"2\" indefArticle=\"2\" isPlural=\"0\"}}torcia suprema!",
      "EUnl": "{{fun_0003_0001 arg=\"0x000A\"}}Haha!{{delay3}} Waarachtig een voortreffelijk\nzwaard...{{delay1}} Het Overmeesterzwaard!",
      "EUru": "{{fun_0003_0001 arg=\"0x000A\"}}Ха-ха-ха!{{delay3}} Всемогущий\nмеч Осветлитель Врак!",
      "JPja": "{{fun_0003_0001 arg=\"0x000A\"}}ははは！ {{delay3}}すばらしい{{ruby charSpan=\"1\" value=\"つるぎ\"}}剣だよ{{delay1}}\nたいまつの{{ruby charSpan=\"1\" value=\"つるぎ\"}}剣は！",
      "KRko": "{{fun_0003_0001 arg=\"0x000A\"}}하하하! {{delay3}}정말 훌륭한 검이야{{delay1}}\n퇴물의 검은!",
      "TWzh": "{{fun_0003_0001 arg=\"0x000A\"}}哈哈哈！{{delay3}}火把之劍{{delay1}}\n是很厲害的劍哦！",
      "USen": "{{fun_0003_0001 arg=\"0x000A\"}}The flame that lights the darkness...{{delay2}}\nThe MASTER TORCH!",
      "USes": "{{fun_0003_0001 arg=\"0x000A\"}}¡Je, je!{{delay3}} No hay un arma más\nmaravillosa que la espada que\ndespeja a la oscuridad.",
      "USfr": "{{fun_0003_0001 arg=\"0x000A\"}}Haha!{{delay3}} La lame pure et sécatrice est\nl'arme la plus noble qui soit!"
    }
  },
  {
    "label": "talk05",
    "attribute": "0x30020000",
    "locale": {
      "CNzh": "{{fun_0003_0001 arg=\"0x0000\"}}哈哈哈！你妨碍到我了！\n\n难道你想成为这把传说中……{{delay1}}\n火把之剑的牺牲品！？",
      "EUde": "{{fun_0003_0001 arg=\"0x0000\"}}Ha-ha! Ihr seid mir im Weg!{{pageBreak}}Wollt Ihr etwa den heißen Zorn des\nlegendären Brandschwerts spüren?",
      "EUen": "{{fun_0003_0001 arg=\"0x0000\"}}Scram, foul wanderer!\n\n\nLest I burn you with the sacred light of\nmy Master Torch!",
      "EUes": "{{fun_0003_0001 arg=\"0x0000\"}}¡Hazte a un lado si no quieres sentir\nla furia de la Espada Menestra, el terror\nde los vegetales!",
      "EUfr": "{{fun_0003_0001 arg=\"0x0000\"}}Haha ! Écarte-toi de mon chemin si tu ne\nveux pas te faire découper en petites\nrondelles bien propres !",
      "EUit": "{{fun_0003_0001 arg=\"0x0000\"}}Aha! Togliti di mezzo!\n\n\nVuoi assaggiare i colpi della mia{{delay1}}\n{{wordInfo gender=\"2\" defArticle=\"2\" indefArticle=\"2\" isPlural=\"0\"}}torcia suprema?",
      "EUnl": "{{fun_0003_0001 arg=\"0x0000\"}}Je staat in de weg!{{pageBreak}}Wil je soms kennismaken met de vurige \nhitte van het legendarische \nOvermeesterzwaard?",
      "EUru": "{{fun_0003_0001 arg=\"0x0000\"}}Ха-ха-ха! Не мешайся!{{pageBreak}}Или ты хочешь испытать на себе\nгорячий нрав моего клинка?",
      "JPja": "{{fun_0003_0001 arg=\"0x0000\"}}ははは！ {{ruby charSpan=\"2\" value=\"じゃま\"}}邪魔だ{{ruby charSpan=\"2\" value=\"じゃま\"}}邪魔だ！\n\nこの{{ruby charSpan=\"2\" value=\"でんせつ\"}}伝説の…{{delay1}}\nたいまつの{{ruby charSpan=\"1\" value=\"つるぎ\"}}剣の {{ruby charSpan=\"2\" value=\"えじき\"}}餌食になりたいか？！",
      "KRko": "{{fun_0003_0001 arg=\"0x0000\"}}하하하! 비켜, 다 비켜!\n\n이 전설의…{{delay1}}\n퇴물의 검의 먹이가 되고 싶나?!",
      "TWzh": "{{fun_0003_0001 arg=\"0x0000\"}}哈哈哈！你妨礙到我了！\n\n難道你想成為這把傳說中……{{delay1}}\n火把之劍的犧牲品！？",
      "USen": "{{fun_0003_0001 arg=\"0x0000\"}}Scram, foul wanderer!\n\n\nLest I burn you with the sacred light of\nmy Master Torch!",
      "USes": "{{fun_0003_0001 arg=\"0x0000\"}}¡Hazte a un lado si no quieres que te\nciegue la luz todopoderosa de la espada\nque despeja a la oscuridad!",
      "USfr": "{{fun_0003_0001 arg=\"0x0000\"}}Haha! Écarte-toi de mon chemin si tu\nne veux pas te faire découper en petites\nrondelles bien propres!"
    }
  },
  {
    "label": "talk07",
    "attribute": "0x56020000",
    "locale": {
      "CNzh": "{{fun_0003_0001 arg=\"0x0000\"}}唷！{{delay3}}是旅行者吗？{{fun_0001_0008 arg=\"0xFFFF0000FFFF000002000000030000000003\"}}",
      "EUde": "{{fun_0003_0001 arg=\"0x0000\"}}Wohlan! {{delay3}}Seid Ihr ein Reisender?{{fun_0001_0008 arg=\"0xFFFF0000FFFF000002000000030000000003\"}}",
      "EUen": "{{fun_0003_0001 arg=\"0x0000\"}}Ha...hooooo...{{delay3}}\nAre you some kind of wanderer?{{fun_0001_0008 arg=\"0xFFFF0000FFFF000002000000030000000003\"}}",
      "EUes": "{{fun_0003_0001 arg=\"0x0000\"}}¡Buenas! {{delay3}}¿Eres un viajero?{{fun_0001_0008 arg=\"0xFFFF0000FFFF000002000000030000000003\"}}",
      "EUfr": "{{fun_0003_0001 arg=\"0x0000\"}}Que vois-je ? {{delay3}}Un voyageur ?{{fun_0001_0008 arg=\"0xFFFF0000FFFF000002000000030000000003\"}}",
      "EUit": "{{fun_0003_0001 arg=\"0x0000\"}}Aha! {{delay3}}Un viandante!?{{fun_0001_0008 arg=\"0xFFFF0000FFFF000002000000030000000003\"}}",
      "EUnl": "{{fun_0003_0001 arg=\"0x0000\"}}Hé, hallo! {{delay3}}Ben jij een reiziger?{{fun_0001_0008 arg=\"0xFFFF0000FFFF000002000000030000000003\"}}",
      "EUru": "{{fun_0003_0001 arg=\"0x0000\"}}Здорово!{{delay3}} Ты что, путешественник?{{fun_0001_0008 arg=\"0xFFFF0000FFFF000002000000030000000003\"}}",
      "JPja": "{{fun_0003_0001 arg=\"0x0000\"}}ヒュー！ {{delay3}}{{ruby charSpan=\"1\" value=\"たび\"}}旅の{{ruby charSpan=\"1\" value=\"ひと\"}}人か？{{fun_0001_0008 arg=\"0xFFFF0000FFFF000002000000030000000003\"}}",
      "KRko": "{{fun_0003_0001 arg=\"0x0000\"}}어얼~ {{delay3}}여행자야?{{fun_0001_0008 arg=\"0xFFFF0000FFFF000002000000030000000003\"}}",
      "TWzh": "{{fun_0003_0001 arg=\"0x0000\"}}唷！{{delay3}}是旅行者嗎？{{fun_0001_0008 arg=\"0xFFFF0000FFFF000002000000030000000003\"}}",
      "USen": "{{fun_0003_0001 arg=\"0x0000\"}}Ha...hooooo...{{delay3}}\nAre you some kind of wanderer?{{fun_0001_0008 arg=\"0xFFFF0000FFFF000002000000030000000003\"}}",
      "USes": "{{fun_0003_0001 arg=\"0x0000\"}}¡Buenas! {{delay3}}¿Eres un viajero?{{fun_0001_0008 arg=\"0xFFFF0000FFFF000002000000030000000003\"}}",
      "USfr": "{{fun_0003_0001 arg=\"0x0000\"}}Que vois-je? {{delay3}}Un voyageur?{{fun_0001_0008 arg=\"0xFFFF0000FFFF000002000000030000000003\"}}"
    }
  },
  {
    "label": "talk08",
    "attribute": "0x7C020000",
    "locale": {
      "CNzh": "{{fun_0003_0001 arg=\"0x0B00\"}}这么说来，{{delay1}}\n你也有把蛮不错的武器呢。\n那把剑叫什么名字？{{fun_0001_0008 arg=\"0xFFFF0000FFFF000004000000050000000003\"}}",
      "EUde": "{{fun_0003_0001 arg=\"0x0B00\"}}Übrigens...{{delay1}}\nIhr habt da ein interessantes Schwert.{{delay1}}\nTrägt es einen Namen?{{fun_0001_0008 arg=\"0xFFFF0000FFFF000004000000050000000003\"}}",
      "EUen": "{{fun_0003_0001 arg=\"0x0B00\"}}Nice baby sword, pal.\nI bet it can't even keep a flame going.\nWhat's its name?{{fun_0001_0008 arg=\"0xFFFF0000FFFF000004000000050000000003\"}}",
      "EUes": "{{fun_0003_0001 arg=\"0x0B00\"}}Oye,{{delay1}} esa espada que tienes no\nestá nada mal. ¿Cómo se llama?{{fun_0001_0008 arg=\"0xFFFF0000FFFF000004000000050000000003\"}}",
      "EUfr": "{{fun_0003_0001 arg=\"0x0B00\"}}Après tout, peu importe !{{delay1}} Dis-moi, c'est\nune bien belle épée que tu as là. Elle a\nun nom, cette petite merveille ?{{fun_0001_0008 arg=\"0xFFFF0000FFFF000004000000050000000003\"}}",
      "EUit": "{{fun_0003_0001 arg=\"0x0B00\"}}Senti, amico...{{delay1}} devo dire che la tua arma\nè proprio bella. Come si chiama?{{fun_0001_0008 arg=\"0xFFFF0000FFFF000004000000050000000003\"}}",
      "EUnl": "{{fun_0003_0001 arg=\"0x0B00\"}}Trouwens...{{delay1}} Dat is best wel een\ninteressant zwaard. Heeft het een naam?{{fun_0001_0008 arg=\"0xFFFF0000FFFF000004000000050000000003\"}}",
      "EUru": "{{fun_0003_0001 arg=\"0x0B00\"}}Слушай, интересный у тебя\nмеч!{{delay1}} А как он называется?{{fun_0001_0008 arg=\"0xFFFF0000FFFF000004000000050000000003\"}}",
      "JPja": "{{fun_0003_0001 arg=\"0x0B00\"}}そういえば{{ruby charSpan=\"1\" value=\"きみ\"}}君も{{delay1}}\nなかなかの{{ruby charSpan=\"2\" value=\"わざもの\"}}業物を {{ruby charSpan=\"1\" value=\"も\"}}持ってるんじゃないか？\nその{{ruby charSpan=\"1\" value=\"つるぎ\"}}剣の{{ruby charSpan=\"2\" value=\"なまえ\"}}名前は {{ruby charSpan=\"1\" value=\"なん\"}}何て{{ruby charSpan=\"2\" value=\"なまえ\"}}名前だい？{{fun_0001_0008 arg=\"0xFFFF0000FFFF000004000000050000000003\"}}",
      "KRko": "{{fun_0003_0001 arg=\"0x0B00\"}}그러고 보니 너도{{delay1}}\n상당히 괜찮은 걸 갖고 있는데?\n그 검 이름이 뭐야?{{fun_0001_0008 arg=\"0xFFFF0000FFFF000004000000050000000003\"}}",
      "TWzh": "{{fun_0003_0001 arg=\"0x0B00\"}}這麼說來，{{delay1}}\n你也有把蠻不錯的武器呢。\n那把劍叫什麼名字？{{fun_0001_0008 arg=\"0xFFFF0000FFFF000004000000050000000003\"}}",
      "USen": "{{fun_0003_0001 arg=\"0x0B00\"}}Nice baby sword, pal.\nI bet it can't even keep a flame going.\nWhat's its name?{{fun_0001_0008 arg=\"0xFFFF0000FFFF000004000000050000000003\"}}",
      "USes": "{{fun_0003_0001 arg=\"0x0B00\"}}Oye,{{delay1}} esa espada que tienes no\nestá nada mal. ¿Cómo se llama?{{fun_0001_0008 arg=\"0xFFFF0000FFFF000004000000050000000003\"}}",
      "USfr": "{{fun_0003_0001 arg=\"0x0B00\"}}Après tout, peu importe!{{delay1}} Dis-moi, c'est\nune bien belle épée que tu as là. Elle a\nun nom, cette petite merveille?{{fun_0001_0008 arg=\"0xFFFF0000FFFF000004000000050000000003\"}}"
    }
  },
  {
    "label": "talk09",
    "attribute": "0xA2020000",
    "locale": {
      "CNzh": "{{fun_0003_0001 arg=\"0x0006\"}}什么？{{delay3}}火……{{delay1}}火把之剑？\n\n哈哈！{{delay3}}\n火把之剑我也有啊！\n尤莱尔我才是{{delay1}}\n受火把之剑选召的勇者！",
      "EUde": "{{fun_0003_0001 arg=\"0x0006\"}}Was? {{delay3}}Bra... {{delay1}}Brandschwert?{{pageBreak}}Lachhaft, ha-ha!{{delay3}}\nIch allein bin der Träger des\nBrandschwerts!{{pageBreak}}Ich, Yolero!{{delay1}} Der vom Brandschwert\nerwählte Held!",
      "EUen": "{{fun_0003_0001 arg=\"0x0006\"}}Wha—?\nMaster Sword?\n\nHa ha!{{delay3}} Must be some kind of off-brand\nknockoff of my legendary Master Torch!\n\nFor I am Yolero,{{delay1}} the hero of legend\nchosen to wield the Master Torch!",
      "EUes": "{{fun_0003_0001 arg=\"0x0006\"}}¿Me intentas tomar el pelo?{{delay3}}\n¡La Espada Menestra es mía!\nLa tengo aquí mismo.\n¡Yo, Yoldir,{{delay1}} soy el héroe elegido por\nla Espada Menestra y el único que\npuede blandirla!",
      "EUfr": "{{fun_0003_0001 arg=\"0x0006\"}}La lame{{delay3}}... {{delay1}}\n\n\nHaha, bien tenté, l'ami !\n\n\nMalheureusement pour toi, tu te trouves\ndevant le véritable possesseur de la lame\npure et sécatrice !\nEh oui, c'est moi, Yolel,{{delay1}} le Héros choisi\npar l'épée du destin !",
      "EUit": "{{fun_0003_0001 arg=\"0x0006\"}}Cosa?!{{delay3}}\nMa che dici!{{delay1}}\nDi arma suprema ce n'è soltanto una...\nE ce l'ho io!{{delay3}}\nÈ la {{wordInfo gender=\"2\" defArticle=\"2\" indefArticle=\"2\" isPlural=\"0\"}}torcia suprema, amico!\n\nInchinati davanti a Yorel!{{delay1}}\nL'eroe prescelto per brandire l'arma\nche cauterizza il male!",
      "EUnl": "{{fun_0003_0001 arg=\"0x0006\"}}Wat? {{delay3}}M-{{delay1}}meesterzwaard?{{pageBreak}}Haha! {{delay3}}Dat kan niet, want dat heb ik al.\nEn het heet trouwens het\nOvermeesterzwaard!{{pageBreak}}Ik ben Yolero,{{delay1}} de uitverkoren held en de\nenige die het Overmeesterzwaard kan\ngebruiken!",
      "EUru": "{{fun_0003_0001 arg=\"0x0006\"}}Что?!{{delay3}} Окружить{{delay1}} Осла?{{pageBreak}}Ха-ха!{{delay3}} Ты хотел сказать Совершитель\nБлаг?{{delay1}} Только проблема в том, что он\nу меня!{{pageBreak}}Только я, великий герой Йолеро,\nмогу носить Согреватель Глаз!",
      "JPja": "{{fun_0003_0001 arg=\"0x0006\"}}{{ruby charSpan=\"1\" value=\"なに\"}}何？ {{delay3}}たいま… {{delay1}}たいまつの{{ruby charSpan=\"1\" value=\"つるぎ\"}}剣？\n\nハハッ！{{delay3}}\nたいまつの{{ruby charSpan=\"1\" value=\"つるぎ\"}}剣なら オレが{{ruby charSpan=\"1\" value=\"も\"}}持ってるじゃないか！\nこのオレこそが{{delay1}}\nそのたいまつの{{ruby charSpan=\"1\" value=\"つるぎ\"}}剣に {{ruby charSpan=\"1\" value=\"えら\"}}選ばれし{{ruby charSpan=\"2\" value=\"ゆうしゃ\"}}勇者 ヨレール！",
      "KRko": "{{fun_0003_0001 arg=\"0x0006\"}}뭐? {{delay3}}퇴… {{delay1}}퇴물의 검?\n\n하핫!{{delay3}}\n퇴물의 검은 내가 갖고 있잖아!\n나야말로{{delay1}}\n그 퇴물의 검에게 선택받은 용사 요렐이다!",
      "TWzh": "{{fun_0003_0001 arg=\"0x0006\"}}什麼？{{delay3}}火……{{delay1}}火把之劍？\n\n哈哈！{{delay3}}\n火把之劍我也有啊！\n尤雷爾我才是{{delay1}}\n受火把之劍選召的勇者！",
      "USen": "{{fun_0003_0001 arg=\"0x0006\"}}Wha—?\nMaster Sword?\n\nHa ha!{{delay3}} Must be some kind of off-brand\nknockoff of my legendary Master Torch!\n\nFor I am Yolero,{{delay1}} the hero of legend\nchosen to wield the Master Torch!",
      "USes": "{{fun_0003_0001 arg=\"0x0006\"}}¡Ja!{{delay1}} ¿\"Espada Maestra\"? ¿Y quién le dio\nese nombre?{{pageBreak}}Yo, Yoldir,{{delay1}} porto la auténtica arma\nlegendaria: ¡la espada que despeja a\nla oscuridad!",
      "USfr": "{{fun_0003_0001 arg=\"0x0006\"}}La lame{{delay3}}... {{delay1}}\n\n\nHaha, bien tenté, l'ami!\n\n\nMalheureusement pour toi, tu te trouves\ndevant le véritable possesseur de la lame\npure et sécatrice!\nEh oui, c'est moi, Yolel,{{delay1}} le Héros choisi\npar l'épée du destin!"
    }
  },
  {
    "label": "talk10",
    "attribute": "0xC8020000",
    "locale": {
      "CNzh": "{{fun_0003_0001 arg=\"0x0000\"}}我想也是！\n\n在这把火把之剑面前，{{delay1}}\n任何剑都顿失光彩啊！",
      "EUde": "{{fun_0003_0001 arg=\"0x0000\"}}Das will ich meinen!{{pageBreak}}Verglichen mit meinem Brandschwert\nwirkt jedes gewöhnliche Schwert wie ein\ndürrer Zahnstocher!",
      "EUen": "{{fun_0003_0001 arg=\"0x0000\"}}Ha! You've got that right.\n\n\nNo ordinary sword can hold a candle\nto my legendary Master Torch!",
      "EUes": "{{fun_0003_0001 arg=\"0x0000\"}}Claro, las espadas normales y corrientes\nno son merecedoras de tener un nombre\nque pase a la historia.\nSolo las más poderosas, como mi\nEspada Menestra, lo valen.",
      "EUfr": "{{fun_0003_0001 arg=\"0x0000\"}}Tu m'étonnes.\n\n\nDe toute façon, comparée à ma lame\npure et sécatrice, les autres épées\nfont pâle figure !",
      "EUit": "{{fun_0003_0001 arg=\"0x0000\"}}Come non detto!\n\n\nQuella tua spadetta insulsa sembra\nun ramoscello in confronto alla mia{{delay1}}\n{{wordInfo gender=\"2\" defArticle=\"2\" indefArticle=\"2\" isPlural=\"0\"}}torcia suprema!",
      "EUnl": "{{fun_0003_0001 arg=\"0x0000\"}}Dat dacht ik toch!{{pageBreak}}Vergeleken met het Overmeesterzwaard\nziet een normaal zwaard eruit als een\ntwijgje!",
      "EUru": "{{fun_0003_0001 arg=\"0x0000\"}}Это точно.{{pageBreak}}Твой меч просто меркнет на фоне\nмоего великолепного клинка под\nназванием Разрушитель Драк!",
      "JPja": "{{fun_0003_0001 arg=\"0x0000\"}}だろうねぇ！\n\nこのたいまつの{{ruby charSpan=\"1\" value=\"つるぎ\"}}剣の{{ruby charSpan=\"1\" value=\"まえ\"}}前には{{delay1}}\n{{ruby charSpan=\"2\" value=\"ぼんひゃく\"}}凡百の{{ruby charSpan=\"1\" value=\"つるぎ\"}}剣なんぞ {{ruby charSpan=\"1\" value=\"かす\"}}霞んで{{ruby charSpan=\"1\" value=\"み\"}}見えるぜ！",
      "KRko": "{{fun_0003_0001 arg=\"0x0000\"}}그렇겠지!\n\n이 퇴물의 검 앞에서는{{delay1}}\n평범한 검따위 아무 것도 아니지!",
      "TWzh": "{{fun_0003_0001 arg=\"0x0000\"}}我想也是！\n\n在這把火把之劍面前，{{delay1}}\n任何劍都相形失色啊！",
      "USen": "{{fun_0003_0001 arg=\"0x0000\"}}Ha! You've got that right.\n\n\nNo ordinary sword can hold a candle\nto my legendary Master Torch!",
      "USes": "{{fun_0003_0001 arg=\"0x0000\"}}Claro, las espadas comunes y corrientes\nno son merecedoras de tener un nombre\nque pase a la historia.\nSolo las más poderosas, como mi espada\nque despeja a la oscuridad, lo valen.",
      "USfr": "{{fun_0003_0001 arg=\"0x0000\"}}Tu m'étonnes.\n\n\nDe toute façon, comparées à ma lame\npure et sécatrice, les autres épées\nne font pas le poids!"
    }
  },
  {
    "label": "talk11",
    "attribute": "0xEE020000",
    "locale": {
      "CNzh": "{{fun_0003_0001 arg=\"0x0000\"}}知道的话可以让开吗？{{delay3}}\n你妨碍到我练习了！",
      "EUde": "{{fun_0003_0001 arg=\"0x0000\"}}Jetzt geht mir bitte aus dem Weg.{{delay3}}\nIch muss üben!",
      "EUen": "{{fun_0003_0001 arg=\"0x0000\"}}Well, if you'll excuse me, I need to go\nsave the world.",
      "EUes": "{{fun_0003_0001 arg=\"0x0000\"}}Y ahora si no te importa, hazte\na un lado para que pueda seguir\npracticando.",
      "EUfr": "{{fun_0003_0001 arg=\"0x0000\"}}Allez hop, on circule !{{delay3}} C'est pas tout\nça, mais je dois m'entraîner, moi.",
      "EUit": "{{fun_0003_0001 arg=\"0x0000\"}}Bene, ora che hai ammirato questa\nmeraviglia, puoi circolare!{{delay3}}\nDevo allenarmi!",
      "EUnl": "{{fun_0003_0001 arg=\"0x0000\"}}En nu wil ik je vragen om aan de kant te\ngaan.{{delay3}} Ik moet oefenen!",
      "EUru": "{{fun_0003_0001 arg=\"0x0000\"}}А теперь иди, не мешай.{{delay1}}\nМне нужно тренироваться!",
      "JPja": "{{fun_0003_0001 arg=\"0x0000\"}}{{ruby charSpan=\"1\" value=\"わ\"}}分かったら そこをどいてくれないか？{{delay3}}\n{{ruby charSpan=\"2\" value=\"れんしゅう\"}}練習の{{ruby charSpan=\"2\" value=\"じゃま\"}}邪魔だ！",
      "KRko": "{{fun_0003_0001 arg=\"0x0000\"}}알았으면 거기 좀 비켜줄래?{{delay3}}\n연습에 방해되거든!",
      "TWzh": "{{fun_0003_0001 arg=\"0x0000\"}}知道的話可以讓開嗎？{{delay3}}\n你妨礙到我練習了！",
      "USen": "{{fun_0003_0001 arg=\"0x0000\"}}Well, if you'll excuse me, I need to go\nsave the world.",
      "USes": "{{fun_0003_0001 arg=\"0x0000\"}}Y ahora si no te importa, hazte\na un lado para que pueda seguir\npracticando.",
      "USfr": "{{fun_0003_0001 arg=\"0x0000\"}}Allez hop, on circule!{{delay3}} C'est pas tout\nça, mais je dois m'entraîner, moi."
    }
  }
]