[
  {
    "label": "Npc_kokiri001_Talk000",
    "attribute": "0x18000000",
    "locale": {
      "CNzh": "{{fun_0003_0001 arg=\"0x0000\"}}小不点也独当一面了呢。",
      "EUde": "{{fun_0003_0001 arg=\"0x0000\"}}Ich bin stolz auf unseren Sprössling!",
      "EUen": "{{fun_0003_0001 arg=\"0x0000\"}}My little baby's all grown up.",
      "EUes": "{{fun_0003_0001 arg=\"0x0000\"}}Hay que ver lo mucho que ha crecido\nmi retoño...",
      "EUfr": "{{fun_0003_0001 arg=\"0x0000\"}}Mon tout petit a grandi si vite !",
      "EUit": "{{fun_0003_0001 arg=\"0x0000\"}}Il mio pistacchino si è fatto grande!",
      "EUnl": "{{fun_0003_0001 arg=\"0x0000\"}}Mijn kindje is helemaal volgroeid.",
      "EUru": "{{fun_0003_0001 arg=\"0x0000\"}}Мой отпрыск теперь совсем взрослый.",
      "JPja": "{{fun_0003_0001 arg=\"0x0000\"}}チビも {{ruby charSpan=\"3\" value=\"いちにんまえ\"}}一人前に なったもんだね",
      "KRko": "{{fun_0003_0001 arg=\"0x0000\"}}꼬마도 어른이 됐어",
      "TWzh": "{{fun_0003_0001 arg=\"0x0000\"}}小不點也獨當一面了呢。",
      "USen": "{{fun_0003_0001 arg=\"0x0000\"}}My little baby's all grown up.",
      "USes": "{{fun_0003_0001 arg=\"0x0000\"}}Hay que ver lo mucho que ha crecido\nmi retoño...",
      "USfr": "{{fun_0003_0001 arg=\"0x0000\"}}Mon tout petit a grandi si vite!"
    }
  },
  {
    "label": "Npc_kokiri001_NearActorsTalk000",
    "attribute": "0x34000000",
    "locale": {
      "CNzh": "{{fun_0003_0001 arg=\"0x0700\"}}努力通过试练了呢！",
      "EUde": "{{fun_0003_0001 arg=\"0x0700\"}}Du hast die Prüfung astrein gemeistert!",
      "EUen": "{{fun_0003_0001 arg=\"0x0700\"}}You did a great job on the trial.",
      "EUes": "{{fun_0003_0001 arg=\"0x0700\"}}¡Lo bordaste en la prueba!",
      "EUfr": "{{fun_0003_0001 arg=\"0x0700\"}}Tu t'es débrouillé comme un chef\npendant ton épreuve ! Bravo, bravo !",
      "EUit": "{{fun_0003_0001 arg=\"0x0700\"}}Ce l'hai messa tutta, bravo!",
      "EUnl": "{{fun_0003_0001 arg=\"0x0700\"}}Je hebt het goed gedaan tijdens de\nproef, toch?",
      "EUru": "{{fun_0003_0001 arg=\"0x0700\"}}Ты отлично со всем справился!",
      "JPja": "{{fun_0003_0001 arg=\"0x0700\"}}しれん {{ruby charSpan=\"2\" value=\"がんば\"}}頑張ったね！",
      "KRko": "{{fun_0003_0001 arg=\"0x0700\"}}시련, 열심히 했구나!",
      "TWzh": "{{fun_0003_0001 arg=\"0x0700\"}}努力通過考驗了呢！",
      "USen": "{{fun_0003_0001 arg=\"0x0700\"}}You did a great job on the trial.",
      "USes": "{{fun_0003_0001 arg=\"0x0700\"}}¡Lo hiciste muy bien en la prueba!",
      "USfr": "{{fun_0003_0001 arg=\"0x0700\"}}Tu t'es débrouillé comme un chef\npendant ton épreuve! Bravo, bravo!"
    }
  },
  {
    "label": "Npc_kokiri001_NearActorsTalk010",
    "attribute": "0x50000000",
    "locale": {
      "CNzh": "{{fun_0003_0001 arg=\"0x0000\"}}我自己去也没问题！",
      "EUde": "{{fun_0003_0001 arg=\"0x0000\"}}Ich habe es ganz allein geschafft!",
      "EUen": "{{fun_0003_0001 arg=\"0x0000\"}}I was cool and composed the whole time!",
      "EUes": "{{fun_0003_0001 arg=\"0x0000\"}}No perdí el aplomo ni fui presa\ndel pánico en ningún momento.",
      "EUfr": "{{fun_0003_0001 arg=\"0x0000\"}}J'avais besoin de personne ! Je l'ai\nréussie tout seul !",
      "EUit": "{{fun_0003_0001 arg=\"0x0000\"}}Ero solo soletto, ma non ho avuto paura!",
      "EUnl": "{{fun_0003_0001 arg=\"0x0000\"}}Ik heb het helemaal in m'n eentje gered!",
      "EUru": "{{fun_0003_0001 arg=\"0x0000\"}}И я совсем не боялся!",
      "JPja": "{{fun_0003_0001 arg=\"0x0000\"}}{{ruby charSpan=\"2\" value=\"ひとり\"}}一人でも へっちゃらだったよ！",
      "KRko": "{{fun_0003_0001 arg=\"0x0000\"}}혼자서도 문제없었어!",
      "TWzh": "{{fun_0003_0001 arg=\"0x0000\"}}我自己去也沒問題！",
      "USen": "{{fun_0003_0001 arg=\"0x0000\"}}I was cool and composed the whole time!",
      "USes": "{{fun_0003_0001 arg=\"0x0000\"}}No perdí el aplomo ni fui presa\ndel pánico en ningún momento.",
      "USfr": "{{fun_0003_0001 arg=\"0x0000\"}}J'avais besoin de personne!\nJe l'ai réussie tout seul!"
    }
  },
  {
    "label": "Npc_kokiri001_NearActorsNear000",
    "attribute": "0x6C000000",
    "locale": {
      "CNzh": "很努力呢！",
      "EUde": "Gut gemacht!",
      "EUen": "Well done!",
      "EUes": "¡Así se hace!",
      "EUfr": "Tu t'es bien débrouillé !",
      "EUit": "Ottimo lavoro!",
      "EUnl": "Goed gedaan!",
      "EUru": "Молодец!",
      "JPja": "{{ruby charSpan=\"2\" value=\"がんば\"}}頑張ったね！",
      "KRko": "열심히 했구나!",
      "TWzh": "很努力呢！",
      "USen": "Well done!",
      "USes": "¡Así se hace!",
      "USfr": "Tu t'es bien débrouillé!"
    }
  }
]