[
  {
    "label": "Talk08",
    "attribute": "0x20000000",
    "locale": {
      "CNzh": "{{fun_0003_0001 arg=\"0x070B\"}}我们又见面了。{{delay1}}\n我们都平安无事，真是万幸。\n{{fun_0003_0001 arg=\"0x0B01\"}}话说……{{delay2}}这间驿站的\n附近也有{{color id=\"0\"}}神庙{{color id=\"65535\"}}。\n{{fun_0003_0001 arg=\"0x0004\"}}我的师父是宫廷诗人，侍奉过现已灭亡的\n海拉鲁王族，同时师父也是{{color id=\"2\"}}希卡族{{color id=\"65535\"}}之人。\n听说师父也拥有古代文明知识，\n曾和公主殿下一同调查{{color id=\"0\"}}神庙{{color id=\"65535\"}}。\n{{fun_0003_0001 arg=\"0x0709\"}}师父说起往事时，\n脸上看起来总是非常开心。\n{{fun_0003_0001 arg=\"0x0001\"}}不好意思，我话说得太久了。{{delay1}}\n差不多该回归我的本业了。",
      "EUde": "{{fun_0003_0001 arg=\"0x070B\"}}So sieht man sich wieder.{{delay1}}\nGut, dass wir beide noch gesund\nund munter sind, was?{{pageBreak}}{{fun_0003_0001 arg=\"0x0B01\"}}Übrigens...{{delay2}} In der Nähe dieses Stalls\nbefindet sich ein {{color id=\"0\"}}Schrein{{color id=\"65535\"}}.{{pageBreak}}{{fun_0003_0001 arg=\"0x0004\"}}Mein Meister war Hofbarde der\nKönigsfamilie...{{delay1}} und außerdem gehörte\ner dem {{color id=\"2\"}}Stamm der Shiekah{{color id=\"65535\"}} an.{{pageBreak}}Er besaß großes Wissen über vergangene\nZivilisationen und erforschte gemeinsam\nmit der Prinzessin alte Ruinen.{{pageBreak}}{{fun_0003_0001 arg=\"0x0709\"}}Er wirkte immer sehr glücklich, wenn er\nvon diesen Zeiten sprach...{{pageBreak}}{{fun_0003_0001 arg=\"0x0001\"}}Verzeih, ich bin schon wieder ins Reden\ngekommen.{{delay1}} Ich sollte mich besser meiner\nKunst widmen.",
      "EUen": "{{fun_0003_0001 arg=\"0x070B\"}}We meet again!{{delay1}} Small kingdom!\n\n\n{{fun_0003_0001 arg=\"0x0B01\"}}Did you see the {{color id=\"0\"}}shrine {{color id=\"65535\"}}near this\nstable? I know quite a bit about the\n{{color id=\"0\"}}shrines{{color id=\"65535\"}}.\n{{fun_0003_0001 arg=\"0x0004\"}}You see, my teacher was the court poet\nfor the Hyrulean royal family and also\na member of the {{color id=\"2\"}}Sheikah tribe{{color id=\"65535\"}}.\nHe was well versed in ancient\ncivilizations and surveyed ruins in the\ncompany of the princess, it seems.\n{{fun_0003_0001 arg=\"0x0709\"}}Those memories seemed to bring him\na great deal of joy when he would speak\nof them.\n{{fun_0003_0001 arg=\"0x0001\"}}Anyway,{{delay1}} I should return to my craft.",
      "EUes": "{{fun_0003_0001 arg=\"0x070B\"}}¡El destino hace que nos volvamos a\nencontrar!{{delay1}} Me alegra veros de una pieza.{{pageBreak}}{{fun_0003_0001 arg=\"0x0B01\"}}No sé si lo sabéis,{{delay2}} pero cerca de\nesta posta existe un {{color id=\"0\"}}santuario{{color id=\"65535\"}}.{{pageBreak}}{{fun_0003_0001 arg=\"0x0004\"}}Mi maestro me habló sobre él. Era poeta\nen la corte de la desaparecida familia real\nde Hyrule, y miembro de la {{color id=\"2\"}}tribu sheikah{{color id=\"65535\"}}.\nPoseía amplios conocimientos sobre\ncivilizaciones ancestrales, e incluso\ninvestigó ruinas junto con la princesa.\n{{fun_0003_0001 arg=\"0x0709\"}}El recuerdo de aquellos momentos\nlo llenaba de gozo.{{pageBreak}}{{fun_0003_0001 arg=\"0x0001\"}}Disculpadme, he vuelto a perder\nla noción del tiempo mientras\nhablaba.{{delay1}} Debo reanudar mis tareas.",
      "EUfr": "{{fun_0003_0001 arg=\"0x070B\"}}Heureux de te voir à nouveau.{{delay1}}\nEt surtout en un seul morceau !\n\n{{fun_0003_0001 arg=\"0x0B01\"}}Au fait,{{delay2}} sais-tu qu'un {{color id=\"0\"}}sanctuaire{{color id=\"65535\"}}\nse trouve tout près d'ici ?\n\n{{fun_0003_0001 arg=\"0x0004\"}}Mon maître était poète officiel à la cour\nde l'ancienne famille royale d'Hyrule,\nainsi qu'un membre du {{color id=\"2\"}}clan Sheikah{{color id=\"65535\"}}.\nIl se passionnait pour les civilisations\nanciennes et explorait les {{color id=\"0\"}}sanctuaires{{color id=\"65535\"}} en\ncompagnie de la princesse elle-même.\n{{fun_0003_0001 arg=\"0x0709\"}}Évoquer ces souvenirs le remplissait\ntoujours d'une joie ineffable...\n\n{{fun_0003_0001 arg=\"0x0001\"}}Pardonne-moi de t'avoir retenu de la\nsorte.{{delay1}} Comme tu l'as remarqué, parfois\nles mots m'emportent...",
      "EUit": "{{fun_0003_0001 arg=\"0x070B\"}}Chi si rivede!{{delay1}} Sono lieto di vederti sano\ne salvo!\n\n{{fun_0003_0001 arg=\"0x0B01\"}}A proposito,{{delay2}} vicino a questo stallaggio\nc'è un {{color id=\"0\"}}sacrario{{color id=\"65535\"}}.\n\n{{fun_0003_0001 arg=\"0x0004\"}}Il mio maestro era il musico di corte\ndella compianta famiglia reale di Hyrule,\ned era uno {{color id=\"2\"}}Sheikah{{color id=\"65535\"}}.\nEra anche un esperto di civiltà antiche\ne aiutava la principessa nei suoi studi\nsulle rovine ancestrali.\n{{fun_0003_0001 arg=\"0x0709\"}}Quando mi raccontava di quel periodo,\ni suoi occhi si illuminavano di gioia.\n\n{{fun_0003_0001 arg=\"0x0001\"}}Scusa, come sempre parlo troppo.{{delay1}}\nOra devo tornare al mio lavoro.",
      "EUnl": "{{fun_0003_0001 arg=\"0x070B\"}}Daar zijn we weer!{{delay1}} En gelukkig allebei\nin goede gezondheid!{{pageBreak}}{{fun_0003_0001 arg=\"0x0B01\"}}Er is trouwens een {{color id=\"0\"}}tempel {{color id=\"65535\"}}niet ver van\ndeze stal.{{pageBreak}}{{fun_0003_0001 arg=\"0x0004\"}}Mijn meester was de hofdichter voor de\nvoormalige koninklijke familie en\nbehoorde tot de {{color id=\"2\"}}stam der Sheikah's{{color id=\"65535\"}}.\nHij wist veel van oude beschavingen, en\ndeed samen met de prinses onderzoek\nnaar ruïnes.\n{{fun_0003_0001 arg=\"0x0709\"}}Telkens als hij daarover sprak, kreeg hij \neen glimlach op zijn gezicht.{{pageBreak}}{{fun_0003_0001 arg=\"0x0001\"}}Het spijt me, ik praat te veel.{{delay1}} Ik ga weer\naan de slag.",
      "EUru": "{{fun_0003_0001 arg=\"0x070B\"}}Здравствуй!{{delay1}} Рад встрече!{{delay1}}\nВижу, ты в добром здравии.{{pageBreak}}{{fun_0003_0001 arg=\"0x0B01\"}}Ты знаешь, что рядом с этой\nконюшней есть {{color id=\"0\"}}святилище{{color id=\"65535\"}}?{{pageBreak}}{{fun_0003_0001 arg=\"0x0004\"}}Мой учитель был из народа {{color id=\"2\"}}шиика{{color id=\"65535\"}}.{{delay1}}\nОн писал стихи и песни в замке\nХайрул.{{pageBreak}}Он хорошо разбирался в древних\nтехнологиях и, по его словам, даже\nпомогал принцессе в их изучении.{{pageBreak}}{{fun_0003_0001 arg=\"0x0709\"}}Он всегда с такой радостью\nрассказывал мне об этом!{{pageBreak}}{{fun_0003_0001 arg=\"0x0001\"}}Извини, я заболтался.{{delay1}}\nВернусь к своим песням...",
      "JPja": "{{fun_0003_0001 arg=\"0x070B\"}}またお{{ruby charSpan=\"1\" value=\"あ\"}}会いできましたね{{delay1}}\nお{{ruby charSpan=\"1\" value=\"たが\"}}互い {{ruby charSpan=\"2\" value=\"ぶじ\"}}無事で{{ruby charSpan=\"1\" value=\"なに\"}}何よりです\n{{fun_0003_0001 arg=\"0x0B01\"}}ところで……{{delay2}} この{{ruby charSpan=\"2\" value=\"うまやど\"}}馬宿の\nすぐ{{ruby charSpan=\"1\" value=\"ちか\"}}近くにも {{color id=\"0\"}}{{ruby charSpan=\"1\" value=\"ほこら\"}}祠{{color id=\"65535\"}}があります\n{{fun_0003_0001 arg=\"0x0004\"}}{{ruby charSpan=\"1\" value=\"わたし\"}}私の{{ruby charSpan=\"2\" value=\"ししょう\"}}師匠は {{ruby charSpan=\"1\" value=\"いま\"}}今は{{ruby charSpan=\"1\" value=\"な\"}}亡きハイラル{{ruby charSpan=\"2\" value=\"おうけ\"}}王家に{{ruby charSpan=\"1\" value=\"つか\"}}仕えた\n{{ruby charSpan=\"4\" value=\"きゅうていしじん\"}}宮廷詩人で {{color id=\"2\"}}シーカー{{ruby charSpan=\"1\" value=\"ぞく\"}}族{{color id=\"65535\"}}でもありました\n{{ruby charSpan=\"1\" value=\"いにしえ\"}}古の{{ruby charSpan=\"2\" value=\"ぶんめい\"}}文明にも{{ruby charSpan=\"2\" value=\"ちしき\"}}知識があった{{ruby charSpan=\"2\" value=\"ししょう\"}}師匠は お{{ruby charSpan=\"2\" value=\"ひめさま\"}}姫様と\n{{ruby charSpan=\"1\" value=\"とも\"}}共に{{color id=\"0\"}}{{ruby charSpan=\"1\" value=\"ほこら\"}}祠{{color id=\"65535\"}}の{{ruby charSpan=\"2\" value=\"ちょうさ\"}}調査をしたことも あったそうです\n{{fun_0003_0001 arg=\"0x0709\"}}その{{ruby charSpan=\"1\" value=\"おも\"}}想い{{ruby charSpan=\"1\" value=\"で\"}}出について {{ruby charSpan=\"1\" value=\"かた\"}}語るときの{{ruby charSpan=\"2\" value=\"ししょう\"}}師匠は\nそれはそれは {{ruby charSpan=\"1\" value=\"うれ\"}}嬉しそうでした\n{{fun_0003_0001 arg=\"0x0001\"}}すみません おしゃべりがすぎましたね{{delay1}}\nそろそろ{{ruby charSpan=\"2\" value=\"ほんぎょう\"}}本業に{{ruby charSpan=\"1\" value=\"もど\"}}戻らせていただきます",
      "KRko": "{{fun_0003_0001 arg=\"0x070B\"}}또 만났군요{{delay1}}\n당신도 저도 무사해서 다행입니다\n{{fun_0003_0001 arg=\"0x0B01\"}}그런데……{{delay2}}\n이 마구간 근처에도 {{color id=\"0\"}}사당{{color id=\"65535\"}}이 있더군요\n{{fun_0003_0001 arg=\"0x0004\"}}저의 스승님은 지금은 사라진 하이랄 왕가를\n섬기던 궁중 시인이자 {{color id=\"2\"}}시커족{{color id=\"65535\"}}이었습니다\n고대 문명에 대한 지식도 갖고 있던 스승님은\n공주님과 함께 {{color id=\"0\"}}사당{{color id=\"65535\"}}을 조사한 적도 있다고 합니다\n{{fun_0003_0001 arg=\"0x0709\"}}그 추억을 이야기할 때 스승님은\n더할 나위 없이 기뻐 보였습니다\n{{fun_0003_0001 arg=\"0x0001\"}}죄송합니다 말이 너무 많았군요{{delay1}}\n슬슬 본업으로 돌아가겠습니다",
      "TWzh": "{{fun_0003_0001 arg=\"0x070B\"}}我們又見面了。{{delay1}}\n我們都平安無事，真是萬幸。\n{{fun_0003_0001 arg=\"0x0B01\"}}話說……{{delay2}}這間驛站的\n附近也有{{color id=\"0\"}}神廟{{color id=\"65535\"}}。\n{{fun_0003_0001 arg=\"0x0004\"}}我的師父是宮廷詩人，曾侍奉現已滅亡的\n海拉魯王族，同時師父也是{{color id=\"2\"}}希卡族{{color id=\"65535\"}}之人。\n聽說師父也擁有古代文明知識，\n曾和公主殿下一同調查{{color id=\"0\"}}神廟{{color id=\"65535\"}}。\n{{fun_0003_0001 arg=\"0x0709\"}}師父說起往事時，\n臉上看起來總是非常開心。\n{{fun_0003_0001 arg=\"0x0001\"}}不好意思，我話說得太久了。{{delay1}}\n差不多該回歸我的本業了。",
      "USen": "{{fun_0003_0001 arg=\"0x070B\"}}We meet again!{{delay1}} Small kingdom!\n\n\n{{fun_0003_0001 arg=\"0x0B01\"}}Did you see the {{color id=\"0\"}}shrine {{color id=\"65535\"}}near this\nstable? I know quite a bit about the\n{{color id=\"0\"}}shrines{{color id=\"65535\"}}.\n{{fun_0003_0001 arg=\"0x0004\"}}You see, my teacher was the court poet\nfor the Hyrulean royal family and also\na member of the {{color id=\"2\"}}Sheikah tribe{{color id=\"65535\"}}.\nHe was well versed in ancient\ncivilizations and surveyed ruins in the\ncompany of the princess, it seems.\n{{fun_0003_0001 arg=\"0x0709\"}}Those memories seemed to bring him\na great deal of joy when he would speak\nof them.\n{{fun_0003_0001 arg=\"0x0001\"}}Anyway,{{delay1}} I should return to my craft.",
      "USes": "{{fun_0003_0001 arg=\"0x070B\"}}¡El destino hace que nos volvamos a\nencontrar!{{delay1}} Me alegra verte de una pieza.\n\n{{fun_0003_0001 arg=\"0x0B01\"}}No sé si lo sabes,{{delay2}} pero cerca de\neste rancho existe un {{color id=\"0\"}}santuario{{color id=\"65535\"}}.\n\n{{fun_0003_0001 arg=\"0x0004\"}}Mi maestro me habló sobre él. Era poeta\nen la corte de la desaparecida familia real\nde Hyrule, y miembro de la {{color id=\"2\"}}tribu sheikah{{color id=\"65535\"}}.\nPoseía amplios conocimientos sobre\ncivilizaciones ancestrales, e incluso\ninvestigó ruinas junto con la princesa.\n{{fun_0003_0001 arg=\"0x0709\"}}El recuerdo de aquellos momentos\nlo llenaba de gozo.{{pageBreak}}{{fun_0003_0001 arg=\"0x0001\"}}Discúlpame, he vuelto a perder\nla noción del tiempo mientras\nhablaba.{{delay1}} Debo reanudar mis tareas.",
      "USfr": "{{fun_0003_0001 arg=\"0x070B\"}}Heureux de te voir à nouveau.{{delay1}}\nEt surtout en un seul morceau!\n\n{{fun_0003_0001 arg=\"0x0B01\"}}Au fait,{{delay2}} sais-tu qu'un {{color id=\"0\"}}sanctuaire{{color id=\"65535\"}}\nse trouve tout près d'ici?\n\n{{fun_0003_0001 arg=\"0x0004\"}}Mon maître était poète officiel à la cour\nde l'ancienne famille royale d'Hyrule,\nainsi qu'un membre du {{color id=\"2\"}}clan Sheikah{{color id=\"65535\"}}.\nIl se passionnait pour les civilisations\nanciennes et explorait les {{color id=\"0\"}}sanctuaires{{color id=\"65535\"}} en\ncompagnie de la princesse elle-même.\n{{fun_0003_0001 arg=\"0x0709\"}}Évoquer ces souvenirs le remplissait\ntoujours d'une joie ineffable...\n\n{{fun_0003_0001 arg=\"0x0001\"}}Pardonne-moi de t'avoir retenu de la\nsorte.{{delay1}} Comme tu l'as remarqué, parfois\nles mots m'emportent..."
    }
  },
  {
    "label": "TerrorFire",
    "attribute": "0x42000000",
    "locale": {
      "CNzh": "{{fun_0004_0001 arg=\"0x14CD\"}}呜哇！",
      "EUde": "{{fun_0004_0001 arg=\"0x14CD\"}}Heiß!",
      "EUen": "{{fun_0004_0001 arg=\"0x14CD\"}}Ack!",
      "EUes": "{{fun_0004_0001 arg=\"0x14CD\"}}¡Quema!",
      "EUfr": "{{fun_0004_0001 arg=\"0x14CD\"}}Au feu !",
      "EUit": "{{fun_0004_0001 arg=\"0x14CD\"}}Nooo!",
      "EUnl": "{{fun_0004_0001 arg=\"0x14CD\"}}Oei!",
      "EUru": "{{fun_0004_0001 arg=\"0x14CD\"}}Ой!",
      "JPja": "{{fun_0004_0001 arg=\"0x14CD\"}}うわっ",
      "KRko": "{{fun_0004_0001 arg=\"0x14CD\"}}으앗",
      "TWzh": "{{fun_0004_0001 arg=\"0x14CD\"}}嗚哇！",
      "USen": "{{fun_0004_0001 arg=\"0x14CD\"}}Ack!",
      "USes": "{{fun_0004_0001 arg=\"0x14CD\"}}¡Auuuch!",
      "USfr": "{{fun_0004_0001 arg=\"0x14CD\"}}Au feu!"
    }
  },
  {
    "label": "TerrorSword",
    "attribute": "0x44000000",
    "locale": {
      "CNzh": "很危险呀！",
      "EUde": "Sei bloß vorsichtig!",
      "EUen": "Knock it off!",
      "EUes": "¡Con eso no se juega!",
      "EUfr": "Ne joue pas avec ça !",
      "EUit": "Non è un giocattolo!",
      "EUnl": "Doe alsjeblieft voorzichtig!",
      "EUru": "Что ты делаешь?!",
      "JPja": "{{ruby charSpan=\"1\" value=\"あぶ\"}}危ないっ！",
      "KRko": "위험해!",
      "TWzh": "很危險耶！",
      "USen": "Knock it off!",
      "USes": "¡Con eso no se juega!",
      "USfr": "Ne joue pas avec ça!"
    }
  },
  {
    "label": "TerrorArrow",
    "attribute": "0x46000000",
    "locale": {
      "CNzh": "很危险呀！",
      "EUde": "Sei bloß vorsichtig!",
      "EUen": "Stop it!",
      "EUes": "¡Con eso no se juega!",
      "EUfr": "Ne joue pas avec ça !",
      "EUit": "Non è un giocattolo!",
      "EUnl": "Doe alsjeblieft voorzichtig!",
      "EUru": "Перестань!",
      "JPja": "{{ruby charSpan=\"1\" value=\"あぶ\"}}危ないっ！",
      "KRko": "위험해!",
      "TWzh": "很危險耶！",
      "USen": "Stop it!",
      "USes": "¡Cuidado con eso!",
      "USfr": "Ne joue pas avec ça!"
    }
  },
  {
    "label": "TerrorExplosion",
    "attribute": "0x48000000",
    "locale": {
      "CNzh": "呜哇～！",
      "EUde": "Aaaaaaaah!",
      "EUen": "WAAAAAA!",
      "EUes": "¡Diantres!",
      "EUfr": "Aaaah !!!",
      "EUit": "Oooh!",
      "EUnl": "Aaah!",
      "EUru": "А-а-а!",
      "JPja": "うわーっ！",
      "KRko": "우와악!",
      "TWzh": "嗚哇～！",
      "USen": "WAAAAAA!",
      "USes": "¡Aaahhh!",
      "USfr": "Aaaah!!!"
    }
  },
  {
    "label": "TerrorHorse",
    "attribute": "0x4A000000",
    "locale": {
      "CNzh": "呜哇！",
      "EUde": "Wah!",
      "EUen": "Whoa!",
      "EUes": "¡Auxilio!",
      "EUfr": "Houlà !",
      "EUit": "Nooo!",
      "EUnl": "Oef!",
      "EUru": "Эй!",
      "JPja": "うわっ！",
      "KRko": "으앗!",
      "TWzh": "嗚哇！",
      "USen": "Whoa!",
      "USes": "¡Nooo!",
      "USfr": "Houlà!"
    }
  }
]