[
  {
    "label": "Talk00",
    "attribute": "0xD4000000",
    "locale": {
      "CNzh": "{{fun_0003_0001 arg=\"0x0002\"}}嗯？怎么了？{{fun_0001_0004 arg=\"0xEA03EB030001\"}}",
      "EUde": "{{fun_0003_0001 arg=\"0x0002\"}}Hm? Was gibt's?{{fun_0001_0004 arg=\"0xEA03EB030001\"}}",
      "EUen": "{{fun_0003_0001 arg=\"0x0002\"}}Hm? What's this?{{fun_0001_0004 arg=\"0xEA03EB030001\"}}",
      "EUes": "{{fun_0003_0001 arg=\"0x0002\"}}¿Mmm? ¿Qué pasa?{{fun_0001_0004 arg=\"0xEA03EB030001\"}}",
      "EUfr": "{{fun_0003_0001 arg=\"0x0002\"}}Hmm ? Qu'y a-t-il ?{{fun_0001_0004 arg=\"0xEA03EB030001\"}}",
      "EUit": "{{fun_0003_0001 arg=\"0x0002\"}}Eh? Che c'è?{{fun_0001_0004 arg=\"0xEA03EB030001\"}}",
      "EUnl": "{{fun_0003_0001 arg=\"0x0002\"}}Hmm? Wat is er?{{fun_0001_0004 arg=\"0xEA03EB030001\"}}",
      "EUru": "{{fun_0003_0001 arg=\"0x0002\"}}А? Что такое?{{fun_0001_0004 arg=\"0xEA03EB030001\"}}",
      "JPja": "{{fun_0003_0001 arg=\"0x0002\"}}うん？ なんじゃ？{{fun_0001_0004 arg=\"0xEA03EB030001\"}}",
      "KRko": "{{fun_0003_0001 arg=\"0x0002\"}}응? 뭔가?{{fun_0001_0004 arg=\"0xEA03EB030001\"}}",
      "TWzh": "{{fun_0003_0001 arg=\"0x0002\"}}嗯？有事嗎？{{fun_0001_0004 arg=\"0xEA03EB030001\"}}",
      "USen": "{{fun_0003_0001 arg=\"0x0002\"}}Hm? What's this?{{fun_0001_0004 arg=\"0xEA03EB030001\"}}",
      "USes": "{{fun_0003_0001 arg=\"0x0002\"}}¿Mmm? ¿Qué pasa?{{fun_0001_0004 arg=\"0xEA03EB030001\"}}",
      "USfr": "{{fun_0003_0001 arg=\"0x0002\"}}Hmm? Qu'y a-t-il?{{fun_0001_0004 arg=\"0xEA03EB030001\"}}"
    }
  },
  {
    "label": "Talk01",
    "attribute": "0xFC000000",
    "locale": {
      "CNzh": "{{fun_0003_0001 arg=\"0x0701\"}}{{anim2 type=\"CustomLaugh\"}}嚯、嚯、嚯。{{delay2}}\n我们又见面了。{{fun_0001_0004 arg=\"0xEA03EB030001\"}}",
      "EUde": "{{fun_0003_0001 arg=\"0x0701\"}}{{anim2 type=\"CustomLaugh\"}}Ho ho ho...{{delay2}}\nDa bist du ja wieder.{{fun_0001_0004 arg=\"0xEA03EB030001\"}}",
      "EUen": "{{fun_0003_0001 arg=\"0x0701\"}}{{anim2 type=\"CustomLaugh\"}}Well, hello.{{delay2}} So we meet again...{{fun_0001_0004 arg=\"0xEA03EB030001\"}}",
      "EUes": "{{fun_0003_0001 arg=\"0x0701\"}}{{anim2 type=\"CustomLaugh\"}}Jo, jo, jo.{{delay2}} Tú otra vez, ¿eh?{{fun_0001_0004 arg=\"0xEA03EB030001\"}}",
      "EUfr": "{{fun_0003_0001 arg=\"0x0701\"}}{{anim2 type=\"CustomLaugh\"}}Hohoho...{{delay2}} Te revoilà !{{fun_0001_0004 arg=\"0xEA03EB030001\"}}",
      "EUit": "{{fun_0003_0001 arg=\"0x0701\"}}{{anim2 type=\"CustomLaugh\"}}Oh oh oh...{{delay2}}\nChi si rivede...{{fun_0001_0004 arg=\"0xEA03EB030001\"}}",
      "EUnl": "{{fun_0003_0001 arg=\"0x0701\"}}{{anim2 type=\"CustomLaugh\"}}Aha...{{delay2}} Daar ben je weer.{{fun_0001_0004 arg=\"0xEA03EB030001\"}}",
      "EUru": "{{fun_0003_0001 arg=\"0x0701\"}}{{anim2 type=\"CustomLaugh\"}}Хо-хо-хо!{{delay2}} Снова ты!{{fun_0001_0004 arg=\"0xEA03EB030001\"}}",
      "JPja": "{{fun_0003_0001 arg=\"0x0701\"}}{{anim2 type=\"CustomLaugh\"}}ふぉっ ふぉっ ふぉっ{{delay2}}\nまた{{ruby charSpan=\"1\" value=\"お\"}}会うたな{{fun_0001_0004 arg=\"0xEA03EB030001\"}}",
      "KRko": "{{fun_0003_0001 arg=\"0x0701\"}}{{anim2 type=\"CustomLaugh\"}}허허허{{delay2}}\n또 만났군{{fun_0001_0004 arg=\"0xEA03EB030001\"}}",
      "TWzh": "{{fun_0003_0001 arg=\"0x0701\"}}{{anim2 type=\"CustomLaugh\"}}呵呵呵，{{delay2}}\n又見面了。{{fun_0001_0004 arg=\"0xEA03EB030001\"}}",
      "USen": "{{fun_0003_0001 arg=\"0x0701\"}}{{anim2 type=\"CustomLaugh\"}}Well, hello.{{delay2}} So we meet again...{{fun_0001_0004 arg=\"0xEA03EB030001\"}}",
      "USes": "{{fun_0003_0001 arg=\"0x0701\"}}{{anim2 type=\"CustomLaugh\"}}¡Hola, joven!{{delay2}}\nVolvemos a vernos.{{fun_0001_0004 arg=\"0xEA03EB030001\"}}",
      "USfr": "{{fun_0003_0001 arg=\"0x0701\"}}{{anim2 type=\"CustomLaugh\"}}Hohoho...{{delay2}}\nTe revoilà!{{fun_0001_0004 arg=\"0xEA03EB030001\"}}"
    }
  },
  {
    "label": "Talk02",
    "attribute": "0x24010000",
    "locale": {
      "CNzh": "{{fun_0003_0001 arg=\"0x0006\"}}你穿成那样很冷吧。{{delay2}}\n要不要来篝火这里烤烤火啊？{{fun_0001_0004 arg=\"0xEA03EB030001\"}}",
      "EUde": "{{fun_0003_0001 arg=\"0x0006\"}}Frierst du nicht?{{delay2}} Komm, du kannst dich\nam Lagerfeuer wärmen.{{fun_0001_0004 arg=\"0xEA03EB030001\"}}",
      "EUen": "{{fun_0003_0001 arg=\"0x0006\"}}You'll catch a chill out there in the wild.{{delay2}}\nCome warm your bones by the fire.{{fun_0001_0004 arg=\"0xEA03EB030001\"}}",
      "EUes": "{{fun_0003_0001 arg=\"0x0006\"}}Así vas a coger frío, joven.{{delay2}} ¿Por qué\nno te quedas junto a la hoguera?{{fun_0001_0004 arg=\"0xEA03EB030001\"}}",
      "EUfr": "{{fun_0003_0001 arg=\"0x0006\"}}Tu dois mourir de froid, habillé comme\ntu l'es !{{delay2}} Viens donc te réchauffer un\npeu auprès du feu.{{fun_0001_0004 arg=\"0xEA03EB030001\"}}",
      "EUit": "{{fun_0003_0001 arg=\"0x0006\"}}Non hai freddo?{{delay2}}\nPerché non ti riscaldi un po' accanto\nal fuoco da campo?{{fun_0001_0004 arg=\"0xEA03EB030001\"}}",
      "EUnl": "{{fun_0003_0001 arg=\"0x0006\"}}Heb je het niet koud?{{delay2}} Kom gerust bij het\nkampvuur zitten om je op te warmen.{{fun_0001_0004 arg=\"0xEA03EB030001\"}}",
      "EUru": "{{fun_0003_0001 arg=\"0x0006\"}}Продрог, небось?{{delay1}} Погрейся у костра.{{fun_0001_0004 arg=\"0xEA03EB030001\"}}",
      "JPja": "{{fun_0003_0001 arg=\"0x0006\"}}そんな{{ruby charSpan=\"2\" value=\"かっこう\"}}格好じゃ{{ruby charSpan=\"1\" value=\"さむ\"}}寒かろう{{delay2}}\nたき{{ruby charSpan=\"1\" value=\"び\"}}火にでも あたっていかんか？{{fun_0001_0004 arg=\"0xEA03EB030001\"}}",
      "KRko": "{{fun_0003_0001 arg=\"0x0006\"}}그 차림으론 추울 텐데{{delay2}}\n화톳불이라도 쬐고 가게나{{fun_0001_0004 arg=\"0xEA03EB030001\"}}",
      "TWzh": "{{fun_0003_0001 arg=\"0x0006\"}}你穿這麼少一定很冷吧。{{delay2}}\n要不要來營火旁取暖？{{fun_0001_0004 arg=\"0xEA03EB030001\"}}",
      "USen": "{{fun_0003_0001 arg=\"0x0006\"}}You'll catch a chill out there in the wild.{{delay2}}\nCome warm your bones by the fire.{{fun_0001_0004 arg=\"0xEA03EB030001\"}}",
      "USes": "{{fun_0003_0001 arg=\"0x0006\"}}Así te va a dar frío, joven.{{delay2}} ¿Por qué no\nte quedas junto a la hoguera?{{fun_0001_0004 arg=\"0xEA03EB030001\"}}",
      "USfr": "{{fun_0003_0001 arg=\"0x0006\"}}Tu dois mourir de froid, habillé comme\ntu l'es!{{delay2}} Viens donc te réchauffer un\npeu auprès du feu.{{fun_0001_0004 arg=\"0xEA03EB030001\"}}"
    }
  },
  {
    "label": "Talk03",
    "attribute": "0x4C010000",
    "locale": {
      "CNzh": "{{fun_0003_0001 arg=\"0x0004\"}}晚上很危险，怪物也会变得多起来。{{delay2}}\n要不要在这里待到天亮呢？{{fun_0001_0004 arg=\"0xEA03EB030001\"}}",
      "EUde": "{{fun_0003_0001 arg=\"0x0004\"}}Nachts sind viele Monster unterwegs.{{delay2}}\nWarum verbringst du nicht die Nacht\nhier?{{fun_0001_0004 arg=\"0xEA03EB030001\"}}",
      "EUen": "{{fun_0003_0001 arg=\"0x0004\"}}Vicious beasts answer the night's call in\ngreater numbers.{{delay2}} Feel free to pass the\ntime here with me until the light of morn.{{fun_0001_0004 arg=\"0xEA03EB030001\"}}",
      "EUes": "{{fun_0003_0001 arg=\"0x0004\"}}Ten cuidado si sales de noche, que hay\nmuchos más {{wordInfo gender=\"1\" defArticle=\"0\" indefArticle=\"0\" isPlural=\"0\"}}monstruos.{{delay2}} Puedes esperar\nhasta mañana junto al fuego si quieres.{{fun_0001_0004 arg=\"0xEA03EB030001\"}}",
      "EUfr": "{{fun_0003_0001 arg=\"0x0004\"}}La nuit est périlleuse, mon garçon, les\nmonstres sont beaucoup plus nombreux.{{delay2}}\nTu devrais attendre ici jusqu'au matin.{{fun_0001_0004 arg=\"0xEA03EB030001\"}}",
      "EUit": "{{fun_0003_0001 arg=\"0x0004\"}}La sera qui è ancora più pericoloso,\nperché ci sono più mostri in giro.{{delay2}}\nChe ne dici di riposarti fino al mattino?{{fun_0001_0004 arg=\"0xEA03EB030001\"}}",
      "EUnl": "{{fun_0003_0001 arg=\"0x0004\"}}'s Nachts lopen overal monsters rond.{{delay2}}\nWaarom wacht je hier niet tot de zon\nopkomt?{{fun_0001_0004 arg=\"0xEA03EB030001\"}}",
      "EUru": "{{fun_0003_0001 arg=\"0x0004\"}}По ночам опасно — монстров полно.{{delay1}}\nЛучше пережди здесь до утра.{{fun_0001_0004 arg=\"0xEA03EB030001\"}}",
      "JPja": "{{fun_0003_0001 arg=\"0x0004\"}}{{ruby charSpan=\"1\" value=\"よる\"}}夜は{{ruby charSpan=\"2\" value=\"まもの\"}}魔物も{{ruby charSpan=\"1\" value=\"ふ\"}}増えて {{ruby charSpan=\"1\" value=\"あぶ\"}}危ないぞ{{delay2}}\n{{ruby charSpan=\"1\" value=\"あさ\"}}朝まで ひまをつぶしていかんか？{{fun_0001_0004 arg=\"0xEA03EB030001\"}}",
      "KRko": "{{fun_0003_0001 arg=\"0x0004\"}}저녁은 몬스터도 늘어 위험해{{delay2}}\n아침까지 시간을 때우는 건 어떠한가?{{fun_0001_0004 arg=\"0xEA03EB030001\"}}",
      "TWzh": "{{fun_0003_0001 arg=\"0x0004\"}}每到夜晚怪物就會變多，很危險的。{{delay2}}\n要不要在這打發時間到天亮？{{fun_0001_0004 arg=\"0xEA03EB030001\"}}",
      "USen": "{{fun_0003_0001 arg=\"0x0004\"}}Vicious beasts answer the night's call in\ngreater numbers.{{delay2}} Feel free to pass the\ntime here with me until the light of morn.{{fun_0001_0004 arg=\"0xEA03EB030001\"}}",
      "USes": "{{fun_0003_0001 arg=\"0x0004\"}}Ten cuidado si sales de noche, que hay\nmuchos más {{wordInfo gender=\"1\" defArticle=\"0\" indefArticle=\"0\" isPlural=\"0\"}}monstruos.{{delay2}} Puedes esperar\nhasta mañana junto al fuego si quieres.{{fun_0001_0004 arg=\"0xEA03EB030001\"}}",
      "USfr": "{{fun_0003_0001 arg=\"0x0004\"}}La nuit est périlleuse, mon garçon, les\nmonstres sont beaucoup plus nombreux.{{delay2}}\nTu devrais attendre ici jusqu'au matin.{{fun_0001_0004 arg=\"0xEA03EB030001\"}}"
    }
  },
  {
    "label": "Talk04",
    "attribute": "0x74010000",
    "locale": {
      "CNzh": "{{fun_0003_0001 arg=\"0x000C\"}}干嘛……{{delay2}}\n我好不容易才睡着的。{{fun_0001_0004 arg=\"0xEA03EB030001\"}}",
      "EUde": "{{fun_0003_0001 arg=\"0x000C\"}}Was ist denn?{{delay2}}\nIch war gerade eingeschlafen.{{fun_0001_0004 arg=\"0xEA03EB030001\"}}",
      "EUen": "{{fun_0003_0001 arg=\"0x000C\"}}Hrm?! What's that?{{delay2}} It seems there is\nno rest for the old and weary.{{fun_0001_0004 arg=\"0xEA03EB030001\"}}",
      "EUes": "{{fun_0003_0001 arg=\"0x000C\"}}¿Por qué me despiertas?{{delay2}} Ahora que\npor fin había agarrado el sueño...{{fun_0001_0004 arg=\"0xEA03EB030001\"}}",
      "EUfr": "{{fun_0003_0001 arg=\"0x000C\"}}Quoi, qu'y a-t-il ?{{delay2}}\nJ'avais enfin fini par m'endormir...{{fun_0001_0004 arg=\"0xEA03EB030001\"}}",
      "EUit": "{{fun_0003_0001 arg=\"0x000C\"}}Accidenti...{{delay2}}\nProprio adesso che mi ero addormentato.{{fun_0001_0004 arg=\"0xEA03EB030001\"}}",
      "EUnl": "{{fun_0003_0001 arg=\"0x000C\"}}Huh? Wat is er aan de hand?{{delay2}}\nIk lag net zo lekker te slapen...{{fun_0001_0004 arg=\"0xEA03EB030001\"}}",
      "EUru": "{{fun_0003_0001 arg=\"0x000C\"}}Чего тебе?{{delay1}} Не даешь\nстарику отдохнуть...{{fun_0001_0004 arg=\"0xEA03EB030001\"}}",
      "JPja": "{{fun_0003_0001 arg=\"0x000C\"}}なんじゃ…{{delay2}}\nせっかく {{ruby charSpan=\"1\" value=\"ね\"}}寝てたというにのう{{fun_0001_0004 arg=\"0xEA03EB030001\"}}",
      "KRko": "{{fun_0003_0001 arg=\"0x000C\"}}뭔가…{{delay2}}\n모처럼 잠에 들었거늘{{fun_0001_0004 arg=\"0xEA03EB030001\"}}",
      "TWzh": "{{fun_0003_0001 arg=\"0x000C\"}}有事嗎……{{delay2}}\n我好不容易才睡著呢。{{fun_0001_0004 arg=\"0xEA03EB030001\"}}",
      "USen": "{{fun_0003_0001 arg=\"0x000C\"}}Hrm?! What's that?{{delay2}} It seems there is\nno rest for the old and weary.{{fun_0001_0004 arg=\"0xEA03EB030001\"}}",
      "USes": "{{fun_0003_0001 arg=\"0x000C\"}}¿Por qué me despiertas?{{delay2}} Con lo a gusto\nque dormía...{{fun_0001_0004 arg=\"0xEA03EB030001\"}}",
      "USfr": "{{fun_0003_0001 arg=\"0x000C\"}}Quoi, qu'y a-t-il?{{delay2}}\nJ'avais enfin fini par m'endormir...{{fun_0001_0004 arg=\"0xEA03EB030001\"}}"
    }
  },
  {
    "label": "Talk06",
    "attribute": "0x9C010000",
    "locale": {
      "CNzh": "{{fun_0003_0001 arg=\"0x0701\"}}{{anim2 type=\"CustomLaugh\"}}嚯、嚯、嚯。{{delay2}}\n要不要去篝火那里烤烤火啊？{{fun_0001_0004 arg=\"0xEA03EB030001\"}}",
      "EUde": "{{fun_0003_0001 arg=\"0x0701\"}}{{anim2 type=\"CustomLaugh\"}}Ho ho ho...{{delay2}}\nSollen wir uns an das Feuer dort setzen?{{fun_0001_0004 arg=\"0xEA03EB030001\"}}",
      "EUen": "{{fun_0003_0001 arg=\"0x0701\"}}{{anim2 type=\"CustomLaugh\"}}Oho ho, what are you waiting for?{{delay2}}\nCome and sit by the fire.{{fun_0001_0004 arg=\"0xEA03EB030001\"}}",
      "EUes": "{{fun_0003_0001 arg=\"0x0701\"}}{{anim2 type=\"CustomLaugh\"}}Jo, jo, jo.{{delay2}} ¿Quieres sentarte un rato\njunto a la hoguera?{{fun_0001_0004 arg=\"0xEA03EB030001\"}}",
      "EUfr": "{{fun_0003_0001 arg=\"0x0701\"}}{{anim2 type=\"CustomLaugh\"}}Hohoho...{{delay2}} Viens donc t'asseoir\nau coin du feu !{{fun_0001_0004 arg=\"0xEA03EB030001\"}}",
      "EUit": "{{fun_0003_0001 arg=\"0x0701\"}}{{anim2 type=\"CustomLaugh\"}}Oh oh oh...{{delay2}}\nRiposati accanto al fuoco da campo\nprima di riprendere il tuo viaggio...{{fun_0001_0004 arg=\"0xEA03EB030001\"}}",
      "EUnl": "{{fun_0003_0001 arg=\"0x0701\"}}{{anim2 type=\"CustomLaugh\"}}Hehehe, waar wacht je op?{{delay2}} Kom toch\neven bij het kampvuur zitten!{{fun_0001_0004 arg=\"0xEA03EB030001\"}}",
      "EUru": "{{fun_0003_0001 arg=\"0x0701\"}}{{anim2 type=\"CustomLaugh\"}}Хо-хо-хо!{{delay2}} Может, у костра посидишь?{{fun_0001_0004 arg=\"0xEA03EB030001\"}}",
      "JPja": "{{fun_0003_0001 arg=\"0x0701\"}}{{anim2 type=\"CustomLaugh\"}}ふぉっ ふぉっ ふぉっ{{delay2}}\nそこのたき{{ruby charSpan=\"1\" value=\"び\"}}火に あたっていかんか？{{fun_0001_0004 arg=\"0xEA03EB030001\"}}",
      "KRko": "{{fun_0003_0001 arg=\"0x0701\"}}{{anim2 type=\"CustomLaugh\"}}허허허{{delay2}}\n저 화톳불이라도 쬐고 가게나{{fun_0001_0004 arg=\"0xEA03EB030001\"}}",
      "TWzh": "{{fun_0003_0001 arg=\"0x0701\"}}{{anim2 type=\"CustomLaugh\"}}呵呵呵，{{delay2}}\n要不要去那邊的營火旁取暖？{{fun_0001_0004 arg=\"0xEA03EB030001\"}}",
      "USen": "{{fun_0003_0001 arg=\"0x0701\"}}{{anim2 type=\"CustomLaugh\"}}Oho ho, what are you waiting for?{{delay2}}\nCome and sit by the fire.{{fun_0001_0004 arg=\"0xEA03EB030001\"}}",
      "USes": "{{fun_0003_0001 arg=\"0x0701\"}}{{anim2 type=\"CustomLaugh\"}}Jo, jo, jo.{{delay2}} ¿Quieres sentarte\nun rato junto al fuego?{{fun_0001_0004 arg=\"0xEA03EB030001\"}}",
      "USfr": "{{fun_0003_0001 arg=\"0x0701\"}}{{anim2 type=\"CustomLaugh\"}}Hohoho...{{delay2}}\nViens donc t'asseoir au coin du feu!{{fun_0001_0004 arg=\"0xEA03EB030001\"}}"
    }
  },
  {
    "label": "Talk07",
    "attribute": "0xC4010000",
    "locale": {
      "CNzh": "{{fun_0003_0001 arg=\"0x0006\"}}你还没有得到神庙里的宝物吗？{{fun_0001_0004 arg=\"0xEA03EB030001\"}}",
      "EUde": "{{fun_0003_0001 arg=\"0x0006\"}}Hast du den Schatz aus dem Schrein\nnoch nicht errungen?{{fun_0001_0004 arg=\"0xEA03EB030001\"}}",
      "EUen": "{{fun_0003_0001 arg=\"0x0006\"}}I take it you are still searching for\nsome of the treasure hidden here\non the plateau, correct?{{fun_0001_0004 arg=\"0xEA03EB030001\"}}",
      "EUes": "{{fun_0003_0001 arg=\"0x0006\"}}¿Aún no has encontrado el tesoro?{{fun_0001_0004 arg=\"0xEA03EB030001\"}}",
      "EUfr": "{{fun_0003_0001 arg=\"0x0006\"}}Tu n'as toujours pas récupéré le\ntrésor du sanctuaire ?{{fun_0001_0004 arg=\"0xEA03EB030001\"}}",
      "EUit": "{{fun_0003_0001 arg=\"0x0006\"}}Non hai ancora trovato nessun tesoro?{{fun_0001_0004 arg=\"0xEA03EB030001\"}}",
      "EUnl": "{{fun_0003_0001 arg=\"0x0006\"}}Hoe staan de zaken ervoor, meneer de\nschatzoeker?{{fun_0001_0004 arg=\"0xEA03EB030001\"}}",
      "EUru": "{{fun_0003_0001 arg=\"0x0006\"}}Ты уже побывал в святилище?{{fun_0001_0004 arg=\"0xEA03EB030001\"}}",
      "JPja": "{{fun_0003_0001 arg=\"0x0006\"}}{{ruby charSpan=\"1\" value=\"ほこら\"}}祠のお{{ruby charSpan=\"1\" value=\"たから\"}}宝は まだかの？{{fun_0001_0004 arg=\"0xEA03EB030001\"}}",
      "KRko": "{{fun_0003_0001 arg=\"0x0006\"}}사당의 보물은 아직인가?{{fun_0001_0004 arg=\"0xEA03EB030001\"}}",
      "TWzh": "{{fun_0003_0001 arg=\"0x0006\"}}還沒找到神廟的寶物？{{fun_0001_0004 arg=\"0xEA03EB030001\"}}",
      "USen": "{{fun_0003_0001 arg=\"0x0006\"}}I take it you are still searching for\nsome of the treasure hidden here\non the plateau, correct?{{fun_0001_0004 arg=\"0xEA03EB030001\"}}",
      "USes": "{{fun_0003_0001 arg=\"0x0006\"}}¿Todavía no tienes los tesoros\nde los santuarios?{{fun_0001_0004 arg=\"0xEA03EB030001\"}}",
      "USfr": "{{fun_0003_0001 arg=\"0x0006\"}}Tu n'as toujours pas récupéré\nle trésor du sanctuaire?{{fun_0001_0004 arg=\"0xEA03EB030001\"}}"
    }
  },
  {
    "label": "Talk08",
    "attribute": "0xEC010000",
    "locale": {
      "CNzh": "{{fun_0003_0001 arg=\"0x0006\"}}神庙找得怎么样了？\n进展顺利吗？{{fun_0001_0004 arg=\"0xEA03EB030001\"}}",
      "EUde": "{{fun_0003_0001 arg=\"0x0006\"}}Kommst du mit der Erkundung der\nSchreine voran?{{fun_0001_0004 arg=\"0xEA03EB030001\"}}",
      "EUen": "{{fun_0003_0001 arg=\"0x0006\"}}So then... How goes your endeavor to\nexplore the shrines?{{fun_0001_0004 arg=\"0xEA03EB030001\"}}",
      "EUes": "{{fun_0003_0001 arg=\"0x0006\"}}¿Cómo progresa la búsqueda?\n¿Has explorado algún santuario más?{{fun_0001_0004 arg=\"0xEA03EB030001\"}}",
      "EUfr": "{{fun_0003_0001 arg=\"0x0006\"}}Alors, où en est-on de notre entreprise ?{{fun_0001_0004 arg=\"0xEA03EB030001\"}}",
      "EUit": "{{fun_0003_0001 arg=\"0x0006\"}}Allora, come prosegue l'esplorazione\ndei sacrari?{{fun_0001_0004 arg=\"0xEA03EB030001\"}}",
      "EUnl": "{{fun_0003_0001 arg=\"0x0006\"}}Schiet het al op met die tempels? Heb je\ner al meer ontdekt?{{fun_0001_0004 arg=\"0xEA03EB030001\"}}",
      "EUru": "{{fun_0003_0001 arg=\"0x0006\"}}Ну что, как святилища?{{delay1}}\nВо всех побывал?{{fun_0001_0004 arg=\"0xEA03EB030001\"}}",
      "JPja": "{{fun_0003_0001 arg=\"0x0006\"}}{{ruby charSpan=\"2\" value=\"ほこらさが\"}}祠探しのほうは どうじゃ？\nはかどっておるかの？{{fun_0001_0004 arg=\"0xEA03EB030001\"}}",
      "KRko": "{{fun_0003_0001 arg=\"0x0006\"}}사당 찾기는 어떠한가?\n순조롭게 진행되고 있는가?{{fun_0001_0004 arg=\"0xEA03EB030001\"}}",
      "TWzh": "{{fun_0003_0001 arg=\"0x0006\"}}神廟找得怎麼樣了？\n還順利嗎？{{fun_0001_0004 arg=\"0xEA03EB030001\"}}",
      "USen": "{{fun_0003_0001 arg=\"0x0006\"}}So then... How goes your endeavor to\nexplore the shrines?{{fun_0001_0004 arg=\"0xEA03EB030001\"}}",
      "USes": "{{fun_0003_0001 arg=\"0x0006\"}}¿Cómo progresa la búsqueda?\n¿Has explorado algún santuario más?{{fun_0001_0004 arg=\"0xEA03EB030001\"}}",
      "USfr": "{{fun_0003_0001 arg=\"0x0006\"}}Alors, où en est-on de notre entreprise?{{fun_0001_0004 arg=\"0xEA03EB030001\"}}"
    }
  },
  {
    "label": "Talk09",
    "attribute": "0x14020000",
    "locale": {
      "CNzh": "{{fun_0003_0001 arg=\"0x0701\"}}{{anim2 type=\"CustomLaugh\"}}嚯、嚯、嚯。{{delay2}}\n你找我有什么事？{{fun_0001_0004 arg=\"0xEA03EB030001\"}}",
      "EUde": "{{fun_0003_0001 arg=\"0x0701\"}}{{anim2 type=\"CustomLaugh\"}}Ho ho ho...{{delay2}}\nWas kann ich für dich tun?{{fun_0001_0004 arg=\"0xEA03EB030001\"}}",
      "EUen": "{{fun_0003_0001 arg=\"0x0701\"}}{{anim2 type=\"CustomLaugh\"}}Yes?{{delay2}} How might I be of service to you?{{fun_0001_0004 arg=\"0xEA03EB030001\"}}",
      "EUes": "{{fun_0003_0001 arg=\"0x0701\"}}{{anim2 type=\"CustomLaugh\"}}Jo, jo, jo.{{delay2}} ¿En qué puedo ayudarte?{{fun_0001_0004 arg=\"0xEA03EB030001\"}}",
      "EUfr": "{{fun_0003_0001 arg=\"0x0701\"}}{{anim2 type=\"CustomLaugh\"}}Hohoho...{{delay2}} Est-ce que je peux faire\nquelque chose pour toi ?{{fun_0001_0004 arg=\"0xEA03EB030001\"}}",
      "EUit": "{{fun_0003_0001 arg=\"0x0701\"}}{{anim2 type=\"CustomLaugh\"}}Oh oh oh...{{delay2}}\nCome posso aiutarti?{{fun_0001_0004 arg=\"0xEA03EB030001\"}}",
      "EUnl": "{{fun_0003_0001 arg=\"0x0701\"}}{{anim2 type=\"CustomLaugh\"}}Ja?{{delay2}} Kan ik iets voor je betekenen?{{fun_0001_0004 arg=\"0xEA03EB030001\"}}",
      "EUru": "{{fun_0003_0001 arg=\"0x0701\"}}{{anim2 type=\"CustomLaugh\"}}Хо-хо-хо!{{delay2}} Чем могу помочь?{{fun_0001_0004 arg=\"0xEA03EB030001\"}}",
      "JPja": "{{fun_0003_0001 arg=\"0x0701\"}}{{anim2 type=\"CustomLaugh\"}}ふぉっ ふぉっ ふぉっ{{delay2}}\nわしに {{ruby charSpan=\"1\" value=\"なに\"}}何か{{ruby charSpan=\"1\" value=\"よう\"}}用かの？{{fun_0001_0004 arg=\"0xEA03EB030001\"}}",
      "KRko": "{{fun_0003_0001 arg=\"0x0701\"}}{{anim2 type=\"CustomLaugh\"}}허허허{{delay2}}\n내게 무슨 볼일인가?{{fun_0001_0004 arg=\"0xEA03EB030001\"}}",
      "TWzh": "{{fun_0003_0001 arg=\"0x0701\"}}{{anim2 type=\"CustomLaugh\"}}呵呵呵，{{delay2}}\n找我有何事？{{fun_0001_0004 arg=\"0xEA03EB030001\"}}",
      "USen": "{{fun_0003_0001 arg=\"0x0701\"}}{{anim2 type=\"CustomLaugh\"}}Yes?{{delay2}} How might I be of service to you?{{fun_0001_0004 arg=\"0xEA03EB030001\"}}",
      "USes": "{{fun_0003_0001 arg=\"0x0701\"}}{{anim2 type=\"CustomLaugh\"}}Jo, jo, jo.{{delay2}} ¿En qué puedo ayudarte?{{fun_0001_0004 arg=\"0xEA03EB030001\"}}",
      "USfr": "{{fun_0003_0001 arg=\"0x0701\"}}{{anim2 type=\"CustomLaugh\"}}Hohoho...{{delay2}}\nEst-ce que je peux faire quelque\nchose pour toi?{{fun_0001_0004 arg=\"0xEA03EB030001\"}}"
    }
  },
  {
    "label": "Talk10",
    "attribute": "0x3C020000",
    "locale": {
      "CNzh": "{{fun_0003_0001 arg=\"0x0701\"}}{{fun_0004_0001 arg=\"0x08CD\"}}嚯、嚯、嚯。{{delay2}}\n果然你是想来和我说话吧？{{fun_0001_0008 arg=\"0xFFFF0000E9032C004E00700063005F004B0069006E0067005F0043006F006D006D006F006E005F004B006F006B006F0068006100EA0342004E00700063005F004B0069006E0067005F00560061006700720061006E0074003000300031005F00430068006F006900630065004500780063006C00750064006500EB0300000003\"}}",
      "EUde": "{{fun_0003_0001 arg=\"0x0701\"}}{{fun_0004_0001 arg=\"0x08CD\"}}Ho ho ho...{{delay2}}\nJetzt willst du also doch mit mir reden?{{fun_0001_0008 arg=\"0xFFFF0000E9032C004E00700063005F004B0069006E0067005F0043006F006D006D006F006E005F004B006F006B006F0068006100EA0342004E00700063005F004B0069006E0067005F00560061006700720061006E0074003000300031005F00430068006F006900630065004500780063006C00750064006500EB0300000003\"}}",
      "EUen": "{{fun_0003_0001 arg=\"0x0701\"}}{{fun_0004_0001 arg=\"0x08CD\"}}Oho ho! So you fancy yourself the\nstrong silent type, eh?{{fun_0001_0008 arg=\"0xFFFF0000E9032C004E00700063005F004B0069006E0067005F0043006F006D006D006F006E005F004B006F006B006F0068006100EA0342004E00700063005F004B0069006E0067005F00560061006700720061006E0074003000300031005F00430068006F006900630065004500780063006C00750064006500EB0300000003\"}}",
      "EUes": "{{fun_0003_0001 arg=\"0x0701\"}}{{fun_0004_0001 arg=\"0x08CD\"}}Jo, jo, jo.{{delay2}}\n¿Al final sí que te apetece hablar?{{fun_0001_0008 arg=\"0xFFFF0000E9032C004E00700063005F004B0069006E0067005F0043006F006D006D006F006E005F004B006F006B006F0068006100EA0342004E00700063005F004B0069006E0067005F00560061006700720061006E0074003000300031005F00430068006F006900630065004500780063006C00750064006500EB0300000003\"}}",
      "EUfr": "{{fun_0003_0001 arg=\"0x0701\"}}{{fun_0004_0001 arg=\"0x08CD\"}}Hohoho...{{delay2}} On dirait que tu as décidé de\nme parler, en fin de compte ?{{fun_0001_0008 arg=\"0xFFFF0000E9032C004E00700063005F004B0069006E0067005F0043006F006D006D006F006E005F004B006F006B006F0068006100EA0342004E00700063005F004B0069006E0067005F00560061006700720061006E0074003000300031005F00430068006F006900630065004500780063006C00750064006500EB0300000003\"}}",
      "EUit": "{{fun_0003_0001 arg=\"0x0701\"}}{{fun_0004_0001 arg=\"0x08CD\"}}Oh oh oh...{{delay2}}\nAdesso ti è venuta voglia di\nchiacchierare?{{fun_0001_0008 arg=\"0xFFFF0000E9032C004E00700063005F004B0069006E0067005F0043006F006D006D006F006E005F004B006F006B006F0068006100EA0342004E00700063005F004B0069006E0067005F00560061006700720061006E0074003000300031005F00430068006F006900630065004500780063006C00750064006500EB0300000003\"}}",
      "EUnl": "{{fun_0003_0001 arg=\"0x0701\"}}{{fun_0004_0001 arg=\"0x08CD\"}}Hehehe.{{delay2}} Ik zie al dat je geen grote prater\nbent...{{fun_0001_0008 arg=\"0xFFFF0000E9032C004E00700063005F004B0069006E0067005F0043006F006D006D006F006E005F004B006F006B006F0068006100EA0342004E00700063005F004B0069006E0067005F00560061006700720061006E0074003000300031005F00430068006F006900630065004500780063006C00750064006500EB0300000003\"}}",
      "EUru": "{{fun_0003_0001 arg=\"0x0701\"}}{{fun_0004_0001 arg=\"0x08CD\"}}Хо-хо-хо!{{delay2}} Все-таки\nхочешь поговорить?{{fun_0001_0008 arg=\"0xFFFF0000E9032C004E00700063005F004B0069006E0067005F0043006F006D006D006F006E005F004B006F006B006F0068006100EA0342004E00700063005F004B0069006E0067005F00560061006700720061006E0074003000300031005F00430068006F006900630065004500780063006C00750064006500EB0300000003\"}}",
      "JPja": "{{fun_0003_0001 arg=\"0x0701\"}}{{fun_0004_0001 arg=\"0x08CD\"}}ふぉっ ふぉっ ふぉっ{{delay2}}\nやっぱり {{ruby charSpan=\"1\" value=\"はなし\"}}話がしとうなったようじゃの？{{fun_0001_0008 arg=\"0xFFFF0000E9032C004E00700063005F004B0069006E0067005F0043006F006D006D006F006E005F004B006F006B006F0068006100EA0342004E00700063005F004B0069006E0067005F00560061006700720061006E0074003000300031005F00430068006F006900630065004500780063006C00750064006500EB0300000003\"}}",
      "KRko": "{{fun_0003_0001 arg=\"0x0701\"}}{{fun_0004_0001 arg=\"0x08CD\"}}허허허{{delay2}}\n역시 대화를 나누고 싶어졌나?{{fun_0001_0008 arg=\"0xFFFF0000E9032C004E00700063005F004B0069006E0067005F0043006F006D006D006F006E005F004B006F006B006F0068006100EA0342004E00700063005F004B0069006E0067005F00560061006700720061006E0074003000300031005F00430068006F006900630065004500780063006C00750064006500EB0300000003\"}}",
      "TWzh": "{{fun_0003_0001 arg=\"0x0701\"}}{{fun_0004_0001 arg=\"0x08CD\"}}呵呵呵，{{delay2}}\n終於肯找我說話啦？{{fun_0001_0008 arg=\"0xFFFF0000E9032C004E00700063005F004B0069006E0067005F0043006F006D006D006F006E005F004B006F006B006F0068006100EA0342004E00700063005F004B0069006E0067005F00560061006700720061006E0074003000300031005F00430068006F006900630065004500780063006C00750064006500EB0300000003\"}}",
      "USen": "{{fun_0003_0001 arg=\"0x0701\"}}{{fun_0004_0001 arg=\"0x08CD\"}}Oho ho! So you fancy yourself the\nstrong silent type, eh?{{fun_0001_0008 arg=\"0xFFFF0000E9032C004E00700063005F004B0069006E0067005F0043006F006D006D006F006E005F004B006F006B006F0068006100EA0342004E00700063005F004B0069006E0067005F00560061006700720061006E0074003000300031005F00430068006F006900630065004500780063006C00750064006500EB0300000003\"}}",
      "USes": "{{fun_0003_0001 arg=\"0x0701\"}}{{fun_0004_0001 arg=\"0x08CD\"}}Jo, jo, jo.{{delay2}}\n¿Al final sí tienes ganas de hablar?{{fun_0001_0008 arg=\"0xFFFF0000E9032C004E00700063005F004B0069006E0067005F0043006F006D006D006F006E005F004B006F006B006F0068006100EA0342004E00700063005F004B0069006E0067005F00560061006700720061006E0074003000300031005F00430068006F006900630065004500780063006C00750064006500EB0300000003\"}}",
      "USfr": "{{fun_0003_0001 arg=\"0x0701\"}}{{fun_0004_0001 arg=\"0x08CD\"}}Hohoho...{{delay2}}\nOn dirait que tu as décidé de\nme parler, en fin de compte?{{fun_0001_0008 arg=\"0xFFFF0000E9032C004E00700063005F004B0069006E0067005F0043006F006D006D006F006E005F004B006F006B006F0068006100EA0342004E00700063005F004B0069006E0067005F00560061006700720061006E0074003000300031005F00430068006F006900630065004500780063006C00750064006500EB0300000003\"}}"
    }
  },
  {
    "label": "Talk11",
    "attribute": "0x64020000",
    "locale": {
      "CNzh": "{{fun_0003_0001 arg=\"0x0002\"}}嗯？怎么了？{{fun_0001_0008 arg=\"0xFFFF0000E9032C004E00700063005F004B0069006E0067005F0043006F006D006D006F006E005F004B006F006B006F0068006100EA0342004E00700063005F004B0069006E0067005F00560061006700720061006E0074003000300031005F00430068006F006900630065004500780063006C00750064006500EB0300000003\"}}",
      "EUde": "{{fun_0003_0001 arg=\"0x0002\"}}Hm? Was willst du?{{fun_0001_0008 arg=\"0xFFFF0000E9032C004E00700063005F004B0069006E0067005F0043006F006D006D006F006E005F004B006F006B006F0068006100EA0342004E00700063005F004B0069006E0067005F00560061006700720061006E0074003000300031005F00430068006F006900630065004500780063006C00750064006500EB0300000003\"}}",
      "EUen": "{{fun_0003_0001 arg=\"0x0002\"}}Yes?{{fun_0001_0008 arg=\"0xFFFF0000E9032C004E00700063005F004B0069006E0067005F0043006F006D006D006F006E005F004B006F006B006F0068006100EA0342004E00700063005F004B0069006E0067005F00560061006700720061006E0074003000300031005F00430068006F006900630065004500780063006C00750064006500EB0300000003\"}}",
      "EUes": "{{fun_0003_0001 arg=\"0x0002\"}}¿Mmm? ¿Quieres algo?{{fun_0001_0008 arg=\"0xFFFF0000E9032C004E00700063005F004B0069006E0067005F0043006F006D006D006F006E005F004B006F006B006F0068006100EA0342004E00700063005F004B0069006E0067005F00560061006700720061006E0074003000300031005F00430068006F006900630065004500780063006C00750064006500EB0300000003\"}}",
      "EUfr": "{{fun_0003_0001 arg=\"0x0002\"}}Hmm ? Qu'y a-t-il ?{{fun_0001_0008 arg=\"0xFFFF0000E9032C004E00700063005F004B0069006E0067005F0043006F006D006D006F006E005F004B006F006B006F0068006100EA0342004E00700063005F004B0069006E0067005F00560061006700720061006E0074003000300031005F00430068006F006900630065004500780063006C00750064006500EB0300000003\"}}",
      "EUit": "{{fun_0003_0001 arg=\"0x0002\"}}Eh? Che c'è?{{fun_0001_0008 arg=\"0xFFFF0000E9032C004E00700063005F004B0069006E0067005F0043006F006D006D006F006E005F004B006F006B006F0068006100EA0342004E00700063005F004B0069006E0067005F00560061006700720061006E0074003000300031005F00430068006F006900630065004500780063006C00750064006500EB0300000003\"}}",
      "EUnl": "{{fun_0003_0001 arg=\"0x0002\"}}Hmm? Wat is er?{{fun_0001_0008 arg=\"0xFFFF0000E9032C004E00700063005F004B0069006E0067005F0043006F006D006D006F006E005F004B006F006B006F0068006100EA0342004E00700063005F004B0069006E0067005F00560061006700720061006E0074003000300031005F00430068006F006900630065004500780063006C00750064006500EB0300000003\"}}",
      "EUru": "{{fun_0003_0001 arg=\"0x0002\"}}Слушаю?{{fun_0001_0008 arg=\"0xFFFF0000E9032C004E00700063005F004B0069006E0067005F0043006F006D006D006F006E005F004B006F006B006F0068006100EA0342004E00700063005F004B0069006E0067005F00560061006700720061006E0074003000300031005F00430068006F006900630065004500780063006C00750064006500EB0300000003\"}}",
      "JPja": "{{fun_0003_0001 arg=\"0x0002\"}}うん？ なんじゃ？{{fun_0001_0008 arg=\"0xFFFF0000E9032C004E00700063005F004B0069006E0067005F0043006F006D006D006F006E005F004B006F006B006F0068006100EA0342004E00700063005F004B0069006E0067005F00560061006700720061006E0074003000300031005F00430068006F006900630065004500780063006C00750064006500EB0300000003\"}}",
      "KRko": "{{fun_0003_0001 arg=\"0x0002\"}}응? 뭔가?{{fun_0001_0008 arg=\"0xFFFF0000E9032C004E00700063005F004B0069006E0067005F0043006F006D006D006F006E005F004B006F006B006F0068006100EA0342004E00700063005F004B0069006E0067005F00560061006700720061006E0074003000300031005F00430068006F006900630065004500780063006C00750064006500EB0300000003\"}}",
      "TWzh": "{{fun_0003_0001 arg=\"0x0002\"}}嗯？有事嗎？{{fun_0001_0008 arg=\"0xFFFF0000E9032C004E00700063005F004B0069006E0067005F0043006F006D006D006F006E005F004B006F006B006F0068006100EA0342004E00700063005F004B0069006E0067005F00560061006700720061006E0074003000300031005F00430068006F006900630065004500780063006C00750064006500EB0300000003\"}}",
      "USen": "{{fun_0003_0001 arg=\"0x0002\"}}Yes?{{fun_0001_0008 arg=\"0xFFFF0000E9032C004E00700063005F004B0069006E0067005F0043006F006D006D006F006E005F004B006F006B006F0068006100EA0342004E00700063005F004B0069006E0067005F00560061006700720061006E0074003000300031005F00430068006F006900630065004500780063006C00750064006500EB0300000003\"}}",
      "USes": "{{fun_0003_0001 arg=\"0x0002\"}}¿Mmm? ¿Quieres algo?{{fun_0001_0008 arg=\"0xFFFF0000E9032C004E00700063005F004B0069006E0067005F0043006F006D006D006F006E005F004B006F006B006F0068006100EA0342004E00700063005F004B0069006E0067005F00560061006700720061006E0074003000300031005F00430068006F006900630065004500780063006C00750064006500EB0300000003\"}}",
      "USfr": "{{fun_0003_0001 arg=\"0x0002\"}}Hmm? Qu'y a-t-il?{{fun_0001_0008 arg=\"0xFFFF0000E9032C004E00700063005F004B0069006E0067005F0043006F006D006D006F006E005F004B006F006B006F0068006100EA0342004E00700063005F004B0069006E0067005F00560061006700720061006E0074003000300031005F00430068006F006900630065004500780063006C00750064006500EB0300000003\"}}"
    }
  },
  {
    "label": "TalkHub1_01",
    "attribute": "0x8C020000",
    "locale": {
      "CNzh": "{{fun_0003_0001 arg=\"0x0701\"}}{{anim2 type=\"CustomLaugh\"}}嚯、嚯、嚯。{{fun_0001_0008 arg=\"0xFFFF0000E9032C004E00700063005F004B0069006E0067005F0043006F006D006D006F006E005F004B006F006B006F0068006100EA0342004E00700063005F004B0069006E0067005F00560061006700720061006E0074003000300031005F00430068006F006900630065004500780063006C00750064006500EB0300000003\"}}",
      "EUde": "{{fun_0003_0001 arg=\"0x0701\"}}{{anim2 type=\"CustomLaugh\"}}Ho ho ho...{{fun_0001_0008 arg=\"0xFFFF0000E9032C004E00700063005F004B0069006E0067005F0043006F006D006D006F006E005F004B006F006B006F0068006100EA0342004E00700063005F004B0069006E0067005F00560061006700720061006E0074003000300031005F00430068006F006900630065004500780063006C00750064006500EB0300000003\"}}",
      "EUen": "{{fun_0003_0001 arg=\"0x0701\"}}{{anim2 type=\"CustomLaugh\"}}Oho ho!{{fun_0001_0008 arg=\"0xFFFF0000E9032C004E00700063005F004B0069006E0067005F0043006F006D006D006F006E005F004B006F006B006F0068006100EA0342004E00700063005F004B0069006E0067005F00560061006700720061006E0074003000300031005F00430068006F006900630065004500780063006C00750064006500EB0300000003\"}}",
      "EUes": "{{fun_0003_0001 arg=\"0x0701\"}}{{anim2 type=\"CustomLaugh\"}}Jo, jo, jo.{{fun_0001_0008 arg=\"0xFFFF0000E9032C004E00700063005F004B0069006E0067005F0043006F006D006D006F006E005F004B006F006B006F0068006100EA0342004E00700063005F004B0069006E0067005F00560061006700720061006E0074003000300031005F00430068006F006900630065004500780063006C00750064006500EB0300000003\"}}",
      "EUfr": "{{fun_0003_0001 arg=\"0x0701\"}}{{anim2 type=\"CustomLaugh\"}}Hohoho...{{fun_0001_0008 arg=\"0xFFFF0000E9032C004E00700063005F004B0069006E0067005F0043006F006D006D006F006E005F004B006F006B006F0068006100EA0342004E00700063005F004B0069006E0067005F00560061006700720061006E0074003000300031005F00430068006F006900630065004500780063006C00750064006500EB0300000003\"}}",
      "EUit": "{{fun_0003_0001 arg=\"0x0701\"}}{{anim2 type=\"CustomLaugh\"}}Oh oh oh...{{fun_0001_0008 arg=\"0xFFFF0000E9032C004E00700063005F004B0069006E0067005F0043006F006D006D006F006E005F004B006F006B006F0068006100EA0342004E00700063005F004B0069006E0067005F00560061006700720061006E0074003000300031005F00430068006F006900630065004500780063006C00750064006500EB0300000003\"}}",
      "EUnl": "{{fun_0003_0001 arg=\"0x0701\"}}{{anim2 type=\"CustomLaugh\"}}Hehehe...{{fun_0001_0008 arg=\"0xFFFF0000E9032C004E00700063005F004B0069006E0067005F0043006F006D006D006F006E005F004B006F006B006F0068006100EA0342004E00700063005F004B0069006E0067005F00560061006700720061006E0074003000300031005F00430068006F006900630065004500780063006C00750064006500EB0300000003\"}}",
      "EUru": "{{fun_0003_0001 arg=\"0x0701\"}}{{anim2 type=\"CustomLaugh\"}}Хо-хо-хо!{{fun_0001_0008 arg=\"0xFFFF0000E9032C004E00700063005F004B0069006E0067005F0043006F006D006D006F006E005F004B006F006B006F0068006100EA0342004E00700063005F004B0069006E0067005F00560061006700720061006E0074003000300031005F00430068006F006900630065004500780063006C00750064006500EB0300000003\"}}",
      "JPja": "{{fun_0003_0001 arg=\"0x0701\"}}{{anim2 type=\"CustomLaugh\"}}ふぉっ ふぉっ ふぉっ{{fun_0001_0008 arg=\"0xFFFF0000E9032C004E00700063005F004B0069006E0067005F0043006F006D006D006F006E005F004B006F006B006F0068006100EA0342004E00700063005F004B0069006E0067005F00560061006700720061006E0074003000300031005F00430068006F006900630065004500780063006C00750064006500EB0300000003\"}}",
      "KRko": "{{fun_0003_0001 arg=\"0x0701\"}}{{anim2 type=\"CustomLaugh\"}}허허허{{fun_0001_0008 arg=\"0xFFFF0000E9032C004E00700063005F004B0069006E0067005F0043006F006D006D006F006E005F004B006F006B006F0068006100EA0342004E00700063005F004B0069006E0067005F00560061006700720061006E0074003000300031005F00430068006F006900630065004500780063006C00750064006500EB0300000003\"}}",
      "TWzh": "{{fun_0003_0001 arg=\"0x0701\"}}{{anim2 type=\"CustomLaugh\"}}呵呵呵。{{fun_0001_0008 arg=\"0xFFFF0000E9032C004E00700063005F004B0069006E0067005F0043006F006D006D006F006E005F004B006F006B006F0068006100EA0342004E00700063005F004B0069006E0067005F00560061006700720061006E0074003000300031005F00430068006F006900630065004500780063006C00750064006500EB0300000003\"}}",
      "USen": "{{fun_0003_0001 arg=\"0x0701\"}}{{anim2 type=\"CustomLaugh\"}}Oho ho!{{fun_0001_0008 arg=\"0xFFFF0000E9032C004E00700063005F004B0069006E0067005F0043006F006D006D006F006E005F004B006F006B006F0068006100EA0342004E00700063005F004B0069006E0067005F00560061006700720061006E0074003000300031005F00430068006F006900630065004500780063006C00750064006500EB0300000003\"}}",
      "USes": "{{fun_0003_0001 arg=\"0x0701\"}}{{anim2 type=\"CustomLaugh\"}}Jo, jo, jo.{{fun_0001_0008 arg=\"0xFFFF0000E9032C004E00700063005F004B0069006E0067005F0043006F006D006D006F006E005F004B006F006B006F0068006100EA0342004E00700063005F004B0069006E0067005F00560061006700720061006E0074003000300031005F00430068006F006900630065004500780063006C00750064006500EB0300000003\"}}",
      "USfr": "{{fun_0003_0001 arg=\"0x0701\"}}{{anim2 type=\"CustomLaugh\"}}Hohoho...{{fun_0001_0008 arg=\"0xFFFF0000E9032C004E00700063005F004B0069006E0067005F0043006F006D006D006F006E005F004B006F006B006F0068006100EA0342004E00700063005F004B0069006E0067005F00560061006700720061006E0074003000300031005F00430068006F006900630065004500780063006C00750064006500EB0300000003\"}}"
    }
  },
  {
    "label": "1001",
    "attribute": "0xB4020000",
    "locale": {
      "CNzh": "这里是？",
      "EUde": "Wo sind wir?",
      "EUen": "What is this place?",
      "EUes": "¿Dónde estoy?",
      "EUfr": "Où sommes-nous ?",
      "EUit": "Dove ci troviamo?",
      "EUnl": "Waar ben ik?",
      "EUru": "Что это за место?",
      "JPja": "ここは？",
      "KRko": "여기는?",
      "TWzh": "這裡是？",
      "USen": "What is this place?",
      "USes": "¿Dónde estoy?",
      "USfr": "Où sommes-nous?"
    }
  },
  {
    "label": "1002",
    "attribute": "0xB6020000",
    "locale": {
      "CNzh": "你在干什么？",
      "EUde": "Was machst du da?",
      "EUen": "What are you doing?",
      "EUes": "¿Qué haces?",
      "EUfr": "Que fais-tu ici ?",
      "EUit": "Che stai facendo?",
      "EUnl": "Wat doe je hier?",
      "EUru": "Что вы тут делаете?",
      "JPja": "なにしてるの？",
      "KRko": "뭐 하세요?",
      "TWzh": "你在做什麼？",
      "USen": "What are you doing?",
      "USes": "¿Qué haces?",
      "USfr": "Que fais-tu ici?"
    }
  },
  {
    "label": "1003",
    "attribute": "0xB8020000",
    "locale": {
      "CNzh": "再见",
      "EUde": "Wiedersehen.",
      "EUen": "Bye.",
      "EUes": "Adiós",
      "EUfr": "Au revoir.",
      "EUit": "Arrivederci.",
      "EUnl": "Tot ziens.",
      "EUru": "До свидания",
      "JPja": "さようなら",
      "KRko": "안녕히",
      "TWzh": "再見",
      "USen": "Bye.",
      "USes": "Adiós",
      "USfr": "Au revoir."
    }
  },
  {
    "label": "Takibi00",
    "attribute": "0xBA020000",
    "locale": {
      "CNzh": "{{fun_0003_0001 arg=\"0x0001\"}}身体有点冷了。{{delay2}}\n烤烤篝火休息下吧。",
      "EUde": "{{fun_0003_0001 arg=\"0x0001\"}}Es fröstelt mich gerade ein wenig...{{delay2}}\nAber so ein warmes Lagerfeuer kann\nwahre Wunder bewirken!",
      "EUen": "{{fun_0003_0001 arg=\"0x0001\"}}Oh... I was just feeling a chill.{{delay2}} A warm\nfire can do wonders for a weary soul.",
      "EUes": "{{fun_0003_0001 arg=\"0x0001\"}}Como refresca un poco,{{delay2}} me he sentado\nun rato junto a la hoguera para\ncalentarme.",
      "EUfr": "{{fun_0003_0001 arg=\"0x0001\"}}Je commençais à avoir froid, alors je suis\nvenu me reposer près du feu de camp.",
      "EUit": "{{fun_0003_0001 arg=\"0x0001\"}}Fa un po' freddino...{{delay2}}\nAllora mi riscaldo accanto\nal fuoco da campo...",
      "EUnl": "{{fun_0003_0001 arg=\"0x0001\"}}Ik had het koud,{{delay2}} dus ik zit me op te\nwarmen bij dit kampvuur.",
      "EUru": "{{fun_0003_0001 arg=\"0x0001\"}}Греюсь.{{delay1}} Кости чего-то ломит...{{delay1}}\nТы сам-то не замерз?",
      "JPja": "{{fun_0003_0001 arg=\"0x0001\"}}ちょっと {{ruby charSpan=\"1\" value=\"からだ\"}}体が{{ruby charSpan=\"1\" value=\"ひ\"}}冷えてのう{{delay2}}\nたき{{ruby charSpan=\"1\" value=\"び\"}}火にあたって {{ruby charSpan=\"1\" value=\"やす\"}}休んでおるのじゃ",
      "KRko": "{{fun_0003_0001 arg=\"0x0001\"}}조금 몸이 식은 것 같아{{delay2}}\n화톳불을 쬐며 쉬고 있었네",
      "TWzh": "{{fun_0003_0001 arg=\"0x0001\"}}我的身子有點冷，{{delay2}}\n正在營火旁取暖休息啊。",
      "USen": "{{fun_0003_0001 arg=\"0x0001\"}}Oh... I was just feeling a chill.{{delay2}} A warm\nfire can do wonders for a weary soul.",
      "USes": "{{fun_0003_0001 arg=\"0x0001\"}}Como tenía un poco de frío,{{delay2}} me\nsenté un rato junto a la hoguera\npara calentarme.",
      "USfr": "{{fun_0003_0001 arg=\"0x0001\"}}Je commençais à avoir froid, alors je suis\nvenu me reposer près du feu de camp."
    }
  },
  {
    "label": "Takibi01",
    "attribute": "0xE2020000",
    "locale": {
      "CNzh": "{{fun_0003_0001 arg=\"0x0001\"}}要打发时间的话，篝火最适合不过了。{{delay2}}\n只要看着火焰，你就会忘记时间的流逝。\n{{fun_0004_0001 arg=\"0x02CD\"}}你要不要也来试试？{{delay2}}\n只要你愿意，想休息多久都可以。",
      "EUde": "{{fun_0003_0001 arg=\"0x0001\"}}Nirgendwo kann man besser Zeit\ntotschlagen als an einem Lagerfeuer.{{pageBreak}}Man starrt einfach in die Flammen und\ndie Stunden vergehen wie im Flug...{{pageBreak}}{{fun_0004_0001 arg=\"0x02CD\"}}Na, wie wär's?{{delay2}} Mach's dir hier so lange\nbequem, wie du möchtest!",
      "EUen": "{{fun_0003_0001 arg=\"0x0001\"}}A campfire is a wonderful place to\npass the time.{{pageBreak}}Staring into these flames, it's easy to\nlose track of the hours...\n\n{{fun_0004_0001 arg=\"0x02CD\"}}Bah! Please ignore my ramblings.{{delay2}}\nFeel free to relax here for as long\nas you'd like.",
      "EUes": "{{fun_0003_0001 arg=\"0x0001\"}}No hay nada mejor para pasar el tiempo\nque observar cómo bailan las llamas.{{delay2}}\nMe quedo horas absorto.\n{{fun_0004_0001 arg=\"0x02CD\"}}¿Quieres unirte? {{delay2}}No me importaría\ntener compañía.",
      "EUfr": "{{fun_0003_0001 arg=\"0x0001\"}}Il n'y a rien de mieux que de regarder\nles flammes pour attendre que le temps\npasse.{{delay2}}\n{{fun_0004_0001 arg=\"0x02CD\"}}Je resterais des heures comme ça !\nTu veux te joindre à moi ?{{delay2}} Ça fait du\nbien de prendre le temps, parfois.",
      "EUit": "{{fun_0003_0001 arg=\"0x0001\"}}Per bivaccare non c'è niente di\nmeglio di un fuoco da campo...{{delay2}}\n\nGuardando la fiamma crepitante ti\ndimentichi dello scorrere del tempo.\n{{fun_0004_0001 arg=\"0x02CD\"}}Non sei d'accordo?{{delay2}} Resta quanto vuoi.",
      "EUnl": "{{fun_0003_0001 arg=\"0x0001\"}}Wanneer ik ergens op moet wachten, is\ner niks beters dan een kampvuur.{{delay2}} Als ik\ndaarnaar zit te staren, vergeet ik de tijd. \n{{fun_0004_0001 arg=\"0x02CD\"}}Ga gerust je gang.{{delay2}} Maak het je\ngemakkelijk en blijf zo lang je maar wilt.",
      "EUru": "{{fun_0003_0001 arg=\"0x0001\"}}Нет ничего лучше посиделок у костра.{{delay1}}\nСмотришь на огонь — и не замечаешь,\nкак проходит время...{{pageBreak}}{{fun_0004_0001 arg=\"0x02CD\"}}Садись.{{delay1}} Составь старику компанию.",
      "JPja": "{{fun_0003_0001 arg=\"0x0001\"}}ひまをつぶすには たき{{ruby charSpan=\"1\" value=\"び\"}}火が{{ruby charSpan=\"2\" value=\"いちばん\"}}一番じゃ{{delay2}}\n{{ruby charSpan=\"1\" value=\"ほのお\"}}炎を{{ruby charSpan=\"1\" value=\"み\"}}見ていると {{ruby charSpan=\"1\" value=\"とき\"}}時が{{ruby charSpan=\"1\" value=\"た\"}}経つのも{{ruby charSpan=\"1\" value=\"わす\"}}忘れるからのう\n{{fun_0004_0001 arg=\"0x02CD\"}}お{{ruby charSpan=\"1\" value=\"ぬし\"}}主も どうじゃ？{{delay2}}\n{{ruby charSpan=\"1\" value=\"す\"}}好きなだけ ゆっくりしていくがいい",
      "KRko": "{{fun_0003_0001 arg=\"0x0001\"}}시간 때우기엔 화톳불이 제일이지{{delay2}}\n불꽃을 보고 있으면 시간 가는 줄 모르겠거든\n{{fun_0004_0001 arg=\"0x02CD\"}}어떤가?{{delay2}}\n자네도 원하는 만큼 쉬었다 가게나",
      "TWzh": "{{fun_0003_0001 arg=\"0x0001\"}}營火是打發時間的最佳良伴，{{delay2}}\n看著火焰就會不知不覺忘記時間的流逝。\n{{fun_0004_0001 arg=\"0x02CD\"}}你也來試試如何？{{delay2}}\n慢慢坐，別客氣啊。",
      "USen": "{{fun_0003_0001 arg=\"0x0001\"}}A campfire is a wonderful place to\npass the time.{{pageBreak}}Staring into these flames, it's easy to\nlose track of the hours...\n\n{{fun_0004_0001 arg=\"0x02CD\"}}Bah! Please ignore my ramblings.{{delay2}}\nFeel free to relax here for as long\nas you'd like.",
      "USes": "{{fun_0003_0001 arg=\"0x0001\"}}No hay nada mejor para pasar el tiempo\nque observar cómo bailan las llamas.{{delay2}}\nMe quedo horas absorto.\n{{fun_0004_0001 arg=\"0x02CD\"}}¿Quieres unirte? {{delay2}}No me importaría\ntener compañía.",
      "USfr": "{{fun_0003_0001 arg=\"0x0001\"}}Il n'y a rien de mieux que de regarder\nles flammes pour attendre que le temps\npasse.{{delay2}}\n{{fun_0004_0001 arg=\"0x02CD\"}}Je resterais des heures comme ça!\nTu veux te joindre à moi?{{delay2}} Ça fait du\nbien de prendre le temps, parfois."
    }
  },
  {
    "label": "Takibi02",
    "attribute": "0x0A030000",
    "locale": {
      "CNzh": "{{fun_0003_0001 arg=\"0x0004\"}}要打发时间的话，篝火最适合不过了。{{delay2}}\n只要你愿意，想休息多久都可以。",
      "EUde": "{{fun_0003_0001 arg=\"0x0004\"}}Nirgendwo kann man besser Zeit\ntotschlagen als an einem Lagerfeuer.{{delay1}}\nMach's dir einfach hier bequem!",
      "EUen": "{{fun_0003_0001 arg=\"0x0004\"}}A roaring fire makes it easy to pass\nthe time.{{delay2}} Feel free to relax here for\nas long as you'd like.",
      "EUes": "{{fun_0003_0001 arg=\"0x0004\"}}Lo mejor para pasar el tiempo es\nuna buena hoguera.{{delay2}} Puedes sentarte\na descansar conmigo si quieres.",
      "EUfr": "{{fun_0003_0001 arg=\"0x0004\"}}Il n'y a rien de mieux que de regarder\nles flammes pour attendre que le temps\npasse.{{delay2}} Reste autant que tu le souhaites.",
      "EUit": "{{fun_0003_0001 arg=\"0x0004\"}}Per bivaccare non c'è niente di\nmeglio di un fuoco da campo.{{delay2}}\nResta pure quanto vuoi.",
      "EUnl": "{{fun_0003_0001 arg=\"0x0004\"}}Wanneer ik ergens op moet wachten, is\ner niks beters dan een kampvuur.{{delay2}} Maak\nhet je gemakkelijk en blijf zo lang je wilt.",
      "EUru": "{{fun_0003_0001 arg=\"0x0004\"}}Смотришь на огонь и не замечаешь,\nкак проходит время...{{delay2}} Располагайся,\nчувствуй себя как дома.",
      "JPja": "{{fun_0003_0001 arg=\"0x0004\"}}ひまをつぶすには たき{{ruby charSpan=\"1\" value=\"び\"}}火が{{ruby charSpan=\"2\" value=\"いちばん\"}}一番じゃ{{delay2}}\n{{ruby charSpan=\"1\" value=\"す\"}}好きなだけ ゆっくりしていくがいい",
      "KRko": "{{fun_0003_0001 arg=\"0x0004\"}}시간 때우기엔 화톳불이 제일이지{{delay2}}\n자네도 원하는 만큼 쉬었다 가게나",
      "TWzh": "{{fun_0003_0001 arg=\"0x0004\"}}營火是打發時間的最佳良伴，{{delay2}}\n慢慢坐，別客氣啊。",
      "USen": "{{fun_0003_0001 arg=\"0x0004\"}}A roaring fire makes it easy to pass\nthe time.{{delay2}} Feel free to relax here for\nas long as you'd like.",
      "USes": "{{fun_0003_0001 arg=\"0x0004\"}}Lo mejor para pasar el tiempo es\nuna buena hoguera.{{delay2}} Puedes sentarte\na descansar conmigo si quieres.",
      "USfr": "{{fun_0003_0001 arg=\"0x0004\"}}Il n'y a rien de mieux que de regarder\nles flammes pour attendre que le temps\npasse.{{delay2}} Reste autant que tu le souhaites."
    }
  },
  {
    "label": "Takibi03",
    "attribute": "0x32030000",
    "locale": {
      "CNzh": "{{fun_0003_0001 arg=\"0x0004\"}}我就烤烤篝火休息休息，\n然后再做个烤苹果吧。\n虽然生吃食材也不是不可以，\n但烘烤之后更有营养，\n吃起来也会更美味。",
      "EUde": "{{fun_0003_0001 arg=\"0x0004\"}}Ich mach's mir am Lagerfeuer\ngemütlich, wie du siehst.{{pageBreak}}Vielleicht röste ich mir gleich noch\neinen Apfel oder zwei...{{pageBreak}}Die meisten Sachen werden nahrhafter\nund schmecken besser, wenn man sie\nvor dem Essen röstet!",
      "EUen": "{{fun_0003_0001 arg=\"0x0004\"}}I'm relaxing by the fireside, of course.{{delay2}}\nAlthough I'll need to cook myself another\nbaked apple at some point...\nSimple foods such as apples are fine to\neat raw, but roasting them on a fire\nmakes them tastier and more nutritious.",
      "EUes": "{{fun_0003_0001 arg=\"0x0004\"}}Pues me limitaré a quedarme ante\nla hoguera mientras me como\nuna {{wordInfo gender=\"2\" defArticle=\"1\" indefArticle=\"1\" isPlural=\"0\"}}manzana asada.{{pageBreak}}Los alimentos hechos al fuego son\nmás nutritivos y tienen mejor sabor.",
      "EUfr": "{{fun_0003_0001 arg=\"0x0004\"}}Je crois que je vais rester ici un petit\nmoment, à me régaler de {{wordInfo gender=\"2\" defArticle=\"1\" indefArticle=\"1\" isPlural=\"0\"}}pomme grillée.{{delay2}}\n\nElle serait très bonne même sans la\npasser sur les flammes, mais elle est\nencore plus nourrissante comme ça.",
      "EUit": "{{fun_0003_0001 arg=\"0x0004\"}}Forse rimarrò a rilassarmi accanto al\nfuoco da campo assaporando un'altra\n{{wordInfo gender=\"2\" defArticle=\"2\" indefArticle=\"2\" isPlural=\"0\"}}mela cotta.\nÈ squisita anche mangiata cruda, ma\nabbrustolita sulla fiamma è ancor più\nnutriente e gustosa.",
      "EUnl": "{{fun_0003_0001 arg=\"0x0004\"}}Ik zit lekker bij het kampvuur, zoals je\nziet. {{delay2}}Ik zal zo meteen weer eens een\neen appeltje in het vuur houden.{{pageBreak}}Appels en zo zijn rauw natuurlijk ook\nlekker, maar als je ze roostert, worden ze\nnog voedzamer en smaken ze nog beter.",
      "EUru": "{{fun_0003_0001 arg=\"0x0004\"}}Я-то?{{delay1}} Да ничего не делаю.{{delay1}} Думаю вот,\nможет, еще одно яблочко испечь...{{pageBreak}}Дары природы можно и сырыми есть,\nно лучше жарить на костре: так они\nи вкуснее, и полезнее.",
      "JPja": "{{fun_0003_0001 arg=\"0x0004\"}}たき{{ruby charSpan=\"1\" value=\"び\"}}火に ゆっくりあたって\nまた {{ruby charSpan=\"1\" value=\"や\"}}焼きリンゴでも こしらえるとするかのう\n{{ruby charSpan=\"2\" value=\"しょくざい\"}}食材は そのまま{{ruby charSpan=\"1\" value=\"く\"}}食うのもいいが\nあぶった{{ruby charSpan=\"1\" value=\"ほう\"}}方が{{ruby charSpan=\"2\" value=\"えいよう\"}}栄養も{{ruby charSpan=\"1\" value=\"ま\"}}増して{{ruby charSpan=\"2\" value=\"うま\"}}美味いんじゃ",
      "KRko": "{{fun_0003_0001 arg=\"0x0004\"}}느긋하게 화톳불이나 쬐며\n구운 사과라도 더 만들어 볼까\n식재료는 그대로 먹어도 되지만\n익히는 편이 영양도 풍부해지고 맛있거든",
      "TWzh": "{{fun_0003_0001 arg=\"0x0004\"}}現在就待在營火旁悠閒取暖，\n順便弄個烤蘋果來吃好了。\n雖說食材本身也能直接吃，\n但烤過後不僅能增加營養，還很好吃呢。",
      "USen": "{{fun_0003_0001 arg=\"0x0004\"}}I'm relaxing by the fireside, of course.{{delay2}}\nAlthough I'll need to cook myself another\nbaked apple at some point...\nSimple foods such as apples are fine to\neat raw, but roasting them on a fire\nmakes them tastier and more nutritious.",
      "USes": "{{fun_0003_0001 arg=\"0x0004\"}}Pues tenía pensado quedarme ante\nla hoguera y comer una {{wordInfo gender=\"2\" defArticle=\"1\" indefArticle=\"1\" isPlural=\"0\"}}manzana asada.{{pageBreak}}Los alimentos hechos al fuego son\nmás nutritivos y tienen mejor sabor.",
      "USfr": "{{fun_0003_0001 arg=\"0x0004\"}}Je crois que je vais rester ici un petit\nmoment, à me régaler de {{wordInfo gender=\"2\" defArticle=\"1\" indefArticle=\"1\" isPlural=\"0\"}}pomme grillée.{{delay2}}\n\nElle serait très bonne même sans la\npasser sur les flammes, mais elle est\nencore plus nourrissante comme ça."
    }
  },
  {
    "label": "GoodBye00",
    "attribute": "0x5A030000",
    "locale": {
      "CNzh": "{{fun_0003_0001 arg=\"0x0001\"}}我很期待你带回神庙中的宝物哦。",
      "EUde": "{{fun_0003_0001 arg=\"0x0001\"}}Ich bin gespannt, was deine Schatzsuche\nso ans Tageslicht bringt!",
      "EUen": "{{fun_0003_0001 arg=\"0x0001\"}}I look forward to seeing what type of\ntreasure you secure out there.",
      "EUes": "{{fun_0003_0001 arg=\"0x0001\"}}Tengo unas ganas enormes de ver lo que\nvas a traerme...",
      "EUfr": "{{fun_0003_0001 arg=\"0x0001\"}}J'ai hâte de voir ce que tu vas me\nramener !",
      "EUit": "{{fun_0003_0001 arg=\"0x0001\"}}Presto, portami quello che ti ho chiesto.",
      "EUnl": "{{fun_0003_0001 arg=\"0x0001\"}}Ik ben benieuwd wat voor schatten je\nweet te vinden!",
      "EUru": "{{fun_0003_0001 arg=\"0x0001\"}}Мне не терпится узнать, что\nза сокровище ты найдешь...",
      "JPja": "{{fun_0003_0001 arg=\"0x0001\"}}{{ruby charSpan=\"1\" value=\"ほこら\"}}祠のお{{ruby charSpan=\"1\" value=\"たから\"}}宝 {{ruby charSpan=\"1\" value=\"たの\"}}楽しみにしておるぞ",
      "KRko": "{{fun_0003_0001 arg=\"0x0001\"}}사당의 보물, 기대하고 있겠네",
      "TWzh": "{{fun_0003_0001 arg=\"0x0001\"}}我很期待神廟裡的寶物喔。",
      "USen": "{{fun_0003_0001 arg=\"0x0001\"}}I look forward to seeing what type of\ntreasure you secure out there.",
      "USes": "{{fun_0003_0001 arg=\"0x0001\"}}Tengo unas ganas enormes de ver qué\nclase de tesoro me vas a traer...",
      "USfr": "{{fun_0003_0001 arg=\"0x0001\"}}J'ai hâte de voir ce que\ntu vas me ramener!"
    }
  },
  {
    "label": "GoodBye01",
    "attribute": "0x82030000",
    "locale": {
      "CNzh": "{{fun_0003_0001 arg=\"0x0701\"}}{{fun_0004_0001 arg=\"0x08CD\"}}嚯、嚯、嚯。{{delay2}}\n想要{{color id=\"2\"}}滑翔帆{{color id=\"65535\"}}的话，你就得好好努力。",
      "EUde": "{{fun_0003_0001 arg=\"0x0701\"}}{{fun_0004_0001 arg=\"0x08CD\"}}Ho ho ho...{{delay2}}\nWenn du das {{color id=\"2\"}}Parasegel{{color id=\"65535\"}} haben möchtest,\nsolltest du dich ins Zeug legen.",
      "EUen": "{{fun_0003_0001 arg=\"0x0701\"}}{{fun_0004_0001 arg=\"0x08CD\"}}Oho ho!{{delay2}} If you still wish to acquire the\n{{color id=\"2\"}}paraglider{{color id=\"65535\"}}, you must put in the effort.\nI will not simply give it away, you see.",
      "EUes": "{{fun_0003_0001 arg=\"0x0701\"}}{{fun_0004_0001 arg=\"0x08CD\"}}Jo, jo, jo.{{delay2}} Si quieres mi {{color id=\"2\"}}{{wordInfo gender=\"2\" defArticle=\"1\" indefArticle=\"1\" isPlural=\"0\"}}paravela{{color id=\"65535\"}},\ntendrás que ganártela.",
      "EUfr": "{{fun_0003_0001 arg=\"0x0701\"}}{{fun_0004_0001 arg=\"0x08CD\"}}Hohoho...{{delay2}} Si tu veux la {{color id=\"2\"}}paravoile{{color id=\"65535\"}},\nil va falloir la mériter !",
      "EUit": "{{fun_0003_0001 arg=\"0x0701\"}}{{fun_0004_0001 arg=\"0x08CD\"}}Oh oh oh...{{delay2}}\nSe vuoi la {{color id=\"2\"}}paravela{{color id=\"65535\"}}, te la devi\nguadagnare...",
      "EUnl": "{{fun_0003_0001 arg=\"0x0701\"}}{{fun_0004_0001 arg=\"0x08CD\"}}Hehehe...{{delay2}} Als je het {{color id=\"2\"}}zweefzeil {{color id=\"65535\"}}echt wilt\nhebben, moet je er ook wat voor doen.\nIk geef het echt niet zomaar weg.",
      "EUru": "{{fun_0003_0001 arg=\"0x0701\"}}{{fun_0004_0001 arg=\"0x08CD\"}}Хо-хо-хо!{{delay2}} Если тебе нужен {{color id=\"2\"}}планер{{color id=\"65535\"}},\nпридется потрудиться.{{delay1}} Так просто\nя его не отдам.",
      "JPja": "{{fun_0003_0001 arg=\"0x0701\"}}{{fun_0004_0001 arg=\"0x08CD\"}}ふぉっ ふぉっ ふぉっ{{delay2}}\n{{color id=\"2\"}}パラセール{{color id=\"65535\"}}が{{ruby charSpan=\"1\" value=\"ほ\"}}欲しかったら がんばることじゃ",
      "KRko": "{{fun_0003_0001 arg=\"0x0701\"}}{{fun_0004_0001 arg=\"0x08CD\"}}허허허{{delay2}}\n{{color id=\"2\"}}패러세일{{color id=\"65535\"}}이 갖고 싶다면 열심히 해 보게나",
      "TWzh": "{{fun_0003_0001 arg=\"0x0701\"}}{{fun_0004_0001 arg=\"0x08CD\"}}呵呵呵。{{delay2}}\n如果你想要{{color id=\"2\"}}滑翔傘{{color id=\"65535\"}}，就好好加油吧。",
      "USen": "{{fun_0003_0001 arg=\"0x0701\"}}{{fun_0004_0001 arg=\"0x08CD\"}}Oho ho!{{delay2}} If you still wish to acquire the\n{{color id=\"2\"}}paraglider{{color id=\"65535\"}}, you must put in the effort.\nI will not simply give it away, you see.",
      "USes": "{{fun_0003_0001 arg=\"0x0701\"}}{{fun_0004_0001 arg=\"0x08CD\"}}Jo, jo, jo.{{delay2}} Si quieres mi {{color id=\"2\"}}{{wordInfo gender=\"2\" defArticle=\"1\" indefArticle=\"1\" isPlural=\"0\"}}paravela{{color id=\"65535\"}},\ntendrás que ganártela.",
      "USfr": "{{fun_0003_0001 arg=\"0x0701\"}}{{fun_0004_0001 arg=\"0x08CD\"}}Hohoho...{{delay2}} Si tu veux la {{color id=\"2\"}}paravoile{{color id=\"65535\"}},\nil va falloir la mériter!"
    }
  },
  {
    "label": "GoodBye02",
    "attribute": "0xAA030000",
    "locale": {
      "CNzh": "{{fun_0003_0001 arg=\"0x0005\"}}唔……{{delay2}}\n你没事就别叫醒我啊。",
      "EUde": "{{fun_0003_0001 arg=\"0x0005\"}}Grml...{{delay2}}\nWenn du nichts von mir willst, dann lass\nmich in Ruhe schlafen.",
      "EUen": "{{fun_0003_0001 arg=\"0x0200\"}}Hmph!{{delay2}} To an old man, a sound sleep is\nmore valuable than gold. Please do not\ndisturb me unless you have need of me.",
      "EUes": "{{fun_0003_0001 arg=\"0x0005\"}}Mmm...{{delay2}} ¿Para qué me despiertas\nentonces si no querías nada?",
      "EUfr": "{{fun_0003_0001 arg=\"0x0005\"}}Grmm...{{delay2}} Pourquoi tu me réveilles si tu\nn'as rien à me dire ?",
      "EUit": "{{fun_0003_0001 arg=\"0x0005\"}}Uhm...{{delay2}} Lasciami dormire se non hai\nniente da chiedermi.",
      "EUnl": "{{fun_0003_0001 arg=\"0x0005\"}}Grrmbl...{{delay2}} Waarom maak je me wakker?",
      "EUru": "{{fun_0003_0001 arg=\"0x0005\"}}Хм...{{delay1}} Не буди меня просто так.",
      "JPja": "{{fun_0003_0001 arg=\"0x0005\"}}むう…{{delay2}}\n{{ruby charSpan=\"1\" value=\"よう\"}}用もないのに {{ruby charSpan=\"1\" value=\"お\"}}起こすでないぞ",
      "KRko": "{{fun_0003_0001 arg=\"0x0005\"}}흠…{{delay2}}\n용건도 없이 깨우지 말게나",
      "TWzh": "{{fun_0003_0001 arg=\"0x0005\"}}唔……{{delay2}}\n沒事就別擾人清夢啊。",
      "USen": "{{fun_0003_0001 arg=\"0x0200\"}}Hmph!{{delay2}} To an old man, a sound sleep is\nmore valuable than gold. Please do not\ndisturb me unless you have need of me.",
      "USes": "{{fun_0003_0001 arg=\"0x0005\"}}Mmm...{{delay2}} ¿Para qué me despiertas\nentonces si no querías nada?",
      "USfr": "{{fun_0003_0001 arg=\"0x0005\"}}Grmm...{{delay2}}\nPourquoi tu me réveilles si tu n'as\nrien à me dire?"
    }
  },
  {
    "label": "GoodBye03",
    "attribute": "0xD2030000",
    "locale": {
      "CNzh": "{{fun_0003_0001 arg=\"0x0701\"}}{{fun_0004_0001 arg=\"0x08CD\"}}嚯、嚯、嚯。{{delay2}}\n暖暖的，好舒服啊。",
      "EUde": "{{fun_0003_0001 arg=\"0x0701\"}}{{fun_0004_0001 arg=\"0x08CD\"}}Ho ho ho...{{delay2}}\nDas ist schön warm.",
      "EUen": "{{fun_0003_0001 arg=\"0x0701\"}}{{fun_0004_0001 arg=\"0x08CD\"}}Ah, invigorating!{{delay2}} I encourage you to\njoin me by this warm fire.",
      "EUes": "{{fun_0003_0001 arg=\"0x0701\"}}{{fun_0004_0001 arg=\"0x08CD\"}}Jo, jo, jo.{{delay2}} Qué calentito se está aquí.",
      "EUfr": "{{fun_0003_0001 arg=\"0x0701\"}}{{fun_0004_0001 arg=\"0x08CD\"}}Hohoho... {{delay2}}La chaleur des flammes est\nbien agréable !",
      "EUit": "{{fun_0003_0001 arg=\"0x0701\"}}{{fun_0004_0001 arg=\"0x08CD\"}}Oh oh oh...{{delay2}}\nChe calduccio accanto al fuoco...",
      "EUnl": "{{fun_0003_0001 arg=\"0x0701\"}}{{fun_0004_0001 arg=\"0x08CD\"}}Mmm, lekker warm.{{delay2}} Kom gerust ook bij\nhet vuur zitten.",
      "EUru": "{{fun_0003_0001 arg=\"0x0701\"}}{{fun_0004_0001 arg=\"0x08CD\"}}Хо-хо-хо!{{delay1}} Хорошо у костра...",
      "JPja": "{{fun_0003_0001 arg=\"0x0701\"}}{{fun_0004_0001 arg=\"0x08CD\"}}ふぉっ ふぉっ ふぉっ{{delay2}}\nあったかくて {{ruby charSpan=\"2\" value=\"きも\"}}気持ちがいいわい",
      "KRko": "{{fun_0003_0001 arg=\"0x0701\"}}{{fun_0004_0001 arg=\"0x08CD\"}}허허허{{delay2}}\n따뜻하니 기분 좋구먼",
      "TWzh": "{{fun_0003_0001 arg=\"0x0701\"}}{{fun_0004_0001 arg=\"0x08CD\"}}呵呵呵，{{delay2}}\n很暖很舒服喔。",
      "USen": "{{fun_0003_0001 arg=\"0x0701\"}}{{fun_0004_0001 arg=\"0x08CD\"}}Ah, invigorating!{{delay2}} I encourage you to\njoin me by this warm fire.",
      "USes": "{{fun_0003_0001 arg=\"0x0701\"}}{{fun_0004_0001 arg=\"0x08CD\"}}Jo, jo, jo. ¿Gustas acompañarme a\ndisfrutar de la hoguera? El calor te\nvendrá bien.",
      "USfr": "{{fun_0003_0001 arg=\"0x0701\"}}{{fun_0004_0001 arg=\"0x08CD\"}}Hohoho... {{delay2}}La chaleur des flammes est\nbien agréable!"
    }
  },
  {
    "label": "GoodBye04",
    "attribute": "0xFA030000",
    "locale": {
      "CNzh": "{{fun_0003_0001 arg=\"0x0001\"}}我暂时就待在这里了……{{delay2}}\n你要是有什么事的话，就过来找我好了。",
      "EUde": "{{fun_0003_0001 arg=\"0x0001\"}}Nun denn, ich werde wohl noch ein\nWeilchen hier sitzen.{{delay1}} Komm ruhig zu mir,\nwenn du Hilfe brauchst.",
      "EUen": "{{fun_0003_0001 arg=\"0x0001\"}}I shall be here for some time.{{delay2}}\nPlease let me know if I may\nbe of service.",
      "EUes": "{{fun_0003_0001 arg=\"0x0001\"}}Voy a quedarme aquí un rato más.{{delay2}}\nSi necesitas algo, ya sabes dónde estoy.",
      "EUfr": "{{fun_0003_0001 arg=\"0x0001\"}}Je vais rester ici un petit moment.{{delay2}}\nSi tu as des questions, je ferai de\nmon mieux pour y répondre.",
      "EUit": "{{fun_0003_0001 arg=\"0x0001\"}}Io me ne starò ancora un po' qui...{{delay2}}\nVieni a trovarmi se hai bisogno di\nqualcosa.",
      "EUnl": "{{fun_0003_0001 arg=\"0x0001\"}}Ik blijf hier nog wel even...{{delay2}}\nDus als je me nodig hebt, weet je me te\nvinden.",
      "EUru": "{{fun_0003_0001 arg=\"0x0001\"}}Я здесь какое-то время побуду.{{delay1}}\nПриходи, если понадоблюсь.",
      "JPja": "{{fun_0003_0001 arg=\"0x0001\"}}わしは しばらく ここにおるでな…{{delay2}}\n{{ruby charSpan=\"1\" value=\"なに\"}}何かあれば また{{ruby charSpan=\"1\" value=\"たず\"}}訪ねるがいい",
      "KRko": "{{fun_0003_0001 arg=\"0x0001\"}}난 당분간 이곳에 있을 테니…{{delay2}}\n무슨 일이 있으면 다시 찾아오게나",
      "TWzh": "{{fun_0003_0001 arg=\"0x0001\"}}我會暫時待在這……{{delay2}}\n有事就來找我吧。",
      "USen": "{{fun_0003_0001 arg=\"0x0001\"}}I shall be here for some time.{{delay2}}\nPlease let me know if I may\nbe of service.",
      "USes": "{{fun_0003_0001 arg=\"0x0001\"}}Voy a quedarme aquí un rato más.{{delay2}}\nSi necesitas algo, ya sabes donde estoy.",
      "USfr": "{{fun_0003_0001 arg=\"0x0001\"}}Je vais rester ici un petit moment.{{delay2}}\nSi tu as des questions, je ferai de\nmon mieux pour y répondre."
    }
  },
  {
    "label": "GoodBye05",
    "attribute": "0x22040000",
    "locale": {
      "CNzh": "{{fun_0003_0001 arg=\"0x0001\"}}对了……{{delay2}}\n你不是要去什么地方吗？",
      "EUde": "{{fun_0003_0001 arg=\"0x0001\"}}So, dann geh mal deines Wegs!\nWolltest du nicht irgendwo hin?",
      "EUen": "{{fun_0003_0001 arg=\"0x0001\"}}Do you not have somewhere else to be,\nyoung one?",
      "EUes": "{{fun_0003_0001 arg=\"0x0001\"}}Por cierto...{{delay2}} ¿No tienes cosas\nque hacer?",
      "EUfr": "{{fun_0003_0001 arg=\"0x0001\"}}Dis donc, gamin...{{delay2}} Tu n'avais pas\nquelque chose à faire, par hasard ?",
      "EUit": "{{fun_0003_0001 arg=\"0x0001\"}}Ragazzo...{{delay2}} non dovevi andare\nda qualche parte?",
      "EUnl": "{{fun_0003_0001 arg=\"0x0001\"}}Eh...{{delay2}}\nHeb je niks beters te doen?",
      "EUru": "{{fun_0003_0001 arg=\"0x0001\"}}Тебе, наверное, куда-то надо идти...",
      "JPja": "{{fun_0003_0001 arg=\"0x0001\"}}のう… お{{ruby charSpan=\"1\" value=\"ぬし\"}}主{{delay2}}\nどこか{{ruby charSpan=\"1\" value=\"い\"}}行くところが あるんじゃないかの？",
      "KRko": "{{fun_0003_0001 arg=\"0x0001\"}}흐음… 자네{{delay2}}\n어디 갈 곳이 있지 않은가?",
      "TWzh": "{{fun_0003_0001 arg=\"0x0001\"}}哎……你啊，{{delay2}}\n是不是有什麼地方要去？",
      "USen": "{{fun_0003_0001 arg=\"0x0001\"}}Do you not have somewhere else to be,\nyoung one?",
      "USes": "{{fun_0003_0001 arg=\"0x0001\"}}Por cierto...{{delay2}} ¿No tienes cosas\nque hacer?",
      "USfr": "{{fun_0003_0001 arg=\"0x0001\"}}Dis donc, gamin...{{delay2}} Tu n'avais pas\nquelque chose à faire, par hasard?"
    }
  },
  {
    "label": "Apple00",
    "attribute": "0x4A040000",
    "locale": {
      "CNzh": "{{fun_0003_0001 arg=\"0x000E\"}}这就是我做的烤苹果了！",
      "EUde": "{{fun_0003_0001 arg=\"0x000E\"}}He! Das ist mein {{wordInfo gender=\"1\" defArticle=\"0\" indefArticle=\"0\" isPlural=\"0\"}}Röstapfel!",
      "EUen": "{{fun_0003_0001 arg=\"0x000E\"}}I BEG YOUR PARDON! {{delay2}}I do believe that\nis my baked apple! You can't just go\nabout taking whatever you please!",
      "EUes": "{{fun_0003_0001 arg=\"0x000E\"}}¡Oye, tú, ladronzuelo!{{delay1}}\n¡Esa {{wordInfo gender=\"2\" defArticle=\"1\" indefArticle=\"1\" isPlural=\"0\"}}manzana asada es mía!",
      "EUfr": "{{fun_0003_0001 arg=\"0x000E\"}}Hé ! Ma {{wordInfo gender=\"2\" defArticle=\"1\" indefArticle=\"1\" isPlural=\"0\"}}pomme grillée !",
      "EUit": "{{fun_0003_0001 arg=\"0x000E\"}}Ehi! Quella {{wordInfo gender=\"2\" defArticle=\"2\" indefArticle=\"2\" isPlural=\"0\"}}mela cotta è mia!",
      "EUnl": "{{fun_0003_0001 arg=\"0x000E\"}}Hé, wat doe jij nou? {{delay2}}Dat is mijn appel!\nDat gaat zomaar niet!",
      "EUru": "{{fun_0003_0001 arg=\"0x000E\"}}Эй!{{delay1}} Это было мое яблоко!",
      "JPja": "{{fun_0003_0001 arg=\"0x000E\"}}こりゃ わしの{{ruby charSpan=\"1\" value=\"や\"}}焼きリンゴじゃぞ！",
      "KRko": "{{fun_0003_0001 arg=\"0x000E\"}}예끼! 내 구운 사과를 훔쳐!",
      "TWzh": "{{fun_0003_0001 arg=\"0x000E\"}}那是我的烤蘋果！",
      "USen": "{{fun_0003_0001 arg=\"0x000E\"}}I BEG YOUR PARDON! {{delay2}}I do believe that\nis my baked apple! You can't just go\nabout taking whatever you please!",
      "USes": "{{fun_0003_0001 arg=\"0x000E\"}}¡Oye, tú, ladronzuelo!\n¡Esa {{wordInfo gender=\"2\" defArticle=\"1\" indefArticle=\"1\" isPlural=\"0\"}}manzana asada es mía!",
      "USfr": "{{fun_0003_0001 arg=\"0x000E\"}}Hé! Ma {{wordInfo gender=\"2\" defArticle=\"1\" indefArticle=\"1\" isPlural=\"0\"}}pomme grillée!"
    }
  },
  {
    "label": "Apple01",
    "attribute": "0x72040000",
    "locale": {
      "CNzh": "{{fun_0003_0001 arg=\"0x0701\"}}{{fun_0004_0001 arg=\"0x08CD\"}}嚯、嚯、嚯。\n\n{{fun_0003_0001 arg=\"0x0001\"}}我开玩笑的……{{delay2}}\n苹果要烤得恰到好处才好吃啊。",
      "EUde": "{{fun_0003_0001 arg=\"0x0701\"}}{{fun_0004_0001 arg=\"0x08CD\"}}Ho ho ho...\n\n\n{{fun_0003_0001 arg=\"0x0001\"}}War nur Spaß. {{delay1}}Hier gibt es genug Äpfel\nfür uns beide.{{delay2}} Geröstet schmecken sie\nköstlich!",
      "EUen": "{{fun_0003_0001 arg=\"0x0701\"}}{{fun_0004_0001 arg=\"0x08CD\"}}Oho ho!{{delay2}} Forgive me—I could not resist\npulling your leg.\n\n{{fun_0003_0001 arg=\"0x0001\"}}Please help yourself. An apple and an\nopen flame make for a succulent treat.",
      "EUes": "{{fun_0003_0001 arg=\"0x0701\"}}{{fun_0004_0001 arg=\"0x08CD\"}}¡Jo, jo, jo!{{pageBreak}}{{fun_0003_0001 arg=\"0x0001\"}}Es broma, puedes quedártela.{{delay2}}\nYa verás que las manzanas están\nmucho más ricas asadas.",
      "EUfr": "{{fun_0003_0001 arg=\"0x0701\"}}{{fun_0004_0001 arg=\"0x08CD\"}}Hohoho...\n\n\n{{fun_0003_0001 arg=\"0x0001\"}}Allez, va, ça ne fait rien.{{delay2}} Il y a assez de\npommes pour deux, par ici. Et elles sont\nencore meilleures grillées !",
      "EUit": "{{fun_0003_0001 arg=\"0x0701\"}}{{fun_0004_0001 arg=\"0x08CD\"}}Oh oh oh...\n\n\n{{fun_0003_0001 arg=\"0x0001\"}}Scherzo...{{delay2}}\nHai fame? Abbrustolita al punto giusto\nè ancora più buona.",
      "EUnl": "{{fun_0003_0001 arg=\"0x0701\"}}{{fun_0004_0001 arg=\"0x08CD\"}}Hehehe... {{delay2}}Rustig maar, ik maak maar\neen grapje!{{pageBreak}}{{fun_0003_0001 arg=\"0x0001\"}}Je mag 'm hebben, hoor.{{delay2}} Zelf houd ik ze\nvoor de smaak altijd even in het vuur.",
      "EUru": "{{fun_0003_0001 arg=\"0x0701\"}}{{fun_0004_0001 arg=\"0x08CD\"}}Хо-хо-хо!{{pageBreak}}{{fun_0003_0001 arg=\"0x0001\"}}Ладно, прощаю.{{delay1}} Я еще испеку.{{delay1}}\nПеченые яблоки вкуснее сырых.",
      "JPja": "{{fun_0003_0001 arg=\"0x0701\"}}{{fun_0004_0001 arg=\"0x08CD\"}}ふぉっ ふぉっ ふぉっ\n\n{{fun_0003_0001 arg=\"0x0001\"}}{{ruby charSpan=\"2\" value=\"じょうだん\"}}冗談じゃよ…{{delay2}}\nリンゴは こんがり{{ruby charSpan=\"1\" value=\"や\"}}焼いたぐらいが{{ruby charSpan=\"2\" value=\"うま\"}}美味いんじゃ",
      "KRko": "{{fun_0003_0001 arg=\"0x0701\"}}{{fun_0004_0001 arg=\"0x08CD\"}}허허허\n\n{{fun_0003_0001 arg=\"0x0001\"}}농담일세…{{delay2}}\n사과는 노릇노릇하게 구워야 맛있지",
      "TWzh": "{{fun_0003_0001 arg=\"0x0701\"}}{{fun_0004_0001 arg=\"0x08CD\"}}呵呵呵。\n\n{{fun_0003_0001 arg=\"0x0001\"}}開玩笑的……{{delay2}}\n蘋果還是得烤到微焦才好吃呢。",
      "USen": "{{fun_0003_0001 arg=\"0x0701\"}}{{fun_0004_0001 arg=\"0x08CD\"}}Oho ho!{{delay2}} Forgive me—I could not resist\npulling your leg.\n\n{{fun_0003_0001 arg=\"0x0001\"}}Please help yourself. An apple and an\nopen flame make for a succulent treat.",
      "USes": "{{fun_0003_0001 arg=\"0x0701\"}}{{fun_0004_0001 arg=\"0x08CD\"}}¡Jo, jo, jo!{{pageBreak}}{{fun_0003_0001 arg=\"0x0001\"}}Es broma, puedes quedártela.{{delay2}}\nYa verás que las manzanas están\nmucho más ricas asadas.",
      "USfr": "{{fun_0003_0001 arg=\"0x0701\"}}{{fun_0004_0001 arg=\"0x08CD\"}}Hohoho...\n\n\n{{fun_0003_0001 arg=\"0x0001\"}}Allez, va, ça ne fait rien.{{delay2}} Il y a assez de\npommes pour deux, par ici. Et elles sont\nencore meilleures grillées!"
    }
  },
  {
    "label": "Torch00",
    "attribute": "0x9A040000",
    "locale": {
      "CNzh": "{{fun_0003_0001 arg=\"0x0014\"}}你打算拿那个火把做什么？{{fun_0001_0005 arg=\"0xD007D107D2070002\"}}",
      "EUde": "{{fun_0003_0001 arg=\"0x0014\"}}Was gedenkst du denn, mit dieser\n{{wordInfo gender=\"2\" defArticle=\"1\" indefArticle=\"1\" isPlural=\"0\"}}Fackel anzustellen?{{fun_0001_0005 arg=\"0xD007D107D2070002\"}}",
      "EUen": "{{fun_0003_0001 arg=\"0x0014\"}}Well then, just help yourself to that\ntorch there. {{delay2}}And how, may I ask,\nare you planning to use it?{{fun_0001_0005 arg=\"0xD007D107D2070002\"}}",
      "EUes": "{{fun_0003_0001 arg=\"0x0014\"}}Oye, ¿qué pretendes hacer con\nesa {{wordInfo gender=\"2\" defArticle=\"1\" indefArticle=\"1\" isPlural=\"0\"}}antorcha?{{fun_0001_0005 arg=\"0xD007D107D2070002\"}}",
      "EUfr": "{{fun_0003_0001 arg=\"0x0014\"}}Je peux savoir ce que tu as l'intention\nde faire avec cette {{wordInfo gender=\"2\" defArticle=\"1\" indefArticle=\"1\" isPlural=\"0\"}}torche ?{{fun_0001_0005 arg=\"0xD007D107D2070002\"}}",
      "EUit": "{{fun_0003_0001 arg=\"0x0014\"}}Che vuoi fare con quella {{wordInfo gender=\"2\" defArticle=\"2\" indefArticle=\"2\" isPlural=\"0\"}}torcia?{{fun_0001_0005 arg=\"0xD007D107D2070002\"}}",
      "EUnl": "{{fun_0003_0001 arg=\"0x0014\"}}En waar wilde je die fakkel precies voor\ngebruiken, als ik vragen mag?{{fun_0001_0005 arg=\"0xD007D107D2070002\"}}",
      "EUru": "{{fun_0003_0001 arg=\"0x0014\"}}Ты зачем факел взял?{{fun_0001_0005 arg=\"0xD007D107D2070002\"}}",
      "JPja": "{{fun_0003_0001 arg=\"0x0014\"}}その たいまつ どうするつもりじゃ？{{fun_0001_0005 arg=\"0xD007D107D2070002\"}}",
      "KRko": "{{fun_0003_0001 arg=\"0x0014\"}}그 횃불을 어쩔 셈인가?{{fun_0001_0005 arg=\"0xD007D107D2070002\"}}",
      "TWzh": "{{fun_0003_0001 arg=\"0x0014\"}}你拿火把打算做什麼？{{fun_0001_0005 arg=\"0xD007D107D2070002\"}}",
      "USen": "{{fun_0003_0001 arg=\"0x0014\"}}Well then, just help yourself to that\ntorch there. {{delay2}}And how, may I ask,\nare you planning to use it?{{fun_0001_0005 arg=\"0xD007D107D2070002\"}}",
      "USes": "{{fun_0003_0001 arg=\"0x0014\"}}Oye, ¿qué pretendes hacer\ncon esa {{wordInfo gender=\"2\" defArticle=\"1\" indefArticle=\"1\" isPlural=\"0\"}}antorcha?{{fun_0001_0005 arg=\"0xD007D107D2070002\"}}",
      "USfr": "{{fun_0003_0001 arg=\"0x0014\"}}Je peux savoir ce que tu as l'intention\nde faire avec cette {{wordInfo gender=\"2\" defArticle=\"1\" indefArticle=\"1\" isPlural=\"0\"}}torche?{{fun_0001_0005 arg=\"0xD007D107D2070002\"}}"
    }
  },
  {
    "label": "2000",
    "attribute": "0xC2040000",
    "locale": {
      "CNzh": "做成武器！",
      "EUde": "Als Waffe verwenden!",
      "EUen": "As a weapon!",
      "EUes": "Usarla como arma",
      "EUfr": "M'en faire une arme !",
      "EUit": "La uso come arma!",
      "EUnl": "Als wapen!",
      "EUru": "Я буду им драться!",
      "JPja": "{{ruby charSpan=\"2\" value=\"ぶき\"}}武器にする！",
      "KRko": "무기로 쓸 거예요!",
      "TWzh": "當武器！",
      "USen": "As a weapon!",
      "USes": "Usarla como arma",
      "USfr": "M'en faire une arme!"
    }
  },
  {
    "label": "2001",
    "attribute": "0xC4040000",
    "locale": {
      "CNzh": "点火！",
      "EUde": "Anzünden!",
      "EUen": "To set things on fire!",
      "EUes": "¡Quemar cosas!",
      "EUfr": "Jouer avec le feu !",
      "EUit": "La accendo!",
      "EUnl": "Om iets aan te steken!",
      "EUru": "Хочу его зажечь",
      "JPja": "{{ruby charSpan=\"1\" value=\"ひ\"}}火をつける！",
      "KRko": "불을 붙일 거예요!",
      "TWzh": "點火！",
      "USen": "To set things on fire!",
      "USes": "¡Quemar cosas!",
      "USfr": "Jouer avec le feu!"
    }
  },
  {
    "label": "2002",
    "attribute": "0xC6040000",
    "locale": {
      "CNzh": "不告诉你",
      "EUde": "Sag ich nicht!",
      "EUen": "It's a secret...",
      "EUes": "Es un secreto",
      "EUfr": "Je ne te le dirai pas.",
      "EUit": "È un segreto!",
      "EUnl": "Zeg ik niet!",
      "EUru": "Не скажу",
      "JPja": "ヒミツ",
      "KRko": "비밀",
      "TWzh": "秘密",
      "USen": "It's a secret...",
      "USes": "Es un secreto",
      "USfr": "Je ne te le dirai pas."
    }
  },
  {
    "label": "Torch01",
    "attribute": "0xC8040000",
    "locale": {
      "CNzh": "{{fun_0003_0001 arg=\"0x0005\"}}你个危险的家伙……{{delay2}}\n它是用来点火的。\n我告诉你，前方可有怪物。\n你要找武器的话，也找个像样点的啊。",
      "EUde": "{{fun_0003_0001 arg=\"0x0005\"}}Du bist mir ein Rabauke...{{delay2}}\nFackeln sind zum Anzünden gedacht.{{pageBreak}}Wenn du kämpfen willst, nimm\ngefälligst eine anständige Waffe.{{pageBreak}}Hier treiben sich Monster herum, die\nwürden dir was erzählen, wenn du\nmit einer Fackel ankämst...",
      "EUen": "{{fun_0003_0001 arg=\"0x0005\"}}Innovative...{{delay2}} However, that is probably\nbest used to light fires. {{delay1}}If you need a\nweapon, you can find something better.",
      "EUes": "{{fun_0003_0001 arg=\"0x0005\"}}Pero bueno, ¿qué os enseñan a\nlos jóvenes hoy en día?{{pageBreak}}A las antorchas se les prende fuego;\ncomo arma no son muy eficaces.",
      "EUfr": "{{fun_0003_0001 arg=\"0x0005\"}}Eh bien, quelle fougue, jeune homme !{{delay2}}\nCalme-toi un instant, cette torche est\nlà pour allumer le feu.\nMais il y a des monstres par ici, alors si\nc'est une arme que tu cherches, tu dois\npouvoir trouver mieux à proximité !",
      "EUit": "{{fun_0003_0001 arg=\"0x0005\"}}Sei un barbaro...{{delay2}}\nQuella si usa per appiccare il fuoco...\n\nPiù avanti ci sono dei mostri.\nSe vuoi un'arma, devi cercare\nqualcosa di più resistente.",
      "EUnl": "{{fun_0003_0001 arg=\"0x0005\"}}Leuk bedacht, maar luister... {{delay2}}Die fakkel\nis vooral om iets mee in brand te zetten.\nJe kunt vast wel een beter wapen vinden.",
      "EUru": "{{fun_0003_0001 arg=\"0x0005\"}}Ну ты и фантазер.{{delay1}} Вот только\nфакелами костры разводят,\nа не дерутся.{{pageBreak}}В округе полно монстров.{{delay1}} Если тебе\nнужно оружие, поищи что-нибудь\nполучше.",
      "JPja": "{{fun_0003_0001 arg=\"0x0005\"}}ぶっそうなヤツめ…{{delay2}}\nそいつは {{ruby charSpan=\"1\" value=\"ひ\"}}火をつけるのに{{ruby charSpan=\"1\" value=\"つか\"}}使うもんじゃ\nこの{{ruby charSpan=\"1\" value=\"さき\"}}先には{{ruby charSpan=\"2\" value=\"まもの\"}}魔物もおる\n{{ruby charSpan=\"2\" value=\"ぶき\"}}武器なら もっとマシなのにするんじゃな",
      "KRko": "{{fun_0003_0001 arg=\"0x0005\"}}불온한 녀석 같으니…{{delay2}}\n그건 불붙일 때 쓰는 물건이다\n이 앞엔 몬스터도 있어\n무기는 좀 더 제대로 된 걸 써야지",
      "TWzh": "{{fun_0003_0001 arg=\"0x0005\"}}真是個危險的傢伙……{{delay2}}\n那東西是拿來點火用的。\n前方有怪物出沒，\n需要武器的話，還是拿點像樣的東西吧。",
      "USen": "{{fun_0003_0001 arg=\"0x0005\"}}Innovative...{{delay2}} However, that is probably\nbest used to light fires. {{delay1}}If you need a\nweapon, you can find something better.",
      "USes": "{{fun_0003_0001 arg=\"0x0005\"}}Pero bueno, ¡vaya ocurrencias que\ntienen los jóvenes de hoy!{{pageBreak}}A las antorchas se les prende fuego;\ncomo arma no son muy eficaces.",
      "USfr": "{{fun_0003_0001 arg=\"0x0005\"}}Eh bien, quelle fougue, jeune homme!{{delay2}}\nCalme-toi un instant, cette torche est\nlà pour allumer le feu.\nMais il y a des monstres par ici, alors si\nc'est une arme que tu cherches, tu dois\npouvoir trouver mieux à proximité!"
    }
  },
  {
    "label": "Torch02",
    "attribute": "0xF0040000",
    "locale": {
      "CNzh": "如果你觉得我的斧头还不错，就拿去吧。\n我的斧头就在那里。",
      "EUde": "Da vorn hab ich meine Axt in den Stamm\ngeschlagen. {{delay1}}Du kannst sie haben!",
      "EUen": "Many beasts roam the land past this\npoint. You can take my axe with you,\nif you please. Assuming you can find it.",
      "EUes": "Si pretendes enfrentarte a los monstruos\nde esta zona, será mejor que cojas mi\nhacha. La dejé por aquí cerca...",
      "EUfr": "J'ai laissé une hache, juste là. Tu peux\nla prendre avec toi, si tu veux.",
      "EUit": "Se pensi che un'ascia possa bastare,\nla troverai lì da qualche parte.\nPrendila pure.",
      "EUnl": "Je zult vanaf nu allerlei monsters\ntegenkomen. Mijn bijl ligt hier ergens.\nAls je 'm vindt, mag je die wel pakken.",
      "EUru": "Там дальше мой топор в пень\nвоткнут — можешь взять.",
      "JPja": "わしのオノでもいいのなら その{{ruby charSpan=\"1\" value=\"へん\"}}辺にあるぞ\n{{ruby charSpan=\"1\" value=\"も\"}}持っていくがいいわい",
      "KRko": "내 도끼라도 괜찮다면 저쪽에 있으니\n가지고 가게나",
      "TWzh": "要是不介意我用過的斧頭，東西就放在那。\n你可以拿去用沒關係。",
      "USen": "Many beasts roam the land past this\npoint. You can take my axe with you,\nif you please. Assuming you can find it.",
      "USes": "Si pretendes enfrentarte a los monstruos\nde esta zona, será mejor que tomes mi\nhacha. La dejé por aquí cerca...",
      "USfr": "Il y a des monstres dans cette direction.\nTu ferais mieux de prendre ma hache\navec toi, je l'ai laissée juste là."
    }
  },
  {
    "label": "Torch02_2",
    "attribute": "0x18050000",
    "locale": {
      "CNzh": "看来你已经拥有我的斧头了，\n对你来说，我想它会更有用一点。",
      "EUde": "Das ist doch meine Axt, die du da hast,\noder etwa nicht? {{delay2}}Aber ist schon gut,\ndu brauchst sie sicher nötiger als ich.",
      "EUen": "Ah, I see you found my axe. I do believe\nit will be of more use to you than it is\nto me.",
      "EUes": "Veo que tienes mi hacha... Puedes\nquedártela. Seguro que tú le darás\nmejor uso.",
      "EUfr": "Je vois que tu as récupéré ma hache...\nÇa te sera sûrement plus utile, en effet.",
      "EUit": "Hai preso la mia ascia, eh? Servirà\npiù a te che a me, te l'assicuro.",
      "EUnl": "Dat ziet eruit als mijn bijl. Ik denk dat jij\ner meer aan hebt dan ik.",
      "EUru": "Ты, кажется, и топор мой взял.{{delay1}} Хм,\nну ладно, тебе он нужнее, чем мне.",
      "JPja": "わしのオノを{{ruby charSpan=\"1\" value=\"も\"}}持っているようじゃが\nそっちの{{ruby charSpan=\"1\" value=\"ほう\"}}方が{{ruby charSpan=\"1\" value=\"やく\"}}役に{{ruby charSpan=\"1\" value=\"た\"}}立つんじゃないかのう",
      "KRko": "내 도끼를 가지고 있는 모양이군\n그쪽이 도움이 될 게야",
      "TWzh": "你身上似乎帶著我的斧頭，\n那把斧頭應該更能派上用場吧。",
      "USen": "Ah, I see you found my axe. I do believe\nit will be of more use to you than it is\nto me.",
      "USes": "Veo que tienes mi hacha... Puedes\nquedártela. Seguro que tú le darás\nmejor uso.",
      "USfr": "Je vois que tu as récupéré ma hache...\nÇa te sera sûrement plus utile, en effet."
    }
  },
  {
    "label": "Torch03",
    "attribute": "0x40050000",
    "locale": {
      "CNzh": "{{fun_0003_0001 arg=\"0x0005\"}}你个危险的家伙……{{delay2}}\n不要在易燃的草丛附近挥舞它啊。\n虽然说是这么说，但前方可有怪物。\n到了万不得已的时候，\n拿它当作武器来用倒也是可以的。",
      "EUde": "{{fun_0003_0001 arg=\"0x0005\"}}Bei dir muss man ja Angst haben...{{delay2}}\nKomm damit bloß nicht in die Nähe\nvon trockenem Gras!\nAber, na ja... {{delay2}}Hier treiben sich eine ganze\nMenge Monster herum.{{delay2}} Vielleicht kannst\ndu dir sie damit vom Leib halten.",
      "EUen": "{{fun_0003_0001 arg=\"0x0005\"}}That is rather{{delay2}}...unnerving.{{delay2}} Please be\ncautious with that around any dry\ngrass that might catch fire.\nYou know, there are plenty of monsters\nin this area. That torch would make\na good weapon, if need be.",
      "EUes": "{{fun_0003_0001 arg=\"0x0005\"}}¡Qué peligro tienes!{{delay2}} Ten cuidado de no\nquemar el bosque entero; la hierba\nprende con mucha facilidad.\nAunque puede que te sea útil para\nenfrentarte a los monstruos que\nrondan por esta zona.",
      "EUfr": "{{fun_0003_0001 arg=\"0x0005\"}}Mais tu es un vrai danger public !{{delay2}}\nPrends garde à ne pas brûler la forêt\nentière, la végétation s'enflamme vite...\nCela dit, il y a pas mal de monstres dans\nles environs. Ça pourrait faire une arme\nintéressante, qui sait.",
      "EUit": "{{fun_0003_0001 arg=\"0x0005\"}}Sei pericoloso!{{delay2}} Fai attenzione all'erba,\npotrebbe prendere fuoco.\n\nPiù avanti è pieno di mostri. Forse\npotrebbe rivelarsi un'arma utile in\ndeterminate situazioni.",
      "EUnl": "{{fun_0003_0001 arg=\"0x0005\"}}Nou, als je maar voorzichtig bent.{{delay2}} Kijk uit\ndat je 'm bijvoorbeeld niet in de buurt\nhoudt van droog gras!\nHet zit daarginds vol met monsters.\nMisschien kun je ze ermee verjagen.",
      "EUru": "{{fun_0003_0001 arg=\"0x0005\"}}Ну смотри...{{delay2}} Только в сухую траву\nне заходи, а то пожар устроишь.{{pageBreak}}В округе полно монстров.{{delay1}} Может,\nты сможешь им отбиться...",
      "JPja": "{{fun_0003_0001 arg=\"0x0005\"}}あぶないヤツめ…{{delay2}}\n{{ruby charSpan=\"1\" value=\"も\"}}燃えやすい{{ruby charSpan=\"1\" value=\"くさ\"}}草の{{ruby charSpan=\"1\" value=\"ちか\"}}近くで {{ruby charSpan=\"1\" value=\"ふ\"}}振り{{ruby charSpan=\"1\" value=\"まわ\"}}回すんじゃないぞ\nとはいえ この{{ruby charSpan=\"1\" value=\"さき\"}}先には{{ruby charSpan=\"2\" value=\"まもの\"}}魔物もおるでな\nいざとなったら {{ruby charSpan=\"2\" value=\"ぶき\"}}武器として{{ruby charSpan=\"1\" value=\"つか\"}}使うのもいいがな",
      "KRko": "{{fun_0003_0001 arg=\"0x0005\"}}위험한 녀석 같으니…{{delay2}}\n타기 쉬운 풀 근처에선 휘두르지 말게\n뭐, 이 앞엔 몬스터도 있으니\n여차할 때 무기로 쓰는 것도 좋겠네만",
      "TWzh": "{{fun_0003_0001 arg=\"0x0005\"}}真是個危險的傢伙……{{delay2}}\n別在易燃的草地附近隨便亂揮。\n不過前方有怪物出沒，\n緊要關頭時，可以用它充當武器。",
      "USen": "{{fun_0003_0001 arg=\"0x0005\"}}That is rather{{delay2}}...unnerving.{{delay2}} Please be\ncautious with that around any dry\ngrass that might catch fire.\nYou know, there are plenty of monsters\nin this area. That torch would make\na good weapon, if need be.",
      "USes": "{{fun_0003_0001 arg=\"0x0005\"}}¡Qué peligro tienes!{{delay2}} Ten cuidado de no\nquemar el bosque entero; la hierba seca\nprende con mucha facilidad.\nAunque puede que te sea útil para\nenfrentarte a los monstruos que\nrondan por esta zona.",
      "USfr": "{{fun_0003_0001 arg=\"0x0005\"}}Mais tu es un vrai danger public!{{delay2}}\nPrends garde à ne pas brûler la forêt\nentière, la végétation s'enflamme vite...\nCela dit, il y a pas mal de monstres dans\nles environs. Ça pourrait faire une arme\nintéressante, qui sait."
    }
  },
  {
    "label": "Torch04",
    "attribute": "0x68050000",
    "locale": {
      "CNzh": "{{fun_0003_0001 arg=\"0x000E\"}}嗯……你想怎样就怎样吧。\n\n我要提醒你一句，前方可有怪物。\n到了万不得已的时候，\n你还可以拿它当作武器来用。",
      "EUde": "{{fun_0003_0001 arg=\"0x000E\"}}Hm... {{delay1}}Wie du willst.{{pageBreak}}Es kann jedenfalls nicht schaden, wenn\ndu sie mitnimmst. {{delay1}}Hier tummelt sich\nnämlich das ein oder andere Monster!{{pageBreak}}Vielleicht kannst du sie dir damit vom\nLeib halten.",
      "EUen": "{{fun_0003_0001 arg=\"0x000E\"}}I see. {{delay2}}Well then, do as you please.\n\n\nThere are plenty of monsters ahead of\nhere, though. Remember that you can\nuse that as a weapon, if need be.",
      "EUes": "{{fun_0003_0001 arg=\"0x000E\"}}Bah... Haz lo que quieras.{{pageBreak}}Puede que te sea útil para enfrentarte\na los monstruos que rondan por\nesta zona.",
      "EUfr": "{{fun_0003_0001 arg=\"0x000E\"}}Bah... Fais comme tu veux.\n\n\nC'est vrai qu'il y a plein de monstres,\ndans les environs. Ça pourrait faire une\narme en cas de besoin.",
      "EUit": "{{fun_0003_0001 arg=\"0x000E\"}}Bah... fai come ti pare...\n\n\nSappi che più avanti è pieno di mostri.\nUsa un'arma se devi.",
      "EUnl": "{{fun_0003_0001 arg=\"0x000E\"}}Nou goed... Jij je zin.{{pageBreak}}Maar vergeet niet dat er hier overal\nmonsters zitten. Als het moet, zou je de\nfakkel als wapen kunnen gebruiken.",
      "EUru": "{{fun_0003_0001 arg=\"0x000E\"}}Хм, ну как хочешь.{{pageBreak}}В округе полно монстров.{{delay1}} Может,\nты сможешь им отбиться...",
      "JPja": "{{fun_0003_0001 arg=\"0x000E\"}}ふん… {{ruby charSpan=\"1\" value=\"す\"}}好きにするがいいわい\n\n{{ruby charSpan=\"1\" value=\"い\"}}言っておくが この{{ruby charSpan=\"1\" value=\"さき\"}}先には{{ruby charSpan=\"2\" value=\"まもの\"}}魔物がおるぞ\nいざとなったら {{ruby charSpan=\"2\" value=\"ぶき\"}}武器としてでも{{ruby charSpan=\"1\" value=\"つか\"}}使うんじゃな",
      "KRko": "{{fun_0003_0001 arg=\"0x000E\"}}흥… 좋을 대로 하게나\n\n말해 두겠네만 이 앞엔 몬스터가 있어\n그러니 여차할 때 무기로라도 사용하게나",
      "TWzh": "{{fun_0003_0001 arg=\"0x000E\"}}哼……隨你便吧。\n\n話說在前頭，前方有怪物出沒。\n緊要關頭時，就用它充當武器吧。",
      "USen": "{{fun_0003_0001 arg=\"0x000E\"}}I see. {{delay2}}Well then, do as you please.\n\n\nThere are plenty of monsters ahead of\nhere, though. Remember that you can\nuse that as a weapon, if need be.",
      "USes": "{{fun_0003_0001 arg=\"0x000E\"}}Bah... Haz lo que quieras.{{pageBreak}}Puede que te sea útil para enfrentarte\na los monstruos que rondan por\nesta zona.",
      "USfr": "{{fun_0003_0001 arg=\"0x000E\"}}Bah... Fais comme tu veux.\n\n\nC'est vrai qu'il y a plein de monstres,\ndans les environs. Ça pourrait faire une\narme en cas de besoin."
    }
  },
  {
    "label": "Torch05",
    "attribute": "0x90050000",
    "locale": {
      "CNzh": "{{fun_0003_0001 arg=\"0x0009\"}}不要乱挥一气，要面向对手，\n算好你们之间的距离。",
      "EUde": "{{fun_0003_0001 arg=\"0x0009\"}}Aber ich hoffe, du fuchtelst nicht wild\ndamit herum! {{delay1}}Du musst genau auf die\nBewegungen deines Gegners achten.",
      "EUen": "{{fun_0003_0001 arg=\"0x0009\"}}However, do not just swing it around\nwithout purpose. You must face your\nopponents and lock your sights on them!",
      "EUes": "{{fun_0003_0001 arg=\"0x0009\"}}¡No la zarandees a diestro y siniestro!\nColócate frente a tu oponente y mide\nbien la distancia para acertar el golpe.",
      "EUfr": "{{fun_0003_0001 arg=\"0x0009\"}}Mais ne va pas la secouer dans tous les\nsens sans réfléchir ! Il faut jauger son\nadversaire, évaluer les distances...",
      "EUit": "{{fun_0003_0001 arg=\"0x0009\"}}Non menare fendenti alla cieca.\nAffronta l'avversario e calcola\nla distanza tra te e lui.",
      "EUnl": "{{fun_0003_0001 arg=\"0x0009\"}}Je moet er niet maar een beetje mee in\nhet rond zwaaien. In een gevecht moet je\ner op het juiste moment mee aanvallen.",
      "EUru": "{{fun_0003_0001 arg=\"0x0009\"}}Только не размахивай им как попало:\nне своди глаз с врага и оставайся на\nбезопасном расстоянии.",
      "JPja": "{{fun_0003_0001 arg=\"0x0009\"}}{{ruby charSpan=\"2\" value=\"てきとう\"}}適当に{{ruby charSpan=\"1\" value=\"ふ\"}}振り{{ruby charSpan=\"1\" value=\"まわ\"}}回さずに {{ruby charSpan=\"2\" value=\"あいて\"}}相手を{{ruby charSpan=\"1\" value=\"む\"}}向いて\nしっかりと{{ruby charSpan=\"2\" value=\"まあ\"}}間合いをとることじゃ",
      "KRko": "{{fun_0003_0001 arg=\"0x0009\"}}대충 휘두르지 말고\n상대와 마주 보고 확실히 간격을 확보해야 하네",
      "TWzh": "{{fun_0003_0001 arg=\"0x0009\"}}別隨便亂揮，要確實面對敵人，\n好好把握和對方的距離。",
      "USen": "{{fun_0003_0001 arg=\"0x0009\"}}However, do not just swing it around\nwithout purpose. You must face your\nopponents and lock your sights on them!",
      "USes": "{{fun_0003_0001 arg=\"0x0009\"}}Pero ¡no la blandas a diestra y siniestra!\nColócate frente a tu oponente y mide\nbien la distancia para acertar el golpe.",
      "USfr": "{{fun_0003_0001 arg=\"0x0009\"}}Ne va pas la secouer dans tous les sens\nsans réfléchir! En combat, il faut jauger\nson adversaire, évaluer les distances..."
    }
  },
  {
    "label": "Near00_First",
    "attribute": "0xB8050000",
    "locale": {
      "CNzh": "……",
      "EUde": "... ...",
      "EUen": "...",
      "EUes": "Hum...",
      "EUfr": "...",
      "EUit": "... ...",
      "EUnl": "...",
      "EUru": "...",
      "JPja": "……",
      "KRko": "……",
      "TWzh": "……",
      "USen": "...",
      "USes": "Hum...",
      "USfr": "..."
    }
  },
  {
    "label": "Near00",
    "attribute": "0xE0050000",
    "locale": {
      "CNzh": "{{anim2 type=\"CustomLaugh\"}}嚯、嚯、嚯。",
      "EUde": "{{anim2 type=\"CustomLaugh\"}}Ho ho ho...",
      "EUen": "{{anim2 type=\"CustomLaugh\"}}Oho ho!",
      "EUes": "{{anim2 type=\"CustomLaugh\"}}Jo, jo, jo.",
      "EUfr": "{{anim2 type=\"CustomLaugh\"}}Hohoho...",
      "EUit": "{{anim2 type=\"CustomLaugh\"}}Oh oh oh...",
      "EUnl": "{{anim2 type=\"CustomLaugh\"}}Hehehe...",
      "EUru": "{{anim2 type=\"CustomLaugh\"}}Хо-хо-хо!",
      "JPja": "{{anim2 type=\"CustomLaugh\"}}ふぉっ ふぉっ ふぉっ",
      "KRko": "{{anim2 type=\"CustomLaugh\"}}허허허",
      "TWzh": "{{anim2 type=\"CustomLaugh\"}}呵呵呵。",
      "USen": "{{anim2 type=\"CustomLaugh\"}}Oho ho!",
      "USes": "{{anim2 type=\"CustomLaugh\"}}Jo, jo, jo.",
      "USfr": "{{anim2 type=\"CustomLaugh\"}}Hohoho..."
    }
  },
  {
    "label": "Near02",
    "attribute": "0x08060000",
    "locale": {
      "CNzh": "Zzz...Zzz...",
      "EUde": "Zzz... Zzz...",
      "EUen": "Zzz...",
      "EUes": "Zzz...",
      "EUfr": "Zzzz...",
      "EUit": "Zzz... Zzz...",
      "EUnl": "Zzz...",
      "EUru": "Хр-р-р...",
      "JPja": "Zzz... Zzz...",
      "KRko": "Zzz... Zzz...",
      "TWzh": "Zzz……Zzz……",
      "USen": "Zzz...",
      "USes": "Zzzz...",
      "USfr": "Zzzz..."
    }
  },
  {
    "label": "Near03",
    "attribute": "0x30060000",
    "locale": {
      "CNzh": "……",
      "EUde": "... ...",
      "EUen": "...",
      "EUes": "Mmm...",
      "EUfr": "...",
      "EUit": "... ...",
      "EUnl": "...",
      "EUru": "...",
      "JPja": "……",
      "KRko": "……",
      "TWzh": "……",
      "USen": "...",
      "USes": "Mmm...",
      "USfr": "..."
    }
  },
  {
    "label": "NakedPlayer",
    "attribute": "0x58060000",
    "locale": {
      "CNzh": "你竟然不穿衣服……",
      "EUde": "Warum bist du nackt?",
      "EUen": "Aren't you...a bit chilly?",
      "EUes": "Vas a coger frío...",
      "EUfr": "Habille-toi, tu veux ?",
      "EUit": "Copriti un po'...",
      "EUnl": "Je vat nog kou zo!",
      "EUru": "Оденься!",
      "JPja": "{{ruby charSpan=\"1\" value=\"はだか\"}}裸とな…",
      "KRko": "알몸이라…",
      "TWzh": "你居然只穿一條內褲……",
      "USen": "Aren't you...a bit chilly?",
      "USes": "¿No te da frío?",
      "USfr": "Habille-toi, tu veux?"
    }
  },
  {
    "label": "TerrorSword",
    "attribute": "0x5A060000",
    "locale": {
      "CNzh": "快住手！",
      "EUde": "He! Hör auf!",
      "EUen": "Easy there!",
      "EUes": "¡Basta!",
      "EUfr": "Arrête ça !",
      "EUit": "Non è un giocattolo!",
      "EUnl": "Hé, kijk je uit?",
      "EUru": "Прекрати!",
      "JPja": "やめんか！",
      "KRko": "그만두게!",
      "TWzh": "還不住手！",
      "USen": "Easy there!",
      "USes": "¡Oye, cuidado!",
      "USfr": "Arrête ça!"
    }
  },
  {
    "label": "TerrorArrow",
    "attribute": "0x5C060000",
    "locale": {
      "CNzh": "你在干什么！",
      "EUde": "Was machst du da?!",
      "EUen": "What is this?!",
      "EUes": "¡¿Qué haces?!",
      "EUfr": "Qu'est-ce que tu fais ?",
      "EUit": "Che vuoi fare?!",
      "EUnl": "Wat doe je?!",
      "EUru": "Ты что делаешь?!",
      "JPja": "{{ruby charSpan=\"1\" value=\"なに\"}}何をする！",
      "KRko": "무슨 짓인가!",
      "TWzh": "你做什麼！",
      "USen": "What is this?!",
      "USes": "¡¿Qué haces?!",
      "USfr": "Qu'est-ce que tu fais?"
    }
  },
  {
    "label": "TerrorBomb",
    "attribute": "0x5E060000",
    "locale": {
      "CNzh": "什么？",
      "EUde": "Was ist?",
      "EUen": "What is it?!",
      "EUes": "¿Qué es eso?",
      "EUfr": "C'est quoi, ça ?",
      "EUit": "Ma che fai?!",
      "EUnl": "Wat is er?",
      "EUru": "Чего?",
      "JPja": "{{ruby charSpan=\"1\" value=\"なん\"}}何じゃ？",
      "KRko": "뭔가?",
      "TWzh": "幹什麼？",
      "USen": "What is it?!",
      "USes": "¿Qué es eso?",
      "USfr": "C'est quoi, ça?"
    }
  },
  {
    "label": "TerrorExplosion",
    "attribute": "0x60060000",
    "locale": {
      "CNzh": "呜哇！",
      "EUde": "Guaah!",
      "EUen": "Huh?!",
      "EUes": "¡Uaaah!",
      "EUfr": "Ouah !",
      "EUit": "Aaargh!",
      "EUnl": "WAAAH!",
      "EUru": "А-а!",
      "JPja": "ぬわーっ！",
      "KRko": "으헉~!",
      "TWzh": "嗚哇！",
      "USen": "Huh?!",
      "USes": "¡Uaaah!",
      "USfr": "Ouah!"
    }
  },
  {
    "label": "TerrorEnemy",
    "attribute": "0x62060000",
    "locale": {
      "CNzh": "哇啊！",
      "EUde": "Huch!",
      "EUen": "Whoa!",
      "EUes": "¡Aaaay!",
      "EUfr": "Hééé !",
      "EUit": "Iiih!",
      "EUnl": "AAAAAH!",
      "EUru": "Ох!",
      "JPja": "ひぃーっ！",
      "KRko": "히익~!",
      "TWzh": "噫！",
      "USen": "Whoa!",
      "USes": "¡Aaaay!",
      "USfr": "Hééé!"
    }
  },
  {
    "label": "TerrorImpulse",
    "attribute": "0x64060000",
    "locale": {
      "CNzh": "哇啊！",
      "EUde": "Huch!",
      "EUen": "Whoa!",
      "EUes": "¡Aaagh!",
      "EUfr": "Hééé !",
      "EUit": "Iiih!",
      "EUnl": "AAAAAH!",
      "EUru": "О-ох!",
      "JPja": "ひぃーっ！",
      "KRko": "히익~!",
      "TWzh": "噫！",
      "USen": "Whoa!",
      "USes": "¡Aaagh!",
      "USfr": "Hééé!"
    }
  },
  {
    "label": "TerrorFire",
    "attribute": "0x66060000",
    "locale": {
      "CNzh": "好烫！",
      "EUde": "Heiß!",
      "EUen": "Toasty...",
      "EUes": "¡Quema!",
      "EUfr": "Ça brûle !",
      "EUit": "Ahi!",
      "EUnl": "Heet!",
      "EUru": "Горячо!",
      "JPja": "あちゃっ",
      "KRko": "으읏",
      "TWzh": "好燙！",
      "USen": "Toasty...",
      "USes": "¡Quema!",
      "USfr": "Ça brûle!"
    }
  },
  {
    "label": "TerrorInsect",
    "attribute": "0x68060000",
    "locale": {
      "CNzh": "哇啊！",
      "EUde": "Huch!",
      "EUen": "Whoa!",
      "EUes": "¡Vete, vete!",
      "EUfr": "Hééé !",
      "EUit": "Iiih!",
      "EUnl": "AAAAAH!",
      "EUru": "Ух!",
      "JPja": "ひぃーっ！",
      "KRko": "히익~!",
      "TWzh": "噫！",
      "USen": "Whoa!",
      "USes": "¡Vete, vete!",
      "USfr": "Hééé!"
    }
  },
  {
    "label": "ClearTerrorEnemy",
    "attribute": "0x6A060000",
    "locale": {
      "CNzh": "唔……",
      "EUde": "Puh...",
      "EUen": "Hmm...",
      "EUes": "Uf...",
      "EUfr": "Hmm...",
      "EUit": "Uhm...",
      "EUnl": "Hm...",
      "EUru": "Хм...",
      "JPja": "むう…",
      "KRko": "흠…",
      "TWzh": "唔……",
      "USen": "Hmm...",
      "USes": "Uf...",
      "USfr": "Hmm..."
    }
  }
]