[
  {
    "label": "talk08",
    "attribute": "0x58000000",
    "locale": {
      "CNzh": "{{fun_0003_0001 arg=\"0x0001\"}}{{fun_0004_0001 arg=\"0x19CD\"}}沙沃塔！",
      "EUde": "{{fun_0003_0001 arg=\"0x0001\"}}{{fun_0004_0001 arg=\"0x19CD\"}}Savotta!",
      "EUen": "{{fun_0003_0001 arg=\"0x0001\"}}{{fun_0004_0001 arg=\"0x19CD\"}}Sav'otta!",
      "EUes": "{{fun_0003_0001 arg=\"0x0001\"}}{{fun_0004_0001 arg=\"0x19CD\"}}Sawotta.",
      "EUfr": "{{fun_0003_0001 arg=\"0x0001\"}}{{fun_0004_0001 arg=\"0x19CD\"}}Savotta !",
      "EUit": "{{fun_0003_0001 arg=\"0x0001\"}}{{fun_0004_0001 arg=\"0x19CD\"}}Savotta!",
      "EUnl": "{{fun_0003_0001 arg=\"0x0001\"}}{{fun_0004_0001 arg=\"0x19CD\"}}Savotta!",
      "EUru": "{{fun_0003_0001 arg=\"0x0001\"}}{{fun_0004_0001 arg=\"0x19CD\"}}Савотта.",
      "JPja": "{{fun_0003_0001 arg=\"0x0001\"}}{{fun_0004_0001 arg=\"0x19CD\"}}サヴォッタ！",
      "KRko": "{{fun_0003_0001 arg=\"0x0001\"}}{{fun_0004_0001 arg=\"0x19CD\"}}사브옷타!",
      "TWzh": "{{fun_0003_0001 arg=\"0x0001\"}}{{fun_0004_0001 arg=\"0x19CD\"}}薩伯塔！",
      "USen": "{{fun_0003_0001 arg=\"0x0001\"}}{{fun_0004_0001 arg=\"0x19CD\"}}Sav'otta!",
      "USes": "{{fun_0003_0001 arg=\"0x0001\"}}{{fun_0004_0001 arg=\"0x19CD\"}}Sawotta.",
      "USfr": "{{fun_0003_0001 arg=\"0x0001\"}}{{fun_0004_0001 arg=\"0x19CD\"}}Savotta!"
    }
  },
  {
    "label": "talk09",
    "attribute": "0x7E000000",
    "locale": {
      "CNzh": "{{fun_0003_0001 arg=\"0x0001\"}}{{fun_0004_0001 arg=\"0x1ACD\"}}沙瓦库！",
      "EUde": "{{fun_0003_0001 arg=\"0x0001\"}}{{fun_0004_0001 arg=\"0x1ACD\"}}Savaaq!",
      "EUen": "{{fun_0003_0001 arg=\"0x0001\"}}{{fun_0004_0001 arg=\"0x1ACD\"}}Sav'aaq!",
      "EUes": "{{fun_0003_0001 arg=\"0x0001\"}}{{fun_0004_0001 arg=\"0x1ACD\"}}Sawook.",
      "EUfr": "{{fun_0003_0001 arg=\"0x0001\"}}{{fun_0004_0001 arg=\"0x1ACD\"}}Savaak !",
      "EUit": "{{fun_0003_0001 arg=\"0x0001\"}}{{fun_0004_0001 arg=\"0x1ACD\"}}Savaaq!",
      "EUnl": "{{fun_0003_0001 arg=\"0x0001\"}}{{fun_0004_0001 arg=\"0x1ACD\"}}Savaaq!",
      "EUru": "{{fun_0003_0001 arg=\"0x0001\"}}{{fun_0004_0001 arg=\"0x1ACD\"}}Саваак.",
      "JPja": "{{fun_0003_0001 arg=\"0x0001\"}}{{fun_0004_0001 arg=\"0x1ACD\"}}サヴァーク！",
      "KRko": "{{fun_0003_0001 arg=\"0x0001\"}}{{fun_0004_0001 arg=\"0x1ACD\"}}사브아크!",
      "TWzh": "{{fun_0003_0001 arg=\"0x0001\"}}{{fun_0004_0001 arg=\"0x1ACD\"}}薩芭庫！",
      "USen": "{{fun_0003_0001 arg=\"0x0001\"}}{{fun_0004_0001 arg=\"0x1ACD\"}}Sav'aaq!",
      "USes": "{{fun_0003_0001 arg=\"0x0001\"}}{{fun_0004_0001 arg=\"0x1ACD\"}}Sawook.",
      "USfr": "{{fun_0003_0001 arg=\"0x0001\"}}{{fun_0004_0001 arg=\"0x1ACD\"}}Savaak!"
    }
  },
  {
    "label": "talk10",
    "attribute": "0xA4000000",
    "locale": {
      "CNzh": "{{fun_0003_0001 arg=\"0x0001\"}}{{fun_0004_0001 arg=\"0x1BCD\"}}沙瓦沙巴！",
      "EUde": "{{fun_0003_0001 arg=\"0x0001\"}}{{fun_0004_0001 arg=\"0x1BCD\"}}Sav'saaba!",
      "EUen": "{{fun_0003_0001 arg=\"0x0001\"}}{{fun_0004_0001 arg=\"0x1BCD\"}}Sav'saaba!",
      "EUes": "{{fun_0003_0001 arg=\"0x0001\"}}{{fun_0004_0001 arg=\"0x1BCD\"}}Sawosaaba.",
      "EUfr": "{{fun_0003_0001 arg=\"0x0001\"}}{{fun_0004_0001 arg=\"0x1BCD\"}}Savasaaba !",
      "EUit": "{{fun_0003_0001 arg=\"0x0001\"}}{{fun_0004_0001 arg=\"0x1BCD\"}}Sav'saaba!",
      "EUnl": "{{fun_0003_0001 arg=\"0x0001\"}}{{fun_0004_0001 arg=\"0x1BCD\"}}Sav'saaba!",
      "EUru": "{{fun_0003_0001 arg=\"0x0001\"}}{{fun_0004_0001 arg=\"0x1BCD\"}}Сав'сааба.",
      "JPja": "{{fun_0003_0001 arg=\"0x0001\"}}{{fun_0004_0001 arg=\"0x1BCD\"}}サヴァサーバ！",
      "KRko": "{{fun_0003_0001 arg=\"0x0001\"}}{{fun_0004_0001 arg=\"0x1BCD\"}}사브아사바!",
      "TWzh": "{{fun_0003_0001 arg=\"0x0001\"}}{{fun_0004_0001 arg=\"0x1BCD\"}}薩芭薩芭！",
      "USen": "{{fun_0003_0001 arg=\"0x0001\"}}{{fun_0004_0001 arg=\"0x1BCD\"}}Sav'saaba!",
      "USes": "{{fun_0003_0001 arg=\"0x0001\"}}{{fun_0004_0001 arg=\"0x1BCD\"}}Sawosaaba.",
      "USfr": "{{fun_0003_0001 arg=\"0x0001\"}}{{fun_0004_0001 arg=\"0x1BCD\"}}Savasaaba!"
    }
  },
  {
    "label": "talk00",
    "attribute": "0xCA000000",
    "locale": {
      "CNzh": "{{fun_0003_0001 arg=\"0x0000\"}}如何？我这口红！\n有没有让人想恋爱的感觉？\n听说只要带着粉红色的东西，\n桃花运就会上升呢。{{fun_0001_0004 arg=\"0x000001000002\"}}",
      "EUde": "{{fun_0003_0001 arg=\"0x0000\"}}Was hältst du von meinen\nBauchmuskeln?{{pageBreak}}Angeblich sind Bauchmuskeln besonders\neffektiv im Umgang mit Vooi...{{fun_0001_0004 arg=\"0x000001000002\"}}",
      "EUen": "{{fun_0003_0001 arg=\"0x0000\"}}What do you think of my lipstick? I think\nit'll bring me good luck!\n\nYou know that the color is especially\nimportant in bringing good luck, right?{{fun_0001_0004 arg=\"0x000001000002\"}}",
      "EUes": "{{fun_0003_0001 arg=\"0x0000\"}}No he visto a un shiok en mi vida,\nni ganas.{{pageBreak}}Pero bueno, estas clases están bien\npara prepararte por si acaso.{{fun_0001_0004 arg=\"0x000001000002\"}}",
      "EUfr": "{{fun_0003_0001 arg=\"0x0000\"}}Tu penses quoi de mon rouge à lèvres\nrose ? Il me va bien ?\n\nOn m'a dit que les voïs attachent de\nl'importance aux apparences.{{fun_0001_0004 arg=\"0x000001000002\"}}",
      "EUit": "{{fun_0003_0001 arg=\"0x0000\"}}Ti piace questo rossetto?! Non senti che\nemano un'aura di fortuna in amore?!\n\nDicono che il rosa migliora la fortuna\nin amore!{{fun_0001_0004 arg=\"0x000001000002\"}}",
      "EUnl": "{{fun_0003_0001 arg=\"0x0000\"}}Nou? Wat vind je van mijn lipstick? Voel\nje hoe ik geluk in de liefde uitstraal?{{pageBreak}}Ze zeggen dat als je roze draagt, dat je\ndan meer geluk in de liefde zult hebben!{{fun_0001_0004 arg=\"0x000001000002\"}}",
      "EUru": "{{fun_0003_0001 arg=\"0x0000\"}}Тебе нравится моя помада?{{delay1}}\nДумаешь, она поможет мне\nнайти хорошего вооя?{{pageBreak}}Говорят, розовый цвет повышает шанс!{{fun_0001_0004 arg=\"0x000001000002\"}}",
      "JPja": "{{fun_0003_0001 arg=\"0x0000\"}}どうだ！この{{ruby charSpan=\"2\" value=\"くちべに\"}}口紅！\n{{ruby charSpan=\"1\" value=\"わたし\"}}私から {{ruby charSpan=\"3\" value=\"れんあいうん\"}}恋愛運を{{ruby charSpan=\"1\" value=\"かん\"}}感じるだろう？\nピンク{{ruby charSpan=\"1\" value=\"いろ\"}}色のもの を{{ruby charSpan=\"1\" value=\"み\"}}身につけると\n{{ruby charSpan=\"3\" value=\"れんあいうん\"}}恋愛運が アップするらしいぞ{{fun_0001_0004 arg=\"0x000001000002\"}}",
      "KRko": "{{fun_0003_0001 arg=\"0x0000\"}}어때! 이 립스틱!\n나한테서 연애운이 느껴지지?\n핑크색을 몸에 지니면\n연애운이 상승한대{{fun_0001_0004 arg=\"0x000001000002\"}}",
      "TWzh": "{{fun_0003_0001 arg=\"0x0000\"}}如何？我這口紅！\n有沒有讓人想戀愛的感覺？\n聽說只要帶著粉紅色的東西，\n戀愛運就會上升哦。{{fun_0001_0004 arg=\"0x000001000002\"}}",
      "USen": "{{fun_0003_0001 arg=\"0x0000\"}}What do you think of my lipstick? I think\nit'll bring me good luck!\n\nYou know that the color is especially\nimportant in bringing good luck, right?{{fun_0001_0004 arg=\"0x000001000002\"}}",
      "USes": "{{fun_0003_0001 arg=\"0x0000\"}}No he visto a un voe en mi vida,\nni ganas.{{pageBreak}}Pero bueno, estas clases están bien\npara prepararme por si acaso.{{fun_0001_0004 arg=\"0x000001000002\"}}",
      "USfr": "{{fun_0003_0001 arg=\"0x0000\"}}Tu penses quoi de mon rouge à lèvres\nrose? Il me va bien?\n\nOn m'a dit que les voïs attachent de\nl'importance aux apparences.{{fun_0001_0004 arg=\"0x000001000002\"}}"
    }
  },
  {
    "label": "0000",
    "attribute": "0xF0000000",
    "locale": {
      "CNzh": "上升了之后？",
      "EUde": "Wie, „effektiv“?",
      "EUen": "The color? How?",
      "EUes": "¿Por si acaso qué?",
      "EUfr": "Vraiment ?",
      "EUit": "Migliora?",
      "EUnl": "Hoezo meer geluk?",
      "EUru": "Шанс чего?",
      "JPja": "アップすると？",
      "KRko": "상승하면 어떻게 되나요?",
      "TWzh": "上升了之後？",
      "USen": "The color? How?",
      "USes": "¿Por si acaso qué?",
      "USfr": "Vraiment?"
    }
  },
  {
    "label": "0001",
    "attribute": "0xF2000000",
    "locale": {
      "CNzh": "很适合你",
      "EUde": "Sehen gut aus!",
      "EUen": "It looks good on you.",
      "EUes": "Si yo te contara...",
      "EUfr": "Ça te va bien !",
      "EUit": "Ti dona.",
      "EUnl": "Staat je goed!",
      "EUru": "Тебе очень идет",
      "JPja": "{{ruby charSpan=\"2\" value=\"にあ\"}}似合ってます",
      "KRko": "어울려요",
      "TWzh": "很適合妳",
      "USen": "It looks good on you.",
      "USes": "Si yo te contara...",
      "USfr": "Ça te va bien!"
    }
  },
  {
    "label": "talk04",
    "attribute": "0xF4000000",
    "locale": {
      "CNzh": "{{fun_0003_0001 arg=\"0x0806\"}}这……这我之后才要学……\n\n反正上升\n总比下降好吧！",
      "EUde": "{{fun_0003_0001 arg=\"0x0806\"}}Das kommt erst in der nächsten Lektion!{{pageBreak}}Aber effektiv ist ja wohl was Gutes, oder\nnicht?",
      "EUen": "{{fun_0003_0001 arg=\"0x0806\"}}Umm... {{delay2}}I-I'm planning on learning about\nthat next...",
      "EUes": "{{fun_0003_0001 arg=\"0x0806\"}}¡Y yo qué sé! Pregúntale a la profe.",
      "EUfr": "{{fun_0003_0001 arg=\"0x0806\"}}Il paraît que le rose est réservé aux vaïs,\nje me demande bien pourquoi !\n\nJ'aimerais bien savoir quelle couleur de\nrouge à lèvres est réservée aux voïs !",
      "EUit": "{{fun_0003_0001 arg=\"0x0806\"}}I dettagli... li devo ancora studiare...\n\n\nComunque migliorare è sempre meglio\nche peggiorare!",
      "EUnl": "{{fun_0003_0001 arg=\"0x0806\"}}D-dat is het volgende wat ik ga\nbestuderen... Maar een toename is altijd\nnog beter dan een afname, toch?",
      "EUru": "{{fun_0003_0001 arg=\"0x0806\"}}Это мы еще не проходили!{{delay1}}\nНо главное, что повышает,\nтак ведь?",
      "JPja": "{{fun_0003_0001 arg=\"0x0806\"}}そ… それはこれから{{ruby charSpan=\"2\" value=\"べんきょう\"}}勉強するんだ…\n\nとりあえず {{ruby charSpan=\"1\" value=\"さ\"}}下がるよりは\n{{ruby charSpan=\"1\" value=\"あ\"}}上がったが{{ruby charSpan=\"1\" value=\"ほう\"}}方いいだろ！",
      "KRko": "{{fun_0003_0001 arg=\"0x0806\"}}그… 그건 이제부터 공부할 거야…\n\n아무튼 내려가는 것보단\n상승하는 게 좋을 거 아냐!",
      "TWzh": "{{fun_0003_0001 arg=\"0x0806\"}}這……這我之後才要學……\n\n反正上升\n總比下降好吧！",
      "USen": "{{fun_0003_0001 arg=\"0x0806\"}}Umm... {{delay2}}I-I'm planning on learning about\nthat next...",
      "USes": "{{fun_0003_0001 arg=\"0x0806\"}}¡Y yo qué sé! {{delay2}}No he llegado\na esa lección...",
      "USfr": "{{fun_0003_0001 arg=\"0x0806\"}}Il paraît que le rose est réservé aux vaïs,\nje me demande bien pourquoi!\n\nJ'aimerais bien savoir quelle couleur de\nrouge à lèvres est réservée aux voïs!"
    }
  },
  {
    "label": "talk05",
    "attribute": "0x1A010000",
    "locale": {
      "CNzh": "{{fun_0003_0001 arg=\"0x0709\"}}是吧，是吧！\n我现在的桃花运可是节节高升呢！",
      "EUde": "{{fun_0003_0001 arg=\"0x0709\"}}Ja, oder!{{delay1}} Daran wird sich jeder Vooi\ndie Zähne ausbeißen...{{delay3}} beziehungsweise\ndie Finger brechen!",
      "EUen": "{{fun_0003_0001 arg=\"0x0709\"}}I know, right?!\nOooh, I can feel it working already!",
      "EUes": "{{fun_0003_0001 arg=\"0x0709\"}}¿Qué? No te hagas la misteriosa...",
      "EUfr": "{{fun_0003_0001 arg=\"0x0709\"}}Je trouve aussi ! Ça fait pas partie des\ncouleurs que j'utilise d'habitude, mais\nc'est pas trop mal.",
      "EUit": "{{fun_0003_0001 arg=\"0x0709\"}}Te l'ho detto! Te l'ho detto!\nE poi migliora la mia fortuna in amore!",
      "EUnl": "{{fun_0003_0001 arg=\"0x0709\"}}Echt, hè?! Je krijgt er niet voor niets\nmeer geluk in de liefde van!",
      "EUru": "{{fun_0003_0001 arg=\"0x0709\"}}Я знаю!{{delay1}} Прямо чувствую,\nкак шанс повышается!",
      "JPja": "{{fun_0003_0001 arg=\"0x0709\"}}そうだろう そうだろう！\nなんてったって {{ruby charSpan=\"3\" value=\"れんあいうん\"}}恋愛運アップだからな！",
      "KRko": "{{fun_0003_0001 arg=\"0x0709\"}}그치? 그치?!\n연애운 상승이니까 말이야!",
      "TWzh": "{{fun_0003_0001 arg=\"0x0709\"}}是吧，是吧！\n我現在可是處於戀愛運上升的狀態呢！",
      "USen": "{{fun_0003_0001 arg=\"0x0709\"}}I know, right?!\nOooh, I can feel it working already!",
      "USes": "{{fun_0003_0001 arg=\"0x0709\"}}¿Qué? No te hagas la misteriosa...",
      "USfr": "{{fun_0003_0001 arg=\"0x0709\"}}Je trouve aussi! Ça fait pas partie des\ncouleurs que j'utilise d'habitude, mais\nc'est pas trop mal."
    }
  },
  {
    "label": "talk01",
    "attribute": "0x40010000",
    "locale": {
      "CNzh": "{{fun_0003_0001 arg=\"0x0000\"}}我们现在要去上料理班，\n要成为一个好瓦伊也是很累人的。\n海利亚的瓦伊，你要不要也一起来？",
      "EUde": "{{fun_0003_0001 arg=\"0x0000\"}}Der Kochkurs fängt gleich an.{{delay1}}\nDiesmal muss ich wirklich gut\naufpassen...{{pageBreak}}Hylianische Vaai sind auch willkommen,\nalso begleite uns doch!",
      "EUen": "{{fun_0003_0001 arg=\"0x0000\"}}The cooking class is about to start.\nI really need to pay attention this time...\n\nHow about you try taking it along\nwith us?",
      "EUes": "{{fun_0003_0001 arg=\"0x0000\"}}La clase está a punto de empezar\ny no he hecho los deberes...",
      "EUfr": "{{fun_0003_0001 arg=\"0x0000\"}}Je me rends à mes cours du soir.\nC'est important pour s'en sortir\ndans le monde extérieur.\nT'en as pas besoin, toi, quelle chance !\nMais tu es la bienvenue quand même !",
      "EUit": "{{fun_0003_0001 arg=\"0x0000\"}}Adesso comincia la lezione di cucina.\nChe noia...\n\nTu che sei una vay Hylia forse\nti divertirai a scoprire cosa mangiamo\nnoi Gerudo!",
      "EUnl": "{{fun_0003_0001 arg=\"0x0000\"}}De kookles begint bijna. Dit vind ik het\nmoeilijkste om te doen.{{pageBreak}}Waarom doe je niet mee?",
      "EUru": "{{fun_0003_0001 arg=\"0x0000\"}}Сейчас начнется занятие по\nкулинарии.{{delay1}} Ох, сложно стать\nхорошей ваай.{{pageBreak}}Присоединяйся, если хочешь!",
      "JPja": "{{fun_0003_0001 arg=\"0x0000\"}}{{ruby charSpan=\"1\" value=\"いま\"}}今から{{ruby charSpan=\"2\" value=\"われわれ\"}}我々は {{ruby charSpan=\"4\" value=\"りょうりきょうしつ\"}}料理教室に{{ruby charSpan=\"1\" value=\"い\"}}行くんだ\nいいヴァーイになるのも {{ruby charSpan=\"2\" value=\"たいへん\"}}大変なんだ\nハイリアのヴァーイも{{ruby charSpan=\"2\" value=\"いっしょ\"}}一緒にどうだい？",
      "KRko": "{{fun_0003_0001 arg=\"0x0000\"}}지금부터 우린 요리 교실에 갈 거야\n소질은 없지만 배워 두면 좋으니까\n하일리아의 브아이도 같이 갈래?",
      "TWzh": "{{fun_0003_0001 arg=\"0x0000\"}}我們現在要去上料理班，\n要成為一個好芭伊也是很累人的。\n海利亞的芭伊，妳要不要也一起來？",
      "USen": "{{fun_0003_0001 arg=\"0x0000\"}}The cooking class is about to start.\nI really need to pay attention this time...\n\nHow about you try taking it along\nwith us?",
      "USes": "{{fun_0003_0001 arg=\"0x0000\"}}La clase está a punto de empezar,\nhoy sí tengo que poner atención...\n\n¿Por qué no te quedas a tomar\nla lección con nosotras?",
      "USfr": "{{fun_0003_0001 arg=\"0x0000\"}}Je me rends à mes cours du soir.\nC'est important pour s'en sortir\ndans le monde extérieur.\nT'en as pas besoin, toi, quelle chance!\nMais tu es la bienvenue quand même!"
    }
  },
  {
    "label": "talk02",
    "attribute": "0x66010000",
    "locale": {
      "CNzh": "{{fun_0003_0001 arg=\"0x0000\"}}你知道吗？\n\n沃伊虽然追求完美的瓦伊，\n但稍微有点迷糊才会更惹人喜爱哦。\n我也得试着练习制作{{color id=\"2\"}}微妙的菜肴{{color id=\"65535\"}}才行呢。{{fun_0001_0004 arg=\"0x020003000001\"}}",
      "EUde": "{{fun_0003_0001 arg=\"0x0000\"}}Wusstest du, dass manche Vooi statt gut\nzusammengestellter Gerichte lieber alle\nmöglichen Reste in den Topf werfen?{{pageBreak}}Ich muss dringend üben, wie man\n{{color id=\"2\"}}{{wordInfo gender=\"2\" defArticle=\"4\" indefArticle=\"4\" isPlural=\"0\"}}Dubiose Matsche{{color id=\"65535\"}} kocht, um mich da\ndraußen gut einzugliedern...{{fun_0001_0004 arg=\"0x020003000001\"}}",
      "EUen": "{{fun_0003_0001 arg=\"0x0000\"}}This class is absolutely critical for me!\nI've tried to cook up some great meals,\nbut I only ever make {{color id=\"2\"}}dubious food{{color id=\"65535\"}}...{{fun_0001_0004 arg=\"0x020003000001\"}}",
      "EUes": "{{fun_0003_0001 arg=\"0x0000\"}}Cocinar puede ser muy relajante,\npor eso me gusta venir a esta clase.{{pageBreak}}Además, alimentarse bien es importante\npara una guerrera, sobre todo si tienes\nque participar en un combate.\nEl caso es que se me da fatal...\nHasta ahora solo he conseguido\ncocinar {{color id=\"2\"}}comida sospechosa{{color id=\"65535\"}}.{{fun_0001_0004 arg=\"0x020003000001\"}}",
      "EUfr": "{{fun_0003_0001 arg=\"0x0000\"}}Dis, t'étais au courant ?\n\n\nIl paraît qu'il y a bien d'autres villages\ndans le monde extérieur, et que là-bas,\nvoïs et vaïs vivent ensemble !\nÇa doit leur sembler tellement normal,\nà eux...\n\nEt... le {{color id=\"2\"}}plat douteux{{color id=\"65535\"}}... J'ai entendu\nparler de ça, aussi...{{fun_0001_0004 arg=\"0x020003000001\"}}",
      "EUit": "{{fun_0003_0001 arg=\"0x0000\"}}Lo sai?\n\n\nIo non voglio perdere tempo in\ncucina!\n\nSe invito un voy a cena gli preparo\nuna {{color id=\"2\"}}{{lowercaseNextWord}}poltiglia{{color id=\"65535\"}} e, se non gli sta bene,\nper me può rimanere a pancia vuota!{{fun_0001_0004 arg=\"0x020003000001\"}}",
      "EUnl": "{{fun_0003_0001 arg=\"0x0000\"}}Wist je dat?{{pageBreak}}Mannen schijnen te houden van vrouwen\nmet kleine imperfecties.{{pageBreak}}Ik moet dus leren hoe ik\neen {{color id=\"2\"}}mislukte maaltijd {{color id=\"65535\"}}maak...{{fun_0001_0004 arg=\"0x020003000001\"}}",
      "EUru": "{{fun_0003_0001 arg=\"0x0000\"}}Ты знаешь, что вооям нравится, когда\nу ваай есть небольшой недостаток?{{delay1}}\nНапример, легкая рассеянность...{{pageBreak}}Поэтому надо уметь готовить\n{{color id=\"2\"}}сомнительные блюда{{color id=\"65535\"}}.{{fun_0001_0004 arg=\"0x020003000001\"}}",
      "JPja": "{{fun_0003_0001 arg=\"0x0000\"}}お{{ruby charSpan=\"1\" value=\"まえ\"}}前 {{ruby charSpan=\"1\" value=\"し\"}}知ってるか？\n\nヴォーイは {{ruby charSpan=\"2\" value=\"かんぺき\"}}完璧なヴァーイを{{ruby charSpan=\"1\" value=\"もと\"}}求めつつ\nちょっと オッチョコチョイなのが いいらしいぞ\n{{color id=\"2\"}}{{ruby charSpan=\"2\" value=\"びみょう\"}}微妙な{{ruby charSpan=\"2\" value=\"りょうり\"}}料理{{color id=\"65535\"}}も {{ruby charSpan=\"2\" value=\"れんしゅう\"}}練習しとかないとな{{fun_0001_0004 arg=\"0x020003000001\"}}",
      "KRko": "{{fun_0003_0001 arg=\"0x0000\"}}너 그거 알아?\n\n브오이는 완벽한 브아이를 바라면서도\n조금 덜렁거리는 면을 좋아한다고 해\n{{color id=\"2\"}}애매한 요리{{color id=\"65535\"}}도 연습해 둬야겠어{{fun_0001_0004 arg=\"0x020003000001\"}}",
      "TWzh": "{{fun_0003_0001 arg=\"0x0000\"}}妳知道嗎？\n\n伯伊雖然追求完美的芭伊，\n但稍微有點糊塗才會更惹人喜愛哦。\n我也得試著練習製作{{color id=\"2\"}}奇異的菜餚{{color id=\"65535\"}}才行呢。{{fun_0001_0004 arg=\"0x020003000001\"}}",
      "USen": "{{fun_0003_0001 arg=\"0x0000\"}}This class is absolutely critical for me!\nI've tried to cook up some great meals,\nbut I only ever make {{color id=\"2\"}}dubious food{{color id=\"65535\"}}...{{fun_0001_0004 arg=\"0x020003000001\"}}",
      "USes": "{{fun_0003_0001 arg=\"0x0000\"}}¡Esta clase es importantísima para mí!\nSiempre trato de cocinar algo rico, pero\nsolo me sale {{color id=\"2\"}}comida sospechosa{{color id=\"65535\"}}...{{fun_0001_0004 arg=\"0x020003000001\"}}",
      "USfr": "{{fun_0003_0001 arg=\"0x0000\"}}Dis, t'étais au courant?\n\n\nIl paraît qu'il y a bien d'autres villages\ndans le monde extérieur, et que là-bas,\nvoïs et vaïs vivent ensemble!\nÇa doit leur sembler tellement normal,\nà eux...\n\nEt... le {{color id=\"2\"}}plat douteux{{color id=\"65535\"}}... J'ai entendu\nparler de ça, aussi...{{fun_0001_0004 arg=\"0x020003000001\"}}"
    }
  },
  {
    "label": "0002",
    "attribute": "0x8C010000",
    "locale": {
      "CNzh": "微妙的菜肴？",
      "EUde": "{{wordInfo gender=\"2\" defArticle=\"4\" indefArticle=\"4\" isPlural=\"0\"}}Dubiose Matsche?",
      "EUen": "Dubious food?",
      "EUes": "¿Comida sospechosa?",
      "EUfr": "Le quoi ?",
      "EUit": "Poltiglia?",
      "EUnl": "Mislukte maaltijd?",
      "EUru": "Какие блюда?",
      "JPja": "{{ruby charSpan=\"2\" value=\"びみょう\"}}微妙な{{ruby charSpan=\"2\" value=\"りょうり\"}}料理？",
      "KRko": "애매한 요리?",
      "TWzh": "奇異的菜餚？",
      "USen": "Dubious food?",
      "USes": "¿Comida sospechosa?",
      "USfr": "Le quoi?"
    }
  },
  {
    "label": "0003",
    "attribute": "0x8E010000",
    "locale": {
      "CNzh": "再见",
      "EUde": "Wiedersehen.",
      "EUen": "Good-bye.",
      "EUes": "Que aproveche",
      "EUfr": "À plus !",
      "EUit": "Arrivederci.",
      "EUnl": "Tot ziens!",
      "EUru": "Пока",
      "JPja": "さよなら",
      "KRko": "안녕히",
      "TWzh": "再見",
      "USen": "Good-bye.",
      "USes": "Nos vemos luego",
      "USfr": "À plus!"
    }
  },
  {
    "label": "talk06",
    "attribute": "0x90010000",
    "locale": {
      "CNzh": "{{fun_0003_0001 arg=\"0x0004\"}}在做菜时，只要放入{{color id=\"2\"}}昆虫{{color id=\"65535\"}}或是{{color id=\"2\"}}怪物材料{{color id=\"65535\"}}\n好像就会变成{{color id=\"2\"}}微妙的菜肴{{color id=\"65535\"}}。{{delay3}}\n{{fun_0003_0001 arg=\"0x0B00\"}}不过就我来说，那何止是微妙，\n根本称不上是道菜呢……{{delay2}}",
      "EUde": "{{fun_0003_0001 arg=\"0x0004\"}}Wenn man beim Kochen {{color id=\"2\"}}Insekten{{color id=\"65535\"}} oder\n{{color id=\"2\"}}Monstermaterialien{{color id=\"65535\"}} verwendet, erhält\nman wohl diese {{color id=\"2\"}}{{wordInfo gender=\"2\" defArticle=\"4\" indefArticle=\"4\" isPlural=\"0\"}}Dubiose Matsche{{color id=\"65535\"}}.\n{{fun_0003_0001 arg=\"0x0B00\"}}Ich frage mich, was Vooi an so etwas\nEkligem wohl finden...",
      "EUen": "{{fun_0003_0001 arg=\"0x0004\"}}When you're cooking, if you add {{color id=\"2\"}}insects{{color id=\"65535\"}}\nor {{color id=\"2\"}}monster materials{{color id=\"65535\"}}, you'll end up\nwith {{color id=\"2\"}}dubious food{{color id=\"65535\"}}.{{delay3}}\n{{fun_0003_0001 arg=\"0x0B00\"}}Though if you ask me, there's nothing\ndubious about how absolutely inedible\nit is...",
      "EUes": "{{fun_0003_0001 arg=\"0x0004\"}}Sí, por lo visto el problema es que si uso\n{{color id=\"2\"}}insectos{{color id=\"65535\"}} o {{color id=\"2\"}}partes de {{wordInfo gender=\"1\" defArticle=\"0\" indefArticle=\"0\" isPlural=\"0\"}}monstruo{{color id=\"65535\"}} como\ningredientes, no sale nada comestible.\n{{fun_0003_0001 arg=\"0x0B00\"}}Vamos, más que {{color id=\"2\"}}comida sospechosa{{color id=\"65535\"}},\nyo lo llamaría papilla asquerosa...",
      "EUfr": "{{fun_0003_0001 arg=\"0x0004\"}}Le {{color id=\"2\"}}plat douteux{{color id=\"65535\"}} ! Il paraît que c'est facile\nà préparer. Il suffit de cuisiner un {{color id=\"2\"}}insecte{{color id=\"65535\"}}\navec un ingrédient de {{color id=\"2\"}}monstre{{color id=\"65535\"}}.{{delay3}}\n{{fun_0003_0001 arg=\"0x0B00\"}}À ce niveau-là, c'est pas douteux,\nc'est répugnant... {{delay2}}Vous mangez\nde ça, chez toi... ?",
      "EUit": "{{fun_0003_0001 arg=\"0x0004\"}}Sì, se nei tuoi piatti metti qualche {{color id=\"2\"}}insetto{{color id=\"65535\"}}\no degli {{color id=\"2\"}}ingredienti mostruosi{{color id=\"65535\"}}, viene\nfuori una {{color id=\"2\"}}poltiglia{{color id=\"65535\"}}.{{delay3}}\n{{fun_0003_0001 arg=\"0x0B00\"}}Beh, non c'è niente di male in fondo.\nBisogna imparare a sfruttare tutte le\nrisorse del pianeta.",
      "EUnl": "{{fun_0003_0001 arg=\"0x0004\"}}Als je tijdens het koken {{color id=\"2\"}}insecten {{color id=\"65535\"}}of\n{{color id=\"2\"}}monsteringrediënten {{color id=\"65535\"}}toevoegt, krijg je\nblijkbaar een {{color id=\"2\"}}mislukte maaltijd{{color id=\"65535\"}}.\n{{fun_0003_0001 arg=\"0x0B00\"}}Ik denk echter dat 'walgelijk eten' een\nbetere naam is...",
      "EUru": "{{fun_0003_0001 arg=\"0x0004\"}}{{color id=\"2\"}}Сомнительные{{color id=\"65535\"}}.{{delay1}} Для этого нужно\nобязательно добавить {{color id=\"2\"}}орган монстра{{color id=\"65535\"}},\n{{color id=\"2\"}}лягушку{{color id=\"65535\"}} или, например, {{color id=\"2\"}}насекомое{{color id=\"65535\"}}.{{pageBreak}}{{fun_0003_0001 arg=\"0x0B00\"}}Блюдо получится не только\nсомнительное, но и почти\nнесъедобное!",
      "JPja": "{{fun_0003_0001 arg=\"0x0004\"}}{{ruby charSpan=\"2\" value=\"りょうり\"}}料理を{{ruby charSpan=\"1\" value=\"つく\"}}作るときに {{color id=\"2\"}}{{ruby charSpan=\"1\" value=\"むし\"}}虫{{color id=\"65535\"}}とか{{color id=\"2\"}}{{ruby charSpan=\"2\" value=\"まもの\"}}魔物の{{ruby charSpan=\"2\" value=\"そざい\"}}素材{{color id=\"65535\"}}を{{ruby charSpan=\"1\" value=\"い\"}}入れると\n{{color id=\"2\"}}{{ruby charSpan=\"2\" value=\"びみょう\"}}微妙な{{ruby charSpan=\"2\" value=\"りょうり\"}}料理{{color id=\"65535\"}}になるそうだ{{delay3}}\n{{fun_0003_0001 arg=\"0x0B00\"}}{{ruby charSpan=\"2\" value=\"わたしてき\"}}私的には{{ruby charSpan=\"2\" value=\"びみょう\"}}微妙というよりも\n{{ruby charSpan=\"2\" value=\"かんぜん\"}}完全にアウトなんだが…{{delay2}}",
      "KRko": "{{fun_0003_0001 arg=\"0x0004\"}}요리를 만들 때 {{color id=\"2\"}}곤충{{color id=\"65535\"}}이나 {{color id=\"2\"}}몬스터 소재{{color id=\"65535\"}}를 넣으면\n{{color id=\"2\"}}애매한 요리{{color id=\"65535\"}}가 되는 모양이야{{delay3}}\n{{fun_0003_0001 arg=\"0x0B00\"}}개인적으로 애매하다기보다는\n완전 꽝인 것 같지만…{{delay2}}",
      "TWzh": "{{fun_0003_0001 arg=\"0x0004\"}}在做菜時，只要放入{{color id=\"2\"}}昆蟲{{color id=\"65535\"}}或是{{color id=\"2\"}}怪物材料{{color id=\"65535\"}}，\n好像就會變成{{color id=\"2\"}}奇異的菜餚{{color id=\"65535\"}}。{{delay3}}\n{{fun_0003_0001 arg=\"0x0B00\"}}不過就我來說，那與其說是奇異，\n根本是完全出局了……{{delay2}}",
      "USen": "{{fun_0003_0001 arg=\"0x0004\"}}When you're cooking, if you add {{color id=\"2\"}}insects{{color id=\"65535\"}}\nor {{color id=\"2\"}}monster materials{{color id=\"65535\"}}, you'll end up\nwith {{color id=\"2\"}}dubious food{{color id=\"65535\"}}.{{delay3}}\n{{fun_0003_0001 arg=\"0x0B00\"}}Though if you ask me, there's nothing\ndubious about how absolutely inedible\nit is...",
      "USes": "{{fun_0003_0001 arg=\"0x0004\"}}Al parecer, si agregas {{color id=\"2\"}}insectos {{color id=\"65535\"}}o\n{{color id=\"2\"}}partes de {{wordInfo gender=\"1\" defArticle=\"0\" indefArticle=\"0\" isPlural=\"0\"}}monstruos {{color id=\"65535\"}}al cocinar, el\nresultado será {{color id=\"2\"}}comida sospechosa{{color id=\"65535\"}}.{{delay3}}\n{{fun_0003_0001 arg=\"0x0B00\"}}Aunque yo opino que su terrible sabor\nno tiene nada de sospechoso...",
      "USfr": "{{fun_0003_0001 arg=\"0x0004\"}}Le {{color id=\"2\"}}plat douteux{{color id=\"65535\"}}! Il paraît que c'est facile\nà préparer. Il suffit d'ajouter un {{color id=\"2\"}}insecte{{color id=\"65535\"}}\nou un ingrédient de {{color id=\"2\"}}monstre{{color id=\"65535\"}} à un plat.{{delay3}}\n{{fun_0003_0001 arg=\"0x0B00\"}}À ce niveau-là, c'est pas douteux,\nc'est répugnant...{{delay2}} Vous mangez\nde ça, chez toi...?"
    }
  },
  {
    "label": "talk07",
    "attribute": "0xB6010000",
    "locale": {
      "CNzh": "{{fun_0003_0001 arg=\"0x0004\"}}如果你也想攻陷沃伊的心，\n首先就要抓住他们的胃！{{delay3}}\n这是我跟老师现学现卖的。",
      "EUde": "{{fun_0003_0001 arg=\"0x0004\"}}Wenn man {{wordInfo gender=\"2\" defArticle=\"4\" indefArticle=\"4\" isPlural=\"0\"}}Dubiose Matsche kochen\nkann, findet man in jedem hylianischen\nRestaurant sofort Arbeit!\nZumindest hat die Lehrerin uns das\ngesagt.",
      "EUen": "{{fun_0003_0001 arg=\"0x0004\"}}The quickest way to someone's heart is\nthrough their stomach!\n\nAt least, that's what the teacher says...",
      "EUes": "{{fun_0003_0001 arg=\"0x0004\"}}Como comprenderás, no me\nla pienso comer...",
      "EUfr": "{{fun_0003_0001 arg=\"0x0004\"}}C'est ça, évite le sujet...{{delay3}} J'aimerais bien\nsavoir si vous mangez vraiment de ça,\nà l'étranger...",
      "EUit": "{{fun_0003_0001 arg=\"0x0004\"}}Per diventare delle vay indipendenti,{{delay3}}\nbisogna imparare a cucinare da sole\ni propri pasti!\nCe lo dice sempre la maestra.",
      "EUnl": "{{fun_0003_0001 arg=\"0x0004\"}}De liefde van een man gaat door de\nmaag!{{pageBreak}}Dat is althans wat de lerares zegt...",
      "EUru": "{{fun_0003_0001 arg=\"0x0004\"}}Если хочешь найти себе вооя, помни,\nчто путь к его сердцу лежит через\nжелудок!{{delay1}} Так госпожа Ашаи сказала.",
      "JPja": "{{fun_0003_0001 arg=\"0x0004\"}}お{{ruby charSpan=\"1\" value=\"まえ\"}}前もヴォーイを{{ruby charSpan=\"1\" value=\"お\"}}落としたいなら\nまずは{{ruby charSpan=\"2\" value=\"いぶくろ\"}}胃袋をつかむんだな！{{delay3}}\nまぁ これは{{ruby charSpan=\"2\" value=\"せんせい\"}}先生の{{ruby charSpan=\"1\" value=\"う\"}}受け{{ruby charSpan=\"1\" value=\"う\"}}売りだがな",
      "KRko": "{{fun_0003_0001 arg=\"0x0004\"}}너도 브오이의 마음을 잡으려면\n우선 위장을 잡도록 해!{{delay3}}\n뭐, 이건 선생님이 한 말이지만",
      "TWzh": "{{fun_0003_0001 arg=\"0x0004\"}}如果妳也想攻陷伯伊的心，\n首先就要抓住他們的胃！{{delay3}}\n這是我跟老師現學現賣的。",
      "USen": "{{fun_0003_0001 arg=\"0x0004\"}}The quickest way to someone's heart is\nthrough their stomach!\n\nAt least, that's what the teacher says...",
      "USes": "{{fun_0003_0001 arg=\"0x0004\"}}¡La prueba máxima de independencia,\nes saber cocinar por ti misma!\n\nAl menos eso es lo que siempre\ndice la maestra...",
      "USfr": "{{fun_0003_0001 arg=\"0x0004\"}}C'est ça, évite le sujet...{{delay3}} J'aimerais bien\nsavoir si vous mangez vraiment de ça,\nà l'étranger..."
    }
  },
  {
    "label": "talk03",
    "attribute": "0xDC010000",
    "locale": {
      "CNzh": "{{fun_0003_0001 arg=\"0x0B00\"}}瓦夏老师的恋爱班\n就要开始上课了。\n说真的……虽然我觉得恋爱很麻烦，\n但为了寻得好沃伊，我得努力才行。",
      "EUde": "{{fun_0003_0001 arg=\"0x0B00\"}}Gleich beginnen Ashais Vooi-Lektionen.{{pageBreak}}Ehrlich gesagt habe ich ja nicht viel Lust,\nmich mit Vooi abzugeben.{{pageBreak}}Aber die Welt da draußen ist so voll mit\nihnen, da kommt man wohl nicht drum\nherum...",
      "EUen": "{{fun_0003_0001 arg=\"0x0B00\"}}It's about time for Ms. Ashai's class\nto begin.\n\nTo be honest...I think learning all this\nis a real pain in the neck. But don't\ntell anyone I said that!",
      "EUes": "{{fun_0003_0001 arg=\"0x0B00\"}}La verdad es que no sé para qué\nme he apuntado a estas clases...{{pageBreak}}Ya tengo bastante lío con pasarme\ntodo el día entrenando.",
      "EUfr": "{{fun_0003_0001 arg=\"0x0B00\"}}Le cours de séduction de madame Azahl\nva commencer.\n\nPfff, séduire quelqu'un, c'est pas aussi\nfacile que ça en a l'air... Je pensais pas\nque c'était autant de travail...",
      "EUit": "{{fun_0003_0001 arg=\"0x0B00\"}}Adesso comincia il corso di\ncorteggiamento.\n\nMa a me l'amore non interessa per\nadesso... Voglio pensare a viaggiare\ne fare nuove esperienze!",
      "EUnl": "{{fun_0003_0001 arg=\"0x0B00\"}}De liefdeslessen van mevrouw Ashai\nbeginnen zo meteen.{{pageBreak}}Om eerlijk te zijn vind ik liefde maar\nlastig. Hopelijk zijn er ook makkelijkere\nmanieren om een leuke man te vinden...",
      "EUru": "{{fun_0003_0001 arg=\"0x0B00\"}}Занятие госпожи Ашаи «Как найти\nсвою любовь» вот-вот начнется.{{pageBreak}}Честно говоря, мне уже надоели все\nэти занятия.{{delay1}} Но без них хорошего вооя\nне найдешь!",
      "JPja": "{{fun_0003_0001 arg=\"0x0B00\"}}{{ruby charSpan=\"1\" value=\"いま\"}}今からはワーシャ{{ruby charSpan=\"2\" value=\"せんせい\"}}先生の\n{{ruby charSpan=\"4\" value=\"れんあいきょうしつ\"}}恋愛教室の{{ruby charSpan=\"2\" value=\"じかん\"}}時間なんだ\n{{ruby charSpan=\"2\" value=\"しょうじき\"}}正直… {{ruby charSpan=\"1\" value=\"こい\"}}恋ってのは{{ruby charSpan=\"2\" value=\"めんどう\"}}面倒だが\nいいヴォーイを{{ruby charSpan=\"1\" value=\"み\"}}見つけるためには {{ruby charSpan=\"2\" value=\"がんば\"}}頑張らんとな",
      "KRko": "{{fun_0003_0001 arg=\"0x0B00\"}}이제부터는 와셔 선생님의\n연애 교실 시간이야\n솔직히… 연애는 좀 귀찮지만\n좋은 브오이를 찾기 위해선 어쩔 수 없지",
      "TWzh": "{{fun_0003_0001 arg=\"0x0B00\"}}瓦夏老師的戀愛班\n就要開始上課了。\n說真的……雖然我覺得戀愛很麻煩，\n但為了尋得好伯伊，我得努力才行。",
      "USen": "{{fun_0003_0001 arg=\"0x0B00\"}}It's about time for Ms. Ashai's class\nto begin.\n\nTo be honest...I think learning all this\nis a real pain in the neck. But don't\ntell anyone I said that!",
      "USes": "{{fun_0003_0001 arg=\"0x0B00\"}}La verdad es que no sé para qué\nme apunté a las clases de la\nprofe Nasha...\nYa tengo bastante con pasarme\ntodo el día entrenando.",
      "USfr": "{{fun_0003_0001 arg=\"0x0B00\"}}Le cours de madame Azahl\nva commencer.\n\nPfff, séduire quelqu'un, c'est pas aussi\nfacile que ça en a l'air... Je pensais pas\nque c'était autant de travail..."
    }
  },
  {
    "label": "TerrorSword",
    "attribute": "0x02020000",
    "locale": {
      "CNzh": "什么！",
      "EUde": "Wa...!",
      "EUen": "Wha—?!",
      "EUes": "¡Tranquilízate!",
      "EUfr": "Calme-toi !",
      "EUit": "Cos...?!",
      "EUnl": "Wat?!",
      "EUru": "Эй!",
      "JPja": "なっ！",
      "KRko": "앗!",
      "TWzh": "什麼！",
      "USen": "Wha—?!",
      "USes": "¡Tranquilízate!",
      "USfr": "Calme-toi!"
    }
  },
  {
    "label": "TerrorBomb",
    "attribute": "0x04020000",
    "locale": {
      "CNzh": "喂！",
      "EUde": "He!",
      "EUen": "Take cover!",
      "EUes": "¡Oye, cuidado!",
      "EUfr": "Hé !",
      "EUit": "Ehi!",
      "EUnl": "Hé!",
      "EUru": "Это что?",
      "JPja": "おいっ！",
      "KRko": "이봐!",
      "TWzh": "喂！",
      "USen": "Take cover!",
      "USes": "¡Oye, cuidado!",
      "USfr": "Hé!"
    }
  },
  {
    "label": "TerrorArrow",
    "attribute": "0x06020000",
    "locale": {
      "CNzh": "呀！",
      "EUde": "Aaah!",
      "EUen": "Hey!",
      "EUes": "¡Mira dónde apuntas!",
      "EUfr": "Pose ça !",
      "EUit": "Eeehi!",
      "EUnl": "Kijk eens uit!",
      "EUru": "Эй!",
      "JPja": "やっ！",
      "KRko": "어이!",
      "TWzh": "呀！",
      "USen": "Hey!",
      "USes": "¡Mira dónde apuntas!",
      "USfr": "Pose ça!"
    }
  },
  {
    "label": "TerrorExplosion",
    "attribute": "0x08020000",
    "locale": {
      "CNzh": "什、什么！？",
      "EUde": "W-was war das!?",
      "EUen": "Wh-what?!",
      "EUes": "¡Al suelo!",
      "EUfr": "C'était quoi ?!",
      "EUit": "C-Cosa?!",
      "EUnl": "W-wat was dat?!",
      "EUru": "Ох!",
      "JPja": "な {{ruby charSpan=\"1\" value=\"なに\"}}何？！",
      "KRko": "무, 뭐?!",
      "TWzh": "什、什麼！？",
      "USen": "Wh-what?!",
      "USes": "¡Al suelo!",
      "USfr": "C'était quoi?!"
    }
  },
  {
    "label": "TerrorFire",
    "attribute": "0x0A020000",
    "locale": {
      "CNzh": "喂，你到旁边去啦。",
      "EUde": "Hau ab damit!",
      "EUen": "Get that away from me!",
      "EUes": "¡Fuego!",
      "EUfr": "Espèce de pyromane !",
      "EUit": "Brucia!",
      "EUnl": "Hé, ga weg daarmee!",
      "EUru": "Убери!",
      "JPja": "ちょっ あっち{{ruby charSpan=\"1\" value=\"い\"}}行けよ",
      "KRko": "잠깐, 저리 가",
      "TWzh": "喂，妳到旁邊去啦。",
      "USen": "Get that away from me!",
      "USes": "¡Fuego!",
      "USfr": "Espèce de pyromane!"
    }
  }
]