[
  {
    "label": "Talk_01",
    "attribute": "0xCC000000",
    "locale": {
      "CNzh": "{{fun_0003_0001 arg=\"0x001C\"}}沙瓦库！{{delay3}}\n\n今天也很热呢。{{fun_0001_0004 arg=\"0x010002000001\"}}",
      "EUde": "{{fun_0003_0001 arg=\"0x001C\"}}Savaaq!{{delay3}}{{pageBreak}}Wieder ein heißer Tag heute, nicht wahr?{{fun_0001_0004 arg=\"0x010002000001\"}}",
      "EUen": "{{fun_0003_0001 arg=\"0x001C\"}}Sav'aaq!{{delay3}}\nIt's another hot one today, huh?{{fun_0001_0004 arg=\"0x010002000001\"}}",
      "EUes": "{{fun_0003_0001 arg=\"0x001C\"}}¡Sawook!{{pageBreak}}Otro día caluroso.{{fun_0001_0004 arg=\"0x010002000001\"}}",
      "EUfr": "{{fun_0003_0001 arg=\"0x001C\"}}Savaak !{{delay3}}\n\n\nPfiou, il fait chaud, aujourd'hui.{{fun_0001_0004 arg=\"0x010002000001\"}}",
      "EUit": "{{fun_0003_0001 arg=\"0x001C\"}}Savaaq!{{delay3}}\n\n\nChe caldo oggi, eh?{{fun_0001_0004 arg=\"0x010002000001\"}}",
      "EUnl": "{{fun_0003_0001 arg=\"0x001C\"}}Savaaq!{{delay3}} Het is vandaag weer heet, hè?{{fun_0001_0004 arg=\"0x010002000001\"}}",
      "EUru": "{{fun_0003_0001 arg=\"0x001C\"}}Саваак!{{delay3}} Еще один жаркий день...{{fun_0001_0004 arg=\"0x010002000001\"}}",
      "JPja": "{{fun_0003_0001 arg=\"0x001C\"}}サヴァーク！{{delay3}}\n\n{{ruby charSpan=\"2\" value=\"きょう\"}}今日も{{ruby charSpan=\"1\" value=\"あつ\"}}暑いねぇ{{fun_0001_0004 arg=\"0x010002000001\"}}",
      "KRko": "{{fun_0003_0001 arg=\"0x001C\"}}사브아크!{{delay3}}\n\n오늘도 덥네{{fun_0001_0004 arg=\"0x010002000001\"}}",
      "TWzh": "{{fun_0003_0001 arg=\"0x001C\"}}薩芭庫！{{delay3}}\n\n今天也很熱呢。{{fun_0001_0004 arg=\"0x010002000001\"}}",
      "USen": "{{fun_0003_0001 arg=\"0x001C\"}}Sav'aaq!{{delay3}}\nIt's another hot one today, huh?{{fun_0001_0004 arg=\"0x010002000001\"}}",
      "USes": "{{fun_0003_0001 arg=\"0x001C\"}}¡Sawook!{{delay3}}\nOtro día caluroso.{{fun_0001_0004 arg=\"0x010002000001\"}}",
      "USfr": "{{fun_0003_0001 arg=\"0x001C\"}}Savaak!{{delay3}}\n\n\nPfiou, il fait chaud, aujourd'hui.{{fun_0001_0004 arg=\"0x010002000001\"}}"
    }
  },
  {
    "label": "Talk_10",
    "attribute": "0xE6000000",
    "locale": {
      "CNzh": "{{fun_0003_0001 arg=\"0x001B\"}}沙沃塔！{{delay3}}\n客人一早就很有精神呢。{{fun_0001_0004 arg=\"0x010002000001\"}}",
      "EUde": "{{fun_0003_0001 arg=\"0x001B\"}}Savotta!{{delay3}}\nDu bist ja ziemlich energiegeladen,\ndafür, dass es noch so früh am Tag ist!{{fun_0001_0004 arg=\"0x010002000001\"}}",
      "EUen": "{{fun_0003_0001 arg=\"0x001B\"}}Sav'otta!{{delay3}}\nYou've got a lot of energy. More of a\nmorning person, huh?{{fun_0001_0004 arg=\"0x010002000001\"}}",
      "EUes": "{{fun_0003_0001 arg=\"0x001B\"}}¡Sawotta!{{pageBreak}}Hay que ver cuánta energía tienes\nde buena mañana.{{fun_0001_0004 arg=\"0x010002000001\"}}",
      "EUfr": "{{fun_0003_0001 arg=\"0x001B\"}}Savotta !{{delay3}} Ce que tu es matinale !\nEt tu as l'air d'avoir la pêche.{{fun_0001_0004 arg=\"0x010002000001\"}}",
      "EUit": "{{fun_0003_0001 arg=\"0x001B\"}}Savotta!{{delay3}}\nScoppi di energia fin dal mattino, eh?{{fun_0001_0004 arg=\"0x010002000001\"}}",
      "EUnl": "{{fun_0003_0001 arg=\"0x001B\"}}Savotta!{{delay3}} Ik vind je opvallend energiek\nvoor deze tijd van de ochtend.{{fun_0001_0004 arg=\"0x010002000001\"}}",
      "EUru": "{{fun_0003_0001 arg=\"0x001B\"}}Савотта!{{delay3}} Еще утро, а ты уже на ногах!{{fun_0001_0004 arg=\"0x010002000001\"}}",
      "JPja": "{{fun_0003_0001 arg=\"0x001B\"}}サヴォッタ！{{delay3}}\nお{{ruby charSpan=\"1\" value=\"きゃく\"}}客さん {{ruby charSpan=\"1\" value=\"あさ\"}}朝から{{ruby charSpan=\"2\" value=\"げんき\"}}元気だね{{fun_0001_0004 arg=\"0x010002000001\"}}",
      "KRko": "{{fun_0003_0001 arg=\"0x001B\"}}사브옷타!{{delay3}}\n손님, 아침부터 활기차네{{fun_0001_0004 arg=\"0x010002000001\"}}",
      "TWzh": "{{fun_0003_0001 arg=\"0x001B\"}}薩伯塔！{{delay3}}\n客人一早就很有精神呢。{{fun_0001_0004 arg=\"0x010002000001\"}}",
      "USen": "{{fun_0003_0001 arg=\"0x001B\"}}Sav'otta!{{delay3}}\nYou've got a lot of energy. More of a\nmorning person, huh?{{fun_0001_0004 arg=\"0x010002000001\"}}",
      "USes": "{{fun_0003_0001 arg=\"0x001B\"}}¡Sawotta!{{delay3}} Uy, cuánta energía tienes,\nseguro que eres una personita\nmuy madrugadora.{{fun_0001_0004 arg=\"0x010002000001\"}}",
      "USfr": "{{fun_0003_0001 arg=\"0x001B\"}}Savotta!{{delay3}} Ce que tu es matinale!\nEt tu as l'air d'être en forme.{{fun_0001_0004 arg=\"0x010002000001\"}}"
    }
  },
  {
    "label": "Talk_11",
    "attribute": "0x00010000",
    "locale": {
      "CNzh": "{{fun_0003_0001 arg=\"0x001D\"}}沙瓦沙巴！\n\n气温变得凉爽些了呢。\n蘑菇在晚上就会变得有精神，\n慢慢看吧。{{fun_0001_0004 arg=\"0x010002000001\"}}",
      "EUde": "{{fun_0003_0001 arg=\"0x001D\"}}Sav'saaba!{{pageBreak}}Jetzt ist es angenehm kühl, oder?{{delay1}}\nPilze verkaufen sich abends sowieso\nbesser.\nNimm dir Zeit und sieh dir mein\nSortiment an!{{fun_0001_0004 arg=\"0x010002000001\"}}",
      "EUen": "{{fun_0003_0001 arg=\"0x001D\"}}Sav'saaba!{{delay1}}\nNow that it's the evening, it's gotten\nmuch cooler, hasn't it?\nYou know, mushrooms enjoy the cool\nweather. You might find some around...{{delay1}}\nTake the time to look.{{fun_0001_0004 arg=\"0x010002000001\"}}",
      "EUes": "{{fun_0003_0001 arg=\"0x001D\"}}¡Sawosaaba!{{pageBreak}}Por la noche refresca un poco,\ny a las setas les viene bien.{{pageBreak}}Échale un vistazo al puesto,\nno te cortes.{{fun_0001_0004 arg=\"0x010002000001\"}}",
      "EUfr": "{{fun_0003_0001 arg=\"0x001D\"}}Savasaaba !\n\n\nIl fait bien plus frais qu'en journée.\n\n\nLes champignons retrouvent toute leur\nvigueur la nuit, alors n'hésite pas à jeter\nun coup d'œil.{{fun_0001_0004 arg=\"0x010002000001\"}}",
      "EUit": "{{fun_0003_0001 arg=\"0x001D\"}}Sav'saaba!\n\n\nHa rinfrescato un po'...\nAi funghi piace la sera, sai?\n\nPrenditi tutto il tempo che ti serve.{{fun_0001_0004 arg=\"0x010002000001\"}}",
      "EUnl": "{{fun_0003_0001 arg=\"0x001D\"}}Sav'saaba! Het is afgekoeld.\nPaddenstoelen groeien 's nachts beter.\nNeem de tijd.{{fun_0001_0004 arg=\"0x010002000001\"}}",
      "EUru": "{{fun_0003_0001 arg=\"0x001D\"}}Сав'сааба!{{delay3}} Прохладно стало, да?{{delay1}}\nГрибы при такой температуре\nдольше хранятся.{{delay1}} Покупай!{{fun_0001_0004 arg=\"0x010002000001\"}}",
      "JPja": "{{fun_0003_0001 arg=\"0x001D\"}}サヴァサーバ！\n\nちょっと{{ruby charSpan=\"1\" value=\"すず\"}}涼しくなってきたねぇ\nキノコは{{ruby charSpan=\"1\" value=\"よる\"}}夜に{{ruby charSpan=\"2\" value=\"げんき\"}}元気になるからね\nゆっくり{{ruby charSpan=\"1\" value=\"み\"}}見てっとくれ{{fun_0001_0004 arg=\"0x010002000001\"}}",
      "KRko": "{{fun_0003_0001 arg=\"0x001D\"}}사브아사바!\n\n조금 선선해졌네\n버섯은 밤에 신선해진다구\n천천히 구경해{{fun_0001_0004 arg=\"0x010002000001\"}}",
      "TWzh": "{{fun_0003_0001 arg=\"0x001D\"}}薩芭薩芭！\n\n氣溫變得涼爽些了呢。\n蘑菇在晚上就會變得有精神，\n慢慢看吧。{{fun_0001_0004 arg=\"0x010002000001\"}}",
      "USen": "{{fun_0003_0001 arg=\"0x001D\"}}Sav'saaba!{{delay1}}\nNow that it's the evening, it's gotten\nmuch cooler, hasn't it?\nYou know, mushrooms enjoy the cool\nweather. You might find some around...{{delay1}}\nTake the time to look.{{fun_0001_0004 arg=\"0x010002000001\"}}",
      "USes": "{{fun_0003_0001 arg=\"0x001D\"}}¡Sawosaaba!{{delay1}}\nPor la noche refresca un poco,\npara el beneficio de todos.\nEso también le viene bien a los hongos.\nEcha un vistazo por el puesto,\nsin compromiso.{{fun_0001_0004 arg=\"0x010002000001\"}}",
      "USfr": "{{fun_0003_0001 arg=\"0x001D\"}}Savasaaba!\n\n\nIl fait bien plus frais qu'en journée.\n\n\nLes champignons retrouvent toute leur\nvigueur la nuit, alors n'hésite pas à jeter\nun coup d'œil.{{fun_0001_0004 arg=\"0x010002000001\"}}"
    }
  },
  {
    "label": "0001",
    "attribute": "0x1A010000",
    "locale": {
      "CNzh": "请收购东西",
      "EUde": "Ich will verkaufen!",
      "EUen": "I've things for sale.",
      "EUes": "¿Me compras algo?",
      "EUfr": "Achète-moi un truc !",
      "EUit": "Ti vendo qualcosa.",
      "EUnl": "Koop iets van me.",
      "EUru": "Я кое-что продаю",
      "JPja": "{{ruby charSpan=\"1\" value=\"か\"}}買い{{ruby charSpan=\"1\" value=\"と\"}}取ってほしい",
      "KRko": "팔고 싶어요",
      "TWzh": "請收購東西",
      "USen": "I've things for sale.",
      "USes": "¿Me compras algo?",
      "USfr": "Achète-moi un truc!"
    }
  },
  {
    "label": "0002",
    "attribute": "0x1C010000",
    "locale": {
      "CNzh": "再见",
      "EUde": "Wiedersehen.",
      "EUen": "Good-bye.",
      "EUes": "Hasta luego",
      "EUfr": "Au revoir !",
      "EUit": "Arrivederci.",
      "EUnl": "Tot ziens.",
      "EUru": "Пока",
      "JPja": "さよなら",
      "KRko": "안녕히",
      "TWzh": "再見",
      "USen": "Good-bye.",
      "USes": "Hasta luego",
      "USfr": "Au revoir!"
    }
  },
  {
    "label": "Talk_02",
    "attribute": "0x1E010000",
    "locale": {
      "CNzh": "{{fun_0003_0001 arg=\"0x0002\"}}如果赚到钱，\n也看看我们的蘑菇吧。",
      "EUde": "{{fun_0003_0001 arg=\"0x0002\"}}Wenn du etwas Geld hast, sieh dir doch\nauch einmal meine Pilze an.",
      "EUen": "{{fun_0003_0001 arg=\"0x0002\"}}If you've got some money, take a look at\nmy mushrooms.",
      "EUes": "{{fun_0003_0001 arg=\"0x0002\"}}Aquí solo vendo setas de primerísima\ncalidad, te lo aseguro.",
      "EUfr": "{{fun_0003_0001 arg=\"0x0002\"}}Si tu as des rubis, n'hésite pas à jeter\nun coup d'œil à mes champignons.",
      "EUit": "{{fun_0003_0001 arg=\"0x0002\"}}Se metti da parte un po' di soldi,\ndai un'occhiata ai miei funghi.",
      "EUnl": "{{fun_0003_0001 arg=\"0x0002\"}}Voel je vrij om mijn paddenstoelen te\nkopen, zolang je maar genoeg geld hebt.",
      "EUru": "{{fun_0003_0001 arg=\"0x0002\"}}А теперь ты у меня грибочков купи!",
      "JPja": "{{fun_0003_0001 arg=\"0x0002\"}}{{ruby charSpan=\"1\" value=\"かね\"}}金ができたなら\nキノコもみてっておくれ",
      "KRko": "{{fun_0003_0001 arg=\"0x0002\"}}돈이 생겼으면\n버섯도 보고 가 줘",
      "TWzh": "{{fun_0003_0001 arg=\"0x0002\"}}如果賺到錢，\n也看看我們的蘑菇吧。",
      "USen": "{{fun_0003_0001 arg=\"0x0002\"}}If you've got some money, take a look at\nmy mushrooms.",
      "USes": "{{fun_0003_0001 arg=\"0x0002\"}}Aquí solo vendo hongos de primerísima\ncalidad, te lo aseguro.",
      "USfr": "{{fun_0003_0001 arg=\"0x0002\"}}Si tu as des rubis, n'hésite pas à jeter\nun coup d'œil à mes champignons."
    }
  },
  {
    "label": "Talk_03",
    "attribute": "0x38010000",
    "locale": {
      "CNzh": "{{fun_0003_0001 arg=\"0x0017\"}}偷偷跟你说，\n格鲁德的美丽肌肤就是这个蘑菇打造的哦，\n小姐姐你也是，既然到了格鲁德小镇，\n不买这个可就亏大了哦～",
      "EUde": "{{fun_0003_0001 arg=\"0x0017\"}}Ganz im Vertrauen – ihren perfekten Teint\nhaben die Gerudo in Wirklichkeit diesen\nPilzen zu verdanken.\nEs wäre doch Verschwendung, nach\nGerudo-Stadt zu kommen und nicht ein\npaar Pilze mitzunehmen!",
      "EUen": "{{fun_0003_0001 arg=\"0x0017\"}}Just between us...{{delay1}} The Gerudo keep their\nskin so beautiful thanks to the\nmushrooms that grow here.\nIt would really be a waste if you left\nGerudo Town without taking some of\nthese mushrooms with you!",
      "EUes": "{{fun_0003_0001 arg=\"0x0017\"}}¿Te cuento un secreto? Si las gerudo\nlucimos una piel tan perfecta, es gracias\na estas setas.\nYa que has venido hasta aquí, sería\nuna pena que te fueras sin haber\ncomprado alguna.",
      "EUfr": "{{fun_0003_0001 arg=\"0x0017\"}}D'après ce qu'on dit, ce sont ces\nchampignons qui donnent aux Gerudos\nleur si belle peau.\nProfite donc de ta venue dans notre cité\npour en acheter quelques-uns, tu ne le\nregretteras pas.",
      "EUit": "{{fun_0003_0001 arg=\"0x0017\"}}Che resti tra noi, ma la pelle\ndi noi Gerudo deve il suo splendore\na questi funghi.\nSarebbe un gran peccato visitare\nla cittadella Gerudo senza comprare\nqualche buon fungo.",
      "EUnl": "{{fun_0003_0001 arg=\"0x0017\"}}Even tussen jou en mij... De Gerudo's\nhebben hun strakke, jonge huid te\ndanken aan deze paddenstoelen.\nHet zou toch zonde zijn als je het\nGerudo-fort bezoekt, maar zonder\npaddenstoelen weer vertrekt!",
      "EUru": "{{fun_0003_0001 arg=\"0x0017\"}}Скажу тебе по секрету: у герудо\nхорошая кожа благодаря местным\nгрибам.{{pageBreak}}Раз уж ты оказалась в наших краях,\nсоветую купить как можно больше!",
      "JPja": "{{fun_0003_0001 arg=\"0x0017\"}}{{ruby charSpan=\"1\" value=\"じつ\"}}実はココだけの{{ruby charSpan=\"1\" value=\"はなし\"}}話\nゲルドの{{ruby charSpan=\"2\" value=\"びはだ\"}}美肌はこのキノコが{{ruby charSpan=\"1\" value=\"つく\"}}作ってるんだよ\nゲルドの{{ruby charSpan=\"1\" value=\"まち\"}}街に{{ruby charSpan=\"1\" value=\"き\"}}来たからには\nオネェさんも {{ruby charSpan=\"1\" value=\"か\"}}買っとかないと{{ruby charSpan=\"1\" value=\"そん\"}}損だよ～",
      "KRko": "{{fun_0003_0001 arg=\"0x0017\"}}실은 여기서만 하는 얘긴데\n겔드 사람들의 피부가 좋은 건 이 버섯 덕이야\n겔드의 마을에 온 이상\n언니도 사지 않으면 손해라구~",
      "TWzh": "{{fun_0003_0001 arg=\"0x0017\"}}偷偷跟妳說，\n格魯德的美麗肌膚就是這個蘑菇打造的哦，\n既然到了格魯德小鎮，\n這位美女，妳不買這個可就虧大了哦～",
      "USen": "{{fun_0003_0001 arg=\"0x0017\"}}Just between us...{{delay1}} The Gerudo keep their\nskin so beautiful thanks to the\nmushrooms that grow here.\nIt would really be a waste if you left\nGerudo Town without taking some of\nthese mushrooms with you!",
      "USes": "{{fun_0003_0001 arg=\"0x0017\"}}¿Te cuento un secreto? Si las gerudo\nlucimos una piel tan perfecta, es gracias\na estos hongos.\nYa que has venido hasta aquí, sería\nuna pena que te fueras sin haber\ncomprado alguno.",
      "USfr": "{{fun_0003_0001 arg=\"0x0017\"}}D'après ce qu'on dit, ce sont ces\nchampignons qui donnent aux Gerudos\nleur si belle peau.\nProfite donc de ta venue dans notre cité\npour en acheter quelques-uns, tu ne le\nregretteras pas."
    }
  },
  {
    "label": "Talk_12",
    "attribute": "0x52010000",
    "locale": {
      "CNzh": "{{fun_0003_0001 arg=\"0x0704\"}}这是只有美女\n才看得见的神奇蘑菇哦～\n……{{delay3}}\n{{fun_0003_0001 arg=\"0x0013\"}}仔细一看，这不是小姐姐吗？\n因为小姐姐你上次把商品通通～买光，\n我没东西可卖了，\n所以才这样蒙混客人啦。{{fun_0001_0004 arg=\"0x010002000001\"}}",
      "EUde": "{{fun_0003_0001 arg=\"0x0704\"}}Greif zu –{{delay1}} mysteriöse Pilze, die nur\nvon gutaussehenden Leuten\ngesehen werden können!\n{{fun_0003_0001 arg=\"0x0013\"}}...{{delay3}} Ah, du bist's.{{pageBreak}}Du hast doch all meine Pilze gekauft.\nTja, und jetzt habe ich halt keine mehr.{{pageBreak}}Was bleibt mir jetzt schon noch, als zu\nversuchen, die Leute hinters Licht zu\nführen?!{{fun_0001_0004 arg=\"0x010002000001\"}}",
      "EUen": "{{fun_0003_0001 arg=\"0x0704\"}}Step right up and sample my wares: rare,\nmysterious mushrooms, only visible to\nthe eyes of the most beautiful!{{delay3}}\n{{fun_0003_0001 arg=\"0x0013\"}}Oh—it's just you.{{delay2}}\nAfter you bought all my mushrooms,\nI had nothing left to restock my stall...\nBut now, I think people will fall for this.{{fun_0001_0004 arg=\"0x010002000001\"}}",
      "EUes": "{{fun_0003_0001 arg=\"0x0704\"}}¡Setas mágicas que solo pueden ver\nlas shiak guapas! ¡Me las quitan de\nlas manos!\n{{fun_0003_0001 arg=\"0x0013\"}}¡Eh!{{delay3}} Espera, me acuerdo de ti.{{pageBreak}}Como me compraste todas las setas,\nahora no tengo nada más para vender.{{pageBreak}}Estoy probando una nueva estrategia\ncomercial, a ver si pica alguien.{{fun_0001_0004 arg=\"0x010002000001\"}}",
      "EUfr": "{{fun_0003_0001 arg=\"0x0704\"}}Arrivage exclusif ! Des champignons\naussi rares que mystérieux, seulement\nvisibles par les plus belles vaïs !\n...{{delay3}}{{fun_0003_0001 arg=\"0x0013\"}} Ah, c'est toi, ma grande !\n\n\nTu m'as tout acheté, alors je n'ai plus\nrien à vendre.\n\nDu coup, je n'ai pas d'autre choix que de\nfaire croire que j'ai de la marchandise,\ntu comprends.{{fun_0001_0004 arg=\"0x010002000001\"}}",
      "EUit": "{{fun_0003_0001 arg=\"0x0704\"}}Misteriosi funghi visibili solo alle\nbelle donne!\n\nAh... {{delay3}}\n{{fun_0003_0001 arg=\"0x0013\"}}Sei ancora tu...\n\nTi sei comprata tutti i miei\nfunghi e non mi hai lasciato\nniente da vendere.\nAllora sono stata costretta a ingegnarmi\ncon questo piccolo trucchetto...{{fun_0001_0004 arg=\"0x010002000001\"}}",
      "EUnl": "{{fun_0003_0001 arg=\"0x0704\"}}Mysterieuze paddenstoelen die alleen\nbeeldschone mensen kunnen zien!{{pageBreak}}{{fun_0003_0001 arg=\"0x0013\"}}O, jij bent het!{{pageBreak}}Omdat je al mijn paddenstoelen hebt\ngekocht, heb ik niets meer te verkopen.{{pageBreak}}Dus nu probeer ik mensen op deze\nmanier op te lichten.{{fun_0001_0004 arg=\"0x010002000001\"}}",
      "EUru": "{{fun_0003_0001 arg=\"0x0704\"}}Я продаю удивительные грибы:\nих могут видеть только настоящие\nкрасавицы.{{pageBreak}}...{{pageBreak}}{{fun_0003_0001 arg=\"0x0013\"}}Ой, это же ты у меня все скупила.{{pageBreak}}Продавать мне пока нечего, вот\nя и придумала эту присказку про\n«настоящих красавиц».{{fun_0001_0004 arg=\"0x010002000001\"}}",
      "JPja": "{{fun_0003_0001 arg=\"0x0704\"}}{{ruby charSpan=\"2\" value=\"びじん\"}}美人にしか{{ruby charSpan=\"1\" value=\"み\"}}見えない\n{{ruby charSpan=\"3\" value=\"ふしぎ\"}}不思議なキノコだよ～\n……{{delay3}}\n{{fun_0003_0001 arg=\"0x0013\"}}よく{{ruby charSpan=\"1\" value=\"み\"}}見たら オネェさんじゃないかい\nオネェさんが ぜ～んぶ{{ruby charSpan=\"1\" value=\"か\"}}買ってくれたから\n{{ruby charSpan=\"1\" value=\"う\"}}売るもんがなくなってねぇ\nこうやって ごまかしてんだよ{{fun_0001_0004 arg=\"0x010002000001\"}}",
      "KRko": "{{fun_0003_0001 arg=\"0x0704\"}}미인에게만 보이는\n신비한 버섯 있어요~\n……{{delay3}}\n{{fun_0003_0001 arg=\"0x0013\"}}자세히 보니 언니네?\n언니가 전~부 사 준 덕에\n팔 물건이 없어져서 말이야\n이렇게 속이고 있는 중이야{{fun_0001_0004 arg=\"0x010002000001\"}}",
      "TWzh": "{{fun_0003_0001 arg=\"0x0704\"}}這是只有美女\n才看得見的神奇蘑菇哦～\n……{{delay3}}\n{{fun_0003_0001 arg=\"0x0013\"}}仔細一看，是美女妳呀？\n因為妳上次把商品通通～買光，\n我沒東西可賣了，\n所以才這樣蒙混客人啦。{{fun_0001_0004 arg=\"0x010002000001\"}}",
      "USen": "{{fun_0003_0001 arg=\"0x0704\"}}Step right up and sample my wares: rare,\nmysterious mushrooms, only visible to\nthe eyes of the most beautiful!{{delay3}}\n{{fun_0003_0001 arg=\"0x0013\"}}Oh—it's just you.{{delay2}}\nAfter you bought all my mushrooms,\nI had nothing left to restock my stall...\nBut now, I think people will fall for this.{{fun_0001_0004 arg=\"0x010002000001\"}}",
      "USes": "{{fun_0003_0001 arg=\"0x0704\"}}¡Hongos tan mágicos que solo pueden\nverlos las vai más guapas! ¡Me los quitan\nde las manos!\n{{fun_0003_0001 arg=\"0x0013\"}}Eh...{{delay3}} ¡Otra vez tú! Como me\ncompraste todos los hongos,\nahora no tengo nada más para vender.\nEstoy probando una nueva estrategia\ncomercial, a ver si alguien cae.{{fun_0001_0004 arg=\"0x010002000001\"}}",
      "USfr": "{{fun_0003_0001 arg=\"0x0704\"}}Arrivage exclusif! Des champignons\naussi rares que mystérieux, seulement\nvisibles par les plus belles vaïs!\n...{{delay3}}{{fun_0003_0001 arg=\"0x0013\"}} Ah, c'est toi, ma grande!\n\n\nTu m'as tout acheté, alors je n'ai\nplus rien à vendre.\n\nDu coup, je n'ai pas d'autre choix que\nde faire croire que j'ai de la marchandise,\ntu comprends.{{fun_0001_0004 arg=\"0x010002000001\"}}"
    }
  },
  {
    "label": "Talk_13",
    "attribute": "0x6C010000",
    "locale": {
      "CNzh": "{{fun_0003_0001 arg=\"0x0017\"}}偷偷跟你说……{{delay3}}\n\n其实蘑菇呀，\n好像是世上最大的生物哦。\n{{fun_0003_0001 arg=\"0x0B00\"}}蘑菇还真是深奥呢……\n\n{{color id=\"3\"}}{{size value=\"80\"}}但它实在太深奥了，\n阿姨不是很懂就是了……{{size value=\"100\"}}{{color id=\"65535\"}}",
      "EUde": "{{fun_0003_0001 arg=\"0x0017\"}}Ganz im Vertrauen...{{delay3}}\nPilze sind in Wirklichkeit die größten\nLebewesen der Welt.{{pageBreak}}{{fun_0003_0001 arg=\"0x0B00\"}}Pilze sind so mysteriös...{{pageBreak}}{{color id=\"3\"}}{{size value=\"80\"}}So mysteriös, dass ich sie nicht wirklich verstehe...{{size value=\"100\"}}{{color id=\"65535\"}}",
      "EUen": "{{fun_0003_0001 arg=\"0x0017\"}}Just between us...{{delay1}} Mushrooms are\nactually the largest living things in the\nentire world.\n{{fun_0003_0001 arg=\"0x0B00\"}}There's actually a ton of really\ninteresting info about mushrooms.{{delay1}}\n{{color id=\"3\"}}{{size value=\"80\"}}A lot of it I don't even understand, though...{{size value=\"100\"}}{{color id=\"65535\"}}",
      "EUes": "{{fun_0003_0001 arg=\"0x0017\"}}Hace poco me enteré de algo\nsorprendente...{{pageBreak}}Al parecer, las setas son los seres\nvivientes más grandes del mundo,\nademás de los más interesantes.\n{{fun_0003_0001 arg=\"0x0B00\"}}{{color id=\"3\"}}{{size value=\"80\"}}Qué misteriosas son las setas...{{size value=\"100\"}}{{color id=\"65535\"}}",
      "EUfr": "{{fun_0003_0001 arg=\"0x0017\"}}D'après ce qu'on dit...{{delay3}}\n\n\nLes champignons seraient les organismes\nvivants les plus gros au monde.\n\n{{fun_0003_0001 arg=\"0x0B00\"}}Aaaah... Il y a tant de choses\nintéressantes à découvrir sur\nles champignons...\n{{color id=\"3\"}}{{size value=\"80\"}}Tellement que je m'y perds moi-même...{{size value=\"100\"}}{{color id=\"65535\"}}",
      "EUit": "{{fun_0003_0001 arg=\"0x0017\"}}Che resti tra noi, ma...{{delay3}}\n\n\nPare che i funghi siano le creature\nviventi più grandi del mondo.\n\n{{fun_0003_0001 arg=\"0x0B00\"}}La vita dei funghi è molto più\nprofonda di quello che può sembrare.\n\n{{color id=\"3\"}}{{size value=\"80\"}}Così profonda che, a dire il vero,\nnon ci capisco un granello di sabbia.{{size value=\"100\"}}{{color id=\"65535\"}}",
      "EUnl": "{{fun_0003_0001 arg=\"0x0017\"}}Even tussen ons...{{delay3}} maar ik heb gehoord\ndat paddenstoelen de grootste levende\norganismen ter wereld zijn.\n{{fun_0003_0001 arg=\"0x0B00\"}}Wat zijn paddenstoelen toch mysterieus.{{pageBreak}}{{color id=\"3\"}}{{size value=\"80\"}}Te mysterieus voor mij, ben ik bang...{{size value=\"100\"}}{{color id=\"65535\"}}",
      "EUru": "{{fun_0003_0001 arg=\"0x0017\"}}Скажу тебе по секрету: грибы —\nсамые крупные живые организмы\nв мире!{{pageBreak}}{{fun_0003_0001 arg=\"0x0B00\"}}Они удивительные...{{pageBreak}}{{color id=\"3\"}}{{size value=\"80\"}}Такие удивительные, что я сама\nо них многого не знаю...{{size value=\"100\"}}{{color id=\"65535\"}}",
      "JPja": "{{fun_0003_0001 arg=\"0x0017\"}}{{ruby charSpan=\"1\" value=\"じつ\"}}実はここだけの{{ruby charSpan=\"1\" value=\"はなし\"}}話…{{delay3}}\n\nキノコってのは\nこの{{ruby charSpan=\"1\" value=\"よ\"}}世で{{ruby charSpan=\"3\" value=\"いちばんおお\"}}一番大きな {{ruby charSpan=\"2\" value=\"せいぶつ\"}}生物らしいよ\n{{fun_0003_0001 arg=\"0x0B00\"}}キノコは{{ruby charSpan=\"1\" value=\"おく\"}}奥が{{ruby charSpan=\"1\" value=\"ふか\"}}深いよねぇ…\n\n{{color id=\"3\"}}{{size value=\"80\"}}{{ruby charSpan=\"1\" value=\"ふか\"}}深すぎて おばちゃんは\nよくわからないけど…{{size value=\"100\"}}{{color id=\"65535\"}}",
      "KRko": "{{fun_0003_0001 arg=\"0x0017\"}}실은 여기서만 하는 얘긴데…{{delay3}}\n\n버섯은 이 세계에서\n가장 커다란 생물이래\n{{fun_0003_0001 arg=\"0x0B00\"}}버섯은 참 알면 알수록 어렵다니까…\n\n{{color id=\"3\"}}{{size value=\"80\"}}너무 어려워서 나도 자세히 모르지만…{{size value=\"100\"}}{{color id=\"65535\"}}",
      "TWzh": "{{fun_0003_0001 arg=\"0x0017\"}}偷偷跟妳說……{{delay3}}\n\n其實蘑菇呀，\n好像是世上最大的生物哦。\n{{fun_0003_0001 arg=\"0x0B00\"}}蘑菇還真是深奧呢……\n\n{{color id=\"3\"}}{{size value=\"80\"}}但它實在太深奧了，\n阿姨不是很懂就是了……{{size value=\"100\"}}{{color id=\"65535\"}}",
      "USen": "{{fun_0003_0001 arg=\"0x0017\"}}Just between us...{{delay1}} Mushrooms are\nactually the largest living things in the\nentire world.\n{{fun_0003_0001 arg=\"0x0B00\"}}There's actually a ton of really\ninteresting info about mushrooms.{{delay1}}\n{{color id=\"3\"}}{{size value=\"80\"}}A lot of it I don't even understand, though...{{size value=\"100\"}}{{color id=\"65535\"}}",
      "USes": "{{fun_0003_0001 arg=\"0x0017\"}}Hace poco me enteré de algo\nsorprendente...\n\nAl parecer, los hongos son los seres\nvivientes más grandes del mundo,\nademás de los más interesantes.\n{{fun_0003_0001 arg=\"0x0B00\"}}{{color id=\"3\"}}{{size value=\"80\"}}Qué misteriosos son los hongos...{{size value=\"100\"}}{{color id=\"65535\"}}",
      "USfr": "{{fun_0003_0001 arg=\"0x0017\"}}D'après ce qu'on dit...{{delay3}}\n\n\nLes champignons seraient les organismes\nvivants les plus gros au monde.\n\n{{fun_0003_0001 arg=\"0x0B00\"}}Aaaah... Il y a tant de choses\nintéressantes à découvrir sur\nles champignons...\n{{color id=\"3\"}}{{size value=\"80\"}}Tellement que je m'y perds moi-même...{{size value=\"100\"}}{{color id=\"65535\"}}"
    }
  },
  {
    "label": "Talk_14",
    "attribute": "0x86010000",
    "locale": {
      "CNzh": "{{fun_0003_0001 arg=\"0x0017\"}}我还会再进蘑菇的，\n如果赚到钱，还请再来光临哦。",
      "EUde": "{{fun_0003_0001 arg=\"0x0017\"}}Ich habe bald wieder Nachschub an\nPilzen. {{delay1}}Wenn du also etwas Geld\nausgeben möchtest, komm bald wieder.",
      "EUen": "{{fun_0003_0001 arg=\"0x0017\"}}I'll make sure to restock my mushrooms.\nWhen you have some money to spend,\nplease come back by here.",
      "EUes": "{{fun_0003_0001 arg=\"0x0017\"}}Pronto tendré nuevas existencias.\nEspero que vuelvas a comprar por aquí.",
      "EUfr": "{{fun_0003_0001 arg=\"0x0017\"}}Je me réapprovisionnerai bientôt en\nchampignons, alors reviens me voir plus\ntard si tu as envie de dépenser tes rubis.",
      "EUit": "{{fun_0003_0001 arg=\"0x0017\"}}Presto andrò a rifornirmi di nuovi\nfunghi, quindi torna quando hai un\npo' di soldi da spendere.",
      "EUnl": "{{fun_0003_0001 arg=\"0x0017\"}}Ik zal mijn paddenstoelen weer\naanvullen, dus kom vooral weer eens\nlangs als je geld hebt.",
      "EUru": "{{fun_0003_0001 arg=\"0x0017\"}}Мне скоро должны грибы принести,\nтак что приходи, если деньги будут.",
      "JPja": "{{fun_0003_0001 arg=\"0x0017\"}}またキノコ{{ruby charSpan=\"2\" value=\"しい\"}}仕入れておくからさ\n{{ruby charSpan=\"1\" value=\"かね\"}}金ができたなら またよろしく{{ruby charSpan=\"1\" value=\"たの\"}}頼むよ",
      "KRko": "{{fun_0003_0001 arg=\"0x0017\"}}또 버섯을 들여 놓을 테니까\n돈이 생기면 다음에도 잘 부탁해",
      "TWzh": "{{fun_0003_0001 arg=\"0x0017\"}}我還會再進蘑菇的，\n如果賺到錢，還請再來光臨哦。",
      "USen": "{{fun_0003_0001 arg=\"0x0017\"}}I'll make sure to restock my mushrooms.\nWhen you have some money to spend,\nplease come back by here.",
      "USes": "{{fun_0003_0001 arg=\"0x0017\"}}Pronto tendré más hongos a la venta.\nEspero que vuelvas por aquí cuando\ntengas rupias para gastar.",
      "USfr": "{{fun_0003_0001 arg=\"0x0017\"}}Je me réapprovisionnerai bientôt en\nchampignons, alors reviens me voir plus\ntard si tu as envie de dépenser tes rubis."
    }
  },
  {
    "label": "Talk_09",
    "attribute": "0xA0010000",
    "locale": {
      "CNzh": "{{fun_0003_0001 arg=\"0x0013\"}}哎呀，客人，\n你还有什么事吗？{{fun_0001_0004 arg=\"0x010002000001\"}}",
      "EUde": "{{fun_0003_0001 arg=\"0x0013\"}}Was denn?{{delay1}} Brauchst du noch etwas?{{fun_0001_0004 arg=\"0x010002000001\"}}",
      "EUen": "{{fun_0003_0001 arg=\"0x0013\"}}Did you need something else?{{fun_0001_0004 arg=\"0x010002000001\"}}",
      "EUes": "{{fun_0003_0001 arg=\"0x0013\"}}¿Necesitas algo más?{{fun_0001_0004 arg=\"0x010002000001\"}}",
      "EUfr": "{{fun_0003_0001 arg=\"0x0013\"}}Oui ? Tu as encore besoin de moi ?{{fun_0001_0004 arg=\"0x010002000001\"}}",
      "EUit": "{{fun_0003_0001 arg=\"0x0013\"}}Ti serve qualcos'altro?{{fun_0001_0004 arg=\"0x010002000001\"}}",
      "EUnl": "{{fun_0003_0001 arg=\"0x0013\"}}Hm? Heb je nog iets nodig?{{fun_0001_0004 arg=\"0x010002000001\"}}",
      "EUru": "{{fun_0003_0001 arg=\"0x0013\"}}Тебе что-то нужно?{{fun_0001_0004 arg=\"0x010002000001\"}}",
      "JPja": "{{fun_0003_0001 arg=\"0x0013\"}}おや？ お{{ruby charSpan=\"1\" value=\"きゃく\"}}客さん\nまだ{{ruby charSpan=\"1\" value=\"なに\"}}何か{{ruby charSpan=\"1\" value=\"よう\"}}用があるのかい？{{fun_0001_0004 arg=\"0x010002000001\"}}",
      "KRko": "{{fun_0003_0001 arg=\"0x0013\"}}음? 손님\n아직 볼일이 남았어?{{fun_0001_0004 arg=\"0x010002000001\"}}",
      "TWzh": "{{fun_0003_0001 arg=\"0x0013\"}}哎呀，客人，\n妳還有什麼事嗎？{{fun_0001_0004 arg=\"0x010002000001\"}}",
      "USen": "{{fun_0003_0001 arg=\"0x0013\"}}Did you need something else?{{fun_0001_0004 arg=\"0x010002000001\"}}",
      "USes": "{{fun_0003_0001 arg=\"0x0013\"}}¿Necesitas algo más?{{fun_0001_0004 arg=\"0x010002000001\"}}",
      "USfr": "{{fun_0003_0001 arg=\"0x0013\"}}Oui? Tu as encore besoin de moi?{{fun_0001_0004 arg=\"0x010002000001\"}}"
    }
  },
  {
    "label": "Talk_04",
    "attribute": "0xBA010000",
    "locale": {
      "CNzh": "{{fun_0003_0001 arg=\"0x0000\"}}神兽也平静下来了，\n我想小镇也会重新恢复活力，\n这下得好好干活了呢。{{fun_0001_0004 arg=\"0x010002000001\"}}",
      "EUde": "{{fun_0003_0001 arg=\"0x0000\"}}Der Titan hat sich beruhigt, also kommt\nhoffentlich wieder Leben in die Stadt.\nIch mache mich besser an die Arbeit!{{fun_0001_0004 arg=\"0x010002000001\"}}",
      "EUen": "{{fun_0003_0001 arg=\"0x0000\"}}The Divine Beast has quieted down now,\nso maybe this town will return to its old,\nlively self...{{delay2}} I'd better be ready.{{fun_0001_0004 arg=\"0x010002000001\"}}",
      "EUes": "{{fun_0003_0001 arg=\"0x0000\"}}Parece que la bestia divina se ha\ncalmado, así que con algo de suerte\nla ciudadela volverá a llenarse de gente.\nEn fin, yo sigo con lo mío.{{fun_0001_0004 arg=\"0x010002000001\"}}",
      "EUfr": "{{fun_0003_0001 arg=\"0x0000\"}}Maintenant que la créature divine\ns'est calmée, la cité devrait s'animer à\nnouveau. C'est bon pour les affaires !{{fun_0001_0004 arg=\"0x010002000001\"}}",
      "EUit": "{{fun_0003_0001 arg=\"0x0000\"}}Da quando il colosso sacro si è placato,\nla cittadella è tornata a essere piena\ndi vita.\nE io... sarà meglio che mi rimetta al\nlavoro!{{fun_0001_0004 arg=\"0x010002000001\"}}",
      "EUnl": "{{fun_0003_0001 arg=\"0x0000\"}}De Titaan houdt zich eindelijk rustig, dus\nmisschien wordt het wel snel weer\nlevendiger in dit dorp.\nIk kan maar beter aan de slag gaan.{{fun_0001_0004 arg=\"0x010002000001\"}}",
      "EUru": "{{fun_0003_0001 arg=\"0x0000\"}}Чудище угомонилось.{{delay1}} Может быть,\nтеперь город снова оживет.{{delay1}} Ладно,\nчем могу помочь?{{fun_0001_0004 arg=\"0x010002000001\"}}",
      "JPja": "{{fun_0003_0001 arg=\"0x0000\"}}{{ruby charSpan=\"2\" value=\"しんじゅう\"}}神獣も{{ruby charSpan=\"2\" value=\"おとな\"}}大人しくなったし\nまたこの{{ruby charSpan=\"1\" value=\"まち\"}}街にも{{ruby charSpan=\"2\" value=\"かっき\"}}活気が{{ruby charSpan=\"1\" value=\"もど\"}}戻ってくるだろうから\nどんどん{{ruby charSpan=\"1\" value=\"はたら\"}}働かないとねぇ{{fun_0001_0004 arg=\"0x010002000001\"}}",
      "KRko": "{{fun_0003_0001 arg=\"0x0000\"}}신수도 얌전해졌고\n다시 이 마을에도 활기가 넘칠 테니\n열심히 일해야겠어{{fun_0001_0004 arg=\"0x010002000001\"}}",
      "TWzh": "{{fun_0003_0001 arg=\"0x0000\"}}神獸平靜下來了，\n我想小鎮也會重新恢復活力，\n這下得好好幹活了呢。{{fun_0001_0004 arg=\"0x010002000001\"}}",
      "USen": "{{fun_0003_0001 arg=\"0x0000\"}}The Divine Beast has quieted down now,\nso maybe this town will return to its old,\nlively self...{{delay2}} I'd better be ready.{{fun_0001_0004 arg=\"0x010002000001\"}}",
      "USes": "{{fun_0003_0001 arg=\"0x0000\"}}Parece que la bestia divina se ha\ncalmado, así que con algo de suerte\nla ciudadela volverá a llenarse de gente.\nEn fin, yo sigo con lo mío.{{fun_0001_0004 arg=\"0x010002000001\"}}",
      "USfr": "{{fun_0003_0001 arg=\"0x0000\"}}Maintenant que la créature divine\ns'est calmée, la cité devrait s'animer à\nnouveau. C'est bon pour les affaires!{{fun_0001_0004 arg=\"0x010002000001\"}}"
    }
  },
  {
    "label": "Talk_05",
    "attribute": "0xD4010000",
    "locale": {
      "CNzh": "{{fun_0003_0001 arg=\"0x011B\"}}沙沃塔！{{delay3}}",
      "EUde": "{{fun_0003_0001 arg=\"0x011B\"}}Savotta!",
      "EUen": "{{fun_0003_0001 arg=\"0x011B\"}}Sav'otta!{{delay3}}",
      "EUes": "{{fun_0003_0001 arg=\"0x011B\"}}Sawotta.",
      "EUfr": "{{fun_0003_0001 arg=\"0x011B\"}}Savotta !{{delay3}}",
      "EUit": "{{fun_0003_0001 arg=\"0x011B\"}}Savotta!{{delay3}}",
      "EUnl": "{{fun_0003_0001 arg=\"0x011B\"}}Savotta!",
      "EUru": "{{fun_0003_0001 arg=\"0x011B\"}}Савотта!{{delay3}}",
      "JPja": "{{fun_0003_0001 arg=\"0x011B\"}}サヴォッタ！{{delay3}}",
      "KRko": "{{fun_0003_0001 arg=\"0x011B\"}}사브옷타!{{delay3}}",
      "TWzh": "{{fun_0003_0001 arg=\"0x011B\"}}薩伯塔！{{delay3}}",
      "USen": "{{fun_0003_0001 arg=\"0x011B\"}}Sav'otta!{{delay3}}",
      "USes": "{{fun_0003_0001 arg=\"0x011B\"}}Sawotta.",
      "USfr": "{{fun_0003_0001 arg=\"0x011B\"}}Savotta!{{delay3}}"
    }
  },
  {
    "label": "Talk_17",
    "attribute": "0xEE010000",
    "locale": {
      "CNzh": "{{fun_0003_0001 arg=\"0x011C\"}}沙瓦库！{{delay3}}",
      "EUde": "{{fun_0003_0001 arg=\"0x011C\"}}Savaaq!",
      "EUen": "{{fun_0003_0001 arg=\"0x011C\"}}Sav'aaq!{{delay3}}",
      "EUes": "{{fun_0003_0001 arg=\"0x011C\"}}Sawook.",
      "EUfr": "{{fun_0003_0001 arg=\"0x011C\"}}Savaak !{{delay3}}",
      "EUit": "{{fun_0003_0001 arg=\"0x011C\"}}Savaaq!{{delay3}}",
      "EUnl": "{{fun_0003_0001 arg=\"0x011C\"}}Savaaq!",
      "EUru": "{{fun_0003_0001 arg=\"0x011C\"}}Саваак!{{delay3}}",
      "JPja": "{{fun_0003_0001 arg=\"0x011C\"}}サヴァーク！{{delay3}}",
      "KRko": "{{fun_0003_0001 arg=\"0x011C\"}}사브아크!{{delay3}}",
      "TWzh": "{{fun_0003_0001 arg=\"0x011C\"}}薩芭庫！{{delay3}}",
      "USen": "{{fun_0003_0001 arg=\"0x011C\"}}Sav'aaq!{{delay3}}",
      "USes": "{{fun_0003_0001 arg=\"0x011C\"}}Sawook.",
      "USfr": "{{fun_0003_0001 arg=\"0x011C\"}}Savaak!{{delay3}}"
    }
  },
  {
    "label": "Talk_18",
    "attribute": "0x08020000",
    "locale": {
      "CNzh": "{{fun_0003_0001 arg=\"0x011D\"}}沙瓦沙巴！{{delay3}}",
      "EUde": "{{fun_0003_0001 arg=\"0x011D\"}}Sav'saaba!",
      "EUen": "{{fun_0003_0001 arg=\"0x011D\"}}Sav'saaba!{{delay3}}",
      "EUes": "{{fun_0003_0001 arg=\"0x011D\"}}Sawosaaba.",
      "EUfr": "{{fun_0003_0001 arg=\"0x011D\"}}Savasaaba !{{delay3}}",
      "EUit": "{{fun_0003_0001 arg=\"0x011D\"}}Sav'saaba!{{delay3}}",
      "EUnl": "{{fun_0003_0001 arg=\"0x011D\"}}Sav'saaba!",
      "EUru": "{{fun_0003_0001 arg=\"0x011D\"}}Сав'сааба!{{delay3}}",
      "JPja": "{{fun_0003_0001 arg=\"0x011D\"}}サヴァサーバ！{{delay3}}",
      "KRko": "{{fun_0003_0001 arg=\"0x011D\"}}사브아사바!{{delay3}}",
      "TWzh": "{{fun_0003_0001 arg=\"0x011D\"}}薩芭薩芭！{{delay3}}",
      "USen": "{{fun_0003_0001 arg=\"0x011D\"}}Sav'saaba!{{delay3}}",
      "USes": "{{fun_0003_0001 arg=\"0x011D\"}}Sawosaaba.",
      "USfr": "{{fun_0003_0001 arg=\"0x011D\"}}Savasaaba!{{delay3}}"
    }
  },
  {
    "label": "Talk_19",
    "attribute": "0x22020000",
    "locale": {
      "CNzh": "{{fun_0003_0001 arg=\"0x011E\"}}瓦沙库！{{delay3}}",
      "EUde": "{{fun_0003_0001 arg=\"0x011E\"}}Vasaaq!",
      "EUen": "{{fun_0003_0001 arg=\"0x011E\"}}Vasaaq!{{delay3}}",
      "EUes": "{{fun_0003_0001 arg=\"0x011E\"}}¡Wasaaq!",
      "EUfr": "{{fun_0003_0001 arg=\"0x011E\"}}Vaasaak !{{delay3}}",
      "EUit": "{{fun_0003_0001 arg=\"0x011E\"}}Vasaaq!{{delay3}}",
      "EUnl": "{{fun_0003_0001 arg=\"0x011E\"}}Vasaaq!",
      "EUru": "{{fun_0003_0001 arg=\"0x011E\"}}Васаак!{{delay3}}",
      "JPja": "{{fun_0003_0001 arg=\"0x011E\"}}ヴァーサーク！{{delay3}}",
      "KRko": "{{fun_0003_0001 arg=\"0x011E\"}}브아사크!{{delay3}}",
      "TWzh": "{{fun_0003_0001 arg=\"0x011E\"}}芭薩庫！{{delay3}}",
      "USen": "{{fun_0003_0001 arg=\"0x011E\"}}Vasaaq!{{delay3}}",
      "USes": "{{fun_0003_0001 arg=\"0x011E\"}}¡Wasaaq!",
      "USfr": "{{fun_0003_0001 arg=\"0x011E\"}}Vaasaak!{{delay3}}"
    }
  },
  {
    "label": "Talk_06",
    "attribute": "0x3C020000",
    "locale": {
      "CNzh": "{{fun_0003_0001 arg=\"0x0004\"}}沙库沙库！",
      "EUde": "{{fun_0003_0001 arg=\"0x0004\"}}Sarq-sarq!",
      "EUen": "{{fun_0003_0001 arg=\"0x0004\"}}Sarqso!",
      "EUes": "{{fun_0003_0001 arg=\"0x0004\"}}¡Sahku!",
      "EUfr": "{{fun_0003_0001 arg=\"0x0004\"}}Saksak !",
      "EUit": "{{fun_0003_0001 arg=\"0x0004\"}}Sarq sarq!",
      "EUnl": "{{fun_0003_0001 arg=\"0x0004\"}}Sarqsarq!",
      "EUru": "{{fun_0003_0001 arg=\"0x0004\"}}Саак-саак!",
      "JPja": "{{fun_0003_0001 arg=\"0x0004\"}}サークサーク！",
      "KRko": "{{fun_0003_0001 arg=\"0x0004\"}}사크사크!",
      "TWzh": "{{fun_0003_0001 arg=\"0x0004\"}}薩庫薩庫！",
      "USen": "{{fun_0003_0001 arg=\"0x0004\"}}Sarqso!",
      "USes": "{{fun_0003_0001 arg=\"0x0004\"}}¡Sahku!",
      "USfr": "{{fun_0003_0001 arg=\"0x0004\"}}Saksak!"
    }
  },
  {
    "label": "Talk_07",
    "attribute": "0x56020000",
    "locale": {
      "CNzh": "{{fun_0003_0001 arg=\"0x0017\"}}小姐姐你虽然瘦瘦小小，却肚量大大呢。\n\n不过蘑菇很健康，\n所以多吃点也没关系哦。",
      "EUde": "{{fun_0003_0001 arg=\"0x0017\"}}Für so eine zierliche Vaai hast du aber\neinen großen Appetit...{{pageBreak}}Macht nichts – Pilze sind gesund, also\nkannst du so viele von ihnen essen,\nwie du magst!",
      "EUen": "{{fun_0003_0001 arg=\"0x0017\"}}For such a skinny little one, you've got\nquite an appetite.\n\nGood news! Mushrooms are really\nhealthy, so you can eat a bunch,\nno problem!",
      "EUes": "{{fun_0003_0001 arg=\"0x0017\"}}Las setas son muy sanas. Puedes\ncomer todas las que quieras,\nque te sentarán de maravilla.",
      "EUfr": "{{fun_0003_0001 arg=\"0x0017\"}}Tu es toute menue, ma grande, et\npourtant, tu as un appétit d'ogre !\n\nMais c'est bon pour la santé, alors\nn'hésite pas à tout manger !",
      "EUit": "{{fun_0003_0001 arg=\"0x0017\"}}Sei mingherlina, ma hai un gran fegato.\n\n\nI funghi sono molto salutari, quindi\npuoi mangiarne quanti ne vuoi!",
      "EUnl": "{{fun_0003_0001 arg=\"0x0017\"}}Je bent mager, maar je hebt een groot\nhart.{{pageBreak}}Gelukkig zijn paddenstoelen heel\ngezond, dus je kunt er zo veel van eten\nals je wilt!",
      "EUru": "{{fun_0003_0001 arg=\"0x0017\"}}Покушать ты, видимо, любишь,\nхоть и худенькая.{{pageBreak}}И это хорошо: грибы полезные.{{delay1}}\nИх можно есть сколько угодно!",
      "JPja": "{{fun_0003_0001 arg=\"0x0017\"}}オネェさん ほそっこいのに{{ruby charSpan=\"1\" value=\"ふと\"}}太っ{{ruby charSpan=\"1\" value=\"ぱら\"}}腹だねぇ\n\nでもキノコはヘルシーだからね\nたくさん{{ruby charSpan=\"1\" value=\"た\"}}食べても{{ruby charSpan=\"3\" value=\"だいじょうぶ\"}}大丈夫だよ",
      "KRko": "{{fun_0003_0001 arg=\"0x0017\"}}언니, 날씬한데 배가 나왔네\n\n그래도 버섯은 건강식이니까\n아무리 먹어도 걱정할 필요 없어",
      "TWzh": "{{fun_0003_0001 arg=\"0x0017\"}}美女妳雖然瘦瘦小小，卻口袋飽飽呢。\n\n不過蘑菇很健康，\n所以多吃點也沒關係哦。",
      "USen": "{{fun_0003_0001 arg=\"0x0017\"}}For such a skinny little one, you've got\nquite an appetite.\n\nGood news! Mushrooms are really\nhealthy, so you can eat a bunch,\nno problem!",
      "USes": "{{fun_0003_0001 arg=\"0x0017\"}}Tienes un gran apetito para ser alguien\nde complexión tan delgada...\n\nPor suerte, los hongos son muy sanos;\npuedes comer todos los que quieras,\nte sentarán de maravilla.",
      "USfr": "{{fun_0003_0001 arg=\"0x0017\"}}Tu es toute menue, ma grande, et\npourtant, tu as un appétit d'ogre!\n\nMais c'est bon pour la santé, alors\nn'hésite pas à tout manger!"
    }
  },
  {
    "label": "Talk_15",
    "attribute": "0x70020000",
    "locale": {
      "CNzh": "{{fun_0003_0001 arg=\"0x0004\"}}沙库沙库！\n要多吃点才会长大哦！",
      "EUde": "{{fun_0003_0001 arg=\"0x0004\"}}Sarq-sarq!{{delay1}}\nDamit du groß und stark wirst!",
      "EUen": "{{fun_0003_0001 arg=\"0x0004\"}}Sarqso!\nEat hearty and grow big!",
      "EUes": "{{fun_0003_0001 arg=\"0x0004\"}}¡Sahku, sahku! Si comes bien,\n¡crecerás más!",
      "EUfr": "{{fun_0003_0001 arg=\"0x0004\"}}Saksak ! Mange bien pour devenir grande\net forte !",
      "EUit": "{{fun_0003_0001 arg=\"0x0004\"}}Sarq sarq! Mangia tanto e diventa forte!",
      "EUnl": "{{fun_0003_0001 arg=\"0x0004\"}}Sarqsarq! Eet je buikje maar rond, zodat\nje groot en sterk wordt!",
      "EUru": "{{fun_0003_0001 arg=\"0x0004\"}}Саак-саак!{{delay1}} Кушай и набирайся сил!",
      "JPja": "{{fun_0003_0001 arg=\"0x0004\"}}サークサーク！\nしっかり{{ruby charSpan=\"1\" value=\"た\"}}食べて{{ruby charSpan=\"1\" value=\"おお\"}}大きくなるんだよ！",
      "KRko": "{{fun_0003_0001 arg=\"0x0004\"}}사크사크!\n많이 먹고 커져야지!",
      "TWzh": "{{fun_0003_0001 arg=\"0x0004\"}}薩庫薩庫！\n要多吃點才會長大哦！",
      "USen": "{{fun_0003_0001 arg=\"0x0004\"}}Sarqso!\nEat hearty and grow big!",
      "USes": "{{fun_0003_0001 arg=\"0x0004\"}}¡Sahku, sahku! Si comes bien,\n¡crecerás más!",
      "USfr": "{{fun_0003_0001 arg=\"0x0004\"}}Saksak! Mange bien pour devenir\ngrande et forte!"
    }
  },
  {
    "label": "Talk_16",
    "attribute": "0x8A020000",
    "locale": {
      "CNzh": "{{fun_0003_0001 arg=\"0x0004\"}}沙库沙库！\n\n需要锅子的话，就去使用共同厨房吧。\n只要是瓦伊，谁都能使用呢。\n{{fun_0003_0001 arg=\"0x0109\"}}不过，\n这里也只有瓦伊就是了。",
      "EUde": "{{fun_0003_0001 arg=\"0x0004\"}}Sarq-sarq!{{pageBreak}}Wenn du kochen möchtest, kannst du\nden Gemeinschaftstopf dort nehmen.{{delay1}}\nHier ist jede Vaai willkommen!\n{{fun_0003_0001 arg=\"0x0109\"}}Na gut, hier gibt es natürlich ausschließ-\nlich Vaai. {{delay1}}Aber du weißt schon, was ich\nmeine.",
      "EUen": "{{fun_0003_0001 arg=\"0x0004\"}}Sarqso!\nIf you want to cook, the kitchen is\navailable for any vai to use.\n{{fun_0003_0001 arg=\"0x0109\"}}\"Any vai,\" haha! {{delay1}}We're all vai here!",
      "EUes": "{{fun_0003_0001 arg=\"0x0004\"}}¡Sahku, sahku! Si quieres preparar algún\nplato, puedes usar la cocina común.{{pageBreak}}{{fun_0003_0001 arg=\"0x0109\"}}Seguro que una viajera como tú conoce\nrecetas de lo más exóticas.",
      "EUfr": "{{fun_0003_0001 arg=\"0x0004\"}}Saksak ! N'hésite pas à te servir des\nmarmites, là-bas, si tu veux cuisiner.\nElles sont à la disposition des vaïs.\n{{fun_0003_0001 arg=\"0x0109\"}}Enfin, je sais bien qu'il n'y a que des\nvaïs ici, mais tu m'as comprise...",
      "EUit": "{{fun_0003_0001 arg=\"0x0004\"}}Sarq sarq!\n\n\nSe ti serve una pentola, puoi usare la\ncucina che abbiamo in comune. Può\nusarla qualunque vay.\n{{fun_0003_0001 arg=\"0x0109\"}}Ovvio che sai che qui siamo tutte vay,\nma hai capito cosa intendevo dire, vero?",
      "EUnl": "{{fun_0003_0001 arg=\"0x0004\"}}Sarqsarq!{{pageBreak}}Als je wilt koken, kun je de gedeelde\nkeuken gebruiken. Iedere vrouw is daar\nwelkom.\n{{fun_0003_0001 arg=\"0x0109\"}}Er zijn natuurlijk alleen maar vrouwen\nhier, maar je begrijpt wat ik bedoel.",
      "EUru": "{{fun_0003_0001 arg=\"0x0004\"}}Саак-саак!{{delay1}} Если хочешь приготовить\nчто-нибудь, воспользуйся казанами.{{pageBreak}}{{fun_0003_0001 arg=\"0x0109\"}}Они у нас общие — любая ваай\nможет приготовить себе еду.",
      "JPja": "{{fun_0003_0001 arg=\"0x0004\"}}サークサーク！\n\n{{ruby charSpan=\"1\" value=\"なべ\"}}鍋が{{ruby charSpan=\"2\" value=\"ひつよう\"}}必要なら {{ruby charSpan=\"2\" value=\"きょうどう\"}}共同キッチンを{{ruby charSpan=\"1\" value=\"つか\"}}使うといいよ\nヴァーイなら{{ruby charSpan=\"1\" value=\"だれ\"}}誰でも{{ruby charSpan=\"1\" value=\"つか\"}}使えるからねぇ\n{{fun_0003_0001 arg=\"0x0109\"}}まぁ ここにはヴァーイしか\nいないけどさ",
      "KRko": "{{fun_0003_0001 arg=\"0x0004\"}}사크사크!\n\n냄비가 필요하면 공동 부엌을 이용해\n브아이라면 누구나 쓸 수 있으니까\n{{fun_0003_0001 arg=\"0x0109\"}}뭐, 여긴 브아이밖에\n없긴 하지만 말이야",
      "TWzh": "{{fun_0003_0001 arg=\"0x0004\"}}薩庫薩庫！\n\n需要鍋子的話，就去使用共同廚房吧。\n只要是芭伊，誰都能使用呢。\n{{fun_0003_0001 arg=\"0x0109\"}}不過，\n這裡也只有芭伊就是了。",
      "USen": "{{fun_0003_0001 arg=\"0x0004\"}}Sarqso!\nIf you want to cook, the kitchen is\navailable for any vai to use.\n{{fun_0003_0001 arg=\"0x0109\"}}\"Any vai,\" haha! {{delay1}}We're all vai here!",
      "USes": "{{fun_0003_0001 arg=\"0x0004\"}}¡Sahku, sahku! Si quieres preparar algún\nplatillo, puedes usar la cocina común.{{pageBreak}}{{fun_0003_0001 arg=\"0x0109\"}}Seguro que una viajera como tú conoce\nrecetas de lo más exóticas.",
      "USfr": "{{fun_0003_0001 arg=\"0x0004\"}}Saksak! N'hésite pas à te servir des\nmarmites, là-bas, si tu veux cuisiner.\nElles sont à la disposition des vaïs.\n{{fun_0003_0001 arg=\"0x0109\"}}Enfin, je sais bien qu'il n'y a que des\nvaïs ici, mais tu m'as comprise..."
    }
  },
  {
    "label": "0003",
    "attribute": "0xA4020000",
    "locale": {
      "CNzh": "买",
      "EUde": "Gekauft!",
      "EUen": "Deal!",
      "EUes": "Compro",
      "EUfr": "J'achète.",
      "EUit": "Compro.",
      "EUnl": "Kopen.",
      "EUru": "Беру!",
      "JPja": "買います",
      "KRko": "살게요",
      "TWzh": "買",
      "USen": "Deal!",
      "USes": "Compro",
      "USfr": "J'achète."
    }
  },
  {
    "label": "0004",
    "attribute": "0xA6020000",
    "locale": {
      "CNzh": "再见",
      "EUde": "Wiedersehen.",
      "EUen": "Good-bye.",
      "EUes": "Me marcho",
      "EUfr": "Au revoir.",
      "EUit": "Arrivederci.",
      "EUnl": "Tot ziens.",
      "EUru": "Пока",
      "JPja": "さようなら",
      "KRko": "안녕히",
      "TWzh": "再見",
      "USen": "Good-bye.",
      "USes": "Me voy",
      "USfr": "Au revoir."
    }
  },
  {
    "label": "Near001",
    "attribute": "0xA8020000",
    "locale": {
      "CNzh": "瓦～沙～库。",
      "EUde": "Vasaaq!",
      "EUen": "Vasaaq!",
      "EUes": "¡Wasaaq!",
      "EUfr": "Vaasaak, vaasaak !",
      "EUit": "Vasaaq!",
      "EUnl": "Vasaaq!",
      "EUru": "Васаак!",
      "JPja": "ヴァ～サ～ック",
      "KRko": "브아~사~크",
      "TWzh": "芭～薩～庫。",
      "USen": "Vasaaq!",
      "USes": "¡Wasaaq!",
      "USfr": "Vaasaak, vaasaak!"
    }
  },
  {
    "label": "Near002",
    "attribute": "0xC2020000",
    "locale": {
      "CNzh": "这里有神奇的蘑菇哦～",
      "EUde": "Mysteriöse Pilze!",
      "EUen": "Mysterious mushrooms!",
      "EUes": "¡Setas misteriosas!",
      "EUfr": "Champis mystérieux !",
      "EUit": "Funghi misteriosi!",
      "EUnl": "Mysterieuze zwammen!",
      "EUru": "Удивительные грибы!",
      "JPja": "{{ruby charSpan=\"3\" value=\"ふしぎ\"}}不思議なキノコだよ～",
      "KRko": "신비한 버섯 있어요~",
      "TWzh": "這裡有神奇的蘑菇哦～",
      "USen": "Mysterious mushrooms!",
      "USes": "¡Hongos misteriosos!",
      "USfr": "Champis mystérieux!"
    }
  },
  {
    "label": "Com_Talk_00",
    "attribute": "0xDC020000",
    "locale": {
      "CNzh": "{{fun_0004_0001 arg=\"0x16CD\"}}总之先让我看看吧。",
      "EUde": "{{fun_0004_0001 arg=\"0x16CD\"}}Zeig mir einfach, was du hast.",
      "EUen": "{{fun_0004_0001 arg=\"0x16CD\"}}Just show me what you have for now.",
      "EUes": "{{fun_0004_0001 arg=\"0x16CD\"}}A ver qué tienes.",
      "EUfr": "{{fun_0004_0001 arg=\"0x16CD\"}}Montre-moi ce que tu as.",
      "EUit": "{{fun_0004_0001 arg=\"0x16CD\"}}Fammi vedere cos'hai.",
      "EUnl": "{{fun_0004_0001 arg=\"0x16CD\"}}Laat maar zien wat je hebt.",
      "EUru": "{{fun_0004_0001 arg=\"0x16CD\"}}Показывай, что у тебя есть.",
      "JPja": "{{fun_0004_0001 arg=\"0x16CD\"}}とりあえず{{ruby charSpan=\"1\" value=\"み\"}}見せてみな",
      "KRko": "{{fun_0004_0001 arg=\"0x16CD\"}}일단 보여줘 봐",
      "TWzh": "{{fun_0004_0001 arg=\"0x16CD\"}}總之先讓我看看吧。",
      "USen": "{{fun_0004_0001 arg=\"0x16CD\"}}Just show me what you have for now.",
      "USes": "{{fun_0004_0001 arg=\"0x16CD\"}}A ver qué tienes.",
      "USfr": "{{fun_0004_0001 arg=\"0x16CD\"}}Montre-moi ce que tu as."
    }
  },
  {
    "label": "Com_Talk_01",
    "attribute": "0xDE020000",
    "locale": {
      "CNzh": "{{color id=\"2\"}}{{string ref=\"Shop_SelectItemName\"}}{{color id=\"65535\"}}的话……\n{{color id=\"0\"}}{{number ref=\"ShopTradePrice\"}}卢比{{color id=\"65535\"}}，可以的话我就收购哦。{{fun_0001_0004 arg=\"0x7C157D150001\"}}",
      "EUde": "{{uppercaseNextWord}}{{indefArticle}}{{color id=\"2\"}}{{string ref=\"Shop_SelectItemName\"}}{{color id=\"65535\"}}...{{delay1}}\nFür {{color id=\"0\"}}{{number ref=\"ShopTradePrice\"}} {{pluralCase arg1=\"Rubin\" arg2=\"Rubine\" arg3=\"Rubin\"}} {{color id=\"65535\"}}kommen\nwir ins Geschäft.{{fun_0001_0004 arg=\"0x7C157D150001\"}}",
      "EUen": "For that... If {{color id=\"0\"}}{{number ref=\"ShopTradePrice\"}} rupees{{color id=\"65535\"}} is OK\nwith you, I'll buy it.{{fun_0001_0004 arg=\"0x7C157D150001\"}}",
      "EUes": "Por {{defArticle}}{{color id=\"2\"}}{{lowercaseNextWord}}{{string ref=\"Shop_SelectItemName\"}}{{color id=\"65535\"}}\npuedo darte {{color id=\"0\"}}{{number ref=\"ShopTradePrice\"}} {{pluralCase arg1=\"rupia\" arg2=\"rupias\" arg3=\"\"}}{{color id=\"65535\"}}, ¿te hace?{{fun_0001_0004 arg=\"0x7C157D150001\"}}",
      "EUfr": "{{uppercaseNextWord}}{{indefArticle}}{{color id=\"2\"}}{{lowercaseNextWord}}{{string ref=\"Shop_SelectItemName\"}}{{color id=\"65535\"}} ?\nJe t'en donne {{color id=\"0\"}}{{number ref=\"ShopTradePrice\"}} rubis{{color id=\"65535\"}}. Ça te va ?{{fun_0001_0004 arg=\"0x7C157D150001\"}}",
      "EUit": "Che ne dici di {{color id=\"0\"}}{{number ref=\"ShopTradePrice\"}} {{pluralCase arg1=\"rupia\" arg2=\"rupie\" arg3=\"\"}} {{color id=\"65535\"}}per\n{{defArticle}}{{color id=\"2\"}}{{lowercaseNextWord}}{{string ref=\"Shop_SelectItemName\"}}{{color id=\"65535\"}}?\nVa bene?{{fun_0001_0004 arg=\"0x7C157D150001\"}}",
      "EUnl": "Daar geef ik je {{color id=\"0\"}}{{number ref=\"ShopTradePrice\"}}{{pluralCase arg1=\" rupee\" arg2=\" rupees\" arg3=\"\"}}{{color id=\"65535\"}} voor, oké?{{fun_0001_0004 arg=\"0x7C157D150001\"}}",
      "EUru": "{{color id=\"2\"}}{{string ref=\"Shop_SelectItemName\"}}{{color id=\"65535\"}}?\nМогу дать {{color id=\"0\"}}{{number ref=\"ShopTradePrice\"}}{{pluralCase arg1=\" рупию\" arg2=\" рупий\" arg3=\" рупии\"}}{{color id=\"65535\"}}.{{fun_0001_0004 arg=\"0x7C157D150001\"}}",
      "JPja": "{{color id=\"2\"}}{{string ref=\"Shop_SelectItemName\"}}{{color id=\"65535\"}}だと…\n{{color id=\"0\"}}{{number ref=\"ShopTradePrice\"}}ルピー{{color id=\"65535\"}}でいいなら{{ruby charSpan=\"1\" value=\"か\"}}買い{{ruby charSpan=\"1\" value=\"と\"}}取るよ{{fun_0001_0004 arg=\"0x7C157D150001\"}}",
      "KRko": "{{color id=\"2\"}}{{string ref=\"Shop_SelectItemName\"}}{{color id=\"65535\"}}{{gender7 arg1=\"이\" arg2=\"\"}}라면…\n{{color id=\"0\"}}{{number ref=\"ShopTradePrice\"}}루피{{color id=\"65535\"}}에 사줄 수 있는데{{fun_0001_0004 arg=\"0x7C157D150001\"}}",
      "TWzh": "{{color id=\"2\"}}{{string ref=\"Shop_SelectItemName\"}}{{color id=\"65535\"}}的話……\n{{color id=\"0\"}}{{number ref=\"ShopTradePrice\"}}盧比{{color id=\"65535\"}}，可以的話我就收購哦。{{fun_0001_0004 arg=\"0x7C157D150001\"}}",
      "USen": "For that... If {{color id=\"0\"}}{{number ref=\"ShopTradePrice\"}} rupees{{color id=\"65535\"}} is OK\nwith you, I'll buy it.{{fun_0001_0004 arg=\"0x7C157D150001\"}}",
      "USes": "Por eso puedo darte {{color id=\"0\"}}{{number ref=\"ShopTradePrice\"}} {{pluralCase arg1=\"rupia\" arg2=\"rupias\" arg3=\"\"}}{{color id=\"65535\"}},\n¿te parece bien?{{fun_0001_0004 arg=\"0x7C157D150001\"}}",
      "USfr": "{{uppercaseNextWord}}{{indefArticle}}{{color id=\"2\"}}{{lowercaseNextWord}}{{string ref=\"Shop_SelectItemName\"}}{{color id=\"65535\"}}?\nJe t'en donne {{color id=\"0\"}}{{number ref=\"ShopTradePrice\"}} rubis{{color id=\"65535\"}}. Ça te va?{{fun_0001_0004 arg=\"0x7C157D150001\"}}"
    }
  },
  {
    "label": "Com_Talk_02",
    "attribute": "0xE0020000",
    "locale": {
      "CNzh": "{{fun_0003_0001 arg=\"0x0000\"}}沙库沙库。",
      "EUde": "{{fun_0003_0001 arg=\"0x0000\"}}Sarq-sarq.",
      "EUen": "{{fun_0003_0001 arg=\"0x0000\"}}Sarqso.",
      "EUes": "{{fun_0003_0001 arg=\"0x0000\"}}¡Sahku, sahku!",
      "EUfr": "{{fun_0003_0001 arg=\"0x0000\"}}Saksak.",
      "EUit": "{{fun_0003_0001 arg=\"0x0000\"}}Sarq sarq.",
      "EUnl": "{{fun_0003_0001 arg=\"0x0000\"}}Sarqsarq.",
      "EUru": "{{fun_0003_0001 arg=\"0x0000\"}}Саак-саак.",
      "JPja": "{{fun_0003_0001 arg=\"0x0000\"}}サークサーク",
      "KRko": "{{fun_0003_0001 arg=\"0x0000\"}}사크사크",
      "TWzh": "{{fun_0003_0001 arg=\"0x0000\"}}薩庫薩庫。",
      "USen": "{{fun_0003_0001 arg=\"0x0000\"}}Sarqso.",
      "USes": "{{fun_0003_0001 arg=\"0x0000\"}}¡Sahku, sahku!",
      "USfr": "{{fun_0003_0001 arg=\"0x0000\"}}Saksak."
    }
  },
  {
    "label": "Com_Talk_04",
    "attribute": "0xE2020000",
    "locale": {
      "CNzh": "{{fun_0004_0001 arg=\"0x04CD\"}}搞什么……\n拜托快点啊。",
      "EUde": "{{fun_0004_0001 arg=\"0x04CD\"}}Was soll's sein?{{delay1}}\nKomm schon, beeil dich...",
      "EUen": "{{fun_0004_0001 arg=\"0x04CD\"}}What? Come on, hurry up...",
      "EUes": "{{fun_0004_0001 arg=\"0x04CD\"}}¿En serio? No me hagas perder\nel tiempo.",
      "EUfr": "{{fun_0004_0001 arg=\"0x04CD\"}}Qu'est-ce que tu fabriques ? Je n'ai pas\nque ça à faire, tu sais. Si on pouvait\nrégler ça vite...",
      "EUit": "{{fun_0004_0001 arg=\"0x04CD\"}}Che c'è...? Dai, sbrigati...",
      "EUnl": "{{fun_0004_0001 arg=\"0x04CD\"}}Wat? Kom op, schiet op...",
      "EUru": "{{fun_0004_0001 arg=\"0x04CD\"}}Передумала?{{delay1}} Не трать мое время.",
      "JPja": "{{fun_0004_0001 arg=\"0x04CD\"}}なんだよ…\nさっさと{{ruby charSpan=\"1\" value=\"たの\"}}頼むよ",
      "KRko": "{{fun_0004_0001 arg=\"0x04CD\"}}뭐야…\n빨리 좀 부탁해",
      "TWzh": "{{fun_0004_0001 arg=\"0x04CD\"}}搞什麼……\n拜託快點啊。",
      "USen": "{{fun_0004_0001 arg=\"0x04CD\"}}What? Come on, hurry up...",
      "USes": "{{fun_0004_0001 arg=\"0x04CD\"}}¿En serio? No me hagas perder\nel tiempo.",
      "USfr": "{{fun_0004_0001 arg=\"0x04CD\"}}Qu'est-ce que tu fabriques? Je n'ai pas\nque ça à faire, tu sais. Si on pouvait\nrégler ça vite..."
    }
  },
  {
    "label": "Com_Talk_05",
    "attribute": "0xE4020000",
    "locale": {
      "CNzh": "{{fun_0003_0001 arg=\"0x0000\"}}那么……\n你还有其他想让我收购的东西吗？",
      "EUde": "{{fun_0003_0001 arg=\"0x0000\"}}Also... Gibt es sonst noch etwas,\ndas du mir verkaufen möchtest?",
      "EUen": "{{fun_0003_0001 arg=\"0x0000\"}}And...did you have anything else you\nwanted me to buy?",
      "EUes": "{{fun_0003_0001 arg=\"0x0000\"}}¿Tienes alguna otra cosa\nque me quieras vender?",
      "EUfr": "{{fun_0003_0001 arg=\"0x0000\"}}Bien... Veux-tu te débarrasser d'autre\nchose ?",
      "EUit": "{{fun_0003_0001 arg=\"0x0000\"}}C'è altro che vuoi vendermi?",
      "EUnl": "{{fun_0003_0001 arg=\"0x0000\"}}En... Heb je nog iets dat je me wilt\nverkopen?",
      "EUru": "{{fun_0003_0001 arg=\"0x0000\"}}Что еще у тебя есть?",
      "JPja": "{{fun_0003_0001 arg=\"0x0000\"}}それで…\n{{ruby charSpan=\"1\" value=\"ほか\"}}他にも{{ruby charSpan=\"1\" value=\"か\"}}買い{{ruby charSpan=\"1\" value=\"と\"}}取ってほしい{{ruby charSpan=\"1\" value=\"もの\"}}物があるのかい？",
      "KRko": "{{fun_0003_0001 arg=\"0x0000\"}}그래…\n또 팔고 싶은 물건 있어?",
      "TWzh": "{{fun_0003_0001 arg=\"0x0000\"}}那麼……\n妳還有其他想讓我收購的東西嗎？",
      "USen": "{{fun_0003_0001 arg=\"0x0000\"}}And...did you have anything else you\nwanted me to buy?",
      "USes": "{{fun_0003_0001 arg=\"0x0000\"}}¿Tienes alguna otra cosa\nque me quieras vender?",
      "USfr": "{{fun_0003_0001 arg=\"0x0000\"}}Bien... Veux-tu te débarrasser\nd'autre chose?"
    }
  },
  {
    "label": "Com_Talk_13",
    "attribute": "0xE6020000",
    "locale": {
      "CNzh": "要卖{{color id=\"2\"}}{{string ref=\"Shop_SelectItemName\"}}{{color id=\"65535\"}}对吧？\n……那我该收购几个好呢？{{fun_0001_0005 arg=\"0x7C1584157F150002\"}}",
      "EUde": "{{uppercaseNextWord}}{{indefArticle}}{{color id=\"2\"}}{{string ref=\"Shop_SelectItemName\"}}{{color id=\"65535\"}}?{{delay1}}\nNehm ich gerne. {{delay1}}Wie viel davon\nwillst du denn loswerden?{{fun_0001_0005 arg=\"0x7C1584157F150002\"}}",
      "EUen": "That? OK, how many do you want\nto sell?{{fun_0001_0005 arg=\"0x7C1584157F150002\"}}",
      "EUes": "Vale, ¿qué cantidad quieres vender?{{fun_0001_0005 arg=\"0x7C1584157F150002\"}}",
      "EUfr": "{{uppercaseNextWord}}{{indefArticle}}{{color id=\"2\"}}{{lowercaseNextWord}}{{string ref=\"Shop_SelectItemName\"}}{{color id=\"65535\"}},\nc'est ça ? Et combien espères-tu\nm'en vendre ?{{fun_0001_0005 arg=\"0x7C1584157F150002\"}}",
      "EUit": "{{uppercaseNextWord}}{{defArticle}}{{color id=\"2\"}}{{lowercaseNextWord}}{{string ref=\"Shop_SelectItemName\"}}{{color id=\"65535\"}}?\nQuante unità posso comprare?{{fun_0001_0005 arg=\"0x7C1584157F150002\"}}",
      "EUnl": "Hoeveel wil je dat ik er van je koop?{{fun_0001_0005 arg=\"0x7C1584157F150002\"}}",
      "EUru": "{{color id=\"2\"}}{{string ref=\"Shop_SelectItemName\"}}{{color id=\"65535\"}}?\nСколько продаешь?{{fun_0001_0005 arg=\"0x7C1584157F150002\"}}",
      "JPja": "{{color id=\"2\"}}{{string ref=\"Shop_SelectItemName\"}}{{color id=\"65535\"}}だね？\n…でいくつ{{ruby charSpan=\"1\" value=\"か\"}}買い{{ruby charSpan=\"1\" value=\"と\"}}取ればいいんだい？{{fun_0001_0005 arg=\"0x7C1584157F150002\"}}",
      "KRko": "{{color id=\"2\"}}{{string ref=\"Shop_SelectItemName\"}} {{color id=\"65535\"}}말이지?\n…몇 개 팔고 싶은데?{{fun_0001_0005 arg=\"0x7C1584157F150002\"}}",
      "TWzh": "要賣{{color id=\"2\"}}{{string ref=\"Shop_SelectItemName\"}}{{color id=\"65535\"}}對吧？\n……那我該收購幾個好呢？{{fun_0001_0005 arg=\"0x7C1584157F150002\"}}",
      "USen": "That? OK, how many do you want\nto sell?{{fun_0001_0005 arg=\"0x7C1584157F150002\"}}",
      "USes": "Muy bien, ¿cuántas unidades\nquieres vender?{{fun_0001_0005 arg=\"0x7C1584157F150002\"}}",
      "USfr": "{{uppercaseNextWord}}{{indefArticle}}{{color id=\"2\"}}{{lowercaseNextWord}}{{string ref=\"Shop_SelectItemName\"}}{{color id=\"65535\"}},\nc'est ça? Et combien espères-tu\nm'en vendre?{{fun_0001_0005 arg=\"0x7C1584157F150002\"}}"
    }
  },
  {
    "label": "Com_Talk_14",
    "attribute": "0x06030000",
    "locale": {
      "CNzh": "{{number ref=\"Shop_TradeItemNum\"}}个{{color id=\"2\"}}{{string ref=\"Shop_SelectItemName\"}}{{color id=\"65535\"}}……\n总共是……{{color id=\"0\"}}{{number ref=\"ShopTradePrice\"}}卢比{{color id=\"65535\"}}，可以吗？{{fun_0001_0004 arg=\"0x7C157D150001\"}}",
      "EUde": "Alles in allem kämen wir dann auf eine\nSumme von {{color id=\"0\"}}{{number ref=\"ShopTradePrice\"}}{{pluralCase arg1=\" Rubin\" arg2=\" Rubinen\" arg3=\" Rubin\"}}{{color id=\"65535\"}}, wenn mich\nnicht alles täuscht.{{fun_0001_0004 arg=\"0x7C157D150001\"}}",
      "EUen": "So {{number ref=\"Shop_TradeItemNum\"}} of them?{{delay1}}\nHow about {{color id=\"0\"}}{{number ref=\"ShopTradePrice\"}} rupees{{color id=\"65535\"}}?{{fun_0001_0004 arg=\"0x7C157D150001\"}}",
      "EUes": "Por {{number ref=\"Shop_TradeItemNum\"}} te daré... {{color id=\"0\"}}{{number ref=\"ShopTradePrice\"}} {{pluralCase arg1=\"rupia\" arg2=\"rupias\" arg3=\"\"}}{{color id=\"65535\"}}.\n¿Hay trato?{{fun_0001_0004 arg=\"0x7C157D150001\"}}",
      "EUfr": "{{number ref=\"Shop_TradeItemNum\"}} exemplaires... Ça nous fait\nun total de {{color id=\"0\"}}{{number ref=\"ShopTradePrice\"}} rubis{{color id=\"65535\"}}. Ça te va ?{{fun_0001_0004 arg=\"0x7C157D150001\"}}",
      "EUit": "{{uppercaseNextWord}}{{defArticle}}{{color id=\"2\"}}{{lowercaseNextWord}}{{string ref=\"Shop_SelectItemName\"}}{{color id=\"65535\"}}\nper {{number ref=\"Shop_TradeItemNum\"}} unità...\n{{color id=\"0\"}}{{number ref=\"ShopTradePrice\"}} {{pluralCase arg1=\"rupia\" arg2=\"rupie\" arg3=\"\"}}{{color id=\"65535\"}}, in tutto, va bene?{{fun_0001_0004 arg=\"0x7C157D150001\"}}",
      "EUnl": "Je wilt er {{number ref=\"Shop_TradeItemNum\"}} aan me kwijt? Wat dacht je\nvan {{color id=\"0\"}}{{number ref=\"ShopTradePrice\"}}{{pluralCase arg1=\" rupee\" arg2=\" rupees\" arg3=\"\"}}{{color id=\"65535\"}}?{{fun_0001_0004 arg=\"0x7C157D150001\"}}",
      "EUru": "{{number ref=\"Shop_TradeItemNum\"}}{{pluralCase arg1=\" штука\" arg2=\" штук\" arg3=\" штуки\"}}, значит?{{delay1}}\nПредлагаю {{color id=\"0\"}}{{number ref=\"ShopTradePrice\"}}{{pluralCase arg1=\" рупию\" arg2=\" рупий\" arg3=\" рупии\"}}{{color id=\"65535\"}}.{{fun_0001_0004 arg=\"0x7C157D150001\"}}",
      "JPja": "{{color id=\"2\"}}{{string ref=\"Shop_SelectItemName\"}}{{color id=\"65535\"}}が{{number ref=\"Shop_TradeItemNum\"}}{{ruby charSpan=\"1\" value=\"こ\"}}個っと…\n{{ruby charSpan=\"1\" value=\"あ\"}}合わせて…{{color id=\"0\"}}{{number ref=\"ShopTradePrice\"}}ルピー{{color id=\"65535\"}}でどうだい？{{fun_0001_0004 arg=\"0x7C157D150001\"}}",
      "KRko": "{{color id=\"2\"}}{{string ref=\"Shop_SelectItemName\"}}{{color id=\"65535\"}} {{number ref=\"Shop_TradeItemNum\"}}개라…\n합쳐서… {{color id=\"0\"}}{{number ref=\"ShopTradePrice\"}}루피{{color id=\"65535\"}}에 어때?{{fun_0001_0004 arg=\"0x7C157D150001\"}}",
      "TWzh": "{{number ref=\"Shop_TradeItemNum\"}}個{{color id=\"2\"}}{{string ref=\"Shop_SelectItemName\"}}{{color id=\"65535\"}}……\n總共是……{{color id=\"0\"}}{{number ref=\"ShopTradePrice\"}}盧比{{color id=\"65535\"}}，可以嗎？{{fun_0001_0004 arg=\"0x7C157D150001\"}}",
      "USen": "So {{number ref=\"Shop_TradeItemNum\"}} of them?{{delay1}}\nHow about {{color id=\"0\"}}{{number ref=\"ShopTradePrice\"}} rupees{{color id=\"65535\"}}?{{fun_0001_0004 arg=\"0x7C157D150001\"}}",
      "USes": "Por {{number ref=\"Shop_TradeItemNum\"}} unidades de te daré...\n{{color id=\"0\"}}{{number ref=\"ShopTradePrice\"}} {{pluralCase arg1=\"rupia\" arg2=\"rupias\" arg3=\"\"}}{{color id=\"65535\"}}.{{fun_0001_0004 arg=\"0x7C157D150001\"}}",
      "USfr": "{{number ref=\"Shop_TradeItemNum\"}} exemplaires... Ça nous fait\nun total de {{color id=\"0\"}}{{number ref=\"ShopTradePrice\"}} rubis{{color id=\"65535\"}}. Ça te va?{{fun_0001_0004 arg=\"0x7C157D150001\"}}"
    }
  },
  {
    "label": "Com_Talk_15",
    "attribute": "0x26030000",
    "locale": {
      "CNzh": "{{fun_0004_0001 arg=\"0x0ACD\"}}那东西……我这没办法收购呀。",
      "EUde": "{{fun_0004_0001 arg=\"0x0ACD\"}}Das... kann ich dir nicht abkaufen.",
      "EUen": "{{fun_0004_0001 arg=\"0x0ACD\"}}I...can't take that from you.",
      "EUes": "{{fun_0004_0001 arg=\"0x0ACD\"}}Eso... no te lo puedo comprar.",
      "EUfr": "{{fun_0004_0001 arg=\"0x0ACD\"}}Désolée... Je n'achète pas ce genre\nde choses.",
      "EUit": "{{fun_0004_0001 arg=\"0x0ACD\"}}Non tratto quel tipo di merce.",
      "EUnl": "{{fun_0004_0001 arg=\"0x0ACD\"}}Dat... wil ik niet hebben.",
      "EUru": "{{fun_0004_0001 arg=\"0x0ACD\"}}Я такое не куплю.",
      "JPja": "{{fun_0004_0001 arg=\"0x0ACD\"}}それは… ウチでは{{ruby charSpan=\"1\" value=\"ひ\"}}引き{{ruby charSpan=\"1\" value=\"と\"}}取れないね",
      "KRko": "{{fun_0004_0001 arg=\"0x0ACD\"}}그건… 우리 집에선 취급하지 않아",
      "TWzh": "{{fun_0004_0001 arg=\"0x0ACD\"}}那東西……我這沒辦法收購耶。",
      "USen": "{{fun_0004_0001 arg=\"0x0ACD\"}}I...can't take that from you.",
      "USes": "{{fun_0004_0001 arg=\"0x0ACD\"}}Eso... no te lo puedo comprar.",
      "USfr": "{{fun_0004_0001 arg=\"0x0ACD\"}}Désolée... Je n'achète pas\nce genre de choses."
    }
  },
  {
    "label": "Com_Talk_16",
    "attribute": "0x46030000",
    "locale": {
      "CNzh": "{{fun_0004_0001 arg=\"0x0ACD\"}}穿着的东西我可没兴趣哦。",
      "EUde": "{{fun_0004_0001 arg=\"0x0ACD\"}}Was du gerade am Leib trägst,\nkannst du behalten...",
      "EUen": "{{fun_0004_0001 arg=\"0x0ACD\"}}I'm not interested in what you're\nwearing.",
      "EUes": "{{fun_0004_0001 arg=\"0x0ACD\"}}No me interesa comprarte lo que\nllevas puesto, shiak.",
      "EUfr": "{{fun_0004_0001 arg=\"0x0ACD\"}}Je ne m'intéresse pas à ce que tu portes,\ntu sais.",
      "EUit": "{{fun_0004_0001 arg=\"0x0ACD\"}}Non mi interessa quello che indossi.",
      "EUnl": "{{fun_0004_0001 arg=\"0x0ACD\"}}Ik ben niet geïnteresseerd in wat je\naanhebt.",
      "EUru": "{{fun_0004_0001 arg=\"0x0ACD\"}}Я не куплю то, что ты носишь.",
      "JPja": "{{fun_0004_0001 arg=\"0x0ACD\"}}{{ruby charSpan=\"1\" value=\"き\"}}着てるもんには{{ruby charSpan=\"2\" value=\"きょうみ\"}}興味ないよ",
      "KRko": "{{fun_0004_0001 arg=\"0x0ACD\"}}입고 있는 건 흥미 없다구",
      "TWzh": "{{fun_0004_0001 arg=\"0x0ACD\"}}你穿著的裝備我可沒興趣喔。",
      "USen": "{{fun_0004_0001 arg=\"0x0ACD\"}}I'm not interested in what you're\nwearing.",
      "USes": "{{fun_0004_0001 arg=\"0x0ACD\"}}No me interesa comprarte lo que\nllevas puesto, vai.",
      "USfr": "{{fun_0004_0001 arg=\"0x0ACD\"}}Je ne m'intéresse pas à ce que tu portes,\ntu sais."
    }
  },
  {
    "label": "Com_Talk_33",
    "attribute": "0x66030000",
    "locale": {
      "CNzh": "1个{{color id=\"2\"}}{{string ref=\"Shop_SelectItemName\"}}{{color id=\"65535\"}}\n是{{color id=\"0\"}}{{number ref=\"ShopTradePrice\"}}卢比{{color id=\"65535\"}}哦，要卖吗？{{fun_0001_0004 arg=\"0x7C157D150001\"}}",
      "EUde": "Dafür bekommst du dann auch nur\n{{color id=\"0\"}}{{number ref=\"ShopTradePrice\"}}{{pluralCase arg1=\" Rubin\" arg2=\" Rubine\" arg3=\" Rubin\"}}{{color id=\"65535\"}}. Einverstanden?{{fun_0001_0004 arg=\"0x7C157D150001\"}}",
      "EUen": "One will get you {{color id=\"0\"}}{{number ref=\"ShopTradePrice\"}} rupees{{color id=\"65535\"}}.\nWanna sell it?{{fun_0001_0004 arg=\"0x7C157D150001\"}}",
      "EUes": "Te doy {{color id=\"0\"}}{{number ref=\"ShopTradePrice\"}} {{pluralCase arg1=\"rupia\" arg2=\"rupias\" arg3=\"\"}}{{color id=\"65535\"}}. ¿Te interesa?{{fun_0001_0004 arg=\"0x7C157D150001\"}}",
      "EUfr": "Je t'en donne {{color id=\"0\"}}{{number ref=\"ShopTradePrice\"}} rubis{{color id=\"65535\"}}.\nÇa te va ?{{fun_0001_0004 arg=\"0x7C157D150001\"}}",
      "EUit": "{{uppercaseNextWord}}{{indefArticle}}{{color id=\"2\"}}{{lowercaseNextWord}}{{string ref=\"Shop_SelectItemName\"}}{{color id=\"65535\"}}\nper {{color id=\"0\"}}{{number ref=\"ShopTradePrice\"}} {{pluralCase arg1=\"rupia\" arg2=\"rupie\" arg3=\"\"}}{{color id=\"65535\"}}. Affare fatto?{{fun_0001_0004 arg=\"0x7C157D150001\"}}",
      "EUnl": "Je wilt er maar eentje kwijt? Dan kan ik je\nook niet meer geven dan {{color id=\"0\"}}{{number ref=\"ShopTradePrice\"}}{{pluralCase arg1=\" rupee\" arg2=\" rupees\" arg3=\"\"}}{{color id=\"65535\"}},\ngoed?{{fun_0001_0004 arg=\"0x7C157D150001\"}}",
      "EUru": "Даю {{color id=\"0\"}}{{number ref=\"ShopTradePrice\"}}{{pluralCase arg1=\" рупию\" arg2=\" рупий\" arg3=\" рупии\"}}{{color id=\"65535\"}}.{{fun_0001_0004 arg=\"0x7C157D150001\"}}",
      "JPja": "{{color id=\"2\"}}{{string ref=\"Shop_SelectItemName\"}}{{color id=\"65535\"}}は\n1{{ruby charSpan=\"1\" value=\"こ\"}}個{{color id=\"0\"}}{{number ref=\"ShopTradePrice\"}}ルピー{{color id=\"65535\"}}だよ {{ruby charSpan=\"1\" value=\"う\"}}売ってくかい？{{fun_0001_0004 arg=\"0x7C157D150001\"}}",
      "KRko": "{{color id=\"2\"}}{{string ref=\"Shop_SelectItemName\"}}{{color id=\"65535\"}}{{gender7 arg1=\"은\" arg2=\"는\"}}\n1개 {{color id=\"0\"}}{{number ref=\"ShopTradePrice\"}}루피{{color id=\"65535\"}}야, 팔 거야?{{fun_0001_0004 arg=\"0x7C157D150001\"}}",
      "TWzh": "1個{{color id=\"2\"}}{{string ref=\"Shop_SelectItemName\"}}{{color id=\"65535\"}}\n是{{color id=\"0\"}}{{number ref=\"ShopTradePrice\"}}盧比{{color id=\"65535\"}}哦，要賣嗎？{{fun_0001_0004 arg=\"0x7C157D150001\"}}",
      "USen": "One will get you {{color id=\"0\"}}{{number ref=\"ShopTradePrice\"}} rupees{{color id=\"65535\"}}.\nWanna sell it?{{fun_0001_0004 arg=\"0x7C157D150001\"}}",
      "USes": "Te doy {{color id=\"0\"}}{{number ref=\"ShopTradePrice\"}} {{pluralCase arg1=\"rupia\" arg2=\"rupias\" arg3=\"\"}}{{color id=\"65535\"}}. ¿Te interesa?{{fun_0001_0004 arg=\"0x7C157D150001\"}}",
      "USfr": "Je t'en donne {{color id=\"0\"}}{{number ref=\"ShopTradePrice\"}} rubis{{color id=\"65535\"}}.\nÇa te va?{{fun_0001_0004 arg=\"0x7C157D150001\"}}"
    }
  },
  {
    "label": "Com_Talk_50",
    "attribute": "0x86030000",
    "locale": {
      "CNzh": "{{color id=\"2\"}}{{fun_0003_0001 arg=\"0x0000\"}}{{string ref=\"PlacedItemName\"}}{{color id=\"65535\"}}是{{color id=\"0\"}}{{number ref=\"PlacedItemPrice\"}}卢比{{color id=\"65535\"}}，{{delay3}}\n如何？很便宜对吧？{{fun_0001_0004 arg=\"0x030004000001\"}}",
      "EUde": "{{fun_0003_0001 arg=\"0x0000\"}}{{uppercaseNextWord}}{{color id=\"2\"}}{{indefArticle}}{{string ref=\"PlacedItemName\"}}{{color id=\"65535\"}} kostet nur\n{{color id=\"0\"}}{{number ref=\"PlacedItemPrice\"}}{{pluralCase arg1=\" Rubin\" arg2=\" Rubine\" arg3=\" Rubin\"}}{{color id=\"65535\"}}. Greifst du zu?{{fun_0001_0004 arg=\"0x030004000001\"}}",
      "EUen": "{{fun_0003_0001 arg=\"0x0000\"}}One is {{color id=\"0\"}}{{number ref=\"PlacedItemPrice\"}} rupees{{color id=\"65535\"}}.{{delay3}} What do you think?\nPretty good price?{{fun_0001_0004 arg=\"0x030004000001\"}}",
      "EUes": "{{fun_0003_0001 arg=\"0x0000\"}}{{uppercaseNextWord}}{{indefArticle}}{{color id=\"2\"}}{{lowercaseNextWord}}{{string ref=\"PlacedItemName\"}}{{color id=\"65535\"}} cuesta\n{{color id=\"0\"}}{{number ref=\"PlacedItemPrice\"}} {{pluralCase arg1=\"rupia\" arg2=\"rupias\" arg3=\"\"}}{{color id=\"65535\"}}. ¿Te interesa?{{fun_0001_0004 arg=\"0x030004000001\"}}",
      "EUfr": "{{fun_0003_0001 arg=\"0x0000\"}}{{uppercaseNextWord}}{{indefArticle}}{{color id=\"2\"}}{{lowercaseNextWord}}{{string ref=\"PlacedItemName\"}}{{color id=\"65535\"}} ?{{delay2}}\nÇa coûte {{color id=\"0\"}}{{number ref=\"PlacedItemPrice\"}} rubis{{color id=\"65535\"}}.{{delay1}} C'est honnête !{{fun_0001_0004 arg=\"0x030004000001\"}}",
      "EUit": "{{fun_0003_0001 arg=\"0x0000\"}}{{uppercaseNextWord}}{{indefArticle}}{{color id=\"2\"}}{{lowercaseNextWord}}{{string ref=\"PlacedItemName\"}}{{color id=\"65535\"}} per\n{{color id=\"0\"}}{{number ref=\"PlacedItemPrice\"}} {{pluralCase arg1=\"rupia\" arg2=\"rupie\" arg3=\"\"}}{{color id=\"65535\"}}.{{delay3}} È un affare, che ne dici?{{fun_0001_0004 arg=\"0x030004000001\"}}",
      "EUnl": "{{fun_0003_0001 arg=\"0x0000\"}}Je wilt deze? Dat kost je maar\n{{color id=\"0\"}}{{number ref=\"PlacedItemPrice\"}}{{pluralCase arg1=\" rupee\" arg2=\" rupees\" arg3=\"\"}}{{color id=\"65535\"}}. Goedkoop, hè?{{fun_0001_0004 arg=\"0x030004000001\"}}",
      "EUru": "{{fun_0003_0001 arg=\"0x0000\"}}Этот {{color id=\"2\"}}{{lowercaseNextWord}}{{string ref=\"PlacedItemName\"}}{{color id=\"65535\"}}\nобойдется тебе в {{color id=\"0\"}}{{number ref=\"PlacedItemPrice\"}}{{pluralCase arg1=\" рупию\" arg2=\" рупий\" arg3=\" рупии\"}}{{color id=\"65535\"}}.{{fun_0001_0004 arg=\"0x030004000001\"}}",
      "JPja": "{{color id=\"2\"}}{{fun_0003_0001 arg=\"0x0000\"}}{{string ref=\"PlacedItemName\"}}{{color id=\"65535\"}}なら {{color id=\"0\"}}{{number ref=\"PlacedItemPrice\"}}ルピー{{color id=\"65535\"}}{{delay3}}\nどうだい？ {{ruby charSpan=\"1\" value=\"やす\"}}安いだろ？{{fun_0001_0004 arg=\"0x030004000001\"}}",
      "KRko": "{{color id=\"2\"}}{{fun_0003_0001 arg=\"0x0000\"}}{{string ref=\"PlacedItemName\"}}{{color id=\"65535\"}}{{gender7 arg1=\"은\" arg2=\"는\"}} {{color id=\"0\"}}{{number ref=\"PlacedItemPrice\"}}루피{{color id=\"65535\"}}{{delay3}}\n어때? 싸지?{{fun_0001_0004 arg=\"0x030004000001\"}}",
      "TWzh": "{{color id=\"2\"}}{{fun_0003_0001 arg=\"0x0000\"}}{{string ref=\"PlacedItemName\"}}{{color id=\"65535\"}}是{{color id=\"0\"}}{{number ref=\"PlacedItemPrice\"}}盧比{{color id=\"65535\"}}，{{delay3}}\n如何？很便宜對吧？{{fun_0001_0004 arg=\"0x030004000001\"}}",
      "USen": "{{fun_0003_0001 arg=\"0x0000\"}}One is {{color id=\"0\"}}{{number ref=\"PlacedItemPrice\"}} rupees{{color id=\"65535\"}}.{{delay3}} What do you think?\nPretty good price?{{fun_0001_0004 arg=\"0x030004000001\"}}",
      "USes": "{{fun_0003_0001 arg=\"0x0000\"}}{{uppercaseNextWord}}{{indefArticle}}{{color id=\"2\"}}{{lowercaseNextWord}}{{string ref=\"PlacedItemName\"}}{{color id=\"65535\"}} cuesta\n{{color id=\"0\"}}{{number ref=\"PlacedItemPrice\"}} {{pluralCase arg1=\"rupia\" arg2=\"rupias\" arg3=\"\"}}{{color id=\"65535\"}}. Es la última unidad.\n¿Te interesa?{{fun_0001_0004 arg=\"0x030004000001\"}}",
      "USfr": "{{fun_0003_0001 arg=\"0x0000\"}}{{uppercaseNextWord}}{{indefArticle}}{{color id=\"2\"}}{{lowercaseNextWord}}{{string ref=\"PlacedItemName\"}}{{color id=\"65535\"}}?{{delay2}}\nÇa coûte {{color id=\"0\"}}{{number ref=\"PlacedItemPrice\"}} rubis{{color id=\"65535\"}}.{{delay1}} C'est honnête!{{fun_0001_0004 arg=\"0x030004000001\"}}"
    }
  },
  {
    "label": "Com_Talk_53",
    "attribute": "0x88030000",
    "locale": {
      "CNzh": "{{fun_0004_0001 arg=\"0x0ACD\"}}哎呀，不买了吗？\n真是可惜呢。",
      "EUde": "{{fun_0004_0001 arg=\"0x0ACD\"}}Oh, du hast dich anders entschieden?{{delay1}}\nNa, macht nichts.",
      "EUen": "{{fun_0004_0001 arg=\"0x0ACD\"}}Oh, did you change your mind?\nThat's too bad.",
      "EUes": "{{fun_0004_0001 arg=\"0x0ACD\"}}¿Has cambiado de idea? Qué pena...",
      "EUfr": "{{fun_0004_0001 arg=\"0x0ACD\"}}Tu as changé d'avis ? Dommage.",
      "EUit": "{{fun_0004_0001 arg=\"0x0ACD\"}}Ah, hai cambiato idea? Peccato.",
      "EUnl": "{{fun_0004_0001 arg=\"0x0ACD\"}}O, ben je van gedachten veranderd?\nSpijtig.",
      "EUru": "{{fun_0004_0001 arg=\"0x0ACD\"}}Передумала? Жаль.",
      "JPja": "{{fun_0004_0001 arg=\"0x0ACD\"}}おや やめちゃうのかい？\n{{ruby charSpan=\"2\" value=\"ざんねん\"}}残念だねぇ",
      "KRko": "{{fun_0004_0001 arg=\"0x0ACD\"}}어머, 그만두는 거야?\n아쉽네",
      "TWzh": "{{fun_0004_0001 arg=\"0x0ACD\"}}哎呀，不買了嗎？\n真是可惜呢。",
      "USen": "{{fun_0004_0001 arg=\"0x0ACD\"}}Oh, did you change your mind?\nThat's too bad.",
      "USes": "{{fun_0004_0001 arg=\"0x0ACD\"}}¿Cambiaste de idea? Qué pena...",
      "USfr": "{{fun_0004_0001 arg=\"0x0ACD\"}}Tu as changé d'avis? Dommage."
    }
  },
  {
    "label": "Com_Talk_02b",
    "attribute": "0x8A030000",
    "locale": {
      "CNzh": "{{fun_0003_0001 arg=\"0x0017\"}}这东西真不错，\n沙库沙库。",
      "EUde": "{{fun_0003_0001 arg=\"0x0017\"}}Ausgezeichnete Waren sind das!{{delay1}}\nSarq-sarq!",
      "EUen": "{{fun_0003_0001 arg=\"0x0017\"}}Nice wares! Sarqso!",
      "EUes": "{{fun_0003_0001 arg=\"0x0017\"}}Buena mercancía... ¡Sahku, sahku!",
      "EUfr": "{{fun_0003_0001 arg=\"0x0017\"}}Ça, c'est une bonne affaire ! Saksak !",
      "EUit": "{{fun_0003_0001 arg=\"0x0017\"}}Che qualità! Sarq sarq!",
      "EUnl": "{{fun_0003_0001 arg=\"0x0017\"}}Mooie spullen! Sarqsarq!",
      "EUru": "{{fun_0003_0001 arg=\"0x0017\"}}Хороший товар! Саак-саак!",
      "JPja": "{{fun_0003_0001 arg=\"0x0017\"}}{{ruby charSpan=\"1\" value=\"い\"}}良い{{ruby charSpan=\"1\" value=\"しな\"}}品じゃないか\nサークサーク",
      "KRko": "{{fun_0003_0001 arg=\"0x0017\"}}좋은 물건이네\n사크사크",
      "TWzh": "{{fun_0003_0001 arg=\"0x0017\"}}這東西真不錯，\n薩庫薩庫。",
      "USen": "{{fun_0003_0001 arg=\"0x0017\"}}Nice wares! Sarqso!",
      "USes": "{{fun_0003_0001 arg=\"0x0017\"}}Vaya surtido... ¡Sahku, sahku!",
      "USfr": "{{fun_0003_0001 arg=\"0x0017\"}}Ça, c'est une bonne affaire! Saksak!"
    }
  },
  {
    "label": "Com_Talk_02c",
    "attribute": "0x8C030000",
    "locale": {
      "CNzh": "{{fun_0003_0001 arg=\"0x0004\"}}呵呵，沙库沙库。",
      "EUde": "{{fun_0003_0001 arg=\"0x0004\"}}Heh-heh.{{delay1}} Sarq-sarq!",
      "EUen": "{{fun_0003_0001 arg=\"0x0004\"}}Heh heh. Sarqso!",
      "EUes": "{{fun_0003_0001 arg=\"0x0004\"}}Je, je... ¡Sahku, sahku!",
      "EUfr": "{{fun_0003_0001 arg=\"0x0004\"}}Héhé, saksak !",
      "EUit": "{{fun_0003_0001 arg=\"0x0004\"}}Eh eh, sarq sarq!",
      "EUnl": "{{fun_0003_0001 arg=\"0x0004\"}}Haha. Sarqsarq!",
      "EUru": "{{fun_0003_0001 arg=\"0x0004\"}}Ха-ха! Саак-саак!",
      "JPja": "{{fun_0003_0001 arg=\"0x0004\"}}ふふっ サークサーク ",
      "KRko": "{{fun_0003_0001 arg=\"0x0004\"}}후훗, 사크사크",
      "TWzh": "{{fun_0003_0001 arg=\"0x0004\"}}呵呵，薩庫薩庫。",
      "USen": "{{fun_0003_0001 arg=\"0x0004\"}}Heh heh. Sarqso!",
      "USes": "{{fun_0003_0001 arg=\"0x0004\"}}Je, je... ¡Sahku, sahku!",
      "USfr": "{{fun_0003_0001 arg=\"0x0004\"}}Héhé, saksak!"
    }
  },
  {
    "label": "Com_Talk_02d",
    "attribute": "0x8E030000",
    "locale": {
      "CNzh": "{{fun_0003_0001 arg=\"0x0004\"}}沙库沙库，\n谢谢你让我进了不错的商品哦。",
      "EUde": "{{fun_0003_0001 arg=\"0x0004\"}}Sarq-sarq. {{delay1}}Da hast du ja einige hübsche\nSachen für mich.",
      "EUen": "{{fun_0003_0001 arg=\"0x0004\"}}Sarqso. I'm pleased with what I've\nbought from you...",
      "EUes": "{{fun_0003_0001 arg=\"0x0004\"}}¡Sahku, sahku! Ha sido una transacción\nmuy provechosa, sí.",
      "EUfr": "{{fun_0003_0001 arg=\"0x0004\"}}Saksak de m'avoir permis de mettre\nla main sur un si bel objet.",
      "EUit": "{{fun_0003_0001 arg=\"0x0004\"}}Sarq sarq! Ho fatto un ottimo affare!",
      "EUnl": "{{fun_0003_0001 arg=\"0x0004\"}}Sarqsarq! Je hebt me een paar mooie\ndingen verkocht!",
      "EUru": "{{fun_0003_0001 arg=\"0x0004\"}}Саак-саак! Неплохо!",
      "JPja": "{{fun_0003_0001 arg=\"0x0004\"}}サークサーク\n{{ruby charSpan=\"1\" value=\"い\"}}良いモン{{ruby charSpan=\"2\" value=\"しい\"}}仕入れさせてもらったよ",
      "KRko": "{{fun_0003_0001 arg=\"0x0004\"}}사크사크\n덕분에 좋은 물건 구했어",
      "TWzh": "{{fun_0003_0001 arg=\"0x0004\"}}薩庫薩庫，\n妳讓我進了不錯的商品呢。",
      "USen": "{{fun_0003_0001 arg=\"0x0004\"}}Sarqso. I'm pleased with what I've\nbought from you...",
      "USes": "{{fun_0003_0001 arg=\"0x0004\"}}¡Sahku, sahku! Ha sido una transacción\nmuy productiva, sí.",
      "USfr": "{{fun_0003_0001 arg=\"0x0004\"}}Saksak de m'avoir permis de mettre\nla main sur un si bel objet."
    }
  },
  {
    "label": "Com_Talk_05b",
    "attribute": "0x90030000",
    "locale": {
      "CNzh": "没有其他东西了吗？",
      "EUde": "Sonst nichts?",
      "EUen": "Nothing more?",
      "EUes": "¿Nada más?",
      "EUfr": "Tu veux vendre autre chose ?",
      "EUit": "Hai altro?",
      "EUnl": "Verder niets?",
      "EUru": "Может, что-то еще?",
      "JPja": "{{ruby charSpan=\"1\" value=\"ほか\"}}他にはもうないのかい？",
      "KRko": "다른 건 이제 없어?",
      "TWzh": "沒有其他東西了嗎？",
      "USen": "Nothing more?",
      "USes": "¿Nada más?",
      "USfr": "Tu veux vendre autre chose?"
    }
  },
  {
    "label": "Com_Talk_05c",
    "attribute": "0x92030000",
    "locale": {
      "CNzh": "趁这个机会，\n一口气都卖一卖吧。",
      "EUde": "Jetzt ist die Gelegenheit.{{delay1}}\nVerkaufe mir, so viel du magst!",
      "EUen": "Now's the time. Sell me a whole bunch\nof things!",
      "EUes": "Estoy impaciente por ver\nqué te puedo comprar.",
      "EUfr": "Je suis prête à t'acheter un paquet de\nchoses, alors montre-moi ce que tu as !",
      "EUit": "Cogli l'occasione e vendimi tutto\nquello che vuoi!",
      "EUnl": "Dit is je kans. Verkoop me wat je maar\nwilt!",
      "EUru": "Предложи что-нибудь еще.",
      "JPja": "この{{ruby charSpan=\"1\" value=\"さい\"}}際だ\nどーんと{{ruby charSpan=\"1\" value=\"う\"}}売っぱらっちゃいなよ",
      "KRko": "이 기회에 잔뜩 팔아 버려",
      "TWzh": "趁這個機會，\n一口氣都賣一賣吧。",
      "USen": "Now's the time. Sell me a whole bunch\nof things!",
      "USes": "Estoy impaciente por ver qué\nte puedo comprar.",
      "USfr": "Je suis prête à t'acheter un paquet de\nchoses, alors montre-moi ce que tu as!"
    }
  },
  {
    "label": "Com_Talk_05d",
    "attribute": "0x94030000",
    "locale": {
      "CNzh": "只要能收购的，\n我全都收购哦！",
      "EUde": "Ich kaufe dir alles ab, was ich irgendwie\ngebrauchen kann!",
      "EUen": "I'll buy anything I can from you!",
      "EUes": "Compraré cualquier cosa que estés\ndispuesta a venderme.",
      "EUfr": "Tant que ça m'intéresse, je veux bien\nacheter ce que tu proposes !",
      "EUit": "Compro tutto il comprabile!",
      "EUnl": "Ik koop alles wat ik kan!",
      "EUru": "С радостью взгляну\nна что-нибудь еще.",
      "JPja": "{{ruby charSpan=\"1\" value=\"か\"}}買い{{ruby charSpan=\"1\" value=\"と\"}}取れるもんなら\n{{ruby charSpan=\"1\" value=\"なん\"}}何でも{{ruby charSpan=\"1\" value=\"か\"}}買い{{ruby charSpan=\"1\" value=\"と\"}}取るよ！",
      "KRko": "내가 취급하는 거라면\n뭐든 살게!",
      "TWzh": "只要能收購的，\n我全都收購哦！",
      "USen": "I'll buy anything I can from you!",
      "USes": "Compraré cualquier cosa que estés\ndispuesta a venderme.",
      "USfr": "Tant que ça m'intéresse, je veux bien\nacheter ce que tu proposes!"
    }
  },
  {
    "label": "Com_Talk_35",
    "attribute": "0x96030000",
    "locale": {
      "CNzh": "要将{{number ref=\"Shop_TradeItemNum\"}}个{{color id=\"2\"}}{{string ref=\"Shop_SelectItemName\"}}{{color id=\"65535\"}}全卖了吗？\n这样是{{color id=\"0\"}}{{number ref=\"ShopTradePrice\"}}卢比{{color id=\"65535\"}}，如何呢？{{fun_0001_0004 arg=\"0x7C157D150001\"}}",
      "EUde": "Da bist du bei mir an der richtigen\nAdresse. {{delay1}}Wärst du mit {{color id=\"0\"}}{{delay1}}{{number ref=\"ShopTradePrice\"}} Rubinen{{color id=\"65535\"}}\nzufrieden?{{fun_0001_0004 arg=\"0x7C157D150001\"}}",
      "EUen": "All {{number ref=\"Shop_TradeItemNum\"}} of yours? In that case, does \n{{color id=\"0\"}}{{number ref=\"ShopTradePrice\"}} rupees{{color id=\"65535\"}} sound good?{{fun_0001_0004 arg=\"0x7C157D150001\"}}",
      "EUes": "Como tienes {{number ref=\"Shop_TradeItemNum\"}}, puedo ofrecerte\n{{color id=\"0\"}}{{number ref=\"ShopTradePrice\"}} {{pluralCase arg1=\"rupia\" arg2=\"rupias\" arg3=\"\"}}{{color id=\"65535\"}}. ¿Te vale?{{fun_0001_0004 arg=\"0x7C157D150001\"}}",
      "EUfr": "Je t'en donne {{color id=\"0\"}}{{number ref=\"ShopTradePrice\"}} rubis{{color id=\"65535\"}}.\nÇa te va ?{{fun_0001_0004 arg=\"0x7C157D150001\"}}",
      "EUit": "{{uppercaseNextWord}}{{defArticle}}{{color id=\"2\"}}{{lowercaseNextWord}}{{string ref=\"Shop_SelectItemName\"}}{{color id=\"65535\"}}?{{delay1}}\nNe hai {{number ref=\"Shop_TradeItemNum\"}}... Ti offro {{color id=\"0\"}}{{number ref=\"ShopTradePrice\"}} {{pluralCase arg1=\"rupia\" arg2=\"rupie\" arg3=\"\"}}{{color id=\"65535\"}}.\nAffare fatto?{{fun_0001_0004 arg=\"0x7C157D150001\"}} ",
      "EUnl": "Je wilt ze allemaal aan me kwijt? Voor\n{{number ref=\"Shop_TradeItemNum\"}} stuks geef ik je {{color id=\"0\"}}{{number ref=\"ShopTradePrice\"}}{{pluralCase arg1=\" rupee\" arg2=\" rupees\" arg3=\"\"}}{{color id=\"65535\"}}.{{fun_0001_0004 arg=\"0x7C157D150001\"}}",
      "EUru": "Все, то есть {{number ref=\"Shop_TradeItemNum\"}}{{pluralCase arg1=\" штуку\" arg2=\" штук\" arg3=\" штуки\"}}?{{delay1}}\nМогу дать {{color id=\"0\"}}{{number ref=\"ShopTradePrice\"}}{{pluralCase arg1=\" рупию\" arg2=\" рупий\" arg3=\" рупии\"}}{{color id=\"65535\"}}.{{fun_0001_0004 arg=\"0x7C157D150001\"}}",
      "JPja": "{{color id=\"2\"}}{{string ref=\"Shop_SelectItemName\"}}{{color id=\"65535\"}}を{{number ref=\"Shop_TradeItemNum\"}}{{ruby charSpan=\"3\" value=\"こぜんぶ\"}}個全部かい？\nそれなら{{color id=\"0\"}}{{number ref=\"ShopTradePrice\"}}ルピー{{color id=\"65535\"}}でどうだい？{{fun_0001_0004 arg=\"0x7C157D150001\"}}",
      "KRko": "{{color id=\"2\"}}{{string ref=\"Shop_SelectItemName\"}}{{color id=\"65535\"}}{{gender7 arg1=\"을\" arg2=\"를\"}} {{number ref=\"Shop_TradeItemNum\"}}개 전부?\n그럼 {{color id=\"0\"}}{{number ref=\"ShopTradePrice\"}}루피{{color id=\"65535\"}}에 어때?{{fun_0001_0004 arg=\"0x7C157D150001\"}}",
      "TWzh": "要將{{number ref=\"Shop_TradeItemNum\"}}個{{color id=\"2\"}}{{string ref=\"Shop_SelectItemName\"}}{{color id=\"65535\"}}全賣了嗎？\n這樣是{{color id=\"0\"}}{{number ref=\"ShopTradePrice\"}}盧比{{color id=\"65535\"}}，如何呢？{{fun_0001_0004 arg=\"0x7C157D150001\"}}",
      "USen": "All {{number ref=\"Shop_TradeItemNum\"}} of yours? In that case, does \n{{color id=\"0\"}}{{number ref=\"ShopTradePrice\"}} rupees{{color id=\"65535\"}} sound good?{{fun_0001_0004 arg=\"0x7C157D150001\"}}",
      "USes": "Por las {{number ref=\"Shop_TradeItemNum\"}} unidades que tienes\npuedo ofrecerte {{color id=\"0\"}}{{number ref=\"ShopTradePrice\"}} {{pluralCase arg1=\"rupia\" arg2=\"rupias\" arg3=\"\"}}{{color id=\"65535\"}}.\n¿Te parece bien?{{fun_0001_0004 arg=\"0x7C157D150001\"}}",
      "USfr": "Je t'en donne {{color id=\"0\"}}{{number ref=\"ShopTradePrice\"}} rubis{{color id=\"65535\"}}.\nÇa te va?{{fun_0001_0004 arg=\"0x7C157D150001\"}}"
    }
  },
  {
    "label": "5500",
    "attribute": "0xB6030000",
    "locale": {
      "CNzh": "好",
      "EUde": "Geht klar!",
      "EUen": "Yes.",
      "EUes": "Sí",
      "EUfr": "Oui.",
      "EUit": "Sì.",
      "EUnl": "Ja.",
      "EUru": "Идет!",
      "JPja": "はい",
      "KRko": "예",
      "TWzh": "好",
      "USen": "Yes.",
      "USes": "Sí",
      "USfr": "Oui."
    }
  },
  {
    "label": "5501",
    "attribute": "0xB8030000",
    "locale": {
      "CNzh": "不好",
      "EUde": "Nein, das wird nichts.",
      "EUen": "No.",
      "EUes": "No",
      "EUfr": "Laisse tomber.",
      "EUit": "No.",
      "EUnl": "Nee.",
      "EUru": "Я передумала",
      "JPja": "いいえ",
      "KRko": "아니요",
      "TWzh": "不好",
      "USen": "No.",
      "USes": "No",
      "USfr": "Laisse tomber."
    }
  },
  {
    "label": "5502",
    "attribute": "0xBA030000",
    "locale": {
      "CNzh": "买",
      "EUde": "Kauf ich!",
      "EUen": "I'll buy.",
      "EUes": "Compro",
      "EUfr": "J'achète.",
      "EUit": "Compro.",
      "EUnl": "Kopen.",
      "EUru": "Беру!",
      "JPja": "買う",
      "KRko": "산다",
      "TWzh": "買",
      "USen": "I'll buy.",
      "USes": "Compro",
      "USfr": "J'achète."
    }
  },
  {
    "label": "5503",
    "attribute": "0xBC030000",
    "locale": {
      "CNzh": "还是算了",
      "EUde": "Doch nicht.",
      "EUen": "Never mind.",
      "EUes": "Mejor no",
      "EUfr": "Non, merci.",
      "EUit": "Ho cambiato idea.",
      "EUnl": "Laat maar.",
      "EUru": "Я передумала",
      "JPja": "やっぱりやめる",
      "KRko": "역시 그만둔다",
      "TWzh": "還是算了",
      "USen": "Never mind.",
      "USes": "Mejor no",
      "USfr": "Non, merci."
    }
  },
  {
    "label": "5507",
    "attribute": "0xBE030000",
    "locale": {
      "CNzh": "全买了",
      "EUde": "Gib mir gleich alles!",
      "EUen": "I'll take 'em all!",
      "EUes": "Las compro todas",
      "EUfr": "J'achète tout.",
      "EUit": "Compro tutto.",
      "EUnl": "Alles kopen.",
      "EUru": "Беру все",
      "JPja": "ぜんぶ{{ruby charSpan=\"1\" value=\"か\"}}買う",
      "KRko": "모두 산다",
      "TWzh": "全買了",
      "USen": "I'll take 'em all!",
      "USes": "Las compro todas",
      "USfr": "J'achète tout."
    }
  },
  {
    "label": "5508",
    "attribute": "0xC0030000",
    "locale": {
      "CNzh": "全卖了",
      "EUde": "Alles!",
      "EUen": "All of them.",
      "EUes": "Lo vendo todo",
      "EUfr": "Je vends tout.",
      "EUit": "Vendo tutto.",
      "EUnl": "Alles verkopen.",
      "EUru": "Продаю все",
      "JPja": "ぜんぶ{{ruby charSpan=\"1\" value=\"う\"}}売る",
      "KRko": "모두 판다",
      "TWzh": "全賣了",
      "USen": "All of them.",
      "USes": "Las vendo todas",
      "USfr": "Je vends tout."
    }
  }
]