[
  {
    "label": "near00",
    "attribute": "0xA0000000",
    "locale": {
      "CNzh": "哇哈哈！",
      "EUde": "Ha ha ha!",
      "EUen": "Kya ha ha!",
      "EUes": "¡Jia, jia, jia!",
      "EUfr": "Hahaha !",
      "EUit": "Ah ah ah!",
      "EUnl": "Ha ha ha!",
      "EUru": "Ха-ха-ха!",
      "JPja": "キャハハ！",
      "KRko": "꺄하하하!",
      "TWzh": "哇哈哈！",
      "USen": "Kya ha ha!",
      "USes": "¡Jia, jia, jia!",
      "USfr": "Hahaha!"
    }
  },
  {
    "label": "near01",
    "attribute": "0xCA000000",
    "locale": {
      "CNzh": "什么什么～？",
      "EUde": "Waaas?!",
      "EUen": "What, what?!",
      "EUes": "¿Qué pasa? ¿Qué?",
      "EUfr": "Quoiiii ?",
      "EUit": "E quella cos'è?",
      "EUnl": "Wat?!",
      "EUru": "Что это?",
      "JPja": "なになにー？！",
      "KRko": "뭔데, 뭔데~?!",
      "TWzh": "什麼什麼～？",
      "USen": "What, what?!",
      "USes": "¿Que cómo?",
      "USfr": "Quoiiii?"
    }
  },
  {
    "label": "near02",
    "attribute": "0xF4000000",
    "locale": {
      "CNzh": "……",
      "EUde": "...",
      "EUen": "...",
      "EUes": "Mmm...",
      "EUfr": "...",
      "EUit": "...",
      "EUnl": "...",
      "EUru": "...",
      "JPja": "……",
      "KRko": "……",
      "TWzh": "……",
      "USen": "...",
      "USes": "(...)",
      "USfr": "..."
    }
  },
  {
    "label": "near03",
    "attribute": "0x1E010000",
    "locale": {
      "CNzh": "呼……呼……",
      "EUde": "ZZZzzz...",
      "EUen": "Zzz... Zzz...",
      "EUes": "Zzz... zzz...",
      "EUfr": "Zzz... zzz...",
      "EUit": "Zzz... Zzz...",
      "EUnl": "Zzz... zzz...",
      "EUru": "Хс-с-с...",
      "JPja": "スー… スー…",
      "KRko": "새근… 새근…",
      "TWzh": "呼……呼……",
      "USen": "Zzz... Zzz...",
      "USes": "Zzz... zzz...",
      "USfr": "Zzz... zzz..."
    }
  },
  {
    "label": "0000",
    "attribute": "0x48010000",
    "locale": {
      "CNzh": "什么事？",
      "EUde": "Was?",
      "EUen": "Yes?",
      "EUes": "¿Qué?",
      "EUfr": "Quoi ?",
      "EUit": "Che c'è?",
      "EUnl": "Wat?",
      "EUru": "Чего?",
      "JPja": "{{ruby charSpan=\"1\" value=\"なに\"}}何？",
      "KRko": "왜?",
      "TWzh": "什麼事？",
      "USen": "Yes?",
      "USes": "¿Qué?",
      "USfr": "Quoi?"
    }
  },
  {
    "label": "0001",
    "attribute": "0x4A010000",
    "locale": {
      "CNzh": "知道",
      "EUde": "Kann ich.",
      "EUen": "I love that bit.",
      "EUes": "Lo sé",
      "EUfr": "Je connais !",
      "EUit": "Sì.",
      "EUnl": "Ja, natuurlijk.",
      "EUru": "Умею",
      "JPja": "{{ruby charSpan=\"1\" value=\"し\"}}知ってる",
      "KRko": "알아",
      "TWzh": "知道",
      "USen": "I love that bit.",
      "USes": "¡Me encanta!",
      "USfr": "Je connais!"
    }
  },
  {
    "label": "0002",
    "attribute": "0x4C010000",
    "locale": {
      "CNzh": "不知道",
      "EUde": "Kann ich nicht.",
      "EUen": "Never seen it.",
      "EUes": "Ni idea",
      "EUfr": "C'est quoi, ça ?",
      "EUit": "Non lo so.",
      "EUnl": "Ken ik niet.",
      "EUru": "Не умею",
      "JPja": "{{ruby charSpan=\"1\" value=\"し\"}}知らない",
      "KRko": "몰라",
      "TWzh": "不知道",
      "USen": "Never seen it.",
      "USes": "No lo había visto",
      "USfr": "C'est quoi, ça?"
    }
  },
  {
    "label": "0003",
    "attribute": "0x4E010000",
    "locale": {
      "CNzh": "再见",
      "EUde": "Bis dann.",
      "EUen": "See you later.",
      "EUes": "Hasta otra",
      "EUfr": "À la prochaine !",
      "EUit": "Ci vediamo.",
      "EUnl": "Tot ziens.",
      "EUru": "Пока",
      "JPja": "またね",
      "KRko": "잘 가",
      "TWzh": "再見囉",
      "USen": "See you later.",
      "USes": "Me voy",
      "USfr": "À la prochaine!"
    }
  },
  {
    "label": "0004",
    "attribute": "0x50010000",
    "locale": {
      "CNzh": "樱达？",
      "EUde": "Jolanda?",
      "EUen": "Bolson?",
      "EUes": "¿Quién es Karud?",
      "EUfr": "Sérasieh ?",
      "EUit": "Cerada?",
      "EUnl": "Bolson?",
      "EUru": "Стройда?",
      "JPja": "サクラダ？",
      "KRko": "볼슨?",
      "TWzh": "櫻達？",
      "USen": "Bolson?",
      "USes": "¿Quién es Karud?",
      "USfr": "Sérasieh?"
    }
  },
  {
    "label": "0005",
    "attribute": "0x52010000",
    "locale": {
      "CNzh": "跳舞？",
      "EUde": "Tanz?",
      "EUen": "Dance?",
      "EUes": "¿Qué baile?",
      "EUfr": "Quelle danse ?",
      "EUit": "Che ballo?",
      "EUnl": "Dans?",
      "EUru": "Что за танец?",
      "JPja": "ダンス？",
      "KRko": "댄스?",
      "TWzh": "跳舞？",
      "USen": "Dance?",
      "USes": "¿Qué baile?",
      "USfr": "Quelle danse?"
    }
  },
  {
    "label": "0006",
    "attribute": "0x54010000",
    "locale": {
      "CNzh": "我只是叫住你而已～",
      "EUde": "Lass mal.",
      "EUen": "You can stop.",
      "EUes": "Era broma",
      "EUfr": "J'aime pas la danse.",
      "EUit": "Piantala!",
      "EUnl": "Ik wilde je stoppen.",
      "EUru": "Отстань",
      "JPja": "{{ruby charSpan=\"1\" value=\"よ\"}}呼び{{ruby charSpan=\"1\" value=\"と\"}}止めただけー",
      "KRko": "그냥 불러 봤어",
      "TWzh": "只是叫住妳而已～",
      "USen": "You can stop.",
      "USes": "Me voy",
      "USfr": "J'aime pas la danse."
    }
  },
  {
    "label": "talk00",
    "attribute": "0x56010000",
    "locale": {
      "CNzh": "{{fun_0003_0001 arg=\"0x0800\"}}笨～蛋！",
      "EUde": "{{fun_0003_0001 arg=\"0x0800\"}}Blödmann!",
      "EUen": "{{fun_0003_0001 arg=\"0x0800\"}}Whatever! You're lame.",
      "EUes": "{{fun_0003_0001 arg=\"0x0800\"}}¡Idiota!",
      "EUfr": "{{fun_0003_0001 arg=\"0x0800\"}}Quel nigaud !",
      "EUit": "{{fun_0003_0001 arg=\"0x0800\"}}Scemo!",
      "EUnl": "{{fun_0003_0001 arg=\"0x0800\"}}Sufferd!",
      "EUru": "{{fun_0003_0001 arg=\"0x0800\"}}Дурак!",
      "JPja": "{{fun_0003_0001 arg=\"0x0800\"}}バーカ！",
      "KRko": "{{fun_0003_0001 arg=\"0x0800\"}}바보야!",
      "TWzh": "{{fun_0003_0001 arg=\"0x0800\"}}笨～蛋！",
      "USen": "{{fun_0003_0001 arg=\"0x0800\"}}Whatever! You're lame.",
      "USes": "{{fun_0003_0001 arg=\"0x0800\"}}¡Qué aburrido eres!",
      "USfr": "{{fun_0003_0001 arg=\"0x0800\"}}Quel nono!"
    }
  },
  {
    "label": "talk01",
    "attribute": "0x80010000",
    "locale": {
      "CNzh": "{{fun_0003_0001 arg=\"0x0414\"}}这是什么～？",
      "EUde": "{{fun_0003_0001 arg=\"0x0414\"}}Was ist das?!",
      "EUen": "{{fun_0003_0001 arg=\"0x0414\"}}Whoa! Pretty!",
      "EUes": "{{fun_0003_0001 arg=\"0x0414\"}}¿Qué es esto?",
      "EUfr": "{{fun_0003_0001 arg=\"0x0414\"}}Qu'est-ce que c'est ?",
      "EUit": "{{fun_0003_0001 arg=\"0x0414\"}}Cos'è quella?",
      "EUnl": "{{fun_0003_0001 arg=\"0x0414\"}}Wat is dat?",
      "EUru": "{{fun_0003_0001 arg=\"0x0414\"}}Это что у тебя?",
      "JPja": "{{fun_0003_0001 arg=\"0x0414\"}}なにこれー？",
      "KRko": "{{fun_0003_0001 arg=\"0x0414\"}}뭐야, 이게?",
      "TWzh": "{{fun_0003_0001 arg=\"0x0414\"}}這是什麼～？",
      "USen": "{{fun_0003_0001 arg=\"0x0414\"}}Whoa! Pretty!",
      "USes": "{{fun_0003_0001 arg=\"0x0414\"}}¿Qué es eso?",
      "USfr": "{{fun_0003_0001 arg=\"0x0414\"}}Qu'est-ce que c'est?"
    }
  },
  {
    "label": "talk02",
    "attribute": "0xAA010000",
    "locale": {
      "CNzh": "{{fun_0003_0001 arg=\"0x0700\"}}真好～！",
      "EUde": "{{fun_0003_0001 arg=\"0x0700\"}}Schööön!",
      "EUen": "{{fun_0003_0001 arg=\"0x0700\"}}Nice!",
      "EUes": "{{fun_0003_0001 arg=\"0x0700\"}}¡Mola!",
      "EUfr": "{{fun_0003_0001 arg=\"0x0700\"}}C'est beauuu !",
      "EUit": "{{fun_0003_0001 arg=\"0x0700\"}}Bellaaa!",
      "EUnl": "{{fun_0003_0001 arg=\"0x0700\"}}Wat mooi!",
      "EUru": "{{fun_0003_0001 arg=\"0x0700\"}}Как красиво!",
      "JPja": "{{fun_0003_0001 arg=\"0x0700\"}}いいなー！",
      "KRko": "{{fun_0003_0001 arg=\"0x0700\"}}좋겠다~!",
      "TWzh": "{{fun_0003_0001 arg=\"0x0700\"}}好好喔～！",
      "USen": "{{fun_0003_0001 arg=\"0x0700\"}}Nice!",
      "USes": "{{fun_0003_0001 arg=\"0x0700\"}}¡Genial!",
      "USfr": "{{fun_0003_0001 arg=\"0x0700\"}}C'est beauuu!"
    }
  },
  {
    "label": "talk03",
    "attribute": "0xD4010000",
    "locale": {
      "CNzh": "{{fun_0003_0001 arg=\"0x0900\"}}睡觉时间到了，我要回去了。",
      "EUde": "{{fun_0003_0001 arg=\"0x0900\"}}Zeit für die Heia!",
      "EUen": "{{fun_0003_0001 arg=\"0x0900\"}}I'm heading home. Time to hit the hay!",
      "EUes": "{{fun_0003_0001 arg=\"0x0900\"}}Me voy a la cama. Es mi hora.",
      "EUfr": "{{fun_0003_0001 arg=\"0x0900\"}}C'est l'heure d'aller au lit !",
      "EUit": "{{fun_0003_0001 arg=\"0x0900\"}}Vado a casa e vado a letto.",
      "EUnl": "{{fun_0003_0001 arg=\"0x0900\"}}Het is tijd om naar bed te gaan!",
      "EUru": "{{fun_0003_0001 arg=\"0x0900\"}}Поздно уже — пора спать.",
      "JPja": "{{fun_0003_0001 arg=\"0x0900\"}}もう{{ruby charSpan=\"1\" value=\"ね\"}}寝る{{ruby charSpan=\"2\" value=\"じかん\"}}時間だから{{ruby charSpan=\"1\" value=\"かえ\"}}帰るし",
      "KRko": "{{fun_0003_0001 arg=\"0x0900\"}}자야 할 시간이니까 집에 갈거야",
      "TWzh": "{{fun_0003_0001 arg=\"0x0900\"}}睡覺時間到了，我要回去了。",
      "USen": "{{fun_0003_0001 arg=\"0x0900\"}}I'm heading home. Time to hit the hay!",
      "USes": "{{fun_0003_0001 arg=\"0x0900\"}}Me voy a la cama. Es mi hora.",
      "USfr": "{{fun_0003_0001 arg=\"0x0900\"}}C'est l'heure d'aller au lit!"
    }
  },
  {
    "label": "talk04",
    "attribute": "0xFE010000",
    "locale": {
      "CNzh": "{{fun_0003_0001 arg=\"0x0900\"}}不早点回去就要被骂了。",
      "EUde": "{{fun_0003_0001 arg=\"0x0900\"}}Wenn ich abends zu spät nach Hause\nkomme, gibt's Ärger!",
      "EUen": "{{fun_0003_0001 arg=\"0x0900\"}}I'll be in trouble if I don't get home soon.",
      "EUes": "{{fun_0003_0001 arg=\"0x0900\"}}Si no estoy en casa a mi hora,\nme regañan.",
      "EUfr": "{{fun_0003_0001 arg=\"0x0900\"}}Si je rentre pas avant que la nuit tombe,\nje me fais disputer !",
      "EUit": "{{fun_0003_0001 arg=\"0x0900\"}}Se non sono a casa quando è ora\ndi andare a dormire, mi sgridano.",
      "EUnl": "{{fun_0003_0001 arg=\"0x0900\"}}Als ik 's avonds niet op tijd thuis ben,\nvindt mama dat niet leuk!",
      "EUru": "{{fun_0003_0001 arg=\"0x0900\"}}Нельзя гулять так поздно.",
      "JPja": "{{fun_0003_0001 arg=\"0x0900\"}}{{ruby charSpan=\"1\" value=\"はや\"}}早く{{ruby charSpan=\"1\" value=\"かえ\"}}帰らないと {{ruby charSpan=\"1\" value=\"おこ\"}}怒られるし",
      "KRko": "{{fun_0003_0001 arg=\"0x0900\"}}늦게 들어가면 혼나",
      "TWzh": "{{fun_0003_0001 arg=\"0x0900\"}}不早點回去就要被罵了。",
      "USen": "{{fun_0003_0001 arg=\"0x0900\"}}I'll be in trouble if I don't get home soon.",
      "USes": "{{fun_0003_0001 arg=\"0x0900\"}}Tengo que irme a casa YA o me\nvan a regañar.",
      "USfr": "{{fun_0003_0001 arg=\"0x0900\"}}Si je rentre pas avant que la nuit tombe,\nje me fais disputer!"
    }
  },
  {
    "label": "talk05",
    "attribute": "0x28020000",
    "locale": {
      "CNzh": "{{fun_0003_0001 arg=\"0x0000\"}}拜拜！",
      "EUde": "{{fun_0003_0001 arg=\"0x0000\"}}Tschüss!",
      "EUen": "{{fun_0003_0001 arg=\"0x0000\"}}Bye-bye!",
      "EUes": "{{fun_0003_0001 arg=\"0x0000\"}}¡Adióoos!",
      "EUfr": "{{fun_0003_0001 arg=\"0x0000\"}}Ciao !",
      "EUit": "{{fun_0003_0001 arg=\"0x0000\"}}Ciao ciao!",
      "EUnl": "{{fun_0003_0001 arg=\"0x0000\"}}Tot ziens!",
      "EUru": "{{fun_0003_0001 arg=\"0x0000\"}}Пока-пока!",
      "JPja": "{{fun_0003_0001 arg=\"0x0000\"}}バイバイッ！",
      "KRko": "{{fun_0003_0001 arg=\"0x0000\"}}잘 가!",
      "TWzh": "{{fun_0003_0001 arg=\"0x0000\"}}拜拜！",
      "USen": "{{fun_0003_0001 arg=\"0x0000\"}}Bye-bye!",
      "USes": "{{fun_0003_0001 arg=\"0x0000\"}}¡Adióóós!",
      "USfr": "{{fun_0003_0001 arg=\"0x0000\"}}Au revoir!"
    }
  },
  {
    "label": "talk06",
    "attribute": "0x52020000",
    "locale": {
      "CNzh": "{{fun_0003_0001 arg=\"0x0000\"}}我问你！{{delay3}}旅行者！\n\n你会跳樱达舞了吗？{{fun_0001_0008 arg=\"0xFFFF00000400000005000000060000000003\"}}",
      "EUde": "{{fun_0003_0001 arg=\"0x0000\"}}Du! {{delay3}}Hör mal!{{pageBreak}}Kannst du den Jolanda-Tanz?{{fun_0001_0008 arg=\"0xFFFF00000400000005000000060000000003\"}}",
      "EUen": "{{fun_0003_0001 arg=\"0x0000\"}}Hey, hey! {{delay3}}Traveler!\n\n\nHave you learned the Bolson dance?{{fun_0001_0008 arg=\"0xFFFF00000400000005000000060000000003\"}}",
      "EUes": "{{fun_0003_0001 arg=\"0x0000\"}}¡Eh, viajero!{{pageBreak}}¿Conoces el baile de Karud?{{fun_0001_0008 arg=\"0xFFFF00000400000005000000060000000003\"}}",
      "EUfr": "{{fun_0003_0001 arg=\"0x0000\"}}Hé, hé, hé ! {{delay3}}Toi, le visiteur !\n\n\nTu connais la danse de Sérasieh ?{{fun_0001_0008 arg=\"0xFFFF00000400000005000000060000000003\"}}",
      "EUit": "{{fun_0003_0001 arg=\"0x0000\"}}Ehi ehi! {{delay3}}Viandante!\n\n\nHai imparato il ballo di Cerada?{{fun_0001_0008 arg=\"0xFFFF00000400000005000000060000000003\"}}",
      "EUnl": "{{fun_0003_0001 arg=\"0x0000\"}}Hallo! {{delay3}}Reiziger! Heb je het dansje van\nBolson geleerd?{{fun_0001_0008 arg=\"0xFFFF00000400000005000000060000000003\"}}",
      "EUru": "{{fun_0003_0001 arg=\"0x0000\"}}Дядя, ты умеешь танцевать\nтанец Стройды?{{fun_0001_0008 arg=\"0xFFFF00000400000005000000060000000003\"}}",
      "JPja": "{{fun_0003_0001 arg=\"0x0000\"}}ねぇねぇ！ {{delay3}}{{ruby charSpan=\"2\" value=\"たびびと\"}}旅人！\n\nサクラダダンス {{ruby charSpan=\"1\" value=\"おぼ\"}}覚えた？{{fun_0001_0008 arg=\"0xFFFF00000400000005000000060000000003\"}}",
      "KRko": "{{fun_0003_0001 arg=\"0x0000\"}}있잖아! {{delay3}}여행자 오빠!\n\n볼슨 댄스 다 외웠어?{{fun_0001_0008 arg=\"0xFFFF00000400000005000000060000000003\"}}",
      "TWzh": "{{fun_0003_0001 arg=\"0x0000\"}}我問你喔！{{delay3}}旅行者！\n\n你學會跳櫻達舞了嗎？{{fun_0001_0008 arg=\"0xFFFF00000400000005000000060000000003\"}}",
      "USen": "{{fun_0003_0001 arg=\"0x0000\"}}Hey, hey! {{delay3}}Traveler!\n\n\nHave you learned the Bolson dance?{{fun_0001_0008 arg=\"0xFFFF00000400000005000000060000000003\"}}",
      "USes": "{{fun_0003_0001 arg=\"0x0000\"}}¡Eh, viajero!{{pageBreak}}¿Conoces el baile de Karud?{{fun_0001_0008 arg=\"0xFFFF00000400000005000000060000000003\"}}",
      "USfr": "{{fun_0003_0001 arg=\"0x0000\"}}Hé, hé, hé! {{delay3}}Toi, le visiteur!\n\n\nTu connais la danse de Sérasieh?{{fun_0001_0008 arg=\"0xFFFF00000400000005000000060000000003\"}}"
    }
  },
  {
    "label": "talk07",
    "attribute": "0x7C020000",
    "locale": {
      "CNzh": "{{fun_0003_0001 arg=\"0x0000\"}}啊！{{delay3}}旅行者！{{fun_0001_0004 arg=\"0x000003000001\"}}",
      "EUde": "{{fun_0003_0001 arg=\"0x0000\"}}Du! {{delay1}}Hör mal!{{fun_0001_0004 arg=\"0x000003000001\"}}",
      "EUen": "{{fun_0003_0001 arg=\"0x0000\"}}Hey, hey, hey!{{fun_0001_0004 arg=\"0x000003000001\"}}",
      "EUes": "{{fun_0003_0001 arg=\"0x0000\"}}¡Ah!{{delay3}} ¡Viajero!{{fun_0001_0004 arg=\"0x000003000001\"}}",
      "EUfr": "{{fun_0003_0001 arg=\"0x0000\"}}Hé, hé !{{delay3}} Toi, le visiteur !{{fun_0001_0004 arg=\"0x000003000001\"}}",
      "EUit": "{{fun_0003_0001 arg=\"0x0000\"}}Ehi, ehi! {{delay3}}Viandante!{{fun_0001_0004 arg=\"0x000003000001\"}}",
      "EUnl": "{{fun_0003_0001 arg=\"0x0000\"}}Ah! {{delay3}}Reiziger!{{fun_0001_0004 arg=\"0x000003000001\"}}",
      "EUru": "{{fun_0003_0001 arg=\"0x0000\"}}Ой, дядя, слушай!{{fun_0001_0004 arg=\"0x000003000001\"}}",
      "JPja": "{{fun_0003_0001 arg=\"0x0000\"}}あっ！ {{delay3}}{{ruby charSpan=\"2\" value=\"たびびと\"}}旅人！{{fun_0001_0004 arg=\"0x000003000001\"}}",
      "KRko": "{{fun_0003_0001 arg=\"0x0000\"}}앗! {{delay3}}여행자 오빠~{{fun_0001_0004 arg=\"0x000003000001\"}}",
      "TWzh": "{{fun_0003_0001 arg=\"0x0000\"}}啊！{{delay3}}旅行者！{{fun_0001_0004 arg=\"0x000003000001\"}}",
      "USen": "{{fun_0003_0001 arg=\"0x0000\"}}Hey, hey, hey!{{fun_0001_0004 arg=\"0x000003000001\"}}",
      "USes": "{{fun_0003_0001 arg=\"0x0000\"}}¡Oye, tú! ¡Mírame!{{fun_0001_0004 arg=\"0x000003000001\"}}",
      "USfr": "{{fun_0003_0001 arg=\"0x0000\"}}Hé, hé!{{delay3}} Toi, le visiteur!{{fun_0001_0004 arg=\"0x000003000001\"}}"
    }
  },
  {
    "label": "talk08",
    "attribute": "0xA6020000",
    "locale": {
      "CNzh": "{{fun_0003_0001 arg=\"0x070A\"}}你不知道樱达舞吗？{{delay3}}\n旅行者好逊～！",
      "EUde": "{{fun_0003_0001 arg=\"0x070A\"}}Du kannst den Jolanda-Tanz nicht?{{delay3}}\nWie schlecht!",
      "EUen": "{{fun_0003_0001 arg=\"0x070A\"}}Kya ha ha! {{delay1}}LAME!\n\n\n{{fun_0003_0001 arg=\"0x0000\"}}I'll do it again. Watch carefully this time!",
      "EUes": "{{fun_0003_0001 arg=\"0x070A\"}}¿No te sabes el baile de Karud?{{delay3}}\n¡No estás en la onda!",
      "EUfr": "{{fun_0003_0001 arg=\"0x070A\"}}Hahaha ! Tu connais pas ? {{delay1}}\nLa hooonte !",
      "EUit": "{{fun_0003_0001 arg=\"0x070A\"}}Non conosci il ballo di Cerada?{{delay3}}\nChe roba, questi viandanti!",
      "EUnl": "{{fun_0003_0001 arg=\"0x070A\"}}Je kent het dansje van Bolson niet?\n{{delay3}}Reizigers zijn niet cool!",
      "EUru": "{{fun_0003_0001 arg=\"0x070A\"}}Это же танец Стройды!",
      "JPja": "{{fun_0003_0001 arg=\"0x070A\"}}サクラダダンス {{ruby charSpan=\"1\" value=\"し\"}}知らないの？{{delay3}}\n{{ruby charSpan=\"2\" value=\"たびびと\"}}旅人 ダサ～！",
      "KRko": "{{fun_0003_0001 arg=\"0x070A\"}}볼슨 댄스 몰라?{{delay3}}\n여행자 별로네~!",
      "TWzh": "{{fun_0003_0001 arg=\"0x070A\"}}你不知道櫻達舞嗎？{{delay3}}\n旅行者好遜～！",
      "USen": "{{fun_0003_0001 arg=\"0x070A\"}}Kya ha ha! {{delay1}}LAME!\n\n\n{{fun_0003_0001 arg=\"0x0000\"}}I'll do it again. Watch carefully this time!",
      "USes": "{{fun_0003_0001 arg=\"0x070A\"}}¿No te sabes el baile de Karud?{{delay3}}\n¡No estás en la onda!",
      "USfr": "{{fun_0003_0001 arg=\"0x070A\"}}Hahaha! Tu connais pas? {{delay1}}\nTroooop plate!"
    }
  },
  {
    "label": "talk09",
    "attribute": "0xD0020000",
    "locale": {
      "CNzh": "{{fun_0003_0001 arg=\"0x0009\"}}就是嘛～{{delay1}}这是理所当然的～",
      "EUde": "{{fun_0003_0001 arg=\"0x0009\"}}Ja, dachte ich mir. {{delay1}}Den kann ja jeder.",
      "EUen": "{{fun_0003_0001 arg=\"0x0009\"}}Of course you do. {{delay1}}That means you have\ngood taste.",
      "EUes": "{{fun_0003_0001 arg=\"0x0009\"}}Desde luego.{{delay1}} Está bien clarito.",
      "EUfr": "{{fun_0003_0001 arg=\"0x0009\"}}J'en étais sûre. {{delay1}}Tout le monde connaît.",
      "EUit": "{{fun_0003_0001 arg=\"0x0009\"}}Lo sapevo. {{delay1}}Per forza lo sai!",
      "EUnl": "{{fun_0003_0001 arg=\"0x0009\"}}Ja, dat dacht ik al.{{delay1}} Dat weet toch\niedereen.",
      "EUru": "{{fun_0003_0001 arg=\"0x0009\"}}Так и думала!{{delay1}} Все умеют.",
      "JPja": "{{fun_0003_0001 arg=\"0x0009\"}}だよね～ {{delay1}}{{ruby charSpan=\"1\" value=\"あ\"}}当たり{{ruby charSpan=\"1\" value=\"まえ\"}}前だよね～",
      "KRko": "{{fun_0003_0001 arg=\"0x0009\"}}그치~ {{delay1}}당연하지~",
      "TWzh": "{{fun_0003_0001 arg=\"0x0009\"}}就是嘛～{{delay1}}這是理所當然的～",
      "USen": "{{fun_0003_0001 arg=\"0x0009\"}}Of course you do. {{delay1}}That means you have\ngood taste.",
      "USes": "{{fun_0003_0001 arg=\"0x0009\"}}¡Claro!{{delay1}} A ti y a todo el mundo.",
      "USfr": "{{fun_0003_0001 arg=\"0x0009\"}}J'en étais sûre. {{delay1}}Tout le monde connaît."
    }
  },
  {
    "label": "talk10",
    "attribute": "0xFA020000",
    "locale": {
      "CNzh": "{{fun_0004_0001 arg=\"0x27CD\"}}{{size value=\"125\"}}神清气爽！{{size value=\"100\"}}",
      "EUde": "{{fun_0004_0001 arg=\"0x27CD\"}}{{size value=\"125\"}}Scha-tsching!{{size value=\"100\"}}",
      "EUen": "{{fun_0004_0001 arg=\"0x27CD\"}}♪{{size value=\"125\"}}SHAKEEEEEEN!{{size value=\"100\"}}♪",
      "EUes": "{{fun_0004_0001 arg=\"0x27CD\"}}{{size value=\"125\"}}¡Ajajá!{{size value=\"100\"}}",
      "EUfr": "{{fun_0004_0001 arg=\"0x27CD\"}}{{size value=\"125\"}}Cha-quiiiiine !{{size value=\"100\"}}",
      "EUit": "{{fun_0004_0001 arg=\"0x27CD\"}}{{size value=\"125\"}}TA-DAAAN!{{size value=\"100\"}}",
      "EUnl": "{{fun_0004_0001 arg=\"0x27CD\"}}{{size value=\"125\"}}Schuddeeeeeeen!{{size value=\"100\"}}",
      "EUru": "{{size value=\"125\"}}{{fun_0004_0001 arg=\"0x27CD\"}}Хоп!{{size value=\"100\"}}",
      "JPja": "{{fun_0004_0001 arg=\"0x27CD\"}}{{size value=\"125\"}}シャキーン！{{size value=\"100\"}}",
      "KRko": "{{fun_0004_0001 arg=\"0x27CD\"}}{{size value=\"125\"}}짜란~!{{size value=\"100\"}}",
      "TWzh": "{{fun_0004_0001 arg=\"0x27CD\"}}{{size value=\"125\"}}神清氣爽！{{size value=\"100\"}}",
      "USen": "{{fun_0004_0001 arg=\"0x27CD\"}}♪{{size value=\"125\"}}SHAKEEEEEEN!{{size value=\"100\"}}♪",
      "USes": "{{fun_0004_0001 arg=\"0x27CD\"}}{{size value=\"125\"}}¡CHAKÍÍÍN!{{size value=\"100\"}}",
      "USfr": "{{fun_0004_0001 arg=\"0x27CD\"}}{{size value=\"125\"}}Cha-quiiiiine!{{size value=\"100\"}}"
    }
  },
  {
    "label": "talk11",
    "attribute": "0x24030000",
    "locale": {
      "CNzh": "{{fun_0004_0001 arg=\"0x27CD\"}}{{size value=\"125\"}}神清气爽！{{size value=\"100\"}}{{fun_0001_0005 arg=\"0x0100020003000002\"}}",
      "EUde": "{{fun_0004_0001 arg=\"0x27CD\"}}{{size value=\"125\"}}Scha-tsching!{{size value=\"100\"}}{{fun_0001_0005 arg=\"0x0100020003000002\"}}",
      "EUen": "{{fun_0004_0001 arg=\"0x27CD\"}}♪{{size value=\"125\"}}SHAKEEEEEEN!{{size value=\"100\"}}♪{{fun_0001_0005 arg=\"0x0100020003000002\"}}",
      "EUes": "{{fun_0004_0001 arg=\"0x27CD\"}}{{size value=\"125\"}}¡Ajajá!{{size value=\"100\"}}{{fun_0001_0005 arg=\"0x0100020003000002\"}}",
      "EUfr": "{{fun_0004_0001 arg=\"0x27CD\"}}{{size value=\"125\"}}Cha-quiiiine !{{size value=\"100\"}}{{fun_0001_0005 arg=\"0x0100020003000002\"}}",
      "EUit": "{{fun_0004_0001 arg=\"0x27CD\"}}{{size value=\"125\"}}TA-DAAAN!{{size value=\"100\"}}{{fun_0001_0005 arg=\"0x0100020003000002\"}}",
      "EUnl": "{{fun_0004_0001 arg=\"0x27CD\"}}{{size value=\"125\"}}Schuddeeeeeeen!{{size value=\"100\"}}{{fun_0001_0005 arg=\"0x0100020003000002\"}}",
      "EUru": "{{fun_0004_0001 arg=\"0x27CD\"}}{{size value=\"125\"}}Хоп!{{size value=\"100\"}}{{fun_0001_0005 arg=\"0x0100020003000002\"}}",
      "JPja": "{{fun_0004_0001 arg=\"0x27CD\"}}{{size value=\"125\"}}シャキーン！{{size value=\"100\"}}{{fun_0001_0005 arg=\"0x0100020003000002\"}}",
      "KRko": "{{fun_0004_0001 arg=\"0x27CD\"}}{{size value=\"125\"}}짜란~!{{size value=\"100\"}}{{fun_0001_0005 arg=\"0x0100020003000002\"}}",
      "TWzh": "{{fun_0004_0001 arg=\"0x27CD\"}}{{size value=\"125\"}}神清氣爽！{{size value=\"100\"}}{{fun_0001_0005 arg=\"0x0100020003000002\"}}",
      "USen": "{{fun_0004_0001 arg=\"0x27CD\"}}♪{{size value=\"125\"}}SHAKEEEEEEN!{{size value=\"100\"}}♪{{fun_0001_0005 arg=\"0x0100020003000002\"}}",
      "USes": "{{fun_0004_0001 arg=\"0x27CD\"}}{{size value=\"125\"}}¡CHAKÍÍÍN!{{size value=\"100\"}}{{fun_0001_0005 arg=\"0x0100020003000002\"}}",
      "USfr": "{{fun_0004_0001 arg=\"0x27CD\"}}{{size value=\"125\"}}Cha-quiiiine!{{size value=\"100\"}}{{fun_0001_0005 arg=\"0x0100020003000002\"}}"
    }
  },
  {
    "label": "talk12",
    "attribute": "0x4E030000",
    "locale": {
      "CNzh": "{{fun_0003_0001 arg=\"0x0101\"}}看！{{delay1}}很简单对吧？",
      "EUde": "{{fun_0003_0001 arg=\"0x0101\"}}Und? {{delay1}}Einfach, oder?",
      "EUen": "{{fun_0003_0001 arg=\"0x0101\"}}Easy as pie, right?",
      "EUes": "{{fun_0003_0001 arg=\"0x0101\"}}¿Ves?{{delay1}} Está chupado.",
      "EUfr": "{{fun_0003_0001 arg=\"0x0101\"}}T'as vu ? {{delay1}}C'est trop fastoche, pas vrai ?",
      "EUit": "{{fun_0003_0001 arg=\"0x0101\"}}Capito? {{delay1}}È facilissimo, no?",
      "EUnl": "{{fun_0003_0001 arg=\"0x0101\"}}En? {{delay1}}Ontzettend makkelijk, toch?",
      "EUru": "{{fun_0003_0001 arg=\"0x0101\"}}Ну?{{delay1}} Просто ведь!",
      "JPja": "{{fun_0003_0001 arg=\"0x0101\"}}ね！ {{delay1}}カンタンでしょ？",
      "KRko": "{{fun_0003_0001 arg=\"0x0101\"}}어때? {{delay1}}쉽지?",
      "TWzh": "{{fun_0003_0001 arg=\"0x0101\"}}看！{{delay1}}很簡單對吧？",
      "USen": "{{fun_0003_0001 arg=\"0x0101\"}}Easy as pie, right?",
      "USes": "{{fun_0003_0001 arg=\"0x0101\"}}¿Ves?{{delay1}} Es pan comido.",
      "USfr": "{{fun_0003_0001 arg=\"0x0101\"}}T'as vu? {{delay1}}C'est trop facile, pas vrai?"
    }
  },
  {
    "label": "talk13",
    "attribute": "0x78030000",
    "locale": {
      "CNzh": "{{fun_0003_0001 arg=\"0x030C\"}}你还没学会{{delay1}}樱达舞吗？{{delay1}}\n好逊～！",
      "EUde": "{{fun_0003_0001 arg=\"0x030C\"}}Du kannst den Jolanda-Tanz immer\nnoch nicht?{{delay3}} Wie schlecht!",
      "EUen": "{{fun_0003_0001 arg=\"0x030C\"}}You still don't know the Bolson dance?\n{{delay3}}How uncool!",
      "EUes": "{{fun_0003_0001 arg=\"0x030C\"}}¿Todavía no has aprendido{{delay1}} el baile\nde Karud?{{delay3}} Qué falta de estilo...",
      "EUfr": "{{fun_0003_0001 arg=\"0x030C\"}}Tu connais toujours pas la danse\nde Sérasieh ?{{delay3}} Trop la honte !",
      "EUit": "{{fun_0003_0001 arg=\"0x030C\"}}Ancora non hai imparato{{delay1}} il ballo\ndi Cerada?{{delay3}} Non sai che ti perdi!",
      "EUnl": "{{fun_0003_0001 arg=\"0x030C\"}}Je kent het dansje van Bolson nog steeds\nniet?{{delay3}} Dat is niet cool!",
      "EUru": "{{fun_0003_0001 arg=\"0x030C\"}}Не умеешь, значит...",
      "JPja": "{{fun_0003_0001 arg=\"0x030C\"}}サクラダダンス {{delay1}}まだ{{ruby charSpan=\"1\" value=\"おぼ\"}}覚えてないの？{{delay3}}\nダサ～！",
      "KRko": "{{fun_0003_0001 arg=\"0x030C\"}}볼슨 댄스 {{delay1}}아직 못 외웠어?{{delay3}}\n구려~!",
      "TWzh": "{{fun_0003_0001 arg=\"0x030C\"}}你還沒學會{{delay1}}櫻達舞嗎？{{delay1}}\n好遜～！",
      "USen": "{{fun_0003_0001 arg=\"0x030C\"}}You still don't know the Bolson dance?\n{{delay3}}How uncool!",
      "USes": "{{fun_0003_0001 arg=\"0x030C\"}}¿Todavía no te aprendes{{delay1}} el baile\nde Karud?{{delay3}} Qué falta de estilo...",
      "USfr": "{{fun_0003_0001 arg=\"0x030C\"}}Hahaha! Tu connais toujours pas\nla danse de Sérasieh?{{delay3}}\nT'es pas très bien informé!"
    }
  },
  {
    "label": "talk14",
    "attribute": "0xA2030000",
    "locale": {
      "CNzh": "{{fun_0003_0001 arg=\"0x0000\"}}你知道这是什么吗？",
      "EUde": "{{fun_0003_0001 arg=\"0x0000\"}}Kannst du das hier?",
      "EUen": "{{fun_0003_0001 arg=\"0x0000\"}}Have you seen this one?",
      "EUes": "{{fun_0003_0001 arg=\"0x0000\"}}¿Conoces esto?",
      "EUfr": "{{fun_0003_0001 arg=\"0x0000\"}}Hé, tu connais ça ?",
      "EUit": "{{fun_0003_0001 arg=\"0x0000\"}}Lo sai che cos'è questo?",
      "EUnl": "{{fun_0003_0001 arg=\"0x0000\"}}Weet je wat dit is?",
      "EUru": "{{fun_0003_0001 arg=\"0x0000\"}}А ты так умеешь?",
      "JPja": "{{fun_0003_0001 arg=\"0x0000\"}}コレ {{ruby charSpan=\"1\" value=\"し\"}}知ってる？",
      "KRko": "{{fun_0003_0001 arg=\"0x0000\"}}이거 알아?",
      "TWzh": "{{fun_0003_0001 arg=\"0x0000\"}}你知道這是什麼嗎？",
      "USen": "{{fun_0003_0001 arg=\"0x0000\"}}Have you seen this one?",
      "USes": "{{fun_0003_0001 arg=\"0x0000\"}}¿Tú sabes hacer esto?",
      "USfr": "{{fun_0003_0001 arg=\"0x0000\"}}Hé, tu connais ça?"
    }
  },
  {
    "label": "talk15",
    "attribute": "0xCC030000",
    "locale": {
      "CNzh": "{{size value=\"80\"}}{{fun_0003_0001 arg=\"0x0021\"}}妈妈……{{size value=\"100\"}}",
      "EUde": "{{size value=\"80\"}}{{fun_0003_0001 arg=\"0x0021\"}}Mama...{{size value=\"100\"}}",
      "EUen": "{{size value=\"80\"}}{{fun_0003_0001 arg=\"0x0021\"}}Mama...{{size value=\"100\"}}",
      "EUes": "{{fun_0003_0001 arg=\"0x0021\"}}{{size value=\"80\"}}Mamaíta...{{size value=\"100\"}}",
      "EUfr": "{{size value=\"80\"}}{{fun_0003_0001 arg=\"0x0021\"}}Maman...{{size value=\"100\"}}",
      "EUit": "{{size value=\"80\"}}{{fun_0003_0001 arg=\"0x0021\"}}Mamma...{{size value=\"100\"}}",
      "EUnl": "{{size value=\"80\"}}{{fun_0003_0001 arg=\"0x0021\"}}Mama...{{size value=\"100\"}}",
      "EUru": "{{size value=\"80\"}}{{fun_0003_0001 arg=\"0x0021\"}}Мама...{{size value=\"100\"}}",
      "JPja": "{{size value=\"80\"}}{{fun_0003_0001 arg=\"0x0021\"}}ママ…{{size value=\"100\"}}",
      "KRko": "{{size value=\"80\"}}{{fun_0003_0001 arg=\"0x0021\"}}엄마…{{size value=\"100\"}}",
      "TWzh": "{{size value=\"80\"}}{{fun_0003_0001 arg=\"0x0021\"}}媽媽……{{size value=\"100\"}}",
      "USen": "{{size value=\"80\"}}{{fun_0003_0001 arg=\"0x0021\"}}Mama...{{size value=\"100\"}}",
      "USes": "{{size value=\"80\"}}{{fun_0003_0001 arg=\"0x0021\"}}Mamaíta...{{size value=\"100\"}}",
      "USfr": "{{size value=\"80\"}}{{fun_0003_0001 arg=\"0x0021\"}}Maman...{{size value=\"100\"}}"
    }
  },
  {
    "label": "talk16",
    "attribute": "0xF6030000",
    "locale": {
      "CNzh": "{{size value=\"80\"}}{{fun_0003_0001 arg=\"0x0021\"}}嗯……{{size value=\"100\"}}",
      "EUde": "{{size value=\"80\"}}{{fun_0003_0001 arg=\"0x0021\"}}Hm...{{size value=\"100\"}}",
      "EUen": "{{size value=\"80\"}}{{fun_0003_0001 arg=\"0x0021\"}}Mmm...{{size value=\"100\"}}",
      "EUes": "{{fun_0003_0001 arg=\"0x0021\"}}{{size value=\"80\"}}Mmm...{{size value=\"100\"}}",
      "EUfr": "{{size value=\"80\"}}{{fun_0003_0001 arg=\"0x0021\"}}Mmm...{{size value=\"100\"}}",
      "EUit": "{{size value=\"80\"}}{{fun_0003_0001 arg=\"0x0021\"}}Mmmh...{{size value=\"100\"}}",
      "EUnl": "{{size value=\"80\"}}{{fun_0003_0001 arg=\"0x0021\"}}Hm...{{size value=\"100\"}}",
      "EUru": "{{size value=\"80\"}}{{fun_0003_0001 arg=\"0x0021\"}}М-м-н-н...{{size value=\"100\"}}",
      "JPja": "{{size value=\"80\"}}{{fun_0003_0001 arg=\"0x0021\"}}ん～…{{size value=\"100\"}}",
      "KRko": "{{size value=\"80\"}}{{fun_0003_0001 arg=\"0x0021\"}}으음…{{size value=\"100\"}}",
      "TWzh": "{{size value=\"80\"}}{{fun_0003_0001 arg=\"0x0021\"}}嗯……{{size value=\"100\"}}",
      "USen": "{{size value=\"80\"}}{{fun_0003_0001 arg=\"0x0021\"}}Mmm...{{size value=\"100\"}}",
      "USes": "{{size value=\"80\"}}{{fun_0003_0001 arg=\"0x0021\"}}Mmm...{{size value=\"100\"}}",
      "USfr": "{{size value=\"80\"}}{{fun_0003_0001 arg=\"0x0021\"}}Mmm...{{size value=\"100\"}}"
    }
  },
  {
    "label": "talk17",
    "attribute": "0x20040000",
    "locale": {
      "CNzh": "{{fun_0004_0001 arg=\"0x25CD\"}}樱达♪{{delay1}}达达达，樱达♪",
      "EUde": "{{fun_0004_0001 arg=\"0x25CD\"}}Jolanda! ♪ {{delay1}}DA-DA-DA... Jolandaaa! ♪",
      "EUen": "{{fun_0004_0001 arg=\"0x25CD\"}}♪Ba ba ba, Bolson...♪",
      "EUes": "{{fun_0004_0001 arg=\"0x25CD\"}}Ka... ka... ka... rud... rud... rud...\n¡KARUD! ♪",
      "EUfr": "{{fun_0004_0001 arg=\"0x25CD\"}}Sérasieh, DA DA DA,{{delay1}} Sérasieh ! ♪",
      "EUit": "{{fun_0004_0001 arg=\"0x25CD\"}}Cerada! ♪{{delay1}} Da da da, Cerada! ♪",
      "EUnl": "{{fun_0004_0001 arg=\"0x25CD\"}}Bolson!♪ {{delay1}}Son-son-son, Bolson!♪",
      "EUru": "{{fun_0004_0001 arg=\"0x25CD\"}}Строй-да! Строй-да!{{delay1}} Да-да-да!{{delay1}}\nСтрой-да! Строй-да!♪",
      "JPja": "{{fun_0004_0001 arg=\"0x25CD\"}}さくらだっ♪ {{delay1}}だだだ さくらだっ♪",
      "KRko": "{{fun_0004_0001 arg=\"0x25CD\"}}볼슨♪ {{delay1}}DADADAN 볼슨♪",
      "TWzh": "{{fun_0004_0001 arg=\"0x25CD\"}}櫻達♪{{delay1}}達達達，櫻達♪",
      "USen": "{{fun_0004_0001 arg=\"0x25CD\"}}♪Ba ba ba, Bolson...♪",
      "USes": "{{fun_0004_0001 arg=\"0x25CD\"}}Ka Ka Karuuud ♪",
      "USfr": "{{fun_0004_0001 arg=\"0x25CD\"}}Sérasieh, DA DA DA,{{delay1}} Sérasieh! ♪"
    }
  },
  {
    "label": "talk18",
    "attribute": "0x4A040000",
    "locale": {
      "CNzh": "{{fun_0004_0001 arg=\"0x26CD\"}}{{size value=\"80\"}}呼{{size value=\"100\"}}哇{{size value=\"80\"}}呼{{size value=\"100\"}}哇。",
      "EUde": "{{fun_0004_0001 arg=\"0x26CD\"}}{{size value=\"80\"}}Uh-{{size value=\"100\"}}Ah!{{size value=\"125\"}} {{size value=\"100\"}}{{size value=\"80\"}}Uh-{{size value=\"100\"}}Ah!",
      "EUen": "{{fun_0004_0001 arg=\"0x26CD\"}}♪{{size value=\"80\"}}Fu-{{size value=\"100\"}}WA{{size value=\"80\"}}! Fu-{{size value=\"100\"}}WA{{size value=\"80\"}}!{{size value=\"100\"}}♪",
      "EUes": "{{fun_0004_0001 arg=\"0x26CD\"}}¡Ka... ka... ka... RUD!",
      "EUfr": "{{fun_0004_0001 arg=\"0x26CD\"}}{{size value=\"80\"}}Ouh{{size value=\"100\"}} ah, {{size value=\"80\"}}ouh{{size value=\"100\"}} ah !",
      "EUit": "{{fun_0004_0001 arg=\"0x26CD\"}}Ciuà ciuà...",
      "EUnl": "{{fun_0004_0001 arg=\"0x26CD\"}}{{size value=\"80\"}}Uh-{{size value=\"100\"}}Ah!{{size value=\"125\"}} {{size value=\"100\"}}{{size value=\"80\"}}Uh-{{size value=\"100\"}}Ah!",
      "EUru": "{{fun_0004_0001 arg=\"0x26CD\"}}Хва-хва!",
      "JPja": "{{fun_0004_0001 arg=\"0x26CD\"}}{{size value=\"80\"}}ふ{{size value=\"100\"}}わ{{size value=\"125\"}} {{size value=\"100\"}}{{size value=\"80\"}}ふ{{size value=\"100\"}}わ",
      "KRko": "{{fun_0004_0001 arg=\"0x26CD\"}}{{size value=\"80\"}}우{{size value=\"100\"}}하{{size value=\"125\"}} {{size value=\"100\"}}{{size value=\"80\"}}우{{size value=\"100\"}}하",
      "TWzh": "{{fun_0004_0001 arg=\"0x26CD\"}}{{size value=\"80\"}}呼{{size value=\"100\"}}哇{{size value=\"80\"}}呼{{size value=\"100\"}}哇。",
      "USen": "{{fun_0004_0001 arg=\"0x26CD\"}}♪{{size value=\"80\"}}Fu-{{size value=\"100\"}}WA{{size value=\"80\"}}! Fu-{{size value=\"100\"}}WA{{size value=\"80\"}}!{{size value=\"100\"}}♪",
      "USes": "{{fun_0004_0001 arg=\"0x26CD\"}}{{size value=\"80\"}}Fu {{size value=\"100\"}}{{size value=\"125\"}}¡Ah!{{size value=\"100\"}} {{size value=\"80\"}}Fu{{size value=\"100\"}} {{size value=\"125\"}}¡Ah!{{size value=\"100\"}} ♪",
      "USfr": "{{fun_0004_0001 arg=\"0x26CD\"}}{{size value=\"80\"}}Ouh{{size value=\"100\"}} ah, {{size value=\"80\"}}ouh{{size value=\"100\"}} ah!"
    }
  },
  {
    "label": "talk19",
    "attribute": "0x74040000",
    "locale": {
      "CNzh": "{{fun_0003_0001 arg=\"0x0000\"}}嗯？{{fun_0001_0008 arg=\"0xFFFF00000400000005000000060000000003\"}}",
      "EUde": "{{fun_0003_0001 arg=\"0x0000\"}}Hm? Kannst du den Jolanda-Tanz?{{fun_0001_0008 arg=\"0xFFFF00000400000005000000060000000003\"}}",
      "EUen": "{{fun_0003_0001 arg=\"0x0000\"}}Hrm?{{fun_0001_0008 arg=\"0xFFFF00000400000005000000060000000003\"}}",
      "EUes": "{{fun_0003_0001 arg=\"0x0000\"}}¿Te sabes el baile de Karud?{{fun_0001_0008 arg=\"0xFFFF00000400000005000000060000000003\"}}",
      "EUfr": "{{fun_0003_0001 arg=\"0x0000\"}}Hé, tu connais la danse de Sérasieh ?{{fun_0001_0008 arg=\"0xFFFF00000400000005000000060000000003\"}}",
      "EUit": "{{fun_0003_0001 arg=\"0x0000\"}}Eh? Hai imparato il ballo di Cerada?{{fun_0001_0008 arg=\"0xFFFF00000400000005000000060000000003\"}}",
      "EUnl": "{{fun_0003_0001 arg=\"0x0000\"}}Hm? Ken je het dansje van Bolson?{{fun_0001_0008 arg=\"0xFFFF00000400000005000000060000000003\"}}",
      "EUru": "{{fun_0003_0001 arg=\"0x0000\"}}Умеешь танцевать танец Стройды?{{fun_0001_0008 arg=\"0xFFFF00000400000005000000060000000003\"}}",
      "JPja": "{{fun_0003_0001 arg=\"0x0000\"}}うん？{{fun_0001_0008 arg=\"0xFFFF00000400000005000000060000000003\"}}",
      "KRko": "{{fun_0003_0001 arg=\"0x0000\"}}응?{{fun_0001_0008 arg=\"0xFFFF00000400000005000000060000000003\"}}",
      "TWzh": "{{fun_0003_0001 arg=\"0x0000\"}}嗯？{{fun_0001_0008 arg=\"0xFFFF00000400000005000000060000000003\"}}",
      "USen": "{{fun_0003_0001 arg=\"0x0000\"}}Hrm?{{fun_0001_0008 arg=\"0xFFFF00000400000005000000060000000003\"}}",
      "USes": "{{fun_0003_0001 arg=\"0x0000\"}}¿Mmm?{{fun_0001_0008 arg=\"0xFFFF00000400000005000000060000000003\"}}",
      "USfr": "{{fun_0003_0001 arg=\"0x0000\"}}Hé, tu connais la danse de Sérasieh?{{fun_0001_0008 arg=\"0xFFFF00000400000005000000060000000003\"}}"
    }
  },
  {
    "label": "talk20",
    "attribute": "0x9E040000",
    "locale": {
      "CNzh": "{{fun_0003_0001 arg=\"0x0000\"}}他是在杂货店的后头{{delay1}}\n不知道在制作什么的木匠。",
      "EUde": "{{fun_0003_0001 arg=\"0x0000\"}}Der Herr Jolanda ist der Handwerker, der\nhinter dem Krämerladen zugange ist.",
      "EUen": "{{fun_0003_0001 arg=\"0x0000\"}}Have you seen that carpenter behind the\ngeneral store?",
      "EUes": "{{fun_0003_0001 arg=\"0x0000\"}}Anda haciendo algo en la parte de atrás\nde la tienda de artículos varios.{{delay1}}\nEs carpintero...{{delay1}} creo.",
      "EUfr": "{{fun_0003_0001 arg=\"0x0000\"}}Le charpentier travaille sur un truc\nderrière l'épicerie ?",
      "EUit": "{{fun_0003_0001 arg=\"0x0000\"}}Sì dai, il carpentiere che sta\n{{delay1}}dietro all'emporio.",
      "EUnl": "{{fun_0003_0001 arg=\"0x0000\"}}De timmerman die iets aan het doen is\nachter de winkel?",
      "EUru": "{{fun_0003_0001 arg=\"0x0000\"}}Стройда — это наш плотник.{{delay1}}\nТы его за магазином видел?",
      "JPja": "{{fun_0003_0001 arg=\"0x0000\"}}よろず{{ruby charSpan=\"1\" value=\"や\"}}屋さんの{{ruby charSpan=\"1\" value=\"うら\"}}裏で{{delay1}}\n{{ruby charSpan=\"1\" value=\"なん\"}}何かやってる {{ruby charSpan=\"2\" value=\"だいく\"}}大工さんだよ？",
      "KRko": "{{fun_0003_0001 arg=\"0x0000\"}}만물상 뒤에서{{delay1}}\n뭔가 만들고 있는 목수 아저씨야",
      "TWzh": "{{fun_0003_0001 arg=\"0x0000\"}}他是在雜貨店後面{{delay1}}\n不知道在製作什麼的木匠喔。",
      "USen": "{{fun_0003_0001 arg=\"0x0000\"}}Have you seen that carpenter behind the\ngeneral store?",
      "USes": "{{fun_0003_0001 arg=\"0x0000\"}}Anda haciendo algo en la parte de atrás\nde la tienda de artículos varios.{{delay1}}\nEs carpintero...{{delay1}} creo.",
      "USfr": "{{fun_0003_0001 arg=\"0x0000\"}}Le charpentier travaille sur un truc\nderrière l'épicerie?"
    }
  },
  {
    "label": "talk21",
    "attribute": "0xC8040000",
    "locale": {
      "CNzh": "{{fun_0003_0001 arg=\"0x0000\"}}那我教你～{{delay3}}\n仔～细看好了！",
      "EUde": "{{fun_0003_0001 arg=\"0x0000\"}}Dann bring ich ihn dir bei.{{delay3}}\nGuck genau hin!",
      "EUen": "{{fun_0003_0001 arg=\"0x0000\"}}All right, I'll teach you, but you gotta pay\nattention, OK?",
      "EUes": "{{fun_0003_0001 arg=\"0x0000\"}}Te lo voy a enseñar.{{delay3}} ¡Presta atención!",
      "EUfr": "{{fun_0003_0001 arg=\"0x0000\"}}Bon, allez, je vais te montrer.{{delay3}} Regarde\nbien, surtout !",
      "EUit": "{{fun_0003_0001 arg=\"0x0000\"}}Ti insegno io!{{delay3}} Guarda bene!",
      "EUnl": "{{fun_0003_0001 arg=\"0x0000\"}}Oké, ik zal het je leren.{{delay3}} Let goed op!",
      "EUru": "{{fun_0003_0001 arg=\"0x0000\"}}Давай я тебя научу.{{delay1}}\nСмотри внимательно!",
      "JPja": "{{fun_0003_0001 arg=\"0x0000\"}}じゃ アタシが{{ruby charSpan=\"1\" value=\"おし\"}}教えたげる～{{delay3}}\nよ～く{{ruby charSpan=\"1\" value=\"み\"}}見ててね！",
      "KRko": "{{fun_0003_0001 arg=\"0x0000\"}}그럼 내가 가르쳐 줄게~{{delay3}}\n잘~ 봐!",
      "TWzh": "{{fun_0003_0001 arg=\"0x0000\"}}那我教你～{{delay3}}\n仔～細看好喔！",
      "USen": "{{fun_0003_0001 arg=\"0x0000\"}}All right, I'll teach you, but you gotta pay\nattention, OK?",
      "USes": "{{fun_0003_0001 arg=\"0x0000\"}}Te lo voy a enseñar.{{delay3}} ¡Fíjate bien!",
      "USfr": "{{fun_0003_0001 arg=\"0x0000\"}}Bon, allez, je vais te montrer.{{delay3}}\nRegarde bien, surtout!"
    }
  },
  {
    "label": "talk22",
    "attribute": "0xF2040000",
    "locale": {
      "CNzh": "{{fun_0003_0001 arg=\"0x0B00\"}}{{size value=\"80\"}}咦……{{delay1}}不是木匠，{{delay1}}是设计师……？{{size value=\"100\"}}",
      "EUde": "{{fun_0003_0001 arg=\"0x0B00\"}}{{size value=\"80\"}}Oder, Moment... {{delay1}}Ist er Designer?{{size value=\"100\"}}",
      "EUen": "{{fun_0003_0001 arg=\"0x0B00\"}}{{size value=\"80\"}}I actually heard...he's not a carpenter {{delay1}}but a\nreally famous designer...{{size value=\"100\"}}",
      "EUes": "{{fun_0003_0001 arg=\"0x0B00\"}}{{size value=\"80\"}}Esto...{{delay1}} no, no era carpintero...{{delay1}} sino diseñador...{{delay1}}\no eso creo.{{size value=\"100\"}}",
      "EUfr": "{{fun_0003_0001 arg=\"0x0B00\"}}{{size value=\"80\"}}Hein ? {{delay1}}Mais il est charpentier {{delay1}}ou architecte ?{{size value=\"100\"}}",
      "EUit": "{{fun_0003_0001 arg=\"0x0B00\"}}{{size value=\"80\"}}Eh? {{delay1}}Non è un carpentiere...{{delay1}} ma un architetto?{{size value=\"100\"}}",
      "EUnl": "{{fun_0003_0001 arg=\"0x0B00\"}}{{size value=\"80\"}}Huh? {{delay1}}Hij is geen timmerman, {{delay1}}maar een ontwerper?{{size value=\"100\"}}",
      "EUru": "{{fun_0003_0001 arg=\"0x0B00\"}}{{size value=\"80\"}}Или он не плотник, а дизайнер?..{{size value=\"100\"}}",
      "JPja": "{{fun_0003_0001 arg=\"0x0B00\"}}{{size value=\"80\"}}あれ… {{delay1}}{{ruby charSpan=\"2\" value=\"だいく\"}}大工さんじゃなくて{{delay1}} デザイナー…？{{size value=\"100\"}}",
      "KRko": "{{fun_0003_0001 arg=\"0x0B00\"}}{{size value=\"80\"}}어… {{delay1}}목수가 아니라{{delay1}} 디자이너…?{{size value=\"100\"}}",
      "TWzh": "{{fun_0003_0001 arg=\"0x0B00\"}}{{size value=\"80\"}}咦……{{delay1}}不是木匠，{{delay1}}是設計師……？{{size value=\"100\"}}",
      "USen": "{{fun_0003_0001 arg=\"0x0B00\"}}{{size value=\"80\"}}I actually heard...he's not a carpenter {{delay1}}but a\nreally famous designer...{{size value=\"100\"}}",
      "USes": "{{fun_0003_0001 arg=\"0x0B00\"}}{{size value=\"80\"}}Este...{{delay1}} no, no era carpintero...{{delay1}} sino diseñador...{{delay1}}\no eso creo.{{size value=\"100\"}}",
      "USfr": "{{fun_0003_0001 arg=\"0x0B00\"}}{{size value=\"80\"}}Hein? {{delay1}}Mais il est charpentier {{delay1}}ou architecte?{{size value=\"100\"}}"
    }
  },
  {
    "label": "talk23",
    "attribute": "0x1C050000",
    "locale": {
      "CNzh": "{{fun_0003_0001 arg=\"0x0B00\"}}{{size value=\"80\"}}咦……{{delay1}}不是木匠，{{delay1}}是工头……？{{size value=\"100\"}}",
      "EUde": "{{fun_0003_0001 arg=\"0x0B00\"}}{{size value=\"80\"}}Oder, Moment... {{delay1}}Ist er Architekt?{{size value=\"100\"}}",
      "EUen": "{{fun_0003_0001 arg=\"0x0B00\"}}{{size value=\"80\"}}I actually heard...he's not a carpenter {{delay1}}but a\nreally famous luminary in his field...\n\nBut I don't know what that means...{{size value=\"100\"}}",
      "EUes": "{{fun_0003_0001 arg=\"0x0B00\"}}{{size value=\"80\"}}Espera...{{delay1}} creo que no era carpintero...{{delay1}}\nsino maestro ebanista...{{delay1}} o algo así.{{size value=\"100\"}}",
      "EUfr": "{{fun_0003_0001 arg=\"0x0B00\"}}{{size value=\"80\"}}Hein ? {{delay1}}Mais il est charpentier {{delay1}}ou contremaître ?{{size value=\"100\"}}",
      "EUit": "{{fun_0003_0001 arg=\"0x0B00\"}}{{size value=\"80\"}}Eh? {{delay1}}Non è un carpentiere...{{delay1}} ma il capo\ncarpentiere?{{size value=\"100\"}}",
      "EUnl": "{{fun_0003_0001 arg=\"0x0B00\"}}{{size value=\"80\"}}Huh? {{delay1}}Hij is geen timmerman, {{delay1}}maar een spiritueel\nleider?{{size value=\"100\"}}",
      "EUru": "{{fun_0003_0001 arg=\"0x0B00\"}}{{size value=\"80\"}}Или он не плотник, а визионер?..{{size value=\"100\"}}",
      "JPja": "{{fun_0003_0001 arg=\"0x0B00\"}}{{size value=\"80\"}}あれ… {{delay1}}{{ruby charSpan=\"2\" value=\"だいく\"}}大工さんじゃなくて{{delay1}} {{ruby charSpan=\"2\" value=\"トーリョー\"}}棟梁…？{{size value=\"100\"}}",
      "KRko": "{{fun_0003_0001 arg=\"0x0B00\"}}{{size value=\"80\"}}어… {{delay1}}목수가 아니라{{delay1}} 우두머리…?{{size value=\"100\"}}",
      "TWzh": "{{fun_0003_0001 arg=\"0x0B00\"}}{{size value=\"80\"}}咦……{{delay1}}不是木匠，{{delay1}}是工頭……？{{size value=\"100\"}}",
      "USen": "{{fun_0003_0001 arg=\"0x0B00\"}}{{size value=\"80\"}}I actually heard...he's not a carpenter {{delay1}}but a\nreally famous luminary in his field...\n\nBut I don't know what that means...{{size value=\"100\"}}",
      "USes": "{{fun_0003_0001 arg=\"0x0B00\"}}{{size value=\"80\"}}Espera...{{delay1}} creo que no era carpintero...{{delay1}}\nsino un líder de la sociedad...{{delay1}} o algo así.{{size value=\"100\"}}",
      "USfr": "{{fun_0003_0001 arg=\"0x0B00\"}}{{size value=\"80\"}}Hein? {{delay1}}Mais il est charpentier {{delay1}}ou contremaître?{{size value=\"100\"}}"
    }
  },
  {
    "label": "talk24",
    "attribute": "0x46050000",
    "locale": {
      "CNzh": "{{fun_0003_0001 arg=\"0x0B00\"}}{{size value=\"80\"}}咦……{{delay1}}不是木匠，{{delay1}}是社长……？{{size value=\"100\"}}",
      "EUde": "{{fun_0003_0001 arg=\"0x0B00\"}}{{size value=\"80\"}}Oder, Moment... {{delay1}}Ist er Chef?{{size value=\"100\"}}",
      "EUen": "{{fun_0003_0001 arg=\"0x0B00\"}}{{size value=\"80\"}}I actually heard...he's not a carpenter {{delay1}}but a\nreally famous president!{{size value=\"100\"}}",
      "EUes": "{{fun_0003_0001 arg=\"0x0B00\"}}{{size value=\"80\"}}O era...{{delay1}} presidente de una empresa en lugar\nde carpintero...{{delay1}} puede ser.{{size value=\"100\"}}",
      "EUfr": "{{fun_0003_0001 arg=\"0x0B00\"}}{{size value=\"80\"}}Hein ? {{delay1}}Mais il est charpentier {{delay1}}ou directeur ?{{size value=\"100\"}}",
      "EUit": "{{fun_0003_0001 arg=\"0x0B00\"}}{{size value=\"80\"}}Eh? {{delay1}}Non è un carpentiere...{{delay1}} ma il presidente?{{size value=\"100\"}}",
      "EUnl": "{{fun_0003_0001 arg=\"0x0B00\"}}{{size value=\"80\"}}Huh? {{delay1}}Hij is geen timmerman, {{delay1}}maar een president?{{size value=\"100\"}}",
      "EUru": "{{fun_0003_0001 arg=\"0x0B00\"}}{{size value=\"80\"}}Или он не плотник, а начальник?..{{size value=\"100\"}}",
      "JPja": "{{fun_0003_0001 arg=\"0x0B00\"}}{{size value=\"80\"}}あれ… {{delay1}}{{ruby charSpan=\"2\" value=\"だいく\"}}大工さんじゃなくて{{delay1}} {{ruby charSpan=\"2\" value=\"シャチョー\"}}社長…？{{size value=\"100\"}}",
      "KRko": "{{fun_0003_0001 arg=\"0x0B00\"}}{{size value=\"80\"}}어… {{delay1}}목수가 아니라{{delay1}} 사장님…?{{size value=\"100\"}}",
      "TWzh": "{{fun_0003_0001 arg=\"0x0B00\"}}{{size value=\"80\"}}咦……{{delay1}}不是木匠，{{delay1}}是社長……？{{size value=\"100\"}}",
      "USen": "{{fun_0003_0001 arg=\"0x0B00\"}}{{size value=\"80\"}}I actually heard...he's not a carpenter {{delay1}}but a\nreally famous president!{{size value=\"100\"}}",
      "USes": "{{fun_0003_0001 arg=\"0x0B00\"}}{{size value=\"80\"}}O era...{{delay1}} presidente de una empresa en lugar\nde carpintero...{{delay1}} puede ser.{{size value=\"100\"}}",
      "USfr": "{{fun_0003_0001 arg=\"0x0B00\"}}{{size value=\"80\"}}Hein? {{delay1}}Mais il est charpentier {{delay1}}ou directeur?{{size value=\"100\"}}"
    }
  },
  {
    "label": "talk25",
    "attribute": "0x70050000",
    "locale": {
      "CNzh": "{{fun_0003_0001 arg=\"0x0B00\"}}{{size value=\"80\"}}咦……{{delay1}}不是木匠，{{delay1}}是建筑店的人……？{{size value=\"100\"}}",
      "EUde": "{{fun_0003_0001 arg=\"0x0B00\"}}{{size value=\"80\"}}Oder, Moment... {{delay1}}Ist er Bauunternehmer?{{size value=\"100\"}}",
      "EUen": "{{fun_0003_0001 arg=\"0x0B00\"}}{{size value=\"80\"}}I actually heard...he's not a carpenter {{delay1}}but a\nconstruction company...\n\nI don't really know how that's possible, though...{{size value=\"100\"}}",
      "EUes": "{{fun_0003_0001 arg=\"0x0B00\"}}{{size value=\"80\"}}Espera, no...{{delay1}} no era carpintero...{{delay1}} sino un magnate\nde la construcción...{{delay1}} me parece.{{size value=\"100\"}}",
      "EUfr": "{{fun_0003_0001 arg=\"0x0B00\"}}{{size value=\"80\"}}Hein ? {{delay1}}Mais il est charpentier {{delay1}}ou associé ?{{size value=\"100\"}}",
      "EUit": "{{fun_0003_0001 arg=\"0x0B00\"}}{{size value=\"80\"}}Eh? {{delay1}}Non è un carpentiere...{{delay1}} ma un'impresa edile?{{size value=\"100\"}}",
      "EUnl": "{{fun_0003_0001 arg=\"0x0B00\"}}{{size value=\"80\"}}Huh? {{delay1}}Hij is geen timmerman, {{delay1}}maar een aannemer?{{size value=\"100\"}}",
      "EUru": "{{fun_0003_0001 arg=\"0x0B00\"}}{{size value=\"80\"}}Или он не плотник, а строитель?..{{size value=\"100\"}}",
      "JPja": "{{fun_0003_0001 arg=\"0x0B00\"}}{{size value=\"80\"}}あれ… {{delay1}}{{ruby charSpan=\"2\" value=\"だいく\"}}大工さんじゃなくて{{delay1}} {{ruby charSpan=\"3\" value=\"コームテン\"}}工務店…？{{size value=\"100\"}}",
      "KRko": "{{fun_0003_0001 arg=\"0x0B00\"}}{{size value=\"80\"}}어… {{delay1}}목수가 아니라{{delay1}} 건축가…?{{size value=\"100\"}}",
      "TWzh": "{{fun_0003_0001 arg=\"0x0B00\"}}{{size value=\"80\"}}咦……{{delay1}}不是木匠，{{delay1}}是建築店的人……？{{size value=\"100\"}}",
      "USen": "{{fun_0003_0001 arg=\"0x0B00\"}}{{size value=\"80\"}}I actually heard...he's not a carpenter {{delay1}}but a\nconstruction company...\n\nI don't really know how that's possible, though...{{size value=\"100\"}}",
      "USes": "{{fun_0003_0001 arg=\"0x0B00\"}}{{size value=\"80\"}}Espera, no...{{delay1}} no era carpintero...{{delay1}} sino un magnate\nde la construcción...{{delay1}} me parece.{{size value=\"100\"}}",
      "USfr": "{{fun_0003_0001 arg=\"0x0B00\"}}{{size value=\"80\"}}Hein? {{delay1}}Mais il est charpentier {{delay1}}ou associé?{{size value=\"100\"}}"
    }
  },
  {
    "label": "talk26",
    "attribute": "0x9A050000",
    "locale": {
      "CNzh": "{{fun_0003_0001 arg=\"0x0601\"}}是什么都无所谓啦，旅行者，{{delay1}}\n你也让樱达先生看看你的舞姿吧！",
      "EUde": "{{fun_0003_0001 arg=\"0x0601\"}}Egal...{{delay1}} Geh doch einfach mal zum Herrn\nJolanda und lass dir den Tanz zeigen!",
      "EUen": "{{fun_0003_0001 arg=\"0x0601\"}}Whatever he is, I want you to get Bolson\nto show you his dance!",
      "EUes": "{{fun_0003_0001 arg=\"0x0601\"}}Bueno, da lo mismo.{{delay1}} Deberías ir a que\nKarud te enseñe su baile.",
      "EUfr": "{{fun_0003_0001 arg=\"0x0601\"}}Toute façon, on s'en fiche !{{delay1}} Moi, ce que\nje veux, c'est que Sérasieh te montre sa\ndanse !",
      "EUit": "{{fun_0003_0001 arg=\"0x0601\"}}Beh, non importa!{{delay1}} Comunque fatti\nmostrare da Cerada{{delay1}} come si balla!",
      "EUnl": "{{fun_0003_0001 arg=\"0x0601\"}}Nou ja, wat hij ook is, ik wil dat Bolson je\nzijn dansje leert!",
      "EUru": "{{fun_0003_0001 arg=\"0x0601\"}}В общем, если увидишь\nего, попроси станцевать.",
      "JPja": "{{fun_0003_0001 arg=\"0x0601\"}}{{ruby charSpan=\"1\" value=\"なん\"}}何でもいいから {{ruby charSpan=\"2\" value=\"たびびと\"}}旅人も{{delay1}}\nサクラダさんにダンス {{ruby charSpan=\"1\" value=\"み\"}}見せてもらいなよ！",
      "KRko": "{{fun_0003_0001 arg=\"0x0601\"}}아무렴 어때! 여행자 오빠도{{delay1}}\n볼슨 아저씨한테 댄스 보여 달라고 해!",
      "TWzh": "{{fun_0003_0001 arg=\"0x0601\"}}是什麼都無所謂啦，旅行者，{{delay1}}\n你也讓櫻達先生看看你跳的舞吧！",
      "USen": "{{fun_0003_0001 arg=\"0x0601\"}}Whatever he is, I want you to get Bolson\nto show you his dance!",
      "USes": "{{fun_0003_0001 arg=\"0x0601\"}}Bueno, da lo mismo.{{delay1}} ¡Ve a visitar a Karud\npara que te enseñe su baile!",
      "USfr": "{{fun_0003_0001 arg=\"0x0601\"}}Toute façon, on s'en fiche!{{delay1}} Moi, ce que\nje veux, c'est que Sérasieh te montre sa\ndanse!"
    }
  }
]