[
  {
    "label": "talk00",
    "attribute": "0x10000000",
    "locale": {
      "CNzh": "{{fun_0003_0001 arg=\"0x0000\"}}{{color id=\"2\"}}阿拉伊索海岸{{color id=\"65535\"}}真是个很棒的渔场哩～{{delay1}}\n在那里可以捕到很多鱼！\n毕竟平常也受你照顾，\n我来告诉你一些有用的情报哩！\n岩礁附近会有鱼群聚集，{{delay1}}\n有时也会有宝物沉在下头哩～",
      "EUde": "{{fun_0003_0001 arg=\"0x0000\"}}An der {{color id=\"2\"}}Araiso-Küste{{color id=\"65535\"}} kann man wunderbar\nangeln!{{delay1}} So viele Fische!{{pageBreak}}Da du mir geholfen hast, werde ich dir\nein kleines Geheimnis verraten!{{pageBreak}}Wenn sich um ein Riff viele Fische\nversammelt haben, ist dort manchmal\nein Schatz versteckt.",
      "EUen": "{{fun_0003_0001 arg=\"0x0000\"}}{{color id=\"2\"}}Aris Beach{{color id=\"65535\"}} is a great place to fish!{{delay1}}\nTons of fish, and even a couple of little\nsecrets...\nCheck this out:{{delay1}} if you see a bunch of fish\ngathered around a reef,{{delay1}} sometimes you\ncan find treasure hidden there...",
      "EUes": "{{fun_0003_0001 arg=\"0x0000\"}}La {{color id=\"2\"}}playa de Onaiso{{color id=\"65535\"}} es un lugar excelente\npara pescar.{{delay1}} ¡Allí uno puede atrapar\npeces a montones!\nVoy a contarte un secretillo en\nagradecimiento por tu ayuda.{{pageBreak}}Donde veas que los peces se agrupan\nen torno a un arrecife,{{delay1}} puede que haya\nalgún tesoro oculto bajo las aguas.",
      "EUfr": "{{fun_0003_0001 arg=\"0x0000\"}}La {{color id=\"2\"}}plage d'Araiso{{color id=\"65535\"}} est un super coin pour\npêcher.{{delay1}} Y a tellement de poiscaille !\n\nComme tu m'as filé un coup d'main,\nj'vais t'filer un tuyau.\n\nSi tu repères un récif avec beaucoup\nde poissons autour,{{delay1}} c'est p't'êt qu'un\ntrésor y est planqué...",
      "EUit": "{{fun_0003_0001 arg=\"0x0000\"}}Al {{color id=\"2\"}}lido Bagnacciuga{{color id=\"65535\"}} si pesca benissimo!{{delay1}}\nSi catturano un sacco di pesci!\n\nDal momento che mi hai aiutato,\nti rivelerò un piccolo segreto.\n\nSe vicino a una scogliera vedi tanti\npesci,{{delay1}} a volte vuol dire che lì vicino\nc'è un tesoro!",
      "EUnl": "{{fun_0003_0001 arg=\"0x0000\"}}Het {{color id=\"2\"}}Aris-strand{{color id=\"65535\"}} is de perfecte plek om\nje hengel uit te werpen. Het wemelt daar\nvan de vissen!\nOmdat je me hebt geholpen, zal ik je een \ngeheimpje vertellen...{{pageBreak}}Als je een grote school vissen in de\nbuurt van een rif ziet,{{delay1}} kan dat betekenen\ndat er daar een schat is verstopt.",
      "EUru": "{{fun_0003_0001 arg=\"0x0000\"}}{{color id=\"2\"}}Арисское взморье{{color id=\"65535\"}} — настоящий\nрай для рыбаков.{{delay1}} Там куча рыбы.{{pageBreak}}За то, что ты мне помог,\nподелюсь с тобой секретом...{{pageBreak}}Если заметишь у рифа косяк рыб,\nпроверь это место — там может\nбыть клад.",
      "JPja": "{{fun_0003_0001 arg=\"0x0000\"}}{{color id=\"2\"}}アライソ{{ruby charSpan=\"2\" value=\"かいがん\"}}海岸{{color id=\"65535\"}} あそこは {{ruby charSpan=\"1\" value=\"よ\"}}良い{{ruby charSpan=\"2\" value=\"ぎょじょう\"}}漁場さ～{{delay1}}\n{{ruby charSpan=\"1\" value=\"さかな\"}}魚が いっぱい{{ruby charSpan=\"1\" value=\"と\"}}獲れる！\n{{ruby charSpan=\"2\" value=\"せわ\"}}世話になった アンタにゃ\n{{ruby charSpan=\"1\" value=\"よ\"}}良いこと {{ruby charSpan=\"1\" value=\"おし\"}}教えてやるわいさ\n{{ruby charSpan=\"2\" value=\"がんしょう\"}}岩礁の{{ruby charSpan=\"1\" value=\"ちか\"}}近くには {{ruby charSpan=\"1\" value=\"さかな\"}}魚が{{ruby charSpan=\"1\" value=\"あつ\"}}集まる{{delay1}}\nときには お{{ruby charSpan=\"1\" value=\"たから\"}}宝が {{ruby charSpan=\"1\" value=\"しず\"}}沈んでいることもあるのさ～",
      "KRko": "{{fun_0003_0001 arg=\"0x0000\"}}{{color id=\"2\"}}아라이소 해안{{color id=\"65535\"}}은 좋은 어장이야~{{delay1}}\n생선이 잔뜩 잡히거든!\n당신한텐 신세를 졌으니\n좋은 걸 가르쳐 줄게\n암초 근처엔 생선이 모여들어{{delay1}}\n때론 보물이 가라앉아 있기도 하지~",
      "TWzh": "{{fun_0003_0001 arg=\"0x0000\"}}{{color id=\"2\"}}阿拉伊索海岸{{color id=\"65535\"}}真是個很棒的漁場哩～{{delay1}}\n在那裡可以捕到很多魚！\n畢竟平常也受你照顧，\n我來告訴你一些有用的情報哩！\n岩礁附近會有魚群聚集，{{delay1}}\n有時也會有寶物沉在下頭哩～",
      "USen": "{{fun_0003_0001 arg=\"0x0000\"}}{{color id=\"2\"}}Aris Beach{{color id=\"65535\"}} is a great place to fish!{{delay1}}\nTons of fish, and even a couple of little\nsecrets...\nCheck this out:{{delay1}} if you see a bunch of fish\ngathered around a reef,{{delay1}} sometimes you\ncan find treasure hidden there...",
      "USes": "{{fun_0003_0001 arg=\"0x0000\"}}La {{color id=\"2\"}}playa de Onaiso{{color id=\"65535\"}} es un lugar\nexcelente para pescar.{{delay1}} ¡Ahí se\natrapan peces a montones!\nY como me ayudaste, te voy a\ncontar mi secreto.{{pageBreak}}Si ves que los peces se agrupan\nen torno a un arrecife,{{delay1}} puede que\nahí haya algún tesoro escondido.",
      "USfr": "{{fun_0003_0001 arg=\"0x0000\"}}La {{color id=\"2\"}}plage d'Araiso{{color id=\"65535\"}} est un super coin pour\npêcher.{{delay1}} Y'a tellement de poisson!\n\nComme tu m'as filé un coup d'main,\nj'vais t'filer un tuyau.\n\nSi tu repères un récif avec beaucoup\nde poissons autour,{{delay1}} c'est p't'êt qu'un\ntrésor y est planqué..."
    }
  },
  {
    "label": "talk01",
    "attribute": "0x3E000000",
    "locale": {
      "CNzh": "{{fun_0003_0001 arg=\"0x0000\"}}我捕的鱼可美味哩～",
      "EUde": "{{fun_0003_0001 arg=\"0x0000\"}}Meine Fische sind die leckersten!",
      "EUen": "{{fun_0003_0001 arg=\"0x0000\"}}I sure know how to catch 'em!",
      "EUes": "{{fun_0003_0001 arg=\"0x0000\"}}¡Los peces que yo pesco están de\nrechupete!",
      "EUfr": "{{fun_0003_0001 arg=\"0x0000\"}}J'pêche les meilleurs poissons du coin.",
      "EUit": "{{fun_0003_0001 arg=\"0x0000\"}}I pesci che catturo io sono deliziosi!",
      "EUnl": "{{fun_0003_0001 arg=\"0x0000\"}}Ik vang de lekkerste vis!",
      "EUru": "{{fun_0003_0001 arg=\"0x0000\"}}Моя рыба самая вкусная.",
      "JPja": "{{fun_0003_0001 arg=\"0x0000\"}}ワシが{{ruby charSpan=\"1\" value=\"と\"}}獲った{{ruby charSpan=\"1\" value=\"さかな\"}}魚は うまいのさ～",
      "KRko": "{{fun_0003_0001 arg=\"0x0000\"}}내가 잡은 생선은 맛있다고~",
      "TWzh": "{{fun_0003_0001 arg=\"0x0000\"}}我捕的魚可美味哩～",
      "USen": "{{fun_0003_0001 arg=\"0x0000\"}}I sure know how to catch 'em!",
      "USes": "{{fun_0003_0001 arg=\"0x0000\"}}¡Los peces que yo pesco están de\nrechupete!",
      "USfr": "{{fun_0003_0001 arg=\"0x0000\"}}J'pêche les meilleurs poissons du coin."
    }
  }
]