[
  {
    "label": "near00",
    "attribute": "0x98000000",
    "locale": {
      "CNzh": "{{fun_0003_0001 arg=\"0x021F\"}}喝──！",
      "EUde": "{{fun_0003_0001 arg=\"0x021F\"}}Ki-jaaaa!",
      "EUen": "{{fun_0003_0001 arg=\"0x021F\"}}KEEEEAAAAAAAHHH!!!",
      "EUes": "{{fun_0003_0001 arg=\"0x021F\"}}¡AAAH!",
      "EUfr": "{{fun_0003_0001 arg=\"0x021F\"}}Kyeeeeh !",
      "EUit": "{{fun_0003_0001 arg=\"0x021F\"}}KEEEEEEH!",
      "EUnl": "{{fun_0003_0001 arg=\"0x021F\"}}Kie-jaaaa!",
      "EUru": "{{fun_0003_0001 arg=\"0x021F\"}}Кья!",
      "JPja": "{{fun_0003_0001 arg=\"0x021F\"}}キエーーッ！",
      "KRko": "{{fun_0003_0001 arg=\"0x021F\"}}끄아아악~!",
      "TWzh": "{{fun_0003_0001 arg=\"0x021F\"}}噫──！",
      "USen": "{{fun_0003_0001 arg=\"0x021F\"}}KEEEEAAAAAAAHHH!!!",
      "USes": "{{fun_0003_0001 arg=\"0x021F\"}}¡AAAH!",
      "USfr": "{{fun_0003_0001 arg=\"0x021F\"}}Kyeeeeh!"
    }
  },
  {
    "label": "near01",
    "attribute": "0xB0000000",
    "locale": {
      "CNzh": "唔唔唔……",
      "EUde": "Grrrr...",
      "EUen": "*rumble*",
      "EUes": "Hum...",
      "EUfr": "Brrrrrr...",
      "EUit": "Grrr...",
      "EUnl": "Grrrr...",
      "EUru": "Хр-р-р...",
      "JPja": "ごごご…",
      "KRko": "드르렁…",
      "TWzh": "唔唔唔……",
      "USen": "*rumble*",
      "USes": "Hum...",
      "USfr": "Brrrrrr..."
    }
  },
  {
    "label": "0002",
    "attribute": "0xC8000000",
    "locale": {
      "CNzh": "请加油",
      "EUde": "Viel Glück!",
      "EUen": "Good luck.",
      "EUes": "Suerte",
      "EUfr": "Bon courage !",
      "EUit": "Buona fortuna!",
      "EUnl": "Veel succes!",
      "EUru": "Желаю удачи",
      "JPja": "{{ruby charSpan=\"2\" value=\"がんば\"}}頑張って",
      "KRko": "힘내세요",
      "TWzh": "請加油",
      "USen": "Good luck.",
      "USes": "Suerte",
      "USfr": "Bon courage!"
    }
  },
  {
    "label": "0003",
    "attribute": "0xCA000000",
    "locale": {
      "CNzh": "这样很危险",
      "EUde": "Das ist gefährlich!",
      "EUen": "It's too dangerous!",
      "EUes": "¡Es muy arriesgado!",
      "EUfr": "C'est dangereux !",
      "EUit": "È pericoloso!",
      "EUnl": "Dat is te gevaarlijk!",
      "EUru": "Это же опасно!",
      "JPja": "{{ruby charSpan=\"1\" value=\"あぶ\"}}危ないよ",
      "KRko": "위험해요",
      "TWzh": "這樣很危險",
      "USen": "It's too dangerous!",
      "USes": "¡Es muy arriesgado!",
      "USfr": "C'est dangereux!"
    }
  },
  {
    "label": "0004",
    "attribute": "0xCC000000",
    "locale": {
      "CNzh": "你在做什么？",
      "EUde": "Was wird das?",
      "EUen": "...Whatcha doin'?",
      "EUes": "¿Qué haces?",
      "EUfr": "Que fais-tu ?",
      "EUit": "Cosa fai?",
      "EUnl": "Wat doe je daar?",
      "EUru": "Что вы делаете?",
      "JPja": "{{ruby charSpan=\"1\" value=\"なに\"}}何してるの？",
      "KRko": "뭐 하고 계세요?",
      "TWzh": "你在做什麼？",
      "USen": "...Whatcha doin'?",
      "USes": "¿Qué haces?",
      "USfr": "Que fais-tu?"
    }
  },
  {
    "label": "0005",
    "attribute": "0xCE000000",
    "locale": {
      "CNzh": "怎么回事？",
      "EUde": "Wovon redest du?",
      "EUen": "What do you mean?",
      "EUes": "¿A qué te refieres?",
      "EUfr": "De quoi tu parles ?",
      "EUit": "Che vuoi dire?",
      "EUnl": "Wat bedoel je?",
      "EUru": "Да что с вами?!",
      "JPja": "{{ruby charSpan=\"1\" value=\"なん\"}}何の{{ruby charSpan=\"1\" value=\"こと\"}}事？",
      "KRko": "무슨 말씀이신지?",
      "TWzh": "怎麼回事？",
      "USen": "What do you mean?",
      "USes": "¿A qué te refieres?",
      "USfr": "De quoi tu parles?"
    }
  },
  {
    "label": "0006",
    "attribute": "0xD0000000",
    "locale": {
      "CNzh": "这次一定成功！",
      "EUde": "Dieses Mal...",
      "EUen": "I won't fail her again.",
      "EUes": "Esta vez será distinto",
      "EUfr": "Cette fois-ci je vais...",
      "EUit": "Ma stavolta io...",
      "EUnl": "Deze keer lukt het!",
      "EUru": "На этот раз я...",
      "JPja": "{{ruby charSpan=\"2\" value=\"こんど\"}}今度こそは！",
      "KRko": "이번엔 달라요!",
      "TWzh": "這次一定成功！",
      "USen": "I won't fail her again.",
      "USes": "Esta vez será distinto",
      "USfr": "Cette fois-ci je vais..."
    }
  },
  {
    "label": "talk00",
    "attribute": "0xD2000000",
    "locale": {
      "CNzh": "{{size value=\"125\"}}{{fun_0003_0001 arg=\"0x0A1F\"}}喝──！！{{size value=\"100\"}}",
      "EUde": "{{size value=\"125\"}}{{fun_0003_0001 arg=\"0x0A1F\"}}Ki-jaaaa!{{size value=\"100\"}}",
      "EUen": "{{size value=\"125\"}}{{fun_0003_0001 arg=\"0x0A1F\"}}KYAAAAAAHHHH!!!{{size value=\"100\"}}",
      "EUes": "{{fun_0003_0001 arg=\"0x0A1F\"}}{{size value=\"125\"}}¡AAAH!{{size value=\"100\"}}",
      "EUfr": "{{size value=\"125\"}}{{fun_0003_0001 arg=\"0x0A1F\"}}Kyeeeeeeh !!!{{size value=\"100\"}}",
      "EUit": "{{size value=\"125\"}}{{fun_0003_0001 arg=\"0x0A1F\"}}KIIIEEEEEEH!!!{{size value=\"100\"}}",
      "EUnl": "{{size value=\"125\"}}{{fun_0003_0001 arg=\"0x0A1F\"}}Kie-jaaaa!{{size value=\"100\"}}",
      "EUru": "{{size value=\"125\"}}{{fun_0003_0001 arg=\"0x0A1F\"}}Кья-а-а!{{size value=\"100\"}}",
      "JPja": "{{size value=\"125\"}}{{fun_0003_0001 arg=\"0x0A1F\"}}キエーーーッ！！{{size value=\"100\"}}",
      "KRko": "{{size value=\"125\"}}{{fun_0003_0001 arg=\"0x0A1F\"}}끄아아악~!!{{size value=\"100\"}}",
      "TWzh": "{{size value=\"125\"}}{{fun_0003_0001 arg=\"0x0A1F\"}}噫──！！{{size value=\"100\"}}",
      "USen": "{{size value=\"125\"}}{{fun_0003_0001 arg=\"0x0A1F\"}}KYAAAAAAHHHH!!!{{size value=\"100\"}}",
      "USes": "{{fun_0003_0001 arg=\"0x0A1F\"}}{{size value=\"125\"}}¡AAAH!{{size value=\"100\"}}",
      "USfr": "{{size value=\"125\"}}{{fun_0003_0001 arg=\"0x0A1F\"}}Kyeeeeeeh!!!{{size value=\"100\"}}"
    }
  },
  {
    "label": "talk01",
    "attribute": "0xEA000000",
    "locale": {
      "CNzh": "{{size value=\"125\"}}{{fun_0003_0001 arg=\"0x0A1F\"}}呀──！！{{size value=\"100\"}}",
      "EUde": "{{size value=\"125\"}}{{fun_0003_0001 arg=\"0x0A1F\"}}Keeeeeh!{{size value=\"100\"}}",
      "EUen": "{{size value=\"125\"}}{{fun_0003_0001 arg=\"0x0A1F\"}}KEEEEYAAAAAHHH!!!{{size value=\"100\"}}",
      "EUes": "{{fun_0003_0001 arg=\"0x0A1F\"}}{{size value=\"125\"}}¡AAAY!{{size value=\"100\"}}",
      "EUfr": "{{size value=\"125\"}}{{fun_0003_0001 arg=\"0x0A1F\"}}Keeeeeeeh !!!{{size value=\"100\"}}",
      "EUit": "{{size value=\"125\"}}{{fun_0003_0001 arg=\"0x0A1F\"}}KEEEEEEH!!!{{size value=\"100\"}}",
      "EUnl": "{{size value=\"125\"}}{{fun_0003_0001 arg=\"0x0A1F\"}}Kieeeeee!{{size value=\"100\"}}",
      "EUru": "{{size value=\"125\"}}{{fun_0003_0001 arg=\"0x0A1F\"}}Кья!{{size value=\"100\"}}",
      "JPja": "{{size value=\"125\"}}{{fun_0003_0001 arg=\"0x0A1F\"}}ケェーーーッ！！{{size value=\"100\"}}",
      "KRko": "{{size value=\"125\"}}{{fun_0003_0001 arg=\"0x0A1F\"}}키야아아악~!!{{size value=\"100\"}}",
      "TWzh": "{{size value=\"125\"}}{{fun_0003_0001 arg=\"0x0A1F\"}}呀──！！{{size value=\"100\"}}",
      "USen": "{{size value=\"125\"}}{{fun_0003_0001 arg=\"0x0A1F\"}}KEEEEYAAAAAHHH!!!{{size value=\"100\"}}",
      "USes": "{{fun_0003_0001 arg=\"0x0A1F\"}}{{size value=\"125\"}}¡AAAY!{{size value=\"100\"}}",
      "USfr": "{{size value=\"125\"}}{{fun_0003_0001 arg=\"0x0A1F\"}}Keeeeeeeh!!!{{size value=\"100\"}}"
    }
  },
  {
    "label": "talk02",
    "attribute": "0x02010000",
    "locale": {
      "CNzh": "{{fun_0003_0001 arg=\"0x0A20\"}}{{size value=\"80\"}}呼……呼……\n\n{{fun_0003_0001 arg=\"0x0601\"}}米法大人！{{delay3}}请您看着！\n\n过去人称魔鬼中士的塞恭，{{delay1}}\n此次定要拿下{{color id=\"2\"}}神兽瓦·露塔{{color id=\"65535\"}}……{{delay1}}卓啦！{{fun_0001_000A arg=\"0x040001CD\"}}{{size value=\"100\"}}",
      "EUde": "{{fun_0003_0001 arg=\"0x0A20\"}}{{size value=\"80\"}}Hah... Hah...{{pageBreak}}{{fun_0003_0001 arg=\"0x0601\"}}Mipha!{{delay1}} Seht mich an!{{delay1}} Hört meinen Schwur!{{pageBreak}}Ich werde {{color id=\"2\"}}Vah Ruta {{color id=\"65535\"}}in Stücke schlagen...\nZo wahr ich Segon bin! {{delay1}}Der, den man einst\nden Feldwebel des Todes nannte! {{delay1}}Hngh!{{fun_0001_000A arg=\"0x040001CD\"}}{{size value=\"100\"}}",
      "EUen": "{{fun_0003_0001 arg=\"0x0A20\"}}{{size value=\"80\"}}*pant...pant*\n\n\n{{fun_0003_0001 arg=\"0x0601\"}}Lady Mipha! {{delay2}}Watch THIS!\n\n\nI, Seggin, the aptly named Demon Sergeant,{{delay1}}\nshall strike down{{delay1}} the {{color id=\"2\"}}Divine Beast Vah Ruta{{color id=\"65535\"}}!{{fun_0001_000A arg=\"0x040001CD\"}}{{size value=\"100\"}}",
      "EUes": "{{fun_0003_0001 arg=\"0x0A20\"}}{{size value=\"80\"}}¡Rayos!{{pageBreak}}{{fun_0003_0001 arg=\"0x0601\"}}¡Princesa Mipha! {{delay3}}Espero que podáis verme...{{pageBreak}}¡Yo, Siggun, antaño conocido como el sargento\ndemoníaco,{{delay1}} asestaré el golpe de gracia a\nesa {{color id=\"2\"}}{{wordInfo gender=\"2\" defArticle=\"1\" indefArticle=\"1\" isPlural=\"0\"}}bestia divina Vah Ruta{{color id=\"65535\"}}!{{size value=\"100\"}}{{fun_0001_000A arg=\"0x040001CD\"}}",
      "EUfr": "{{fun_0003_0001 arg=\"0x0A20\"}}{{size value=\"80\"}}Haa... Haa...\n\n\n{{fun_0003_0001 arg=\"0x0601\"}}Mipha, Votre Altesse !{{delay3}} Regardez-moi !\n\n\nMoi, Étorpe, celui qu'on appelait jadis « le sergent\ndémon »,{{delay1}} je vais occire {{color id=\"2\"}}Vah'Ruta {{color id=\"65535\"}}une fois pour\ntoutes...{{delay1}} Yah !{{fun_0001_000A arg=\"0x040001CD\"}}{{size value=\"100\"}}",
      "EUit": "{{fun_0003_0001 arg=\"0x0A20\"}}{{size value=\"80\"}}Anf... anf...\n\n\n{{fun_0003_0001 arg=\"0x0601\"}}Principessa Mipha! {{delay3}}Stai a guardare!\n\n\nIo, Sekon, colui che un tempo era chiamato\n\"sergente di ferro\",{{delay1}} adesso combatterò\ncontro il {{color id=\"2\"}}colosso sacro Vah Ruta{{color id=\"65535\"}}!{{delay1}} Bluuub!{{fun_0001_000A arg=\"0x040001CD\"}}{{size value=\"100\"}}",
      "EUnl": "{{fun_0003_0001 arg=\"0x0A20\"}}{{size value=\"80\"}}Oef...{{pageBreak}}{{fun_0003_0001 arg=\"0x0601\"}}Mipha! {{delay3}}Moet je dit eens zien!{{pageBreak}}Ik, Seggin, die ooit ook wel de duivelse sergeant\nwerd genoemd,{{delay1}} ga nu in de aanval tegen {{color id=\"2\"}}Vah Ruta{{color id=\"65535\"}}!{{fun_0001_000A arg=\"0x040001CD\"}}{{size value=\"100\"}}",
      "EUru": "{{size value=\"80\"}}{{fun_0003_0001 arg=\"0x0A20\"}}Уф...{{delay1}} уф...{{pageBreak}}{{fun_0003_0001 arg=\"0x0601\"}}Госпожа Мифа, взгляните на меня!{{pageBreak}}Ваш верный слуга Сеггин, некогда известный\nкак Генерал Смерть, сразит {{color id=\"2\"}}Чудище Ва-Руту{{color id=\"65535\"}}\nодним ударом!{{fun_0001_000A arg=\"0x040001CD\"}}{{size value=\"100\"}}",
      "JPja": "{{fun_0003_0001 arg=\"0x0A20\"}}{{size value=\"80\"}}ハァ… ハァ…\n\n{{fun_0003_0001 arg=\"0x0601\"}}ミファー{{ruby charSpan=\"1\" value=\"さま\"}}様！{{delay3}} {{ruby charSpan=\"1\" value=\"み\"}}見ててくだされ！\n\nかつて{{ruby charSpan=\"3\" value=\"おにぐんそう\"}}鬼軍曹と{{ruby charSpan=\"1\" value=\"い\"}}言われた このセゴンめが{{delay1}}\n{{ruby charSpan=\"1\" value=\"いま\"}}今こそ {{color id=\"2\"}}{{ruby charSpan=\"2\" value=\"しんじゅう\"}}神獣 ヴァ・ルッタ{{color id=\"65535\"}}を{{ruby charSpan=\"1\" value=\"う\"}}討つ… {{delay1}}ゾラッ！{{fun_0001_000A arg=\"0x040001CD\"}}{{size value=\"100\"}}",
      "KRko": "{{fun_0003_0001 arg=\"0x0A20\"}}{{size value=\"80\"}}하아… 하아…\n\n{{fun_0003_0001 arg=\"0x0601\"}}미파님!{{delay3}} 지켜봐 주십시오!\n\n도깨비 중사라 불렸던 이 세곤이{{delay1}}\n이번에야말로 {{color id=\"2\"}}신수 바·루타{{color id=\"65535\"}}를 무찌르겠… {{delay1}}습니다조라!{{fun_0001_000A arg=\"0x040001CD\"}}{{size value=\"100\"}}",
      "TWzh": "{{fun_0003_0001 arg=\"0x0A20\"}}{{size value=\"80\"}}呼……呼……\n\n{{fun_0003_0001 arg=\"0x0601\"}}米法大人！{{delay3}}請您看著！\n\n過去人稱魔鬼中士的塞恭，{{delay1}}\n此次定要拿下{{color id=\"2\"}}神獸瓦‧露塔{{color id=\"65535\"}}……{{delay1}}咋啦！{{fun_0001_000A arg=\"0x040001CD\"}}{{size value=\"100\"}}",
      "USen": "{{fun_0003_0001 arg=\"0x0A20\"}}{{size value=\"80\"}}*pant...pant*\n\n\n{{fun_0003_0001 arg=\"0x0601\"}}Lady Mipha! {{delay2}}Watch THIS!\n\n\nI, Seggin, the aptly named Demon Sergeant,{{delay1}}\nshall strike down{{delay1}} the {{color id=\"2\"}}Divine Beast Vah Ruta{{color id=\"65535\"}}!{{fun_0001_000A arg=\"0x040001CD\"}}{{size value=\"100\"}}",
      "USes": "{{fun_0003_0001 arg=\"0x0A20\"}}{{size value=\"80\"}}¡Rayos!{{pageBreak}}{{fun_0003_0001 arg=\"0x0601\"}}¡Princesa Mipha! {{delay3}}Espero que puedas oírme...{{pageBreak}}¡Yo, Segón, antiguamente conocido como el\nsargento demoníaco,{{delay1}} asestaré el golpe de gracia\na esa {{color id=\"2\"}}{{wordInfo gender=\"2\" defArticle=\"1\" indefArticle=\"1\" isPlural=\"0\"}}bestia divina Vah Ruta{{color id=\"65535\"}}!{{size value=\"100\"}}{{fun_0001_000A arg=\"0x040001CD\"}}",
      "USfr": "{{fun_0003_0001 arg=\"0x0A20\"}}{{size value=\"80\"}}Haa... Haa...\n\n\n{{fun_0003_0001 arg=\"0x0601\"}}Mipha, Votre Altesse!{{delay3}} Regardez-moi!\n\n\nMoi, Étorpe, celui qu'on appelait jadis « le sergent\nDémon »,{{delay1}} je vais occire {{color id=\"2\"}}Vah'Ruta {{color id=\"65535\"}}une fois pour\ntoutes...{{delay1}} Yah!{{fun_0001_000A arg=\"0x040001CD\"}}{{size value=\"100\"}}"
    }
  },
  {
    "label": "talk04",
    "attribute": "0x1A010000",
    "locale": {
      "CNzh": "{{size value=\"125\"}}{{fun_0003_0001 arg=\"0x080E\"}}少装傻了！{{delay1}}英杰林克！{{size value=\"100\"}}\n\n还不是因为你没能从{{color id=\"0\"}}灾厄盖侬{{color id=\"65535\"}}手里{{delay1}}\n保护好米法大人卓啦！\n{{fun_0003_0001 arg=\"0x090C\"}}时光飞逝，自那之后已过了100年……{{delay3}}\n啊……米法大人……{{delay1}}真是令人痛心……{{fun_0001_000A arg=\"0x060001CD\"}}",
      "EUde": "{{fun_0003_0001 arg=\"0x080E\"}}Zo willst du mir alzo kommen?\n{{delay1}}Oh nein, du wirst mich nicht\ntäuschen, {{delay1}}Recke Link!{{pageBreak}}Du warst es, der Mipha vor dem Bösen\nin Perzon, vor {{color id=\"0\"}}Ganon{{color id=\"65535\"}}, hätte beschützen\nkönnen! {{delay1}}Und was hast du getan?{{pageBreak}}Versagt hast du!{{pageBreak}}{{fun_0003_0001 arg=\"0x090C\"}}100 Jahre ist es jetzt schon her...{{delay3}}\nOh, Mipha... {{delay1}}Euer Verlust schmerzt\nmich jeden Tag aufs Neue.{{fun_0001_000A arg=\"0x060001CD\"}}",
      "EUen": "{{size value=\"125\"}}{{fun_0003_0001 arg=\"0x080E\"}}Playing dumb, eh?!{{delay1}} Nice try,\nbut you cannot fool me,\nChampion Link!{{size value=\"100\"}}\nYou were unable to protect Lady Mipha{{delay1}}\nfrom {{color id=\"0\"}}Calamity Ganon{{color id=\"65535\"}}!\n\n{{fun_0003_0001 arg=\"0x090C\"}}It has been 100 years since we lost her...{{delay3}}\nPoor Lady Mipha... {{delay1}}How heartbreaking...{{fun_0001_000A arg=\"0x060001CD\"}}",
      "EUes": "{{size value=\"125\"}}{{fun_0003_0001 arg=\"0x080E\"}}Te haces el listillo, ¿eh, {{delay1}}elegido?{{size value=\"100\"}}{{pageBreak}}¡No fuiste capaz de proteger a\nla princesa Mipha{{delay1}} de {{color id=\"0\"}}Ganon{{color id=\"65535\"}}!{{pageBreak}}{{fun_0003_0001 arg=\"0x090C\"}}Y pensar que ya han transcurrido\ncien años...{{delay3}} Pobre princesa Mipha.{{fun_0001_000A arg=\"0x060001CD\"}}",
      "EUfr": "{{size value=\"125\"}}{{fun_0003_0001 arg=\"0x080E\"}}Ne fais pas l'ignorant, Prodige !{{size value=\"100\"}}\n\n\nTu as été incapable de protéger Son\nAltesse Mipha{{delay1}} face au {{color id=\"0\"}}Fléau Ganon {{color id=\"65535\"}}!\n\n{{fun_0003_0001 arg=\"0x090C\"}}Depuis, 100 longues années se sont\nécoulées...{{delay3}} Aaah, pauvre princesse...\n{{delay1}}Quelle tragédie...{{fun_0001_000A arg=\"0x060001CD\"}}",
      "EUit": "{{size value=\"125\"}}{{fun_0003_0001 arg=\"0x080E\"}}Fai finta di niente, eh?!{{delay1}}\n\n\nLink, il campione!{{size value=\"100\"}}\n\n\nNon hai saputo proteggere la principessa\nMipha{{delay1}} dalla {{color id=\"0\"}}calamità Ganon{{color id=\"65535\"}}!\n\n{{fun_0003_0001 arg=\"0x090C\"}}Sono già passati cento anni da allora...{{delay3}}\nOh, principessa Mipha... {{delay1}}Poverina...{{fun_0001_000A arg=\"0x060001CD\"}}",
      "EUnl": "{{size value=\"125\"}}{{fun_0003_0001 arg=\"0x080E\"}}Mij houd je niet voor de gek!{{pageBreak}}Uitverkorene Link!{{pageBreak}}{{size value=\"100\"}}Je kon Mipha niet beschermen tegen\n{{color id=\"0\"}}Ganon{{color id=\"65535\"}}!{{pageBreak}}{{fun_0003_0001 arg=\"0x090C\"}}Dat is inmiddels alweer 100 jaar\ngeleden...{{pageBreak}}O, Mipha... {{delay1}}Mijn hart is nog altijd\ngebroken...{{fun_0001_000A arg=\"0x060001CD\"}}",
      "EUru": "{{fun_0003_0001 arg=\"0x080E\"}}{{size value=\"125\"}}Не прикидывайся, Воин Линк!{{size value=\"100\"}}{{pageBreak}}Ты просто не смог защитить\nгоспожу Мифу от {{color id=\"0\"}}Ганона{{color id=\"65535\"}}!{{pageBreak}}{{fun_0003_0001 arg=\"0x090C\"}}Ох, сто лет ведь прошло...{{delay1}}\nГоспожа, какая трагедия...{{fun_0001_000A arg=\"0x060001CD\"}}",
      "JPja": "{{size value=\"125\"}}{{fun_0003_0001 arg=\"0x080E\"}}しらばっくれるか！ {{delay1}}{{ruby charSpan=\"2\" value=\"えいけつ\"}}英傑リンク！{{size value=\"100\"}}\n\nお{{ruby charSpan=\"1\" value=\"ぬし\"}}主は ミファー{{ruby charSpan=\"1\" value=\"さま\"}}様を{{delay1}}\n{{color id=\"0\"}}{{ruby charSpan=\"2\" value=\"やくさい\"}}厄災ガノン{{color id=\"65535\"}}から {{ruby charSpan=\"1\" value=\"まも\"}}守れなかったゾラ！\n{{fun_0003_0001 arg=\"0x090C\"}}あれからはや 100{{ruby charSpan=\"1\" value=\"ねん\"}}年…{{delay3}}\nああ ミファー{{ruby charSpan=\"1\" value=\"さま\"}}様… {{delay1}}おいたわしや…{{fun_0001_000A arg=\"0x060001CD\"}}",
      "KRko": "{{size value=\"125\"}}{{fun_0003_0001 arg=\"0x080E\"}}모른 척 하지 마라! {{delay1}}영걸 링크!{{size value=\"100\"}}\n\n너는 미파님을{{delay1}}\n{{color id=\"0\"}}재앙 가논{{color id=\"65535\"}}으로부터 지켜내지 못하였다조라!\n{{fun_0003_0001 arg=\"0x090C\"}}그 후로 어언 100년…{{delay3}}\n아아 미파님… {{delay1}}가엾으셔라…{{fun_0001_000A arg=\"0x060001CD\"}}",
      "TWzh": "{{size value=\"125\"}}{{fun_0003_0001 arg=\"0x080E\"}}少裝傻了！{{delay1}}英傑林克！{{size value=\"100\"}}\n\n還不是因為你沒能從{{color id=\"0\"}}災厄加儂{{color id=\"65535\"}}手裡{{delay1}}\n保護好米法大人咋啦！\n{{fun_0003_0001 arg=\"0x090C\"}}時光飛逝，自那之後已過了100年……{{delay3}}\n啊……米法大人……{{delay1}}真是令人痛心……{{fun_0001_000A arg=\"0x060001CD\"}}",
      "USen": "{{size value=\"125\"}}{{fun_0003_0001 arg=\"0x080E\"}}Playing dumb, eh?!{{delay1}} Nice try,\nbut you cannot fool me,\nChampion Link!{{size value=\"100\"}}\nYou were unable to protect Lady Mipha{{delay1}}\nfrom {{color id=\"0\"}}Calamity Ganon{{color id=\"65535\"}}!\n\n{{fun_0003_0001 arg=\"0x090C\"}}It has been 100 years since we lost her...{{delay3}}\nPoor Lady Mipha... {{delay1}}How heartbreaking...{{fun_0001_000A arg=\"0x060001CD\"}}",
      "USes": "{{size value=\"125\"}}{{fun_0003_0001 arg=\"0x080E\"}}Te haces el inocente, {{delay1}}¿eh?{{size value=\"100\"}}{{pageBreak}}¡¿Cómo te haces llamar campeón\nsi no fuiste capaz de proteger a\nla princesa Mipha{{delay1}} de {{color id=\"0\"}}Ganon{{color id=\"65535\"}}?!\n{{fun_0003_0001 arg=\"0x090C\"}}Y pensar que ya han transcurrido\ncien años...{{delay3}} Pobre princesa Mipha.{{fun_0001_000A arg=\"0x060001CD\"}}",
      "USfr": "{{size value=\"125\"}}{{fun_0003_0001 arg=\"0x080E\"}}Ne fais pas l'ignorant, Prodige!{{size value=\"100\"}}\n\n\nTu as été incapable de protéger Son\nAltesse Mipha{{delay1}} face au {{color id=\"0\"}}Fléau Ganon{{color id=\"65535\"}}!\n\n{{fun_0003_0001 arg=\"0x090C\"}}Depuis, 100 longues années se sont\nécoulées...{{delay3}} Aaah, pauvre princesse...\n{{delay1}}Quelle tragédie...{{fun_0001_000A arg=\"0x060001CD\"}}"
    }
  },
  {
    "label": "talk05",
    "attribute": "0x32010000",
    "locale": {
      "CNzh": "{{fun_0003_0001 arg=\"0x080E\"}}哼！{{delay3}}事到如今已不指望你了卓啦！\n\n老夫塞恭，人称领地的魔鬼中士！{{delay3}}\n哪怕粉身碎骨，\n也要赏{{color id=\"2\"}}露塔{{color id=\"65535\"}}一发{{color id=\"2\"}}电箭{{color id=\"65535\"}}，{{delay1}}\n替米法大人报仇雪恨卓啦！\n{{fun_0003_0001 arg=\"0x0214\"}}听懂了就快滚！",
      "EUde": "{{fun_0003_0001 arg=\"0x080E\"}}Hmpf! {{delay3}}Niemand hier will deine Hilfe!{{pageBreak}}Ich, Segon, Feldwebel des Todes,\nschwöre...{{delay3}} Zogleich es mein Ende\nbedeuten mag...\nIch werde {{color id=\"2\"}}{{wordInfo gender=\"1\" defArticle=\"0\" indefArticle=\"0\" isPlural=\"0\"}}Elektropfeile{{color id=\"65535\"}} auf {{color id=\"2\"}}Ruta{{color id=\"65535\"}}\nhinabregnen lassen und das Unrecht\ngutmachen, das Mipha angetan wurde!\n{{fun_0003_0001 arg=\"0x0214\"}}Hast du verstanden?{{delay1}}\nDann hau endlich ab!",
      "EUen": "{{fun_0003_0001 arg=\"0x080E\"}}Hmph! {{delay3}}There is no way we would ask for\nyour help now, after all this time and\nafter all that has happened!\nSo says I, Seggin, the Demon Sergeant!{{delay3}}\nEven if this body of mine is destroyed...\n\nI will drown {{color id=\"2\"}}Ruta{{color id=\"65535\"}} in {{color id=\"2\"}}shock arrows {{color id=\"65535\"}}myself!{{delay1}}\nAnd in doing so, {{color id=\"2\"}}Lady Mipha{{color id=\"65535\"}}'s regrets\nshall be alleviated.\n{{fun_0003_0001 arg=\"0x0214\"}}If you understand anything of courage,\nthen get out of my way at once!",
      "EUes": "{{fun_0003_0001 arg=\"0x080E\"}}¡Ja!{{delay3}} Ni de broma te pediríamos ayuda\ndespués de todo este tiempo.{{pageBreak}}¡Soy Siggun, el sargento demoníaco!\nAunque mi cuerpo enclenque no\ndeje entreverlo...\n¡Pienso acabar con {{color id=\"2\"}}Ruta{{color id=\"65535\"}} disparándole\ntodas las {{color id=\"2\"}}flechas eléctricas{{color id=\"65535\"}} que sean\nnecesarias!\nAsí haré que la princesa Mipha no\ntenga nada de lo que arrepentirse...{{pageBreak}}{{fun_0003_0001 arg=\"0x0214\"}}¿Te ha quedado clarinete?\n¡Pues fuera de mi vista!",
      "EUfr": "{{fun_0003_0001 arg=\"0x080E\"}}Hmpf ! {{delay3}}Tu ne crois tout de même pas que\nnous allons te demander de l'aide !\n\nMoi, Étorpe, le sergent démon du\ndomaine,{{delay3}} même si je dois y laisser mes\nécailles...\nJe percerai {{color id=\"2\"}}Ruta {{color id=\"65535\"}}de {{color id=\"2\"}}flèches électriques{{color id=\"65535\"}}{{delay1}}\npour que Son Altesse Mipha puisse\nreposer en paix !\n{{fun_0003_0001 arg=\"0x0214\"}}Tu as compris ? Hors de ma vue !\nQue tes nageoires sèchent et tombent !",
      "EUit": "{{fun_0003_0001 arg=\"0x080E\"}}Tsk! {{delay3}}Non penserai che ti chiederemo\naiuto, dopo tutto questo tempo!\n\nIo, Sekon, ex sergente di ferro\ndell'esercito del villaggio degli Zora,\na costo della mia stessa vita...\n... Inonderò {{color id=\"2\"}}Ruta{{color id=\"65535\"}} di {{color id=\"2\"}}frecce elettriche{{color id=\"65535\"}}{{delay1}} e\ncosì facendo vendicherò la nostra amata\nprincipessa Mipha!\n{{fun_0003_0001 arg=\"0x0214\"}}È chiaro? Adesso sparisci!",
      "EUnl": "{{fun_0003_0001 arg=\"0x080E\"}}Hmpf! {{delay3}}Na al die tijd zouden we jou echt\nniet om hulp vragen!{{pageBreak}}Ik ben Seggin, de Zora die vroeger de\nduivelse sergeant werd genoemd!{{pageBreak}}Ik zal eigenhandig een regen van\n{{color id=\"2\"}}elektropijlen {{color id=\"65535\"}}op {{color id=\"2\"}}Ruta{{color id=\"65535\"}} laten neerdalen om\nMipha te wreken!\n{{fun_0003_0001 arg=\"0x0214\"}}Sta me dus niet in de weg!",
      "EUru": "{{fun_0003_0001 arg=\"0x080E\"}}Тьфу!{{delay1}} На этот раз никто не\nнуждается в твоей помощи!{{pageBreak}}На этот раз лично я, Сеггин,\nГенерал Смерть, крючок мне\nв жабры...{{pageBreak}}Да, именно я выпущу последнюю\n{{color id=\"2\"}}грозовую стрелу{{color id=\"65535\"}} в {{color id=\"2\"}}Руту{{color id=\"65535\"}} и отомщу\nза госпожу Мифу!{{pageBreak}}{{fun_0003_0001 arg=\"0x0214\"}}Ты все понял?{{delay1}} Тогда убирайся!",
      "JPja": "{{fun_0003_0001 arg=\"0x080E\"}}フン！ {{delay3}}{{ruby charSpan=\"2\" value=\"いまさら\"}}今更お{{ruby charSpan=\"1\" value=\"ぬし\"}}主の{{ruby charSpan=\"1\" value=\"たす\"}}助けなんざ {{ruby charSpan=\"1\" value=\"か\"}}借りんゾラ！\n\n{{ruby charSpan=\"1\" value=\"さと\"}}里の{{ruby charSpan=\"3\" value=\"おにぐんそう\"}}鬼軍曹こと このセゴン！{{delay3}}\nたとえこの{{ruby charSpan=\"1\" value=\"み\"}}身 {{ruby charSpan=\"1\" value=\"く\"}}朽ちようとも\n{{color id=\"2\"}}ルッタ{{color id=\"65535\"}}に {{color id=\"2\"}}{{ruby charSpan=\"2\" value=\"でんき\"}}電気の{{ruby charSpan=\"1\" value=\"や\"}}矢{{color id=\"65535\"}}を{{ruby charSpan=\"1\" value=\"あ\"}}浴びせ{{delay1}}\nミファー{{ruby charSpan=\"1\" value=\"さま\"}}様の{{ruby charSpan=\"2\" value=\"むねん\"}}無念を お{{ruby charSpan=\"1\" value=\"は\"}}晴らしするゾラ！\n{{fun_0003_0001 arg=\"0x0214\"}}{{ruby charSpan=\"1\" value=\"わ\"}}分かったら{{ruby charSpan=\"1\" value=\"いま\"}}今すぐ {{ruby charSpan=\"1\" value=\"た\"}}立ち{{ruby charSpan=\"1\" value=\"さ\"}}去られい！",
      "KRko": "{{fun_0003_0001 arg=\"0x080E\"}}흥! {{delay3}}이제와서 네 도움 따위 필요없다조라!\n\n마을의 도깨비 중사인 이 세곤!{{delay3}}\n설령 이 몸이 바스라지더라도\n{{color id=\"2\"}}루타{{color id=\"65535\"}}에게 {{color id=\"2\"}}전기의 화살{{color id=\"65535\"}}을 먹여{{delay1}}\n미파님의 한을 풀어드릴 것이다조라!\n{{fun_0003_0001 arg=\"0x0214\"}}알겠으면 어서 썩 꺼지거라!",
      "TWzh": "{{fun_0003_0001 arg=\"0x080E\"}}哼！{{delay3}}事到如今已不指望你了咋啦！\n\n老夫塞恭，人稱領地的魔鬼中士！{{delay3}}\n哪怕是粉身碎骨，\n也要賞{{color id=\"2\"}}露塔{{color id=\"65535\"}}一發{{color id=\"2\"}}電箭{{color id=\"65535\"}}，{{delay1}}\n替米法大人報仇雪恨咋啦！\n{{fun_0003_0001 arg=\"0x0214\"}}聽懂了就快滾！",
      "USen": "{{fun_0003_0001 arg=\"0x080E\"}}Hmph! {{delay3}}There is no way we would ask for\nyour help now, after all this time and\nafter all that has happened!\nSo says I, Seggin, the Demon Sergeant!{{delay3}}\nEven if this body of mine is destroyed...\n\nI will drown {{color id=\"2\"}}Ruta{{color id=\"65535\"}} in {{color id=\"2\"}}shock arrows {{color id=\"65535\"}}myself!{{delay1}}\nAnd in doing so, {{color id=\"2\"}}Lady Mipha{{color id=\"65535\"}}'s regrets\nshall be alleviated.\n{{fun_0003_0001 arg=\"0x0214\"}}If you understand anything of courage,\nthen get out of my way at once!",
      "USes": "{{fun_0003_0001 arg=\"0x080E\"}}¡Ja!{{delay3}} Ni de broma te pediríamos ayuda\ndespués de todo este tiempo.{{pageBreak}}¡Soy Segón, el sargento demoníaco!\nAunque mi cuerpo enclenque haya\nperdido su antigua gloria...\n¡Pienso acabar con {{color id=\"2\"}}Ruta{{color id=\"65535\"}} disparándole\ntodas las {{color id=\"2\"}}flechas eléctricas{{color id=\"65535\"}} que sean\nnecesarias!\nAsí haré que la princesa Mipha no\ntenga nada de lo que arrepentirse...{{pageBreak}}{{fun_0003_0001 arg=\"0x0214\"}}¿Te ha quedado claro?\n¡Pues fuera de mi vista!",
      "USfr": "{{fun_0003_0001 arg=\"0x080E\"}}Hmpf! {{delay3}}Tu ne crois tout de même pas que\nnous allons te demander de l'aide!\n\nMoi, Étorpe, le sergent Démon du\ndomaine,{{delay3}} même si je dois y laisser\nmes écailles...\nJe percerai {{color id=\"2\"}}Ruta {{color id=\"65535\"}}de {{color id=\"2\"}}flèches électriques{{color id=\"65535\"}}{{delay1}}\npour que Son Altesse Mipha puisse\nreposer en paix!\n{{fun_0003_0001 arg=\"0x0214\"}}Tu as compris? Hors de ma vue!\nQue tes nageoires sèchent et tombent!"
    }
  },
  {
    "label": "talk06",
    "attribute": "0x4A010000",
    "locale": {
      "CNzh": "{{fun_0003_0001 arg=\"0x020E\"}}可恨啊，米法大人的仇敌{{delay1}}\n竟然如此恬不知耻……\n但为时已晚卓啦！\n\n元老院评议会已经决定\n派老夫塞恭前去讨伐{{color id=\"2\"}}露塔{{color id=\"65535\"}}了卓啦！{{delay1}}\n{{fun_0003_0001 arg=\"0x0214\"}}你就继续当个缩头乌龟吧卓啦！",
      "EUde": "{{fun_0003_0001 arg=\"0x020E\"}}Diese Dreistigkeit! {{delay1}}Nach allem, was du\nMipha angetan hast, spielst du den\nBezorgten...{{delay1}} Spar dir deine Energie.\nDer Senat hat beschlossen, dass ich,{{delay1}}\nSegon,{{delay1}} {{color id=\"2\"}}Ruta{{color id=\"65535\"}} unschädlich machen zoll.{{pageBreak}}{{fun_0003_0001 arg=\"0x0214\"}}Sei zo gut und halte dich da heraus!",
      "EUen": "{{fun_0003_0001 arg=\"0x020E\"}}You have acted so cold and unconcerned\nabout the harm that befell Lady Mipha...\n\nBut no matter—it is too late now.\n\n\nI shall be the one to shoot {{color id=\"2\"}}Ruta{{color id=\"65535\"}} down.{{delay1}}\nSo it was decided by the Zora council!\n\n{{fun_0003_0001 arg=\"0x0214\"}}Just stay out of my way!",
      "EUes": "{{fun_0003_0001 arg=\"0x020E\"}}Hasta ahora te había importado\nun rábano lo que le sucedió a\nla princesa Mipha.\n¡Ahora ya da igual!{{pageBreak}}Seré yo quien se ocupe de {{color id=\"2\"}}Ruta{{color id=\"65535\"}}.{{delay1}}\nAsí lo ha decidido el consejo de\nsabios zora.\n{{fun_0003_0001 arg=\"0x0214\"}}¡Será mejor que te vayas con\nla música a otra parte!",
      "EUfr": "{{fun_0003_0001 arg=\"0x020E\"}}Tu ne manques pas de culot !{{delay1}} Après ce\nque tu as fait à Son Altesse Mipha...\n\nDe toute façon, il est trop tard !\n\n\nIl a été décidé au conseil du sénat{{delay1}} que\nce serait moi, Étorpe, qui irais occire\n{{color id=\"2\"}}Ruta{{color id=\"65535\"}} !\n{{fun_0003_0001 arg=\"0x0214\"}}Reste en dehors de cela !",
      "EUit": "{{fun_0003_0001 arg=\"0x020E\"}}Non posso che considerarti nemico della\nprincipessa Mipha.{{delay1}} Dopo quello che le\nhai fatto!\nOrmai è troppo tardi!\n\n\nIo sono stato scelto per attaccare {{color id=\"2\"}}Ruta{{color id=\"65535\"}}.{{delay1}}\nÈ stato deciso così dal consiglio degli\nanziani.\n{{fun_0003_0001 arg=\"0x0214\"}}Quindi tu fatti indietro!",
      "EUnl": "{{fun_0003_0001 arg=\"0x020E\"}}Je hebt al die tijd geen enkel medeleven\ngetoond voor het lot van Mipha...{{pageBreak}}En nu ben je te laat!{{pageBreak}}Ik zal degene zijn die {{color id=\"2\"}}Ruta{{color id=\"65535\"}} verslaat!{{delay1}} Dat\nhebben wij oudere Zora's besloten!{{pageBreak}}{{fun_0003_0001 arg=\"0x0214\"}}Dus bemoei je er niet mee!",
      "EUru": "{{fun_0003_0001 arg=\"0x020E\"}}Герой называется...{{delay1}} Ты не смог\nзащитить госпожу Мифу!{{delay1}} И мы\nтебя за это никогда не простим!{{pageBreak}}Совет зора решил, что именно\nя, Сеггин, должен сразить {{color id=\"2\"}}Руту{{color id=\"65535\"}}.{{pageBreak}}{{fun_0003_0001 arg=\"0x0214\"}}А ты не вмешивайся!",
      "JPja": "{{fun_0003_0001 arg=\"0x020E\"}}おのれ ミファー{{ruby charSpan=\"1\" value=\"さま\"}}様の{{ruby charSpan=\"1\" value=\"かたき\"}}仇が{{delay1}}\nよくもノコノコと…\nしかし もう{{ruby charSpan=\"1\" value=\"おそ\"}}遅いゾラ！\n\n{{color id=\"2\"}}ルッタ{{color id=\"65535\"}}は このセゴンが{{ruby charSpan=\"1\" value=\"う\"}}討つと{{delay1}}\n{{ruby charSpan=\"6\" value=\"げんろういんひょうぎかい\"}}元老院評議会で {{ruby charSpan=\"1\" value=\"き\"}}決まったゾラ！\n{{fun_0003_0001 arg=\"0x0214\"}}お{{ruby charSpan=\"1\" value=\"ぬし\"}}主は{{ruby charSpan=\"1\" value=\"ひ\"}}引っ{{ruby charSpan=\"1\" value=\"こ\"}}込んどれゾラ！",
      "KRko": "{{fun_0003_0001 arg=\"0x020E\"}}네 이놈 미파님의 원수{{delay1}}\n용케도 뻔뻔하게…\n하지만 이미 늦었다조라!\n\n{{color id=\"2\"}}루타{{color id=\"65535\"}}는 이 세곤이 무찌르기로{{delay1}}\n원로원 평의회에서 결정됐다조라!\n{{fun_0003_0001 arg=\"0x0214\"}}너는 물러나 있거라조라!",
      "TWzh": "{{fun_0003_0001 arg=\"0x020E\"}}可恨啊，米法大人的仇敵{{delay1}}\n竟敢這樣恬不知恥……\n但為時已晚了咋啦！\n\n元老院評議會已經決定\n派老夫塞恭前去討伐{{color id=\"2\"}}露塔{{color id=\"65535\"}}了咋啦！{{delay1}}\n{{fun_0003_0001 arg=\"0x0214\"}}你就繼續當個縮頭烏龜咋啦！",
      "USen": "{{fun_0003_0001 arg=\"0x020E\"}}You have acted so cold and unconcerned\nabout the harm that befell Lady Mipha...\n\nBut no matter—it is too late now.\n\n\nI shall be the one to shoot {{color id=\"2\"}}Ruta{{color id=\"65535\"}} down.{{delay1}}\nSo it was decided by the Zora council!\n\n{{fun_0003_0001 arg=\"0x0214\"}}Just stay out of my way!",
      "USes": "{{fun_0003_0001 arg=\"0x020E\"}}Hasta ahora te había importado nada\nlo que le sucedió a la princesa Mipha.{{pageBreak}}¡Ahora ya da igual!{{pageBreak}}Seré yo quien se ocupe de {{color id=\"2\"}}Ruta{{color id=\"65535\"}}.{{delay1}}\nAsí lo ha decidido el consejo de\nsabios zora.\n{{fun_0003_0001 arg=\"0x0214\"}}¡Será mejor que no te entrometas!",
      "USfr": "{{fun_0003_0001 arg=\"0x020E\"}}Tu ne manques pas de culot!{{delay1}} Après ce\nque tu as fait à Son Altesse Mipha...\n\nDe toute façon, il est trop tard!\n\n\nIl a été décidé au conseil du sénat{{delay1}} que\nce serait moi, Étorpe, qui irais occire\n{{color id=\"2\"}}Ruta{{color id=\"65535\"}}!\n{{fun_0003_0001 arg=\"0x0214\"}}Reste en dehors de cela!"
    }
  },
  {
    "label": "talk07",
    "attribute": "0x62010000",
    "locale": {
      "CNzh": "{{fun_0003_0001 arg=\"0x080E\"}}你是……{{delay1}}林克！",
      "EUde": "{{fun_0003_0001 arg=\"0x080E\"}}Du... {{delay1}}Du bist doch Link!",
      "EUen": "{{fun_0003_0001 arg=\"0x080E\"}}You! {{delay1}}Link!",
      "EUes": "{{fun_0003_0001 arg=\"0x080E\"}}Tú... {{delay1}}¡Link!",
      "EUfr": "{{fun_0003_0001 arg=\"0x080E\"}}Toi... {{delay1}}Link !",
      "EUit": "{{fun_0003_0001 arg=\"0x080E\"}}Tu... {{delay1}}Link!",
      "EUnl": "{{fun_0003_0001 arg=\"0x080E\"}}Jij... {{delay1}}Link!",
      "EUru": "{{fun_0003_0001 arg=\"0x080E\"}}Линк!",
      "JPja": "{{fun_0003_0001 arg=\"0x080E\"}}お{{ruby charSpan=\"1\" value=\"ぬし\"}}主… {{delay1}}リンク！",
      "KRko": "{{fun_0003_0001 arg=\"0x080E\"}}네 이놈… {{delay1}}링크!",
      "TWzh": "{{fun_0003_0001 arg=\"0x080E\"}}你是……{{delay1}}林克！",
      "USen": "{{fun_0003_0001 arg=\"0x080E\"}}You! {{delay1}}Link!",
      "USes": "{{fun_0003_0001 arg=\"0x080E\"}}Tú... {{delay1}}¡Link!",
      "USfr": "{{fun_0003_0001 arg=\"0x080E\"}}Toi... {{delay1}}Link!"
    }
  },
  {
    "label": "talk08",
    "attribute": "0x7A010000",
    "locale": {
      "CNzh": "{{fun_0003_0001 arg=\"0x0814\"}}又是你！",
      "EUde": "{{fun_0003_0001 arg=\"0x0814\"}}Bist du noch immer hier?",
      "EUen": "{{fun_0003_0001 arg=\"0x0814\"}}You again?!",
      "EUes": "{{fun_0003_0001 arg=\"0x0814\"}}¡¿Tú otra vez?!",
      "EUfr": "{{fun_0003_0001 arg=\"0x0814\"}}Encore toi !",
      "EUit": "{{fun_0003_0001 arg=\"0x0814\"}}Di nuovo tu?!",
      "EUnl": "{{fun_0003_0001 arg=\"0x0814\"}}Jij alweer?!",
      "EUru": "{{fun_0003_0001 arg=\"0x0814\"}}Опять ты!",
      "JPja": "{{fun_0003_0001 arg=\"0x0814\"}}また お{{ruby charSpan=\"1\" value=\"ぬし\"}}主か！",
      "KRko": "{{fun_0003_0001 arg=\"0x0814\"}}또 네 녀석이냐!",
      "TWzh": "{{fun_0003_0001 arg=\"0x0814\"}}又是你！",
      "USen": "{{fun_0003_0001 arg=\"0x0814\"}}You again?!",
      "USes": "{{fun_0003_0001 arg=\"0x0814\"}}¡¿Tú otra vez?!",
      "USfr": "{{fun_0003_0001 arg=\"0x0814\"}}Encore toi!"
    }
  },
  {
    "label": "talk10",
    "attribute": "0x92010000",
    "locale": {
      "CNzh": "{{fun_0003_0001 arg=\"0x080E\"}}无论是否有{{color id=\"2\"}}电箭{{color id=\"65535\"}}在手，{{delay1}}\n老夫都要单枪匹马朝{{color id=\"2\"}}神兽瓦·露塔{{color id=\"65535\"}}突击卓啦！\n别来碍事，{{color id=\"2\"}}林克{{color id=\"65535\"}}！{{fun_0001_0004 arg=\"0x020003000002\"}}",
      "EUde": "{{fun_0003_0001 arg=\"0x080E\"}}Ob mit {{color id=\"2\"}}{{wordInfo gender=\"1\" defArticle=\"0\" indefArticle=\"0\" isPlural=\"0\"}}Elektropfeilen{{color id=\"65535\"}} oder ohne...{{delay1}}\nIch beabsichtige, {{color id=\"2\"}}{{delay1}}Vah Ruta{{color id=\"65535\"}} allein\nanzugreifen!{{pageBreak}}Ich werde nicht ruhen, bis ich mein\nZoll erfüllt habe. {{delay1}}Und auch du wirst mich\nnicht aufhalten, Link!{{fun_0001_0004 arg=\"0x020003000002\"}}",
      "EUen": "{{fun_0003_0001 arg=\"0x080E\"}}Though I lack the {{color id=\"2\"}}shock arrows{{color id=\"65535\"}} needed\nfor the job, {{delay1}}I am on my way to take on\nthe {{color id=\"2\"}}Divine Beast Vah Ruta{{color id=\"65535\"}} all by myself!\nDo not try to stop me, {{color id=\"2\"}}Link{{color id=\"65535\"}}!{{fun_0001_0004 arg=\"0x020003000002\"}}",
      "EUes": "{{fun_0003_0001 arg=\"0x080E\"}}Voy a darle su merecido a\nla {{color id=\"2\"}}{{wordInfo gender=\"2\" defArticle=\"1\" indefArticle=\"1\" isPlural=\"0\"}}bestia divina Vah Ruta{{color id=\"65535\"}}.\n¡Con {{color id=\"2\"}}flechas eléctricas{{color id=\"65535\"}} o sin ellas!\n¡Ni se te ocurra detenerme, {{color id=\"2\"}}Link{{color id=\"65535\"}}!{{fun_0001_0004 arg=\"0x020003000002\"}}",
      "EUfr": "{{fun_0003_0001 arg=\"0x080E\"}}Avec ou sans {{color id=\"2\"}}flèches électriques{{color id=\"65535\"}},{{delay1}}\nj'ai l'intention d'aller pourfendre\n{{color id=\"2\"}}Vah'Ruta {{color id=\"65535\"}}seul !\nNe tente pas de m'en empêcher, {{color id=\"2\"}}Link {{color id=\"65535\"}}!{{fun_0001_0004 arg=\"0x020003000002\"}}",
      "EUit": "{{fun_0003_0001 arg=\"0x080E\"}}Che ci sia bisogno o meno delle {{color id=\"2\"}}frecce\nelettriche{{color id=\"65535\"}}, {{delay1}}sto andando a sfidare\nil {{color id=\"2\"}}colosso sacro Vah Ruta{{color id=\"65535\"}} da solo!\nNon cercare di fermarmi, {{color id=\"2\"}}Link{{color id=\"65535\"}}, blub!{{fun_0001_0004 arg=\"0x020003000002\"}}",
      "EUnl": "{{fun_0003_0001 arg=\"0x080E\"}}Of ik nou {{color id=\"2\"}}elektropijlen {{color id=\"65535\"}}nodig heb of niet,\nik ben onderweg om {{color id=\"2\"}}Vah Ruta{{color id=\"65535\"}} zelf aan\nte vallen!{{pageBreak}}Probeer me niet tegen te houden, {{color id=\"2\"}}Link{{color id=\"65535\"}}!{{fun_0001_0004 arg=\"0x020003000002\"}}",
      "EUru": "{{fun_0003_0001 arg=\"0x080E\"}}Я сражу {{color id=\"2\"}}Чудище Ва-Руту{{color id=\"65535\"}} —\nс {{color id=\"2\"}}грозовыми стрелами{{color id=\"65535\"}} или\nбез них!{{pageBreak}}Не пытайся мне помешать, Линк!{{fun_0001_0004 arg=\"0x020003000002\"}}",
      "JPja": "{{fun_0003_0001 arg=\"0x080E\"}}ワシは {{color id=\"2\"}}{{ruby charSpan=\"2\" value=\"でんき\"}}電気の{{ruby charSpan=\"1\" value=\"や\"}}矢{{color id=\"65535\"}}の{{ruby charSpan=\"2\" value=\"うむ\"}}有無にかかわらず{{delay1}}\n{{color id=\"2\"}}{{ruby charSpan=\"2\" value=\"しんじゅう\"}}神獣 ヴァ・ルッタ{{color id=\"65535\"}}に {{ruby charSpan=\"2\" value=\"ひとり\"}}一人 {{ruby charSpan=\"2\" value=\"とっかん\"}}突貫する{{ruby charSpan=\"2\" value=\"しょぞん\"}}所存ゾラ！\n{{ruby charSpan=\"1\" value=\"と\"}}止めてくれるなよ {{color id=\"2\"}}リンク{{color id=\"65535\"}}！{{fun_0001_0004 arg=\"0x020003000002\"}}",
      "KRko": "{{fun_0003_0001 arg=\"0x080E\"}}나는 {{color id=\"2\"}}전기의 화살{{color id=\"65535\"}}이 있든 없든{{delay1}}\n{{color id=\"2\"}}신수 바·루타{{color id=\"65535\"}}에게 혼자 도전할 생각이다조라!\n나를 막지 말거라 {{color id=\"2\"}}링크{{color id=\"65535\"}}!{{fun_0001_0004 arg=\"0x020003000002\"}}",
      "TWzh": "{{fun_0003_0001 arg=\"0x080E\"}}無論是否有{{color id=\"2\"}}電箭{{color id=\"65535\"}}在手，{{delay1}}\n老夫都要單身朝{{color id=\"2\"}}神獸瓦‧露塔{{color id=\"65535\"}}突擊咋啦！\n別來礙事，{{color id=\"2\"}}林克{{color id=\"65535\"}}！{{fun_0001_0004 arg=\"0x020003000002\"}}",
      "USen": "{{fun_0003_0001 arg=\"0x080E\"}}Though I lack the {{color id=\"2\"}}shock arrows{{color id=\"65535\"}} needed\nfor the job, {{delay1}}I am on my way to take on\nthe {{color id=\"2\"}}Divine Beast Vah Ruta{{color id=\"65535\"}} all by myself!\nDo not try to stop me, {{color id=\"2\"}}Link{{color id=\"65535\"}}!{{fun_0001_0004 arg=\"0x020003000002\"}}",
      "USes": "{{fun_0003_0001 arg=\"0x080E\"}}Voy a darle su merecido a\nla {{color id=\"2\"}}{{wordInfo gender=\"2\" defArticle=\"1\" indefArticle=\"1\" isPlural=\"0\"}}bestia divina Vah Ruta{{color id=\"65535\"}}.\n¡Con {{color id=\"2\"}}flechas eléctricas{{color id=\"65535\"}} o sin ellas!\n¡Ni se te ocurra detenerme, {{color id=\"2\"}}Link{{color id=\"65535\"}}!{{fun_0001_0004 arg=\"0x020003000002\"}}",
      "USfr": "{{fun_0003_0001 arg=\"0x080E\"}}Avec ou sans {{color id=\"2\"}}flèches électriques{{color id=\"65535\"}},{{delay1}}\nj'ai l'intention d'aller pourfendre\n{{color id=\"2\"}}Vah'Ruta {{color id=\"65535\"}}seul!\nNe tente pas de m'en empêcher, {{color id=\"2\"}}Link{{color id=\"65535\"}}!{{fun_0001_0004 arg=\"0x020003000002\"}}"
    }
  },
  {
    "label": "talk11",
    "attribute": "0xAA010000",
    "locale": {
      "CNzh": "{{fun_0003_0001 arg=\"0x0209\"}}哈哈哈哈！{{delay1}}\n你可没资格说老夫卓啦！",
      "EUde": "{{fun_0003_0001 arg=\"0x0209\"}}Hahahaha!{{delay1}}\nDu wagst es, mir zo etwas zu sagen?",
      "EUen": "{{fun_0003_0001 arg=\"0x0209\"}}Ha ha ha!{{delay1}} That is the very last thing\nI wish to hear from you!",
      "EUes": "{{fun_0003_0001 arg=\"0x0209\"}}¡Ja, ja!{{delay1}} ¡Lo que me faltaba!",
      "EUfr": "{{fun_0003_0001 arg=\"0x0209\"}}Hahahaha !{{delay1}} Comme si j'avais besoin\nde tes encouragements !",
      "EUit": "{{fun_0003_0001 arg=\"0x0209\"}}Ah ah ah!{{delay1}} Questa è l'ultima cosa che\nvorrei sentire da te, blub!",
      "EUnl": "{{fun_0003_0001 arg=\"0x0209\"}}Ha ha ha ha!{{delay1}} Dat is wel het laatste dat ik\nvan jou wil horen!",
      "EUru": "{{fun_0003_0001 arg=\"0x0209\"}}Ха-ха-ха!{{delay1}} Оставь свои\nпожелания при себе!",
      "JPja": "{{fun_0003_0001 arg=\"0x0209\"}}ハハハハ！{{delay1}}\nお{{ruby charSpan=\"1\" value=\"ぬし\"}}主に{{ruby charSpan=\"1\" value=\"い\"}}言われたくないゾラ！",
      "KRko": "{{fun_0003_0001 arg=\"0x0209\"}}하하하하!{{delay1}}\n너에게만은 듣고 싶지 않다조라!",
      "TWzh": "{{fun_0003_0001 arg=\"0x0209\"}}哈哈哈哈！{{delay1}}\n你可沒資格說老夫咋啦！",
      "USen": "{{fun_0003_0001 arg=\"0x0209\"}}Ha ha ha!{{delay1}} That is the very last thing\nI wish to hear from you!",
      "USes": "{{fun_0003_0001 arg=\"0x0209\"}}¡Ja, ja!{{delay1}} ¡Lo que me faltaba!",
      "USfr": "{{fun_0003_0001 arg=\"0x0209\"}}Hahahaha!{{delay1}} Comme si j'avais besoin\nde tes encouragements!"
    }
  },
  {
    "label": "talk12",
    "attribute": "0xC2010000",
    "locale": {
      "CNzh": "{{size value=\"125\"}}{{fun_0003_0001 arg=\"0x080E\"}}啥──！{{delay3}}胡扯什么！{{size value=\"100\"}}\n\n老夫塞恭过去光是在战场现身，{{delay1}}\n对手就跟看到魔鬼一样吓得屁滚尿流。\n{{fun_0003_0001 arg=\"0x0010\"}}不过是制止{{color id=\"2\"}}神兽瓦·露塔{{color id=\"65535\"}}这点小事，{{delay1}}\n就跟对付婴儿没两样……{{delay1}}轻而易举卓啦！",
      "EUde": "{{size value=\"125\"}}{{fun_0003_0001 arg=\"0x080E\"}}Graaaah! {{delay3}}Dir fehlt es an Respekt!{{pageBreak}}{{size value=\"100\"}}Vergiss nicht, dass du mit dem großen\nSegon sprichst, der einst als Feldwebel\ndes Todes gefürchtet war!\n{{fun_0003_0001 arg=\"0x0010\"}}{{color id=\"2\"}}Vah Ruta{{color id=\"65535\"}} aufzuhalten ist für mich zo\nleicht,{{delay1}} wie einem Baby den Hering\nwegzunehmen!",
      "EUen": "{{size value=\"125\"}}{{fun_0003_0001 arg=\"0x080E\"}}AAAARGH! {{delay2}}What did you say?!{{size value=\"100\"}}\n\n\nI, Seggin, used to strike fear into the\nhearts of demons{{delay1}} just by setting foot\nonto the battlefield!\n{{fun_0003_0001 arg=\"0x0000\"}}Stopping the {{color id=\"2\"}}Divine Beast Vah Ruta{{color id=\"65535\"}}{{delay1}}\nwill be simpler than taking a fish from\na baby... {{delay1}}No trouble at all, I say!",
      "EUes": "{{size value=\"125\"}}{{fun_0003_0001 arg=\"0x080E\"}}¡Mentecato! {{delay3}}¿Qué dices?{{size value=\"100\"}}{{pageBreak}}Yo, el famoso Siggun, inspiraba miedo\nhasta a los mismísimos demonios. ¡Y con\nsolo poner un pie en el campo de batalla!\n{{fun_0003_0001 arg=\"0x0010\"}}Frenar a la {{color id=\"2\"}}{{wordInfo gender=\"2\" defArticle=\"1\" indefArticle=\"1\" isPlural=\"0\"}}bestia divina Vah Ruta{{color id=\"65535\"}}{{delay1}} va\na ser más fácil que quitarle un caramelo\na un niño.{{delay1}} ¡Chupado!",
      "EUfr": "{{size value=\"125\"}}{{fun_0003_0001 arg=\"0x080E\"}}Raaaah !{{delay3}} Balivernes !{{size value=\"100\"}}\n\n\nJe suis Étorpe ! Celui qui jadis était\ncraint comme un démon sur tous les\nchamps de bataille !\n{{fun_0003_0001 arg=\"0x0010\"}}Arrêter {{color id=\"2\"}}Vah'Ruta{{color id=\"65535\"}}{{delay1}} sera pour moi aussi\nsimple{{delay1}} que de tordre la nageoire d'un\nalevin !",
      "EUit": "{{size value=\"125\"}}{{fun_0003_0001 arg=\"0x080E\"}}AAAHHH! {{delay3}}Cos'hai detto?!{{size value=\"100\"}}\n\n\nIo sono Sekon! Alla mia sola apparizione\nsul campo di battaglia, {{delay1}}i demoni\niniziavano a tremare!\n{{fun_0003_0001 arg=\"0x0010\"}}Fermare il {{color id=\"2\"}}colosso sacro Vah Ruta{{color id=\"65535\"}}{{delay1}}\nsarà più semplice che afferrare un pesce\na mani nude... {{delay1}}Sarà una bazzecola, blub!",
      "EUnl": "{{size value=\"125\"}}{{fun_0003_0001 arg=\"0x080E\"}}GRRRR! {{delay3}}Wat zei je daar?!{{pageBreak}}{{size value=\"100\"}}Ik, Seggin, hoefde vroeger maar een voet\nop het slagveld te zetten en al mijn\ntegenstanders sidderden van angst!\n{{fun_0003_0001 arg=\"0x0010\"}}Het verslaan van {{color id=\"2\"}}Vah Ruta{{color id=\"65535\"}} stelt niks voor.{{delay1}}\nEen fluitje van een cent!",
      "EUru": "{{fun_0003_0001 arg=\"0x080E\"}}{{size value=\"125\"}}Р-р-р!{{delay1}} Что ты сказал?!{{size value=\"100\"}}{{pageBreak}}Я, Сеггин, одним своим видом\nповергал в бегство орды врагов!{{pageBreak}}{{fun_0003_0001 arg=\"0x0010\"}}Победить {{color id=\"2\"}}Чудище Ва-Руту {{color id=\"65535\"}}для меня\nбудет не сложнее, чем...{{delay1}} чем забрать\nу ребенка рыбу!",
      "JPja": "{{size value=\"125\"}}{{fun_0003_0001 arg=\"0x080E\"}}カーーーッ！ {{delay3}}{{ruby charSpan=\"1\" value=\"なに\"}}何を{{ruby charSpan=\"1\" value=\"もう\"}}申すか！{{size value=\"100\"}}\n\nかつては {{ruby charSpan=\"2\" value=\"せんじょう\"}}戦場に{{ruby charSpan=\"1\" value=\"あらわ\"}}現れるだけで{{delay1}}\n{{ruby charSpan=\"1\" value=\"おに\"}}鬼と{{ruby charSpan=\"1\" value=\"おそ\"}}恐れられた このセゴン\n{{fun_0003_0001 arg=\"0x0010\"}}{{color id=\"2\"}}{{ruby charSpan=\"2\" value=\"しんじゅう\"}}神獣 ヴァ・ルッタ{{color id=\"65535\"}}を{{ruby charSpan=\"1\" value=\"と\"}}止めるくらい{{delay1}}\n{{ruby charSpan=\"2\" value=\"あかご\"}}赤子の{{ruby charSpan=\"1\" value=\"て\"}}手をひねるも{{ruby charSpan=\"2\" value=\"どうぜん\"}}同然… {{delay1}}{{ruby charSpan=\"2\" value=\"ぞうさ\"}}造作もない{{ruby charSpan=\"1\" value=\"こと\"}}事ゾラ！",
      "KRko": "{{size value=\"125\"}}{{fun_0003_0001 arg=\"0x080E\"}}크아악~! {{delay3}}무슨 소릴!{{size value=\"100\"}}\n\n한때는 전장에 나타나기만 해도{{delay1}}\n도깨비라며 공포의 대상이었던 이 세곤\n{{fun_0003_0001 arg=\"0x0010\"}}{{color id=\"2\"}}신수 바·루타{{color id=\"65535\"}}를 막는 것쯤{{delay1}}\n어린아이 손목 비틀듯… {{delay1}}간단한 일이다조라!",
      "TWzh": "{{size value=\"125\"}}{{fun_0003_0001 arg=\"0x080E\"}}啥──！{{delay3}}胡扯什麼！{{size value=\"100\"}}\n\n老夫塞恭過去光是在戰場現身，{{delay1}}\n對手就跟看到魔鬼一樣嚇得屁滾尿流。\n{{fun_0003_0001 arg=\"0x0010\"}}不過是制止{{color id=\"2\"}}神獸瓦‧露塔{{color id=\"65535\"}}這點小事，{{delay1}}\n就跟對付嬰兒沒兩樣……{{delay1}}輕而易舉咋啦！",
      "USen": "{{size value=\"125\"}}{{fun_0003_0001 arg=\"0x080E\"}}AAAARGH! {{delay2}}What did you say?!{{size value=\"100\"}}\n\n\nI, Seggin, used to strike fear into the\nhearts of demons{{delay1}} just by setting foot\nonto the battlefield!\n{{fun_0003_0001 arg=\"0x0000\"}}Stopping the {{color id=\"2\"}}Divine Beast Vah Ruta{{color id=\"65535\"}}{{delay1}}\nwill be simpler than taking a fish from\na baby... {{delay1}}No trouble at all, I say!",
      "USes": "{{size value=\"125\"}}{{fun_0003_0001 arg=\"0x080E\"}}¡Mentecato! {{delay3}}¿Qué dices?{{size value=\"100\"}}{{pageBreak}}Yo, el famoso Segón, inspiraba miedo\nhasta a los mismísimos demonios. ¡Y con\nsolo poner un pie en el campo de batalla!\n{{fun_0003_0001 arg=\"0x0010\"}}Frenar a la {{color id=\"2\"}}{{wordInfo gender=\"2\" defArticle=\"1\" indefArticle=\"1\" isPlural=\"0\"}}bestia divina Vah Ruta{{color id=\"65535\"}}{{delay1}} va\na ser más fácil que quitarle un pescado\na un niño.{{delay1}} ¡Facilísimo!",
      "USfr": "{{size value=\"125\"}}{{fun_0003_0001 arg=\"0x080E\"}}Raaaah!{{delay3}} Balivernes!{{size value=\"100\"}}\n\n\nJe suis Étorpe! Celui qui jadis était\ncraint comme un démon sur tous les\nchamps de bataille!\n{{fun_0003_0001 arg=\"0x0010\"}}Arrêter {{color id=\"2\"}}Vah'Ruta{{color id=\"65535\"}}{{delay1}} sera pour moi aussi\nsimple{{delay1}} que de tordre la nageoire d'un\nalevin!"
    }
  },
  {
    "label": "talk13",
    "attribute": "0xDA010000",
    "locale": {
      "CNzh": "{{fun_0003_0001 arg=\"0x0B12\"}}可老夫今天的运势{{delay1}}\n似乎是“小心受伤”……\n迫于无奈，还是择日再战卓啦。",
      "EUde": "{{fun_0003_0001 arg=\"0x0B12\"}}In meinem Horoskop für heute stand\nallerdings:{{delay1}} „Hüte dich vor Unfällen“...{{pageBreak}}Deshalb verbringe ich den heutigen Tag\ndamit, die Umgebung auf Gefahren zu\nzondieren.",
      "EUen": "{{fun_0003_0001 arg=\"0x0B12\"}}Still... {{delay1}}According to my fortune today,\nI should be cautious of injury.\n\nIn light of that, I think it would be for the\nbest if I call it a day.",
      "EUes": "{{fun_0003_0001 arg=\"0x0B12\"}}Aunque las predicciones decían que{{delay1}}\nhoy tendría que tener sumo cuidado\npara no resultar herido...\nAsí que se acabó el entrenamiento\npor hoy.",
      "EUfr": "{{fun_0003_0001 arg=\"0x0B12\"}}Mais aujourd'hui, mon horoscope disait{{delay1}}\n« attention aux blessures ».\n\nAlors je vais plutôt remettre cela\nà un autre jour.",
      "EUit": "{{fun_0003_0001 arg=\"0x0B12\"}}Tuttavia, oggi il mio oroscopo{{delay1}} diceva\ndi essere prudente e stare attento\nalle ferite, blub...\nQuindi per ora mi asterrò, blub.",
      "EUnl": "{{fun_0003_0001 arg=\"0x0B12\"}}Maar volgens mijn horoscoop loop ik\nvandaag een verhoogde kans om\nverwondingen op te lopen...\nDus ik houd er vroeg mee op...",
      "EUru": "{{fun_0003_0001 arg=\"0x0B12\"}}Правда, по гороскопу у меня сегодня\nсложный день: «Избегайте опасных\nситуаций...»{{pageBreak}}Так что надо пораньше лечь спать.",
      "JPja": "{{fun_0003_0001 arg=\"0x0B12\"}}しかし {{ruby charSpan=\"2\" value=\"きょう\"}}今日のワシの{{ruby charSpan=\"2\" value=\"うんせい\"}}運勢は{{delay1}}\n「{{ruby charSpan=\"2\" value=\"けが\"}}怪我に{{ruby charSpan=\"2\" value=\"ちゅうい\"}}注意」らしい…\nしかたないので {{ruby charSpan=\"1\" value=\"ひ\"}}日を{{ruby charSpan=\"1\" value=\"あらた\"}}改めるゾラ",
      "KRko": "{{fun_0003_0001 arg=\"0x0B12\"}}하지만 오늘의 운세에{{delay1}}\n「부상 주의」라고 돼있더군…\n어쩔 수 없으니 다음 기회를 노리지조라",
      "TWzh": "{{fun_0003_0001 arg=\"0x0B12\"}}可老夫今天的運勢{{delay1}}\n似乎是「小心受傷」……\n迫於無奈，還是擇日再戰咋啦。",
      "USen": "{{fun_0003_0001 arg=\"0x0B12\"}}Still... {{delay1}}According to my fortune today,\nI should be cautious of injury.\n\nIn light of that, I think it would be for the\nbest if I call it a day.",
      "USes": "{{fun_0003_0001 arg=\"0x0B12\"}}Aunque el día no augura bien{{delay1}}\ny hoy tendré que tener mucho\ncuidado para no resultar herido.\nSupongo que será mejor dejar\nel entrenamiento para otro día.",
      "USfr": "{{fun_0003_0001 arg=\"0x0B12\"}}Mais aujourd'hui, mon horoscope disait{{delay1}}\n« attention aux blessures ».\n\nAlors, je vais plutôt remettre cela\nà un autre jour."
    }
  },
  {
    "label": "talk14",
    "attribute": "0xF2010000",
    "locale": {
      "CNzh": "{{fun_0003_0001 arg=\"0x000C\"}}老夫真的想替米法大人报仇雪恨，{{delay1}}\n但已到就寝之时……\n要是老夫因睡意而惨遭不测，{{delay1}}\n反而会令米法大人感到哀痛卓啦……",
      "EUde": "{{fun_0003_0001 arg=\"0x000C\"}}Ich brenne darauf, die große Mipha zu\nrächen,{{delay1}} aber dafür muss ich bei vollen\nKräften sein.\nWenn ich zo müde bin, dass es mich\nim Kampf erwischt,{{delay1}} leiste ich Mipha\nkeinen zonderlich großen Dienst.",
      "EUen": "{{fun_0003_0001 arg=\"0x000C\"}}I still greatly wish to dispel {{color id=\"2\"}}Lady Mipha{{color id=\"65535\"}}'s\nlingering regrets, {{delay1}}but I fear it is time to\nretire for a while.\nIf I were to fall due to lack of sleep,{{delay1}}\nthat would only sadden Lady Mipha\nfurther still...",
      "EUes": "{{fun_0003_0001 arg=\"0x000C\"}}Mi único deseo es compensar de algún\nmodo el triste destino que corrió\nla princesa Mipha, {{delay1}}pero hoy ya es tarde.\nDebo descansar para estar fresco\ny resistir cuando llegue el momento\nde la verdad.",
      "EUfr": "{{fun_0003_0001 arg=\"0x000C\"}}Je brûle du désir de venger Son Altesse\nMipha,{{delay1}} mais il est l'heure d'aller dormir.\n\nJe suis sûr que Son Altesse Mipha serait\nfort attristée si j'étais blessé suite à un\nmanque de sommeil...",
      "EUit": "{{fun_0003_0001 arg=\"0x000C\"}}Ardo dal desiderio di vendicare la\nprincipessa Mipha, {{delay1}}ma ormai è giunto\nil momento di ritirarsi per la notte.\nSe non riuscissi nel mio scopo a causa\ndel sonno,{{delay1}} non presterei un gran\nservigio alla nostra Mipha...",
      "EUnl": "{{fun_0003_0001 arg=\"0x000C\"}}Ik wil Mipha nog altijd wreken, {{delay1}}maar alles\nop zijn tijd. En nu is het bedtijd.{{pageBreak}}Als ik zou worden verslagen vanwege\nslaaptekort,{{delay1}} zou Mipha ongetwijfeld\nalleen maar treuriger worden...",
      "EUru": "{{fun_0003_0001 arg=\"0x000C\"}}Я жажду отомстить за госпожу\nМифу, но мне нельзя забывать\nоб отдыхе.{{pageBreak}}Если совершу от усталости роковую\nошибку, это еще больше опечалит\nгоспожу...",
      "JPja": "{{fun_0003_0001 arg=\"0x000C\"}}ミファー{{ruby charSpan=\"1\" value=\"さま\"}}様の{{ruby charSpan=\"2\" value=\"むねん\"}}無念を{{ruby charSpan=\"1\" value=\"は\"}}晴らしたいのは {{ruby charSpan=\"2\" value=\"やまやま\"}}山々じゃが {{delay1}}\n{{ruby charSpan=\"1\" value=\"いま\"}}今は{{ruby charSpan=\"2\" value=\"しゅうしん\"}}就寝の{{ruby charSpan=\"2\" value=\"じかん\"}}時間…\n{{ruby charSpan=\"2\" value=\"ねむけ\"}}眠気でワシがやられてしまっては{{delay1}}\n{{ruby charSpan=\"1\" value=\"ぎゃく\"}}逆にミファー{{ruby charSpan=\"1\" value=\"さま\"}}様を {{ruby charSpan=\"1\" value=\"かな\"}}悲しませてしまうゾラ…",
      "KRko": "{{fun_0003_0001 arg=\"0x000C\"}}미파님의 한을 풀어드리고 싶지만 {{delay1}}\n지금은 취침 시간일세…\n졸음 때문에 내가 당하면{{delay1}}\n오히려 미파님을 슬프게 하는 일이지조라…",
      "TWzh": "{{fun_0003_0001 arg=\"0x000C\"}}老夫真的想替米法大人報仇雪恨，{{delay1}}\n但已到就寢之時……\n要是老夫因睡意而慘遭不測，{{delay1}}\n反而會令米法大人感到哀痛咋啦……",
      "USen": "{{fun_0003_0001 arg=\"0x000C\"}}I still greatly wish to dispel {{color id=\"2\"}}Lady Mipha{{color id=\"65535\"}}'s\nlingering regrets, {{delay1}}but I fear it is time to\nretire for a while.\nIf I were to fall due to lack of sleep,{{delay1}}\nthat would only sadden Lady Mipha\nfurther still...",
      "USes": "{{fun_0003_0001 arg=\"0x000C\"}}Mi único deseo es compensar de algún\nmodo el triste destino que corrió\nla princesa Mipha, {{delay1}}pero ya es tarde.\nDebo descansar para estar fresco\ny resistir cuando llegue el momento\nde la verdad.",
      "USfr": "{{fun_0003_0001 arg=\"0x000C\"}}Je brûle du désir de venger Son Altesse\nMipha,{{delay1}} mais il est l'heure d'aller dormir.\n\nJe suis sûr que Son Altesse Mipha serait\nfort attristée si j'étais blessé suite à un\nmanque de sommeil..."
    }
  },
  {
    "label": "talk15",
    "attribute": "0x0A020000",
    "locale": {
      "CNzh": "{{fun_0003_0001 arg=\"0x090C\"}}米法大人……{{delay1}}老夫塞恭会……{{delay1}}呼噜……",
      "EUde": "{{fun_0003_0001 arg=\"0x090C\"}}Mipha... {{delay1}}Ich, Segon, werde Euch...{{delay1}}\nZzz...",
      "EUen": "{{fun_0003_0001 arg=\"0x090C\"}}Lady Mipha...{{delay1}} I, Seggin...{{delay1}}\nshall avenge you... {{delay1}}Zzz...",
      "EUes": "{{fun_0003_0001 arg=\"0x090C\"}}Princesa Mipha...{{delay1}} Yo, Siggun,\nme encargaré de...{{delay1}} Zzz.",
      "EUfr": "{{fun_0003_0001 arg=\"0x090C\"}}Mipha, Votre Altesse... {{delay1}}Moi, Étorpe, je...{{delay1}}\nZzz...",
      "EUit": "{{fun_0003_0001 arg=\"0x090C\"}}Principessa Mipha...{{delay1}} Ti prego, ancora\nun po' di pazienza...{{delay1}} Zzz...",
      "EUnl": "{{fun_0003_0001 arg=\"0x090C\"}}Mipha...{{delay1}} Ik, Seggin, zal...{{delay1}} Zzz...",
      "EUru": "{{size value=\"80\"}}{{fun_0003_0001 arg=\"0x090C\"}}Госпожа, я ваш верный слуга...{{delay1}} Хр-р-р...{{size value=\"100\"}}",
      "JPja": "{{fun_0003_0001 arg=\"0x090C\"}}ミファー{{ruby charSpan=\"1\" value=\"さま\"}}様… {{delay1}}このセゴンが… {{delay1}}むにゃ…",
      "KRko": "{{fun_0003_0001 arg=\"0x090C\"}}미파님… {{delay1}}이 세곤이… {{delay1}}음냐…",
      "TWzh": "{{fun_0003_0001 arg=\"0x090C\"}}米法大人……{{delay1}}老夫塞恭會……{{delay1}}呼嚕……",
      "USen": "{{fun_0003_0001 arg=\"0x090C\"}}Lady Mipha...{{delay1}} I, Seggin...{{delay1}}\nshall avenge you... {{delay1}}Zzz...",
      "USes": "{{fun_0003_0001 arg=\"0x090C\"}}Princesa Mipha...{{delay1}} Yo, Segón,\nme encargaré de...{{delay1}} Zzz.",
      "USfr": "{{fun_0003_0001 arg=\"0x090C\"}}Mipha, Votre Altesse...{{delay1}}\nMoi, Étorpe, je...{{delay1}} Zzz..."
    }
  },
  {
    "label": "talk16",
    "attribute": "0x22020000",
    "locale": {
      "CNzh": "{{fun_0003_0001 arg=\"0x0012\"}}雨……{{delay1}}停了……\n\n这难道是希多王子他……",
      "EUde": "{{fun_0003_0001 arg=\"0x0012\"}}Der Regen... {{delay1}}Er hat aufgehört.{{pageBreak}}Heißt das... Prinz Sidon hat...?",
      "EUen": "{{fun_0003_0001 arg=\"0x0012\"}}The rain...{{delay1}}has stopped.\n\n\nCould this be Prince Sidon's doing?",
      "EUes": "{{fun_0003_0001 arg=\"0x0012\"}}Ya no llueve...{{pageBreak}}¿Habrá sido obra del príncipe Sidon?",
      "EUfr": "{{fun_0003_0001 arg=\"0x0012\"}}La pluie... {{delay1}}Elle s'est arrêtée...\n\n\nCe pourrait-il que Son Altesse Sidon\nait...",
      "EUit": "{{fun_0003_0001 arg=\"0x0012\"}}Ha smesso...{{delay1}} di piovere...\n\n\nChe sia opera del principe Sidon...?",
      "EUnl": "{{fun_0003_0001 arg=\"0x0012\"}}Het regent niet meer...{{pageBreak}}Is dit het werk van prins Sidon?",
      "EUru": "{{fun_0003_0001 arg=\"0x0012\"}}Дожди перестали...{{delay1}} Неужто\nпринц Сидон постарался?",
      "JPja": "{{fun_0003_0001 arg=\"0x0012\"}}{{ruby charSpan=\"1\" value=\"あめ\"}}雨が… {{delay1}}{{ruby charSpan=\"1\" value=\"あ\"}}上がった…\n\nこれは もしやシド{{ruby charSpan=\"2\" value=\"おうじ\"}}王子が…",
      "KRko": "{{fun_0003_0001 arg=\"0x0012\"}}비가… {{delay1}}그쳤군…\n\n설마하니 시드 왕자가…",
      "TWzh": "{{fun_0003_0001 arg=\"0x0012\"}}雨……{{delay1}}停了……\n\n這難道是希多王子他……",
      "USen": "{{fun_0003_0001 arg=\"0x0012\"}}The rain...{{delay1}}has stopped.\n\n\nCould this be Prince Sidon's doing?",
      "USes": "{{fun_0003_0001 arg=\"0x0012\"}}Ya no llueve...{{pageBreak}}¿Habrá sido obra del príncipe Sidon?",
      "USfr": "{{fun_0003_0001 arg=\"0x0012\"}}La pluie... {{delay1}}Elle s'est arrêtée...\n\n\nCe pourrait-il que Son Altesse Sidon\nait..."
    }
  },
  {
    "label": "talk17",
    "attribute": "0x3A020000",
    "locale": {
      "CNzh": "{{fun_0003_0001 arg=\"0x0021\"}}鼾鼾鼾～{{delay1}}呼噜呼噜。",
      "EUde": "{{fun_0003_0001 arg=\"0x0021\"}}Grrrrrr... {{delay1}}ZZZzzz...",
      "EUen": "{{fun_0003_0001 arg=\"0x0021\"}}Zzz... {{delay1}}*snore* ",
      "EUes": "{{fun_0003_0001 arg=\"0x0021\"}}Zzz...",
      "EUfr": "{{fun_0003_0001 arg=\"0x0021\"}}Brrrr... {{delay1}}Zzzz...",
      "EUit": "{{fun_0003_0001 arg=\"0x0021\"}}Ronf... {{delay1}}Zzz...",
      "EUnl": "{{fun_0003_0001 arg=\"0x0021\"}}Zzz...{{delay1}} Zzz...",
      "EUru": "{{fun_0003_0001 arg=\"0x0021\"}}Хр-р-р...",
      "JPja": "{{fun_0003_0001 arg=\"0x0021\"}}ごごご～… {{delay1}}むにゃむにゃ",
      "KRko": "{{fun_0003_0001 arg=\"0x0021\"}}드르렁… {{delay1}}음냐음냐",
      "TWzh": "{{fun_0003_0001 arg=\"0x0021\"}}鼾鼾鼾～{{delay1}}呼嚕呼嚕。",
      "USen": "{{fun_0003_0001 arg=\"0x0021\"}}Zzz... {{delay1}}*snore* ",
      "USes": "{{fun_0003_0001 arg=\"0x0021\"}}Zzz...",
      "USfr": "{{fun_0003_0001 arg=\"0x0021\"}}Brrrr... {{delay1}}Zzzz..."
    }
  },
  {
    "label": "talk18",
    "attribute": "0x52020000",
    "locale": {
      "CNzh": "{{fun_0003_0001 arg=\"0x0021\"}}魔鬼塞恭……{{delay1}}即刻上阵……{{size value=\"80\"}}呼噜……{{size value=\"100\"}}",
      "EUde": "{{fun_0003_0001 arg=\"0x0021\"}}Der Feldwebel des Todes ist da... {{delay1}}\nErzittert vor ihm... {{size value=\"80\"}}Hmnbl...{{size value=\"100\"}}",
      "EUen": "{{fun_0003_0001 arg=\"0x0021\"}}The Demon Sergeant...{{delay1}}has arrived...{{delay1}}\n{{size value=\"80\"}}Zzz...{{size value=\"100\"}}",
      "EUes": "{{fun_0003_0001 arg=\"0x0021\"}}El temible Siggun ha llegado... {{delay1}}{{size value=\"80\"}}Zzz.{{size value=\"100\"}}",
      "EUfr": "{{fun_0003_0001 arg=\"0x0021\"}}Étorpe le sergent démon...{{delay1}} Prêt au\ncombat... {{size value=\"80\"}}Zzz...{{size value=\"100\"}}",
      "EUit": "{{fun_0003_0001 arg=\"0x0021\"}}Il sergente di ferro... {{delay1}}è arrivato... {{size value=\"80\"}}Zzz{{size value=\"100\"}}",
      "EUnl": "{{fun_0003_0001 arg=\"0x0021\"}}Seggin, de duivelse sergeant... {{delay1}}staat\nklaar... {{size value=\"80\"}}Zzz...{{size value=\"100\"}}",
      "EUru": "{{size value=\"80\"}}{{fun_0003_0001 arg=\"0x0021\"}}Трепещите, враги...{{delay1}} я Генерал Смерть...{{delay1}} Хр-р-р...{{size value=\"100\"}}",
      "JPja": "{{fun_0003_0001 arg=\"0x0021\"}}{{ruby charSpan=\"1\" value=\"おに\"}}鬼セゴン… {{delay1}}ただいま{{ruby charSpan=\"2\" value=\"さんじょう\"}}参上… {{size value=\"80\"}}むにゃ{{size value=\"100\"}}",
      "KRko": "{{fun_0003_0001 arg=\"0x0021\"}}도깨비 세곤… {{delay1}}여기 있다… {{size value=\"80\"}}음냐{{size value=\"100\"}}",
      "TWzh": "{{fun_0003_0001 arg=\"0x0021\"}}魔鬼塞恭……{{delay1}}即刻上陣……{{size value=\"80\"}}呼嚕……{{size value=\"100\"}}",
      "USen": "{{fun_0003_0001 arg=\"0x0021\"}}The Demon Sergeant...{{delay1}}has arrived...{{delay1}}\n{{size value=\"80\"}}Zzz...{{size value=\"100\"}}",
      "USes": "{{fun_0003_0001 arg=\"0x0021\"}}El temible Segón ha llegado... {{delay1}}{{size value=\"80\"}}Zzz.{{size value=\"100\"}}",
      "USfr": "{{fun_0003_0001 arg=\"0x0021\"}}Étorpe le sergent Démon...{{delay1}}\nPrêt au combat... {{size value=\"80\"}}Zzz...{{size value=\"100\"}}"
    }
  },
  {
    "label": "talk19",
    "attribute": "0x6A020000",
    "locale": {
      "CNzh": "{{fun_0003_0001 arg=\"0x080E\"}}你是……{{delay1}}林克！{{delay3}}\n米法大人的仇敌！\n{{fun_0003_0001 arg=\"0x0001\"}}……本想这样叫你，{{delay1}}\n可没想到你竟然帮我们镇压了{{color id=\"2\"}}神兽{{color id=\"65535\"}}……\n{{fun_0003_0001 arg=\"0x030C\"}}米法大人的事的确令人遗憾……{{delay1}}\n但老夫已不再怨你了卓啦。",
      "EUde": "{{fun_0003_0001 arg=\"0x080E\"}}Du bist doch...{{delay1}} Link!{{delay3}}\nRache für Miphaaaaa!!!{{pageBreak}}{{fun_0003_0001 arg=\"0x0001\"}}...Zollte ich jetzt sagen. Aber du hast\nden {{color id=\"2\"}}Titanen{{color id=\"65535\"}} besänftigt und mir zomit\nden Wind aus den Segeln genommen.\n{{fun_0003_0001 arg=\"0x030C\"}}Der Vorfall damals mit Mipha war eine\nTragödie zondergleichen...{{delay1}} Aber ich kann\ndir nicht länger böse sein.",
      "EUen": "{{fun_0003_0001 arg=\"0x080E\"}}You! {{delay1}}Link!{{delay2}} I have avenged Lady Mipha!\n\n\n{{fun_0003_0001 arg=\"0x0001\"}}Actually...I wish I could say that, but it is\nnot true. {{delay1}}To think you of all people would\nbe the one to appease the {{color id=\"2\"}}Divine Beast{{color id=\"65535\"}}...\n{{fun_0003_0001 arg=\"0x030C\"}}What happened to Lady Mipha was\nunfortunate...{{delay1}}but I understand now.\nI no longer have reason to despise you.",
      "EUes": "{{fun_0003_0001 arg=\"0x080E\"}}¡Link!{{delay3}} Al fin hemos conseguido\nvenganza por lo que le ocurrió\na la princesa Mipha.\n{{fun_0003_0001 arg=\"0x0001\"}}O eso quisiera decir,{{delay1}} pero has sido\ntú quien se ocupó de la {{color id=\"2\"}}bestia divina{{color id=\"65535\"}}...{{pageBreak}}{{fun_0003_0001 arg=\"0x030C\"}}Lo que le ocurrió a la princesa Mipha\nfue una verdadera tragedia, pero ya\nno tengo motivos para odiarte.",
      "EUfr": "{{fun_0003_0001 arg=\"0x080E\"}}Tu es... {{delay1}}Link !{{delay3}} Tu vas payer ce que tu as\nfait à Son Altesse Mipha !\n\n{{fun_0003_0001 arg=\"0x0001\"}}... C'est probablement ce que j'aurais\ndit si tu n'avais pas réalisé l'exploit\nd'apaiser la {{color id=\"2\"}}créature divine{{color id=\"65535\"}}...\n{{fun_0003_0001 arg=\"0x030C\"}}Cela ne ramènera pas Son Altesse Mipha\nà la vie mais...{{delay1}} je n'ai plus aucune raison\nde t'en vouloir.\nPuissent tes nageoires rester à jamais\nhumides.",
      "EUit": "{{fun_0003_0001 arg=\"0x080E\"}}Tu... {{delay1}}Link!{{delay3}} Ascolta! Ho vendicato\nla venerabile Mipha!\n\n{{fun_0003_0001 arg=\"0x0001\"}}Vorrei poterlo dire,{{delay1}} ma non è vero. Ah,{{delay1}}\nchi l'avrebbe mai detto che saresti stato\nproprio tu a placare il {{color id=\"2\"}}colosso sacro{{color id=\"65535\"}}...\n{{fun_0003_0001 arg=\"0x030C\"}}Quello che successe alla venerabile\nMipha fu increscioso...{{delay1}} Ma ora\nnon ho più ragioni per odiarti.",
      "EUnl": "{{fun_0003_0001 arg=\"0x080E\"}}Jij bent toch... {{delay1}}Link?!{{delay3}} Nu kan ik Mipha\nwreken!{{pageBreak}}{{fun_0003_0001 arg=\"0x0001\"}}Of dat zou ik graag zeggen,{{delay1}} als niet juist\njij degene was geweest die de {{color id=\"2\"}}Titaan{{color id=\"65535\"}}\nheeft gekalmeerd...\n{{fun_0003_0001 arg=\"0x030C\"}}Het is erg verdrietig wat Mipha is\noverkomen...{{delay1}} maar ik heb geen reden\nmeer om jou te verachten.",
      "EUru": "{{fun_0003_0001 arg=\"0x080E\"}}Ты ведь...{{delay1}} Линк!{{delay3}} Госпожа\nМифа, я за вас отомщу!{{pageBreak}}{{fun_0003_0001 arg=\"0x0001\"}}Вот что я сказал бы, если\nбы ты не усмирил {{color id=\"2\"}}Чудище{{color id=\"65535\"}}.{{pageBreak}}{{fun_0003_0001 arg=\"0x030C\"}}То, что случилось с моей госпожой,\nужасно, но в этом нет твоей вины.",
      "JPja": "{{fun_0003_0001 arg=\"0x080E\"}}お{{ruby charSpan=\"1\" value=\"ぬし\"}}主… {{delay1}}リンク！{{delay3}}\nミファー{{ruby charSpan=\"1\" value=\"さま\"}}様の{{ruby charSpan=\"1\" value=\"かたき\"}}仇！\n{{fun_0003_0001 arg=\"0x0001\"}}…と{{ruby charSpan=\"1\" value=\"い\"}}言いたいところじゃが{{delay1}}\nまさか お{{ruby charSpan=\"1\" value=\"ぬし\"}}主が{{color id=\"2\"}}{{ruby charSpan=\"2\" value=\"しんじゅう\"}}神獣{{color id=\"65535\"}}を{{ruby charSpan=\"1\" value=\"しず\"}}鎮めてくれたとは…\n{{fun_0003_0001 arg=\"0x030C\"}}ミファー{{ruby charSpan=\"1\" value=\"さま\"}}様の{{ruby charSpan=\"1\" value=\"けん\"}}件は {{ruby charSpan=\"2\" value=\"ざんねん\"}}残念じゃったが…{{delay1}}\nお{{ruby charSpan=\"1\" value=\"ぬし\"}}主を{{ruby charSpan=\"1\" value=\"うら\"}}恨む{{ruby charSpan=\"1\" value=\"こと\"}}事は もうあるまいゾラ",
      "KRko": "{{fun_0003_0001 arg=\"0x080E\"}}네 이놈… {{delay1}}링크!{{delay3}}\n미파님의 원수!\n{{fun_0003_0001 arg=\"0x0001\"}}…라 하고 싶지만{{delay1}}\n설마 자네가 {{color id=\"2\"}}신수{{color id=\"65535\"}}를 잠재우다니…\n{{fun_0003_0001 arg=\"0x030C\"}}미파님 일은 안타깝지만…{{delay1}}\n자네를 원망하는 일은 이제 없을 걸세조라",
      "TWzh": "{{fun_0003_0001 arg=\"0x080E\"}}你是……{{delay1}}林克！{{delay3}}\n米法大人的仇敵！\n{{fun_0003_0001 arg=\"0x0001\"}}……本想這樣叫你，{{delay1}}\n可沒想到你竟然幫我們鎮壓了{{color id=\"2\"}}神獸{{color id=\"65535\"}}……\n{{fun_0003_0001 arg=\"0x030C\"}}米法大人的事的確令人遺憾……{{delay1}}\n但老夫已不再怨你了咋啦。",
      "USen": "{{fun_0003_0001 arg=\"0x080E\"}}You! {{delay1}}Link!{{delay2}} I have avenged Lady Mipha!\n\n\n{{fun_0003_0001 arg=\"0x0001\"}}Actually...I wish I could say that, but it is\nnot true. {{delay1}}To think you of all people would\nbe the one to appease the {{color id=\"2\"}}Divine Beast{{color id=\"65535\"}}...\n{{fun_0003_0001 arg=\"0x030C\"}}What happened to Lady Mipha was\nunfortunate...{{delay1}}but I understand now.\nI no longer have reason to despise you.",
      "USes": "{{fun_0003_0001 arg=\"0x080E\"}}¡Link!{{delay3}} Al fin hemos conseguido\nvenganza por lo que le ocurrió\na la princesa Mipha.\n{{fun_0003_0001 arg=\"0x0001\"}}O eso quisiera decir,{{delay1}} pero has sido\ntú quien se ocupó de la {{color id=\"2\"}}bestia divina{{color id=\"65535\"}}...{{pageBreak}}{{fun_0003_0001 arg=\"0x030C\"}}Lo que le ocurrió a la princesa Mipha\nfue una verdadera tragedia, pero ya\nno tengo motivos para odiarte.",
      "USfr": "{{fun_0003_0001 arg=\"0x080E\"}}Tu es... {{delay1}}Link!{{delay3}} Tu vas payer ce que\ntu as fait à Son Altesse Mipha!\n\n{{fun_0003_0001 arg=\"0x0001\"}}... C'est probablement ce que j'aurais\ndit si tu n'avais pas réalisé l'exploit\nd'apaiser la {{color id=\"2\"}}créature divine{{color id=\"65535\"}}...\n{{fun_0003_0001 arg=\"0x030C\"}}Cela ne ramènera pas Son Altesse Mipha\nà la vie mais...{{delay1}} je n'ai plus aucune raison\nde t'en vouloir.\nPuissent tes nageoires rester à jamais\nhumides."
    }
  },
  {
    "label": "talk20",
    "attribute": "0x82020000",
    "locale": {
      "CNzh": "{{fun_0003_0001 arg=\"0x0004\"}}林克……{{delay1}}没想到\n你会来镇压{{color id=\"2\"}}神兽{{color id=\"65535\"}}，\n在100年前，自从米法大人被{{color id=\"2\"}}神兽{{color id=\"65535\"}}给吞没之后，{{delay1}}\n老夫便一直对你恨之入骨，\n{{fun_0003_0001 arg=\"0x0510\"}}看来老夫搞错对象了卓啦……",
      "EUde": "{{fun_0003_0001 arg=\"0x0004\"}}Link... {{delay1}}Du hast es tatsächlich geschafft,\nden {{color id=\"2\"}}Titanen{{color id=\"65535\"}} zu besänftigen.{{pageBreak}}Seit Mipha vor 100 Jahren im Inneren\ndes {{color id=\"2\"}}Titanen{{color id=\"65535\"}} verschwand,{{delay1}} habe ich dich\ngehasst.\n{{fun_0003_0001 arg=\"0x0510\"}}Langsam scheint es mir zo, als hätte ich\ndir damit großes Unrecht getan.",
      "EUen": "{{fun_0003_0001 arg=\"0x0004\"}}Link... {{delay1}}I never thought you would be the\none to appease the {{color id=\"2\"}}Divine Beast{{color id=\"65535\"}}...\n\nEver since Lady Mipha was swallowed\nup by the {{color id=\"2\"}}Divine Beast{{color id=\"65535\"}} 100 years ago...{{delay1}}\nI have hated you with all my heart.\n{{fun_0003_0001 arg=\"0x0510\"}}But it would seem my anger\nwas misplaced.",
      "EUes": "{{fun_0003_0001 arg=\"0x0004\"}}Link... {{delay1}}Nunca pensé que serías tú quien\nlograse apaciguar a la {{color id=\"2\"}}bestia divina{{color id=\"65535\"}}.{{pageBreak}}Desde que la princesa Mipha sucumbió\na su poder hace cien años,{{delay1}} te he odiado\ncon todas mis fuerzas.\n{{fun_0003_0001 arg=\"0x0510\"}}Ahora entiendo que ha sido en vano.",
      "EUfr": "{{fun_0003_0001 arg=\"0x0004\"}}Link...{{delay1}} Tu es parvenu à apaiser la\n{{color id=\"2\"}}créature divine{{color id=\"65535\"}}, c'est incroyable.\n\nDepuis que Son Altesse Mipha a été\nengloutie par la {{color id=\"2\"}}créature divine {{color id=\"65535\"}}il y a\n100 ans,{{delay1}} je t'ai détesté.\n{{fun_0003_0001 arg=\"0x0510\"}}Mais aujourd'hui, il me faut bien\nl'admettre, j'avais tort...",
      "EUit": "{{fun_0003_0001 arg=\"0x0004\"}}Link... {{delay1}}chi avrebbe mai pensato che\nsaresti stato proprio tu a placare\nil {{color id=\"2\"}}colosso sacro{{color id=\"65535\"}}...\nHo provato rancore verso di te fin da\nquando la principessa Mipha svanì nel\n{{color id=\"2\"}}colosso sacro{{color id=\"65535\"}},{{delay1}} cento anni fa.\n{{fun_0003_0001 arg=\"0x0510\"}}Ma sembra che io me la sia presa con\nil pesce sbagliato.",
      "EUnl": "{{fun_0003_0001 arg=\"0x0004\"}}Link... {{delay1}}Ik had nooit gedacht dat jij\ndegene zou zijn die de {{color id=\"2\"}}Titaan {{color id=\"65535\"}}kon\nkalmeren...\nSinds Mipha honderd jaar geleden door\nde {{color id=\"2\"}}Titaan{{color id=\"65535\"}} werd opgeslokt,{{delay1}} heb ik een\nhekel aan jou gehad.\n{{fun_0003_0001 arg=\"0x0510\"}}Het lijkt erop dat ik het bij het verkeerde\neind had.",
      "EUru": "{{fun_0003_0001 arg=\"0x0004\"}}Линк, я и подумать не мог, что\nименно ты усмиришь Чудище.{{pageBreak}}Я ненавидел тебя с тем самых\nпор, когда Чудище поглотило\nгоспожу Мифу — сто лет назад.{{pageBreak}}{{fun_0003_0001 arg=\"0x0510\"}}Я был несправедлив к тебе...",
      "JPja": "{{fun_0003_0001 arg=\"0x0004\"}}リンク… {{delay1}}まさかお{{ruby charSpan=\"1\" value=\"ぬし\"}}主が\n{{color id=\"2\"}}{{ruby charSpan=\"2\" value=\"しんじゅう\"}}神獣{{color id=\"65535\"}}を{{ruby charSpan=\"1\" value=\"しず\"}}鎮めて{{ruby charSpan=\"1\" value=\"く\"}}来るとは\nワシは ミファー{{ruby charSpan=\"1\" value=\"さま\"}}様が{{color id=\"2\"}}{{ruby charSpan=\"2\" value=\"しんじゅう\"}}神獣{{color id=\"65535\"}}に{{ruby charSpan=\"1\" value=\"の\"}}飲み{{ruby charSpan=\"1\" value=\"こ\"}}込まれた{{delay1}}\n100{{ruby charSpan=\"2\" value=\"ねんまえ\"}}年前から お{{ruby charSpan=\"1\" value=\"ぬし\"}}主を{{ruby charSpan=\"1\" value=\"うら\"}}恨んでおったが\n{{fun_0003_0001 arg=\"0x0510\"}}どうやら お{{ruby charSpan=\"2\" value=\"かどちが\"}}門違いじゃったゾラ…",
      "KRko": "{{fun_0003_0001 arg=\"0x0004\"}}링크… {{delay1}}설마 자네가\n{{color id=\"2\"}}신수{{color id=\"65535\"}}를 진압하다니\n나는 미파님이 {{color id=\"2\"}}신수{{color id=\"65535\"}}에 먹히고 만{{delay1}}\n100년 전부터 자네를 원망했었네만\n{{fun_0003_0001 arg=\"0x0510\"}}아무래도 내 잘못 짚은 것 같군조라…",
      "TWzh": "{{fun_0003_0001 arg=\"0x0004\"}}林克……{{delay1}}沒想到\n你會來鎮壓{{color id=\"2\"}}神獸{{color id=\"65535\"}}，\n在100年前，自從米法大人被{{color id=\"2\"}}神獸{{color id=\"65535\"}}給吞沒之後，{{delay1}}\n老夫便一直對你恨之入骨，\n{{fun_0003_0001 arg=\"0x0510\"}}看來老夫搞錯對象了咋啦……",
      "USen": "{{fun_0003_0001 arg=\"0x0004\"}}Link... {{delay1}}I never thought you would be the\none to appease the {{color id=\"2\"}}Divine Beast{{color id=\"65535\"}}...\n\nEver since Lady Mipha was swallowed\nup by the {{color id=\"2\"}}Divine Beast{{color id=\"65535\"}} 100 years ago...{{delay1}}\nI have hated you with all my heart.\n{{fun_0003_0001 arg=\"0x0510\"}}But it would seem my anger\nwas misplaced.",
      "USes": "{{fun_0003_0001 arg=\"0x0004\"}}Link... {{delay1}}Nunca pensé que serías tú quien\nlograra apaciguar a la {{color id=\"2\"}}bestia divina{{color id=\"65535\"}}.{{pageBreak}}Desde que la princesa Mipha sucumbió\na su poder hace cien años,{{delay1}} te he odiado\ncon todas mis fuerzas.\n{{fun_0003_0001 arg=\"0x0510\"}}Ahora entiendo que ha sido en vano.",
      "USfr": "{{fun_0003_0001 arg=\"0x0004\"}}Link...{{delay1}} Tu es parvenu à apaiser la\n{{color id=\"2\"}}créature divine{{color id=\"65535\"}}, c'est incroyable.\n\nDepuis que Son Altesse Mipha a été\nengloutie par la {{color id=\"2\"}}créature divine {{color id=\"65535\"}}il y a\n100 ans,{{delay1}} je t'ai détesté.\n{{fun_0003_0001 arg=\"0x0510\"}}Mais aujourd'hui, il me faut bien\nl'admettre, j'avais tort..."
    }
  },
  {
    "label": "talk21",
    "attribute": "0x9A020000",
    "locale": {
      "CNzh": "{{fun_0003_0001 arg=\"0x0504\"}}林克……{{delay3}}\n你真是名副其实的英杰……\n{{fun_0003_0001 arg=\"0x0109\"}}能否将老夫至今的无礼行为付诸流水卓啦？{{delay1}}\n在卓拉领地……{{delay1}}就用水哗啦啦地冲走吧。",
      "EUde": "{{fun_0003_0001 arg=\"0x0504\"}}Link...{{delay3}}\nDu bist ein wahrer {{color id=\"2\"}}Recke{{color id=\"65535\"}}...{{pageBreak}}{{fun_0003_0001 arg=\"0x0109\"}}Verzeih mir meine harten Worte!{{delay1}}\nDir können wir nicht das Wasser reichen.{{delay1}}\nDabei ist Wasser unsere Spezialität...",
      "EUen": "{{fun_0003_0001 arg=\"0x0504\"}}Link...{{delay3}} You are the true {{color id=\"2\"}}Champion{{color id=\"65535\"}}.\n\n\n{{fun_0003_0001 arg=\"0x0109\"}}Will you please allow my prior rudeness\nto wash away with the tide?{{delay1}} Such is the\nmagic{{delay1}} of Zora's Domain...",
      "EUes": "{{fun_0003_0001 arg=\"0x0504\"}}Link...{{delay3}} Eres el auténtico elegido.{{pageBreak}}¿Podrás perdonar que te tratase\nde tan mala manera?{{pageBreak}}{{fun_0003_0001 arg=\"0x0109\"}}Agua pasada no mueve molino,\n¿no te parece?",
      "EUfr": "{{fun_0003_0001 arg=\"0x0504\"}}Link...{{delay3}} Tu es un véritable Prodige...\n\n\n{{fun_0003_0001 arg=\"0x0109\"}}Accepteras-tu d'oublier mon impolitesse\net de laisser couler l'eau sous les\nponts ?{{delay1}}\nCe sera facile au domaine Zora... {{delay1}}Haha...",
      "EUit": "{{fun_0003_0001 arg=\"0x0504\"}}Link...{{delay3}} Sei un vero {{color id=\"2\"}}campione{{color id=\"65535\"}}...\n\n\n{{fun_0003_0001 arg=\"0x0109\"}}Potresti dimenticare la mia scortesia e\nlasciarla scorrere come l'acqua\nsotto un ponte?{{delay1}}\nDovrebbe essere facile nel\nvillaggio degli Zora,{{delay1}} no?",
      "EUnl": "{{fun_0003_0001 arg=\"0x0504\"}}Link...{{delay3}} Jij bent de ware {{color id=\"2\"}}Uitverkorene{{color id=\"65535\"}}...{{pageBreak}}{{fun_0003_0001 arg=\"0x0109\"}}Kun je me vergeven voor mijn eerdere\ngedrag?",
      "EUru": "{{fun_0003_0001 arg=\"0x0504\"}}Линк, ты настоящий Воин.{{pageBreak}}{{fun_0003_0001 arg=\"0x0109\"}}Прости меня за все, что я наговорил!{{delay1}}\nЯ смою этот позор с души в водах\nвладений зора.{{delay1}} И ты искупнись!",
      "JPja": "{{fun_0003_0001 arg=\"0x0504\"}}リンク…{{delay3}}\nお{{ruby charSpan=\"1\" value=\"ぬし\"}}主こそは {{ruby charSpan=\"1\" value=\"しん\"}}真の{{ruby charSpan=\"2\" value=\"えいけつ\"}}英傑…\n{{fun_0003_0001 arg=\"0x0109\"}}{{ruby charSpan=\"1\" value=\"いま\"}}今までの{{ruby charSpan=\"2\" value=\"ぶれい\"}}無礼 {{ruby charSpan=\"1\" value=\"みず\"}}水に{{ruby charSpan=\"1\" value=\"なが\"}}流してくれんゾラか？{{delay1}}\nゾーラの{{ruby charSpan=\"1\" value=\"さと\"}}里だけに… {{delay1}}{{ruby charSpan=\"1\" value=\"みず\"}}水でジャブジャブと",
      "KRko": "{{fun_0003_0001 arg=\"0x0504\"}}링크…{{delay3}}\n자네야말로 진정한 영걸…\n{{fun_0003_0001 arg=\"0x0109\"}}지금까지 한 무례한 행동을 용서해주겠나조라?{{delay1}}\n조라의 마을이니… {{delay1}}용서해조라",
      "TWzh": "{{fun_0003_0001 arg=\"0x0504\"}}林克……{{delay3}}\n你真是名副其實的英傑……\n{{fun_0003_0001 arg=\"0x0109\"}}能否將老夫至今的無禮行為付諸流水咋啦？{{delay1}}\n因為在卓拉領地……{{delay1}}就用水嘩啦啦地沖走吧。",
      "USen": "{{fun_0003_0001 arg=\"0x0504\"}}Link...{{delay3}} You are the true {{color id=\"2\"}}Champion{{color id=\"65535\"}}.\n\n\n{{fun_0003_0001 arg=\"0x0109\"}}Will you please allow my prior rudeness\nto wash away with the tide?{{delay1}} Such is the\nmagic{{delay1}} of Zora's Domain...",
      "USes": "{{fun_0003_0001 arg=\"0x0504\"}}Link...{{delay3}} Eres un auténtico {{color id=\"2\"}}campeón{{color id=\"65535\"}}.{{pageBreak}}¿Podrás perdonarme por haberte\ntratado de tan mala manera?\n{{fun_0003_0001 arg=\"0x0109\"}}Agua pasada no mueve molino,\n¿no te parece?",
      "USfr": "{{fun_0003_0001 arg=\"0x0504\"}}Link...{{delay3}} Tu es un véritable Prodige...\n\n\n{{fun_0003_0001 arg=\"0x0109\"}}Accepteras-tu d'oublier mon impolitesse\net de laisser couler l'eau sous les ponts?{{delay1}}\n\nCe sera facile au domaine des Zoras...{{delay1}}\nHaha..."
    }
  },
  {
    "label": "talk22",
    "attribute": "0xB2020000",
    "locale": {
      "CNzh": "{{fun_0003_0001 arg=\"0x0414\"}}唔！？{{delay3}}海利亚人……\n\n很抱歉，{{color id=\"2\"}}卓拉领地{{color id=\"65535\"}}元老院{{delay1}}\n相当厌恶海利亚人卓啦，\n建议你还是别久待卓啦。\n\n……\n\n……",
      "EUde": "{{fun_0003_0001 arg=\"0x0414\"}}Huch?!{{delay3}} Ein Hylianer...{{pageBreak}}Es tut mir leid, aber der Senat des\n{{color id=\"2\"}}Dorfes der Zoras{{color id=\"65535\"}} verabscheut Hylianer\nwie zonst nichts unter der Zonne.\nIch würde dir raten, nicht länger als\nunbedingt nötig hierzubleiben.{{pageBreak}}...{{pageBreak}}... {{delay2}}...",
      "EUen": "{{fun_0003_0001 arg=\"0x0414\"}}Huh?!{{delay3}} A Hylian!\n\n\nI am sorry, but the {{color id=\"2\"}}Zora's Domain{{color id=\"65535\"}} council{{delay1}}\ndoes not take kindly to Hylians.\n\nI advise you to not stick around here\nfor too long.\n\n...\n\n\n...",
      "EUes": "{{fun_0003_0001 arg=\"0x0414\"}}¿Eh?{{delay3}} Un hyliano...{{pageBreak}}El consejo de sabios zora{{delay1}} no ve a\nlos hylianos con buenos ojos.{{pageBreak}}Será mejor que te vayas de aquí\nen cuanto tengas ocasión.",
      "EUfr": "{{fun_0003_0001 arg=\"0x0414\"}}Hm ?!{{delay3}} Un Hylien...\n\n\nJe suis désolé,{{delay1}} mais le sénat du {{color id=\"2\"}}domaine\nZora{{color id=\"65535\"}} ne supporte pas les Hyliens.\n\nTu ne devrais pas t'éterniser par ici.{{delay1}}\n\n\n...\n\n\n{{delay1}}.{{delay1}}.{{delay1}}.",
      "EUit": "{{fun_0003_0001 arg=\"0x0414\"}}Uhm?!{{delay3}} Un Hylia...\n\n\nMi dispiace, ma il consiglio degli anziani\ndel {{color id=\"2\"}}villaggio degli Zora{{color id=\"65535\"}}{{delay1}} ha dei forti\npregiudizi nei confronti degli {{color id=\"2\"}}Hylia{{color id=\"65535\"}}.\nTi conviene girare alla larga.\n\n\n...\n\n\n... ...",
      "EUnl": "{{fun_0003_0001 arg=\"0x0414\"}}Hm?!{{delay3}} Een Hyliaan...{{pageBreak}}Sorry, maar de oudere Zora's in het\n{{color id=\"2\"}}Zora-paleis{{color id=\"65535\"}} hebben het niet zo op\nHylianen.{{pageBreak}}Als ik jou was, zou ik hier niet al te lang\nblijven rondhangen.{{pageBreak}}...",
      "EUru": "{{fun_0003_0001 arg=\"0x0414\"}}Ого!{{delay1}} Хайлиец!{{pageBreak}}Совету зора не понравится, что ты\nпришел в наши владения.{{delay1}} Не советую\nтебе долго у нас задерживаться.{{pageBreak}}...",
      "JPja": "{{fun_0003_0001 arg=\"0x0414\"}}ぬ？！{{delay3}} ハイリア{{ruby charSpan=\"1\" value=\"じん\"}}人…\n\nすまんが {{color id=\"2\"}}ゾーラの{{ruby charSpan=\"1\" value=\"さと\"}}里{{color id=\"65535\"}}{{ruby charSpan=\"3\" value=\"げんろういん\"}}元老院は{{delay1}}\nハイリア{{ruby charSpan=\"1\" value=\"じん\"}}人を {{ruby charSpan=\"2\" value=\"けぎら\"}}毛嫌いしておるゾラ\n{{ruby charSpan=\"2\" value=\"ながい\"}}長居はされんほうが よいと{{ruby charSpan=\"1\" value=\"おも\"}}思うゾラ\n\n…\n\n……",
      "KRko": "{{fun_0003_0001 arg=\"0x0414\"}}음?!{{delay3}} 하일리아인…\n\n미안하네만 {{color id=\"2\"}}조라의 마을 {{color id=\"65535\"}}원로원은{{delay1}}\n하일리아인을 꺼려한다네조라\n오래 머무르지 않는 편이 좋을 걸세조라\n\n…\n\n……",
      "TWzh": "{{fun_0003_0001 arg=\"0x0414\"}}唔！？{{delay3}}海利亞人……\n\n很抱歉，{{color id=\"2\"}}卓拉領地{{color id=\"65535\"}}元老院{{delay1}}\n相當厭惡海利亞人咋啦，\n建議你還是別久待咋啦。\n\n……\n\n……",
      "USen": "{{fun_0003_0001 arg=\"0x0414\"}}Huh?!{{delay3}} A Hylian!\n\n\nI am sorry, but the {{color id=\"2\"}}Zora's Domain{{color id=\"65535\"}} council{{delay1}}\ndoes not take kindly to Hylians.\n\nI advise you to not stick around here\nfor too long.\n\n...\n\n\n...",
      "USes": "{{fun_0003_0001 arg=\"0x0414\"}}¿Eh?{{delay3}} Un hyliano...{{pageBreak}}El consejo de sabios zora{{delay1}} no ve a\nlos hylianos con buenos ojos.{{pageBreak}}Será mejor que te vayas de aquí\nen cuanto tengas la oportunidad.",
      "USfr": "{{fun_0003_0001 arg=\"0x0414\"}}Hm?!{{delay3}} Un Hylien...\n\n\nJe suis désolé,{{delay1}} mais le sénat du {{color id=\"2\"}}domaine\ndes Zoras{{color id=\"65535\"}} ne supporte pas les Hyliens.\n\nTu ne devrais pas t'éterniser par ici.{{delay1}}\n\n\n...\n\n\n{{delay1}}.{{delay1}}.{{delay1}}."
    }
  },
  {
    "label": "talk23",
    "attribute": "0xCA020000",
    "locale": {
      "CNzh": "{{fun_0003_0001 arg=\"0x0A16\"}}{{size value=\"125\"}}！！{{size value=\"100\"}}",
      "EUde": "{{fun_0003_0001 arg=\"0x0A16\"}}{{size value=\"125\"}}!!!{{size value=\"100\"}}",
      "EUen": "{{fun_0003_0001 arg=\"0x0A16\"}}{{size value=\"125\"}}!!{{size value=\"100\"}}",
      "EUes": "{{fun_0003_0001 arg=\"0x0A16\"}}{{size value=\"125\"}}¡Pero bueno!{{size value=\"100\"}}",
      "EUfr": "{{fun_0003_0001 arg=\"0x0A16\"}}{{size value=\"125\"}}!!!{{size value=\"100\"}}",
      "EUit": "{{fun_0003_0001 arg=\"0x0A16\"}}{{size value=\"125\"}}!!!{{size value=\"100\"}}",
      "EUnl": "{{fun_0003_0001 arg=\"0x0A16\"}}{{size value=\"125\"}}!!!{{size value=\"100\"}}",
      "EUru": "{{size value=\"125\"}}{{fun_0003_0001 arg=\"0x0A16\"}}Ох ты ж!{{size value=\"100\"}}",
      "JPja": "{{fun_0003_0001 arg=\"0x0A16\"}}{{size value=\"125\"}}！！{{size value=\"100\"}}",
      "KRko": "{{fun_0003_0001 arg=\"0x0A16\"}}{{size value=\"125\"}}!!{{size value=\"100\"}}",
      "TWzh": "{{fun_0003_0001 arg=\"0x0A16\"}}{{size value=\"125\"}}！！{{size value=\"100\"}}",
      "USen": "{{fun_0003_0001 arg=\"0x0A16\"}}{{size value=\"125\"}}!!{{size value=\"100\"}}",
      "USes": "{{fun_0003_0001 arg=\"0x0A16\"}}{{size value=\"125\"}}¡Pero bueno!{{size value=\"100\"}}",
      "USfr": "{{fun_0003_0001 arg=\"0x0A16\"}}{{size value=\"125\"}}!!!{{size value=\"100\"}}"
    }
  },
  {
    "label": "talk24",
    "attribute": "0xE2020000",
    "locale": {
      "CNzh": "{{fun_0003_0001 arg=\"0x080E\"}}你难道是{{delay1}}林克！{{delay3}}\n米法大人的仇敌──！\n在这碰上，代表你死期已到卓啦！{{delay3}}\n就让老夫塞恭亲自收拾你！{{fun_0001_000A arg=\"0x050001CD\"}}",
      "EUde": "{{fun_0003_0001 arg=\"0x080E\"}}Du bist...{{delay1}} Link!{{delay3}}\nRache für Miphaaaaa!!!{{pageBreak}}Nach 100 Jahren lässt du dich alzo\nwieder blicken!{{delay3}} Ich, Segon, werde dich\nhöchstpersönlich niederstrecken!{{fun_0001_000A arg=\"0x050001CD\"}}",
      "EUen": "{{fun_0003_0001 arg=\"0x080E\"}}You... You're Link!{{delay3}} Finally, I can avenge\nLady Mipha!\n\nIt has been 100 years since you last\nshowed your face here! {{delay2}}Now I, Seggin,\nwill cut you down myself!{{fun_0001_000A arg=\"0x050001CD\"}}",
      "EUes": "{{fun_0003_0001 arg=\"0x080E\"}}¡Tú eres Link!{{pageBreak}}¡No os preocupéis, princesa Mipha!\nConseguiré venganza por lo que\nos ocurrió.\nHan pasado cien años desde\nla última vez que te vi por aquí.{{pageBreak}}¡Y ahora sucumbirás a manos\ndel temible Siggun!{{fun_0001_000A arg=\"0x050001CD\"}}",
      "EUfr": "{{fun_0003_0001 arg=\"0x080E\"}}Mais, tu es Link !{{delay3}} Tu vas payer pour ce\nque tu as fait à Son Altesse Mipha !\n\nAprès 100 ans, nous nous retrouvons\nenfin !{{delay3}} Moi, Étorpe, je vais te pourfendre\nde mes propres mains !{{fun_0001_000A arg=\"0x050001CD\"}}",
      "EUit": "{{fun_0003_0001 arg=\"0x080E\"}}Tu sei Link!{{delay3}} Principessa Mipha,\nti vendicherò!\n\nSono passati cento anni dall'ultima volta\nche ti ho visto qui!{{delay3}} Io, Sekon, ti farò\nfuori con le mie stesse mani!{{fun_0001_000A arg=\"0x050001CD\"}}",
      "EUnl": "{{fun_0003_0001 arg=\"0x080E\"}}Maar... jij bent Link!{{delay3}}\nMipha, ik zal je wreken!{{pageBreak}}Ik heb je hier al honderd jaar niet meer\ngezien. {{delay3}}En nu zal ik, Seggin, je zelf\nneerslaan!{{fun_0001_000A arg=\"0x050001CD\"}}",
      "EUru": "{{fun_0003_0001 arg=\"0x080E\"}}Ты ведь...{{delay1}} Линк!{{delay3}} Госпожа\nМифа, я за вас отомщу!{{pageBreak}}Наконец-то, спустя сто лет, ты\nснова явился к нам!{{delay1}} Я, Сеггин,\nразорву тебя на кусочки!{{fun_0001_000A arg=\"0x050001CD\"}}",
      "JPja": "{{fun_0003_0001 arg=\"0x080E\"}}お{{ruby charSpan=\"1\" value=\"ぬし\"}}主は まさか {{delay1}}リンクッ！{{delay3}}\nミファー{{ruby charSpan=\"1\" value=\"さま\"}}様が {{ruby charSpan=\"1\" value=\"かたき\"}}仇ーーッ！\nここで{{ruby charSpan=\"1\" value=\"あ\"}}会ったが100{{ruby charSpan=\"2\" value=\"ねんめ\"}}年目ゾラ！{{delay3}}\nこのセゴン{{ruby charSpan=\"1\" value=\"みずか\"}}自らが {{ruby charSpan=\"1\" value=\"たた\"}}叩っ{{ruby charSpan=\"1\" value=\"き\"}}斬ってくれる！{{fun_0001_000A arg=\"0x050001CD\"}}",
      "KRko": "{{fun_0003_0001 arg=\"0x080E\"}}네놈은 설마 {{delay1}}링크!{{delay3}}\n미파님의 원수~!\n네 이놈 오늘 마침 잘 만났다조라!{{delay3}}\n이 세곤 직접 혼쭐을 내주마!{{fun_0001_000A arg=\"0x050001CD\"}}",
      "TWzh": "{{fun_0003_0001 arg=\"0x080E\"}}你難道是{{delay1}}林克！{{delay3}}\n米法大人的仇敵──！\n在這碰上，代表你死期已到咋啦！{{delay3}}\n就讓老夫塞恭親自收拾你！{{fun_0001_000A arg=\"0x050001CD\"}}",
      "USen": "{{fun_0003_0001 arg=\"0x080E\"}}You... You're Link!{{delay3}} Finally, I can avenge\nLady Mipha!\n\nIt has been 100 years since you last\nshowed your face here! {{delay2}}Now I, Seggin,\nwill cut you down myself!{{fun_0001_000A arg=\"0x050001CD\"}}",
      "USes": "{{fun_0003_0001 arg=\"0x080E\"}}¡Tú eres Link!{{pageBreak}}Por el honor de la princesa Mipha.\n¡Conseguiré venganza por lo ocurrido!{{pageBreak}}Ya pasaron cien años desde\nla última vez que te vi por aquí.{{pageBreak}}¡Y ahora sucumbirás a manos\ndel temible Segón!{{fun_0001_000A arg=\"0x050001CD\"}}",
      "USfr": "{{fun_0003_0001 arg=\"0x080E\"}}Mais, tu es Link!{{delay3}} Tu vas payer pour ce\nque tu as fait à Son Altesse Mipha!\n\nAprès 100 ans, nous nous retrouvons\nenfin!{{delay3}} Moi, Étorpe, je vais te pourfendre\nde mes propres mains!{{fun_0001_000A arg=\"0x050001CD\"}}"
    }
  },
  {
    "label": "talk25",
    "attribute": "0xFA020000",
    "locale": {
      "CNzh": "{{fun_0003_0001 arg=\"0x0A14\"}}{{size value=\"125\"}}什么！{{size value=\"100\"}}",
      "EUde": "{{fun_0003_0001 arg=\"0x0A14\"}}{{size value=\"125\"}}Waaas!{{size value=\"100\"}}",
      "EUen": "{{fun_0003_0001 arg=\"0x0A14\"}}{{size value=\"125\"}}HEY!!{{size value=\"100\"}}",
      "EUes": "{{fun_0003_0001 arg=\"0x0A14\"}}{{size value=\"125\"}}¡EEEH!{{size value=\"100\"}}",
      "EUfr": "{{fun_0003_0001 arg=\"0x0A14\"}}{{size value=\"125\"}}Qu'est-ce que tu fais ?!{{size value=\"100\"}}",
      "EUit": "{{fun_0003_0001 arg=\"0x0A14\"}}{{size value=\"125\"}}Ehi!{{size value=\"100\"}}",
      "EUnl": "{{fun_0003_0001 arg=\"0x0A14\"}}{{size value=\"125\"}}HÉÉÉ!{{size value=\"100\"}}",
      "EUru": "{{size value=\"125\"}}{{fun_0003_0001 arg=\"0x0A14\"}}Эй!{{size value=\"100\"}}",
      "JPja": "{{fun_0003_0001 arg=\"0x0A14\"}}{{size value=\"125\"}}なーッ！{{size value=\"100\"}}",
      "KRko": "{{fun_0003_0001 arg=\"0x0A14\"}}{{size value=\"125\"}}이노옴!{{size value=\"100\"}}",
      "TWzh": "{{fun_0003_0001 arg=\"0x0A14\"}}{{size value=\"125\"}}什麼！{{size value=\"100\"}}",
      "USen": "{{fun_0003_0001 arg=\"0x0A14\"}}{{size value=\"125\"}}HEY!!{{size value=\"100\"}}",
      "USes": "{{fun_0003_0001 arg=\"0x0A14\"}}{{size value=\"125\"}}¡EEEH!{{size value=\"100\"}}",
      "USfr": "{{fun_0003_0001 arg=\"0x0A14\"}}{{size value=\"125\"}}Qu'est-ce que tu fais?!{{size value=\"100\"}}"
    }
  },
  {
    "label": "talk26",
    "attribute": "0x12030000",
    "locale": {
      "CNzh": "{{fun_0003_0001 arg=\"0x020E\"}}既然如此，你就要负起责任{{delay1}}\n镇压{{color id=\"2\"}}神兽瓦·露塔{{color id=\"65535\"}}卓啦！\n{{fun_0003_0001 arg=\"0x020E\"}}{{size value=\"125\"}}哼！！{{size value=\"100\"}}",
      "EUde": "{{fun_0003_0001 arg=\"0x020E\"}}Damit hast du die Verantwortung,{{delay1}}\n{{color id=\"2\"}}Vah Ruta{{color id=\"65535\"}} zu besänftigen! {{delay1}}Was stehst\ndu alzo hier noch zo rum?!{{pageBreak}}{{fun_0003_0001 arg=\"0x020E\"}}{{size value=\"125\"}}Hmpf!!!{{size value=\"100\"}}",
      "EUen": "{{fun_0003_0001 arg=\"0x020E\"}}In that case, YOU take the responsibility\nof appeasing the {{color id=\"2\"}}Divine Beast Vah Ruta{{color id=\"65535\"}}!\n\n{{fun_0003_0001 arg=\"0x020E\"}}{{size value=\"125\"}}Hmph!!{{size value=\"100\"}}",
      "EUes": "{{fun_0003_0001 arg=\"0x020E\"}}En ese caso, ¡será responsabilidad tuya{{delay1}}\nponerle freno a la {{color id=\"2\"}}{{wordInfo gender=\"2\" defArticle=\"1\" indefArticle=\"1\" isPlural=\"0\"}}bestia divina Vah Ruta{{color id=\"65535\"}}!{{pageBreak}}{{fun_0003_0001 arg=\"0x020E\"}}{{size value=\"125\"}}¡He dicho!{{size value=\"100\"}}",
      "EUfr": "{{fun_0003_0001 arg=\"0x020E\"}}Puisque c'est comme ça, prends tes\nresponsabilités{{delay1}} et va apaiser {{color id=\"2\"}}Vah'Ruta {{color id=\"65535\"}}!\n\n{{fun_0003_0001 arg=\"0x020E\"}}{{size value=\"125\"}}Hmpf !!!{{size value=\"100\"}}",
      "EUit": "{{fun_0003_0001 arg=\"0x020E\"}}Se tanto mi dà tanto,{{delay1}} allora prenditela\nTU la responsabilità di placare\nil {{color id=\"2\"}}colosso sacro Vah Ruta{{color id=\"65535\"}}, blub!\n{{fun_0003_0001 arg=\"0x020E\"}}{{size value=\"125\"}}Sgrunt!{{size value=\"100\"}}",
      "EUnl": "{{fun_0003_0001 arg=\"0x020E\"}}In dat geval ga JIJ {{color id=\"2\"}}Vah Ruta {{color id=\"65535\"}}zelf maar\nkalmeren!{{pageBreak}}{{fun_0003_0001 arg=\"0x020E\"}}{{size value=\"125\"}}Hmpf!{{size value=\"100\"}}",
      "EUru": "{{fun_0003_0001 arg=\"0x020E\"}}Тогда сам и усмиряй {{color id=\"2\"}}Чудище Ва-Руту{{color id=\"65535\"}}!{{pageBreak}}{{fun_0003_0001 arg=\"0x020E\"}}{{size value=\"125\"}}Тьфу!{{size value=\"100\"}}",
      "JPja": "{{fun_0003_0001 arg=\"0x020E\"}}こうなったら お{{ruby charSpan=\"1\" value=\"ぬし\"}}主が{{ruby charSpan=\"3\" value=\"せきにんも\"}}責任持って{{delay1}}\n{{color id=\"2\"}}{{ruby charSpan=\"2\" value=\"しんじゅう\"}}神獣 ヴァ・ルッタ{{color id=\"65535\"}}を{{ruby charSpan=\"1\" value=\"しず\"}}鎮めるゾラよ！\n{{fun_0003_0001 arg=\"0x020E\"}}{{size value=\"125\"}}フン！！{{size value=\"100\"}}",
      "KRko": "{{fun_0003_0001 arg=\"0x020E\"}}이렇게 된 이상 네가 책임지고{{delay1}}\n{{color id=\"2\"}}신수 바·루타{{color id=\"65535\"}}를 진압해조라!\n{{fun_0003_0001 arg=\"0x020E\"}}{{size value=\"125\"}}흥!!{{size value=\"100\"}}",
      "TWzh": "{{fun_0003_0001 arg=\"0x020E\"}}既然如此，你就要負起責任{{delay1}}\n鎮壓{{color id=\"2\"}}神獸瓦‧露塔{{color id=\"65535\"}}咋啦！\n{{fun_0003_0001 arg=\"0x020E\"}}{{size value=\"125\"}}哼！！{{size value=\"100\"}}",
      "USen": "{{fun_0003_0001 arg=\"0x020E\"}}In that case, YOU take the responsibility\nof appeasing the {{color id=\"2\"}}Divine Beast Vah Ruta{{color id=\"65535\"}}!\n\n{{fun_0003_0001 arg=\"0x020E\"}}{{size value=\"125\"}}Hmph!!{{size value=\"100\"}}",
      "USes": "{{fun_0003_0001 arg=\"0x020E\"}}En ese caso, ¡será responsabilidad tuya{{delay1}}\nponerle freno a la {{color id=\"2\"}}{{wordInfo gender=\"2\" defArticle=\"1\" indefArticle=\"1\" isPlural=\"0\"}}bestia divina Vah Ruta{{color id=\"65535\"}}!{{pageBreak}}{{fun_0003_0001 arg=\"0x020E\"}}{{size value=\"125\"}}¡He dicho!{{size value=\"100\"}}",
      "USfr": "{{fun_0003_0001 arg=\"0x020E\"}}Puisque c'est comme ça, prends tes\nresponsabilités{{delay1}} et va apaiser {{color id=\"2\"}}Vah'Ruta{{color id=\"65535\"}}!\n\n{{fun_0003_0001 arg=\"0x020E\"}}{{size value=\"125\"}}Hmpf!!!{{size value=\"100\"}}"
    }
  },
  {
    "label": "talk28",
    "attribute": "0x2A030000",
    "locale": {
      "CNzh": "{{fun_0003_0001 arg=\"0x080E\"}}老夫不是说了，{{delay1}}\n老夫正在练习触摸{{color id=\"2\"}}电箭{{color id=\"65535\"}}卓啦！",
      "EUde": "{{fun_0003_0001 arg=\"0x080E\"}}Ich unterziehe mich einem Zonder-\ntraining!{{delay1}} Ich lasse nicht locker, bis\nich {{color id=\"2\"}}{{wordInfo gender=\"1\" defArticle=\"0\" indefArticle=\"0\" isPlural=\"0\"}}Elektropfeile{{color id=\"65535\"}} anfassen kann.{{pageBreak}}Tu nicht zo, als hätte ich das nicht\nletztes Mal schon gesagt?!",
      "EUen": "{{fun_0003_0001 arg=\"0x080E\"}}I am in the middle of my {{color id=\"2\"}}shock arrow{{color id=\"65535\"}}\ntraining. I MUST learn to withstand them!\n{{delay1}}...Did I not JUST tell you that?!",
      "EUes": "{{fun_0003_0001 arg=\"0x080E\"}}¡Me estoy entrenando para poder usar\n{{color id=\"2\"}}flechas eléctricas{{color id=\"65535\"}}!{{delay1}} ¿O es que no\nme has oído?",
      "EUfr": "{{fun_0003_0001 arg=\"0x080E\"}}Je suis en train de m'entraîner à\nmanipuler les {{color id=\"2\"}}flèches électriques{{color id=\"65535\"}} !",
      "EUit": "{{fun_0003_0001 arg=\"0x080E\"}}Sono nel bel mezzo dell'addestramento\nper imparare a maneggiare le {{color id=\"2\"}}frecce\nelettriche{{color id=\"65535\"}}.{{delay1}} Non si vede?!",
      "EUnl": "{{fun_0003_0001 arg=\"0x080E\"}}Ik ben in training om {{color id=\"2\"}}elektropijlen{{color id=\"65535\"}} aan te\nraken!{{delay1}} Dat heb ik je toch al verteld?!",
      "EUru": "{{fun_0003_0001 arg=\"0x080E\"}}Мне нужны {{color id=\"2\"}}грозовые стрелы{{color id=\"65535\"}},\nчтобы сразить Чудище!",
      "JPja": "{{fun_0003_0001 arg=\"0x080E\"}}{{color id=\"2\"}}{{ruby charSpan=\"2\" value=\"でんき\"}}電気の{{ruby charSpan=\"1\" value=\"や\"}}矢{{color id=\"65535\"}}を{{ruby charSpan=\"1\" value=\"さわ\"}}触る {{ruby charSpan=\"3\" value=\"れんしゅうちゅう\"}}練習中と{{delay1}}\n{{ruby charSpan=\"1\" value=\"い\"}}言っとろうゾラが！",
      "KRko": "{{fun_0003_0001 arg=\"0x080E\"}}{{color id=\"2\"}}전기의 화살{{color id=\"65535\"}} 만지기 연습중이라고{{delay1}}\n했잖나조라!",
      "TWzh": "{{fun_0003_0001 arg=\"0x080E\"}}老夫不是說了，{{delay1}}\n老夫正在練習觸摸{{color id=\"2\"}}電箭{{color id=\"65535\"}}咋啦！",
      "USen": "{{fun_0003_0001 arg=\"0x080E\"}}I am in the middle of my {{color id=\"2\"}}shock arrow{{color id=\"65535\"}}\ntraining. I MUST learn to withstand them!\n{{delay1}}...Did I not JUST tell you that?!",
      "USes": "{{fun_0003_0001 arg=\"0x080E\"}}¡Estoy entrenando para poder usar\n{{color id=\"2\"}}flechas eléctricas{{color id=\"65535\"}}!{{delay1}} ¿O es que no\nme oíste?",
      "USfr": "{{fun_0003_0001 arg=\"0x080E\"}}Je suis en train de m'entraîner à\nmanipuler les {{color id=\"2\"}}flèches électriques{{color id=\"65535\"}}!"
    }
  },
  {
    "label": "talk29",
    "attribute": "0x42030000",
    "locale": {
      "CNzh": "{{fun_0003_0001 arg=\"0x0801\"}}竟然敢在老夫塞恭面前如此放肆……\n",
      "EUde": "{{fun_0003_0001 arg=\"0x0801\"}}Zolch Kampfeswille! {{delay1}}Und das, obwohl\nICH dir gegenüberstehe: {{delay1}}Segon, der\neinstige Feldwebel des Todes!",
      "EUen": "{{fun_0003_0001 arg=\"0x0801\"}}To commit such violence with the great\nSeggin standing right before you...",
      "EUes": "{{fun_0003_0001 arg=\"0x0801\"}}¿Cómo osas actuar con tanta\nviolencia ante mí?",
      "EUfr": "{{fun_0003_0001 arg=\"0x0801\"}}Comment oses-tu faire montre de tant\nd'impudence sous les yeux du grand\nÉtorpe ?",
      "EUit": "{{fun_0003_0001 arg=\"0x0801\"}}Che oltraggio, una tale violenza\ndavanti ai miei occhi!",
      "EUnl": "{{fun_0003_0001 arg=\"0x0801\"}}Hoe kun je zo gewelddadig zijn terwijl de\ngrote Seggin voor je staat?!",
      "EUru": "{{fun_0003_0001 arg=\"0x0801\"}}Как ты посмел совершить такой\nподлый поступок у меня на глазах!..",
      "JPja": "{{fun_0003_0001 arg=\"0x0801\"}}この セゴンを{{ruby charSpan=\"1\" value=\"め\"}}目の{{ruby charSpan=\"1\" value=\"まえ\"}}前にして その{{ruby charSpan=\"2\" value=\"ろうぜき\"}}狼藉…\n",
      "KRko": "{{fun_0003_0001 arg=\"0x0801\"}}이 세곤을 눈 앞에 두고도 뻔뻔하게…\n",
      "TWzh": "{{fun_0003_0001 arg=\"0x0801\"}}竟然敢在老夫塞恭面前如此放肆……\n",
      "USen": "{{fun_0003_0001 arg=\"0x0801\"}}To commit such violence with the great\nSeggin standing right before you...",
      "USes": "{{fun_0003_0001 arg=\"0x0801\"}}¿Cómo osas actuar con tanta\nviolencia ante mí?",
      "USfr": "{{fun_0003_0001 arg=\"0x0801\"}}Comment oses-tu faire montre de tant\nd'impudence sous les yeux du grand\nÉtorpe?"
    }
  },
  {
    "label": "talk30",
    "attribute": "0x5A030000",
    "locale": {
      "CNzh": "{{size value=\"125\"}}{{fun_0003_0001 arg=\"0x0214\"}}当然了卓啦！\n\n你可是抢走了{{color id=\"2\"}}电箭{{color id=\"65535\"}}卓啦！{{size value=\"100\"}}",
      "EUde": "{{size value=\"125\"}}{{fun_0003_0001 arg=\"0x0214\"}}Tu nicht zo!{{pageBreak}}{{size value=\"100\"}}Du warst es doch, der meine\n{{color id=\"2\"}}{{wordInfo gender=\"1\" defArticle=\"0\" indefArticle=\"0\" isPlural=\"0\"}}Elektropfeile {{color id=\"65535\"}}gestohlen hat!",
      "EUen": "{{size value=\"125\"}}{{fun_0003_0001 arg=\"0x0214\"}}Ah, of course!{{size value=\"100\"}}\n\n\nBecause you stole my {{color id=\"2\"}}shock arrow{{color id=\"65535\"}},\nthat's why!",
      "EUes": "{{fun_0003_0001 arg=\"0x0214\"}}{{size value=\"125\"}}¡Obviamente!{{size value=\"100\"}}{{pageBreak}}Porque me robaste mis {{color id=\"2\"}}flechas eléctricas{{color id=\"65535\"}},\nclaro.",
      "EUfr": "{{size value=\"125\"}}{{fun_0003_0001 arg=\"0x0214\"}}Bien sûr !\n\n\nIl a fallu que tu la voles !{{size value=\"100\"}}",
      "EUit": "{{size value=\"125\"}}{{fun_0003_0001 arg=\"0x0214\"}}Certamente, blub!{{size value=\"100\"}}\n\nPerché mi hai rubato le {{color id=\"2\"}}frecce elettriche{{color id=\"65535\"}}!",
      "EUnl": "{{size value=\"125\"}}{{fun_0003_0001 arg=\"0x0214\"}}Natuurlijk!{{pageBreak}}{{size value=\"100\"}}Omdat je mijn {{color id=\"2\"}}elektropijlen {{color id=\"65535\"}}hebt\ngestolen, daarom!",
      "EUru": "{{fun_0003_0001 arg=\"0x0214\"}}{{size value=\"125\"}}Замолчи, вор!{{size value=\"100\"}}{{pageBreak}}Украл у меня {{color id=\"2\"}}грозовые стрелы{{color id=\"65535\"}}!..",
      "JPja": "{{size value=\"125\"}}{{fun_0003_0001 arg=\"0x0214\"}}もちろんゾラ！\n\nオヌシは {{color id=\"2\"}}{{ruby charSpan=\"2\" value=\"でんき\"}}電気の{{ruby charSpan=\"1\" value=\"や\"}}矢{{color id=\"65535\"}}を{{ruby charSpan=\"1\" value=\"うば\"}}奪いおったゾラ！{{size value=\"100\"}}",
      "KRko": "{{size value=\"125\"}}{{fun_0003_0001 arg=\"0x0214\"}}물론이다조라!\n\n네가 {{color id=\"2\"}}전기의 화살{{color id=\"65535\"}}을 빼앗았다조라!{{size value=\"100\"}}",
      "TWzh": "{{size value=\"125\"}}{{fun_0003_0001 arg=\"0x0214\"}}當然了咋啦！\n\n你可是搶走了{{color id=\"2\"}}電箭{{color id=\"65535\"}}咋啦！{{size value=\"100\"}}",
      "USen": "{{size value=\"125\"}}{{fun_0003_0001 arg=\"0x0214\"}}Ah, of course!{{size value=\"100\"}}\n\n\nBecause you stole my {{color id=\"2\"}}shock arrow{{color id=\"65535\"}},\nthat's why!",
      "USes": "{{fun_0003_0001 arg=\"0x0214\"}}{{size value=\"125\"}}¡Obviamente!{{size value=\"100\"}}{{pageBreak}}Porque me robaste mi {{color id=\"2\"}}{{wordInfo gender=\"2\" defArticle=\"1\" indefArticle=\"1\" isPlural=\"0\"}}flecha eléctrica{{color id=\"65535\"}},\nclaro.",
      "USfr": "{{size value=\"125\"}}{{fun_0003_0001 arg=\"0x0214\"}}Bien sûr!\n\n\nIl a fallu que tu la voles!{{size value=\"100\"}}"
    }
  },
  {
    "label": "talk31",
    "attribute": "0x72030000",
    "locale": {
      "CNzh": "{{fun_0003_0001 arg=\"0x0214\"}}是谁卓啦！是谁抢走{{delay3}}{{color id=\"2\"}}电箭{{color id=\"65535\"}}！",
      "EUde": "{{fun_0003_0001 arg=\"0x0214\"}}Wer will meine {{delay3}}{{color id=\"2\"}}{{wordInfo gender=\"1\" defArticle=\"0\" indefArticle=\"0\" isPlural=\"0\"}}Elektropfeile{{color id=\"65535\"}} klauen?!",
      "EUen": "{{fun_0003_0001 arg=\"0x0214\"}}Who did it? {{delay3}}Who stole my {{color id=\"2\"}}shock arrows{{color id=\"65535\"}}?",
      "EUes": "{{fun_0003_0001 arg=\"0x0214\"}}¡¿Quién ha sido?!{{delay3}} ¿Quién ha robado\nlas {{color id=\"2\"}}flechas eléctricas{{color id=\"65535\"}}?",
      "EUfr": "{{fun_0003_0001 arg=\"0x0214\"}}Qui ?! {{delay3}}Qui a eu l'audace de me voler ma\n{{color id=\"2\"}}{{wordInfo gender=\"2\" defArticle=\"1\" indefArticle=\"1\" isPlural=\"0\"}}flèche électrique{{color id=\"65535\"}} ?!",
      "EUit": "{{fun_0003_0001 arg=\"0x0214\"}}Chi è stato?! {{delay3}}Chi ha rubato le {{color id=\"2\"}}frecce\nelettriche{{color id=\"65535\"}}?!",
      "EUnl": "{{fun_0003_0001 arg=\"0x0214\"}}Wie heeft dit gedaan?! {{delay3}}Wie heeft de\n{{color id=\"2\"}}elektropijlen {{color id=\"65535\"}}gestolen?!",
      "EUru": "{{fun_0003_0001 arg=\"0x0214\"}}Кто это хочет украсть\nу меня {{color id=\"2\"}}грозовые стрелы{{color id=\"65535\"}}?!",
      "JPja": "{{fun_0003_0001 arg=\"0x0214\"}}{{ruby charSpan=\"1\" value=\"だれ\"}}誰ゾラ！ {{delay3}}{{color id=\"2\"}}{{ruby charSpan=\"2\" value=\"でんき\"}}電気の{{ruby charSpan=\"1\" value=\"や\"}}矢{{color id=\"65535\"}}を{{ruby charSpan=\"1\" value=\"うば\"}}奪うのは！",
      "KRko": "{{fun_0003_0001 arg=\"0x0214\"}}누구냐조라! {{delay3}}{{color id=\"2\"}}전기의 화살{{color id=\"65535\"}}을 가져가는 놈!",
      "TWzh": "{{fun_0003_0001 arg=\"0x0214\"}}是誰咋啦！是誰搶走{{delay3}}{{color id=\"2\"}}電箭{{color id=\"65535\"}}！",
      "USen": "{{fun_0003_0001 arg=\"0x0214\"}}Who did it? {{delay3}}Who stole my {{color id=\"2\"}}shock arrows{{color id=\"65535\"}}?",
      "USes": "{{fun_0003_0001 arg=\"0x0214\"}}¡¿Quién fue?!{{delay3}} ¿Quién se robó mi\n{{color id=\"2\"}}{{wordInfo gender=\"2\" defArticle=\"1\" indefArticle=\"1\" isPlural=\"0\"}}flecha eléctrica{{color id=\"65535\"}}?",
      "USfr": "{{fun_0003_0001 arg=\"0x0214\"}}Qui?! {{delay3}}Qui a eu l'audace de me voler ma\n{{color id=\"2\"}}{{wordInfo gender=\"2\" defArticle=\"1\" indefArticle=\"1\" isPlural=\"0\"}}flèche électrique{{color id=\"65535\"}}?!"
    }
  }
]