[
  {
    "label": "Guide_Squat",
    "attribute": "0x70010000",
    "locale": {
      "CNzh": "蹲下",
      "EUde": "Ducken",
      "EUen": "Crouch",
      "EUes": "Agacharse",
      "EUfr": "S'accroupir",
      "EUit": "Accucciarsi",
      "EUnl": "Hurken",
      "EUru": "Ходьба пригнувшись",
      "JPja": "しゃがむ",
      "KRko": "숙이기",
      "TWzh": "蹲下",
      "USen": "Crouch",
      "USes": "Agacharse",
      "USfr": "S'accroupir"
    }
  },
  {
    "label": "Guide_Squat_Msg",
    "attribute": "0x92010000",
    "locale": {
      "CNzh": "可放低脚步声，静静地移动。",
      "EUde": "So kannst du dich fast lautlos fortbewegen.",
      "EUen": "Allows you to move quietly.",
      "EUes": "Agáchate para moverte sigilosamente.",
      "EUfr": "Atténue le bruit de vos pas.",
      "EUit": "Per muoversi silenziosamente.",
      "EUnl": "Sluip rond en maak minder lawaai.",
      "EUru": "Позволяет передвигаться намного тише.",
      "JPja": "足音が弱まり　静かに移動することができる",
      "KRko": "발자국 소리가 작아져 조용히 이동할 수 있다",
      "TWzh": "可降低腳步聲，靜靜地移動。",
      "USen": "Allows you to move quietly.",
      "USes": "Agáchate para moverte sigilosamente.",
      "USfr": "Atténue le bruit de vos pas."
    }
  },
  {
    "label": "Guide_Squat_Sub00",
    "attribute": "0x94010000",
    "locale": {
      "CNzh": "按下",
      "EUde": "Drücken",
      "EUen": "Press",
      "EUes": "Pulsar",
      "EUfr": "Appuyer",
      "EUit": "Premi",
      "EUnl": "Drukken",
      "EUru": "Нажмите",
      "JPja": "{{ruby charSpan=\"1\" value=\"お\"}}押し{{ruby charSpan=\"1\" value=\"こ\"}}込む",
      "KRko": "누르기",
      "TWzh": "按下",
      "USen": "Press",
      "USes": "Oprimir",
      "USfr": "Appuyer"
    }
  },
  {
    "label": "Guide_Surfing",
    "attribute": "0x96010000",
    "locale": {
      "CNzh": "踩盾滑行",
      "EUde": "Schildschlittern",
      "EUen": "Shield Surf",
      "EUes": "Deslizarse con escudo",
      "EUfr": "Glisse sur bouclier",
      "EUit": "Fare surf su scudo",
      "EUnl": "Schildsurfen",
      "EUru": "Щитбординг",
      "JPja": "盾サーフィン",
      "KRko": "방패 서핑",
      "TWzh": "踩盾滑行",
      "USen": "Shield Surf",
      "USes": "Deslizarse con escudo",
      "USfr": "Surf sur bouclier"
    }
  },
  {
    "label": "Guide_Surfing_Msg",
    "attribute": "0xB8010000",
    "locale": {
      "CNzh": "边移动边将盾牌踩在脚下，可在下坡处滑行。",
      "EUde": "Gleite mit deinem Schild Abhänge hinunter.",
      "EUen": "Hop on your shield and slide down hills.",
      "EUes": "Usa tu escudo para deslizarte por pendientes.",
      "EUfr": "Permet de dévaler les pentes sur un bouclier.",
      "EUit": "Usare lo scudo per scivolare dai pendii.",
      "EUnl": "Glijd op je schild van heuvels af.",
      "EUru": "На щите можно быстро спуститься с горы.",
      "JPja": "移動しながら{{ruby charSpan=\"1\" value=\"たて\"}}盾を足元に出して {{ruby charSpan=\"1\" value=\"くだ\"}}下り{{ruby charSpan=\"1\" value=\"ざか\"}}坂をすべりおりる",
      "KRko": "이동하며 방패를 발밑에 깔고 내리막을 미끄러져 간다",
      "TWzh": "邊移動邊將盾牌踩在腳下，可在下坡處滑行。",
      "USen": "Hop on your shield and slide down hills.",
      "USes": "Usa tu escudo para deslizarte por pendientes.",
      "USfr": "Permet de dévaler les pentes sur un bouclier."
    }
  },
  {
    "label": "Guide_Surfing_Sub00",
    "attribute": "0xBA010000",
    "locale": {
      "CNzh": "举盾",
      "EUde": "Schild heben",
      "EUen": "Guard",
      "EUes": "Sacar escudo",
      "EUfr": "Lever le bouclier",
      "EUit": "Imbraccia",
      "EUnl": "Schild nemen",
      "EUru": "Выставьте щит",
      "JPja": "盾を構えて",
      "KRko": "방패를 들고",
      "TWzh": "舉盾",
      "USen": "Guard",
      "USes": "Sacar escudo",
      "USfr": "Lever le bouclier"
    }
  },
  {
    "label": "Guide_Surfing_Sub01",
    "attribute": "0xBC010000",
    "locale": {
      "CNzh": "跳跃",
      "EUde": "Springen",
      "EUen": "Jump",
      "EUes": "Saltar",
      "EUfr": "Sauter",
      "EUit": "Salta",
      "EUnl": "Springen",
      "EUru": "Прыгните",
      "JPja": "ジャンプして",
      "KRko": "점프해서",
      "TWzh": "跳躍",
      "USen": "Jump",
      "USes": "Saltar",
      "USfr": "Sauter"
    }
  },
  {
    "label": "Guide_Surfing_Sub02",
    "attribute": "0xBE010000",
    "locale": {
      "CNzh": "踩上",
      "EUde": "Aufsteigen",
      "EUen": "Ride",
      "EUes": "Subir al escudo",
      "EUfr": "Glisser",
      "EUit": "Sali sullo scudo",
      "EUnl": "Surfen",
      "EUru": "Встаньте на щит",
      "JPja": "{{ruby charSpan=\"1\" value=\"の\"}}乗る",
      "KRko": "타기",
      "TWzh": "踩上",
      "USen": "Ride",
      "USes": "Subir al escudo",
      "USfr": "Glisser"
    }
  },
  {
    "label": "Guide_Attack",
    "attribute": "0xC0010000",
    "locale": {
      "CNzh": "用武器攻击",
      "EUde": "Waffenangriff",
      "EUen": "Use Weapon",
      "EUes": "Usar un arma",
      "EUfr": "Attaque rapprochée",
      "EUit": "Attacco corpo a corpo",
      "EUnl": "Wapen gebruiken",
      "EUru": "Применение оружия",
      "JPja": "武器で攻撃",
      "KRko": "무기로 공격",
      "TWzh": "用武器攻擊",
      "USen": "Use Weapon",
      "USes": "Usar un arma",
      "USfr": "Attaque de près"
    }
  },
  {
    "label": "Guide_Attack_Msg",
    "attribute": "0xE2010000",
    "locale": {
      "CNzh": "可使用装备之武器进行攻击。",
      "EUde": "Du greifst mit der ausgerüsteten Waffe an.",
      "EUen": "Attack with your equipped weapon.",
      "EUes": "Ataca con el arma que tengas equipada.",
      "EUfr": "Donnez un coup avec l'arme équipée.",
      "EUit": "Per attaccare con l'arma selezionata.",
      "EUnl": "Val aan met het wapen waarmee je bent uitgerust.",
      "EUru": "Атака выбранным оружием.",
      "JPja": "装備した武器を使って 攻撃できる",
      "KRko": "장비한 무기를 이용하여 공격할 수 있다",
      "TWzh": "可使用裝備之武器進行攻擊。",
      "USen": "Attack with your equipped weapon.",
      "USes": "Ataca con el arma que tengas equipada.",
      "USfr": "Donnez un coup avec l'arme équipée."
    }
  },
  {
    "label": "Guide_SpinAtack",
    "attribute": "0xE4010000",
    "locale": {
      "CNzh": "蓄力攻击",
      "EUde": "Aufgeladener Angriff",
      "EUen": "Charged Attacks",
      "EUes": "Ataque cargado",
      "EUfr": "Attaque chargée",
      "EUit": "Il colpo caricato",
      "EUnl": "Draaiaanval",
      "EUru": "Усиленный удар",
      "JPja": "タメ{{ruby charSpan=\"2\" value=\"こうげき\"}}攻撃",
      "KRko": "모으기 공격",
      "TWzh": "蓄力攻擊",
      "USen": "Charged Attacks",
      "USes": "Ataque cargado",
      "USfr": "Attaque chargée"
    }
  },
  {
    "label": "Guide_SpinAtack_Msg",
    "attribute": "0x06020000",
    "locale": {
      "CNzh": "边回旋边施放广范围的强力攻击。",
      "EUde": "Drehe dich und greife großflächig an.",
      "EUen": "Prepare and unleash a powerful attack.",
      "EUes": "Un golpe potente que abarca una zona amplia.",
      "EUfr": "Déclenchez une attaque dévastatrice.",
      "EUit": "Un potente colpo che spazza l'area circostante.",
      "EUnl": "Draai om je as en voer een snelle aanval uit.",
      "EUru": "Более мощная атака.",
      "JPja": "{{ruby charSpan=\"2\" value=\"かいてん\"}}回転しながら{{ruby charSpan=\"3\" value=\"こうはんい\"}}広範囲に強力な攻撃を繰り出す",
      "KRko": "회전하며 광범위하게 강력한 공격을 펼친다",
      "TWzh": "邊迴旋邊施放廣範圍的強力攻擊。",
      "USen": "Prepare and unleash a powerful attack.",
      "USes": "Un golpe potente que abarca una zona amplia.",
      "USfr": "Déclenchez une attaque dévastatrice."
    }
  },
  {
    "label": "Guide_SpinAtack_Sub00",
    "attribute": "0x08020000",
    "locale": {
      "CNzh": "积蓄力量",
      "EUde": "Kraft sammeln",
      "EUen": "Build power",
      "EUes": "Cargar poder",
      "EUfr": "Charger le coup",
      "EUit": "Carica il colpo",
      "EUnl": "Kracht opbouwen",
      "EUru": "Накопите силу",
      "JPja": "{{ruby charSpan=\"1\" value=\"ちから\"}}力をタメて",
      "KRko": "힘을 모아서",
      "TWzh": "積蓄力量",
      "USen": "Build power",
      "USes": "Acumular poder",
      "USfr": "Charger le coup"
    }
  },
  {
    "label": "Guide_SpinAtack_Sub01",
    "attribute": "0x0A020000",
    "locale": {
      "CNzh": "释放",
      "EUde": "Loslassen",
      "EUen": "Release",
      "EUes": "Soltar",
      "EUfr": "Relâcher",
      "EUit": "Rilascia",
      "EUnl": "Loslaten",
      "EUru": "Атакуйте",
      "JPja": "{{ruby charSpan=\"1\" value=\"はな\"}}放つ",
      "KRko": "방출",
      "TWzh": "釋放",
      "USen": "Release",
      "USes": "Soltar",
      "USfr": "Relâcher"
    }
  },
  {
    "label": "Guide_Pause",
    "attribute": "0x2C020000",
    "locale": {
      "CNzh": "开启袋子",
      "EUde": "Tasche öffnen",
      "EUen": "Open Inventory",
      "EUes": "Abrir la alforja",
      "EUfr": "Accès à la sacoche",
      "EUit": "Aprire la borsa",
      "EUnl": "Voorwerpen bekijken",
      "EUru": "Открыть сумку",
      "JPja": "ポーチを{{ruby charSpan=\"1\" value=\"ひら\"}}開く",
      "KRko": "주머니 열기",
      "TWzh": "開啟袋子",
      "USen": "Open Inventory",
      "USes": "La alforja",
      "USfr": "Accès à la sacoche"
    }
  },
  {
    "label": "Guide_Pause_Msg",
    "attribute": "0x4E020000",
    "locale": {
      "CNzh": "取得武器或防具后，就在此装备。",
      "EUde": "Waffen und Kleidung rüstest du hier aus.",
      "EUen": "Equip weapons, armor, and other gear here.",
      "EUes": "Equipa armas, vestimenta, y demás.",
      "EUfr": "Équipez-vous de vos armes et vêtements.",
      "EUit": "Per indossare armi e armature in possesso.",
      "EUnl": "Kies hier je wapens en uitrusting.",
      "EUru": "Оружие и одежда хранятся в сумке.",
      "JPja": "武器や防具を手に入れたら　ここで装備する",
      "KRko": "무기나 방어구를 획득하면 여기서 장비할 수 있다",
      "TWzh": "取得武器或防具後，就在此裝備。",
      "USen": "Equip weapons, armor, and other gear here.",
      "USes": "Equipa las armas y la ropa que tengas.",
      "USfr": "Équipez-vous de vos armes et vêtements."
    }
  },
  {
    "label": "Guide_Attention",
    "attribute": "0x50020000",
    "locale": {
      "CNzh": "注视",
      "EUde": "Ziel erfassen",
      "EUen": "Lock on",
      "EUes": "Fijar un objetivo",
      "EUfr": "Cibler",
      "EUit": "Agganciare un obiettivo",
      "EUnl": "Focussen",
      "EUru": "Нацеливание",
      "JPja": "{{ruby charSpan=\"2\" value=\"ちゅうもく\"}}注目する",
      "KRko": "주목하기",
      "TWzh": "注視",
      "USen": "Lock on",
      "USes": "Fijar un objetivo",
      "USfr": "Cibler"
    }
  },
  {
    "label": "Guide_Attention_Msg",
    "attribute": "0x72020000",
    "locale": {
      "CNzh": "在边注视附近敌人边战斗等情况下具有良效。",
      "EUde": "Im Nahkampf hilft es, Gegner anzuvisieren.",
      "EUen": "Effective for targeting.",
      "EUes": "Centra tu atención en un enemigo al atacar.",
      "EUfr": "Suivez les mouvements d'un ennemi.",
      "EUit": "Per fissare la visuale su un avversario.",
      "EUnl": "Een manier om je op één vijand te richten.",
      "EUru": "Не выпускайте врага из виду.",
      "JPja": "近くの敵を{{ruby charSpan=\"2\" value=\"ちゅうもく\"}}注目しながら戦う{{ruby charSpan=\"1\" value=\"とき\"}}時などに{{ruby charSpan=\"2\" value=\"ゆうこう\"}}有効",
      "KRko": "가까운 적을 주목하며 싸울 때 유효하다",
      "TWzh": "在邊注視附近敵人邊戰鬥等情況下具有良效。",
      "USen": "Effective for targeting.",
      "USes": "Centra tu atención en un enemigo al atacar.",
      "USfr": "Suivez les mouvements d'un ennemi."
    }
  },
  {
    "label": "Guide_Attention_Sub00",
    "attribute": "0x74020000",
    "locale": {
      "CNzh": "长按",
      "EUde": "Gedrückt halten",
      "EUen": "Press and hold",
      "EUes": "Mantener",
      "EUfr": "Maintenir",
      "EUit": "Tieni premuto",
      "EUnl": "Ingedrukt houden",
      "EUru": "Удерживайте",
      "JPja": "{{ruby charSpan=\"2\" value=\"ながお\"}}長押し",
      "KRko": "길게 누르기",
      "TWzh": "長按",
      "USen": "Press and hold",
      "USes": "Mantener",
      "USfr": "Maintenir"
    }
  },
  {
    "label": "Guide_Bow",
    "attribute": "0x76020000",
    "locale": {
      "CNzh": "用弓箭攻击",
      "EUde": "Bogenangriff",
      "EUen": "Attack with Bow",
      "EUes": "Usar un arco",
      "EUfr": "Tir à l'arc",
      "EUit": "L'attacco con l'arco",
      "EUnl": "Pijl en boog gebruiken",
      "EUru": "Стрельба из лука",
      "JPja": "{{ruby charSpan=\"2\" value=\"ゆみや\"}}弓矢で{{ruby charSpan=\"2\" value=\"こうげき\"}}攻撃",
      "KRko": "활로 공격",
      "TWzh": "用弓箭攻擊",
      "USen": "Attack with Bow",
      "USes": "Usar un arco",
      "USfr": "Tir à l'arc"
    }
  },
  {
    "label": "Guide_Bow_Msg",
    "attribute": "0x98020000",
    "locale": {
      "CNzh": "装备弓后可从远距离攻击敌人。",
      "EUde": "Mit dem Bogen greifst du entfernte Feinde an.",
      "EUen": "Equip a bow to attack enemies from afar.",
      "EUes": "Dispara con el arco que tengas equipado.",
      "EUfr": "Équipez l'arc pour attaquer à distance.",
      "EUit": "Per attaccare i nemici da lontano.",
      "EUnl": "Bestook je vijanden van een veilige afstand.",
      "EUru": "Лук позволяет атаковать издалека.",
      "JPja": "{{ruby charSpan=\"1\" value=\"ゆみ\"}}弓を{{ruby charSpan=\"2\" value=\"そうび\"}}装備する{{ruby charSpan=\"1\" value=\"こと\"}}事で {{ruby charSpan=\"1\" value=\"てき\"}}敵を{{ruby charSpan=\"3\" value=\"えんきょり\"}}遠距離から{{ruby charSpan=\"2\" value=\"こうげき\"}}攻撃できる",
      "KRko": "활을 장비하면 적을 원거리에서 공격할 수 있다",
      "TWzh": "裝備弓後可從遠距離攻擊敵人。",
      "USen": "Equip a bow to attack enemies from afar.",
      "USes": "Dispara con el arco que tengas equipado.",
      "USfr": "Équipez l'arc pour attaquer à distance."
    }
  },
  {
    "label": "Guide_Bow_Sub00",
    "attribute": "0x9A020000",
    "locale": {
      "CNzh": "拉弓",
      "EUde": "Spannen",
      "EUen": "Draw bow",
      "EUes": "Tensar el arco",
      "EUfr": "Bander l'arc",
      "EUit": "Tendi l'arco",
      "EUnl": "Boog spannen",
      "EUru": "Натяните лук",
      "JPja": "{{ruby charSpan=\"1\" value=\"ひ\"}}引き{{ruby charSpan=\"1\" value=\"しぼ\"}}絞って",
      "KRko": "시위를 당기고",
      "TWzh": "拉弓",
      "USen": "Draw bow",
      "USes": "Tensar el arco",
      "USfr": "Bander l'arc"
    }
  },
  {
    "label": "Guide_Bow_Sub01",
    "attribute": "0x9C020000",
    "locale": {
      "CNzh": "释放",
      "EUde": "Schießen",
      "EUen": "Release to fire",
      "EUes": "Disparar",
      "EUfr": "Tirer",
      "EUit": "Scocca",
      "EUnl": "Schieten",
      "EUru": "Выстрелите",
      "JPja": "{{ruby charSpan=\"1\" value=\"はな\"}}放つ",
      "KRko": "쏘기",
      "TWzh": "釋放",
      "USen": "Release to fire",
      "USes": "Disparar",
      "USfr": "Tirer"
    }
  },
  {
    "label": "Guide_Quest",
    "attribute": "0x9E020000",
    "locale": {
      "CNzh": "开启冒险笔记",
      "EUde": "Tagebuch öffnen",
      "EUen": "Open Adventure Log",
      "EUes": "Diario de viaje",
      "EUfr": "Journal",
      "EUit": "Il diario di viaggio",
      "EUnl": "Missies",
      "EUru": "Открыть дневник",
      "JPja": "{{ruby charSpan=\"4\" value=\"ぼうけんてちょう\"}}冒険手帳を{{ruby charSpan=\"1\" value=\"ひら\"}}開く",
      "KRko": "모험 수첩 열기",
      "TWzh": "開啟冒險筆記",
      "USen": "Open Adventure Log",
      "USes": "Diario de viaje",
      "USfr": "Journal"
    }
  },
  {
    "label": "Guide_Quest_Msg",
    "attribute": "0xC0020000",
    "locale": {
      "CNzh": "若发生挑战，就在此确认。",
      "EUde": "Hier kannst du alle Missionen nachlesen.",
      "EUen": "Your adventures will be detailed here.",
      "EUes": "Consulta las misiones y retos de tu aventura.",
      "EUfr": "Toutes les quêtes sont consignées ici.",
      "EUit": "Per consultare lo stato delle sfide intraprese.",
      "EUnl": "Hier vind je alle missies terug.",
      "EUru": "В дневник записываются все задания.",
      "JPja": "チャレンジが起こったら　ここで確認する",
      "KRko": "챌린지가 발생하면 여기에서 확인할 수 있다",
      "TWzh": "若發生挑戰，就在此確認。",
      "USen": "Your adventures will be detailed here.",
      "USes": "Ahí podrás ver las misiones que tengas.",
      "USfr": "Toutes les quêtes sont consignées ici."
    }
  },
  {
    "label": "Guide_Shield",
    "attribute": "0xC2020000",
    "locale": {
      "CNzh": "举盾",
      "EUde": "Schild verwenden",
      "EUen": "Raise Your Shield",
      "EUes": "Usar el escudo",
      "EUfr": "Levée du bouclier",
      "EUit": "Sollevare lo scudo",
      "EUnl": "Schild gebruiken",
      "EUru": "Выставить щит",
      "JPja": "{{ruby charSpan=\"1\" value=\"たて\"}}盾をかまえる",
      "KRko": "방패 들기",
      "TWzh": "舉盾",
      "USen": "Raise Your Shield",
      "USes": "Usar el escudo",
      "USfr": "Levée du bouclier"
    }
  },
  {
    "label": "Guide_Shield_Msg",
    "attribute": "0xE4020000",
    "locale": {
      "CNzh": "可使用装备之盾牌防御敌人的攻击。",
      "EUde": "Mit dem Schild wehrst du Angriffe ab.",
      "EUen": "Block when using a one-handed weapon.",
      "EUes": "Detén los golpes enemigos con un escudo.",
      "EUfr": "Bloquez les coups avec le bouclier équipé.",
      "EUit": "Per parare gli attacchi nemici.",
      "EUnl": "Weer vijandelijke aanvallen af.",
      "EUru": "Защищайтесь от вражеских ударов.",
      "JPja": "装備した盾で 敵の攻撃を防ぐことができる",
      "KRko": "장비한 방패로 적의 공격을 막을 수 있다",
      "TWzh": "可使用裝備之盾牌防禦敵人的攻擊。",
      "USen": "Block when using a one-handed weapon.",
      "USes": "Detén los golpes enemigos con un escudo.",
      "USfr": "Bloquez les coups avec le bouclier équipé."
    }
  },
  {
    "label": "Guide_Shield_Sub00",
    "attribute": "0xE6020000",
    "locale": {
      "CNzh": "长按",
      "EUde": "Gedrückt halten",
      "EUen": "Press and hold",
      "EUes": "Mantener",
      "EUfr": "Maintenir",
      "EUit": "Tieni premuto",
      "EUnl": "Ingedrukt houden",
      "EUru": "Удерживайте",
      "JPja": "{{ruby charSpan=\"2\" value=\"ながお\"}}長押し",
      "KRko": "길게 누르기",
      "TWzh": "長按",
      "USen": "Press and hold",
      "USes": "Mantener",
      "USfr": "Maintenir"
    }
  },
  {
    "label": "Guide_Scope",
    "attribute": "0xE8020000",
    "locale": {
      "CNzh": "望远镜与定位标的设法",
      "EUde": "Das Fernglas",
      "EUen": "The Scope and Pins",
      "EUes": "Usar el catalejo",
      "EUfr": "Longue-vue",
      "EUit": "Cannocchiale e puntine",
      "EUnl": "Verrekijker gebruiken",
      "EUru": "Визор и метки",
      "JPja": "{{ruby charSpan=\"3\" value=\"ぼうえんきょう\"}}望遠鏡とピンの{{ruby charSpan=\"1\" value=\"う\"}}打ち{{ruby charSpan=\"1\" value=\"かた\"}}方",
      "KRko": "망원경과 핀 사용법",
      "TWzh": "望遠鏡與圖釘的設法",
      "USen": "The Scope and Pins",
      "USes": "Usar el catalejo",
      "USfr": "Longue-vue"
    }
  },
  {
    "label": "Guide_Scope_Msg",
    "attribute": "0x0A030000",
    "locale": {
      "CNzh": "可直接从望远镜朝地图设置定位标。",
      "EUde": "So setzt du Markierungen auf der Karte.",
      "EUen": "View distant things and mark them with pins.",
      "EUes": "Pon runas en el mapa para guiarte.",
      "EUfr": "Placez des balises sur la carte.",
      "EUit": "Per segnare luoghi sulla mappa con le puntine.",
      "EUnl": "Markeer bepaalde punten op de kaart.",
      "EUru": "Ставьте метки на карте с помощью визора.",
      "JPja": "{{ruby charSpan=\"3\" value=\"ぼうえんきょう\"}}望遠鏡からマップに ピンを{{ruby charSpan=\"1\" value=\"う\"}}打ち{{ruby charSpan=\"1\" value=\"こ\"}}込む{{ruby charSpan=\"1\" value=\"こと\"}}事ができる",
      "KRko": "망원경을 통해 맵에 핀을 꽂을 수 있다",
      "TWzh": "可直接從望遠鏡朝地圖設置圖釘。",
      "USen": "View distant things and mark them with pins.",
      "USes": "Pon glifos en el mapa para guiarte.",
      "USfr": "Placez des balises sur la carte."
    }
  },
  {
    "label": "Guide_Scope_Sub00",
    "attribute": "0x0C030000",
    "locale": {
      "CNzh": "按下",
      "EUde": "Drücken",
      "EUen": "Press",
      "EUes": "Pulsar",
      "EUfr": "Appuyer",
      "EUit": "Premi",
      "EUnl": "Drukken",
      "EUru": "Нажмите",
      "JPja": "{{ruby charSpan=\"1\" value=\"お\"}}押し{{ruby charSpan=\"1\" value=\"こ\"}}込み",
      "KRko": "누르기",
      "TWzh": "按下",
      "USen": "Press",
      "USes": "Oprimir",
      "USfr": "Appuyer"
    }
  },
  {
    "label": "Guide_Scope_Sub01",
    "attribute": "0x0E030000",
    "locale": {
      "CNzh": "设置定位标",
      "EUde": "Markieren",
      "EUen": "Place a pin",
      "EUes": "Poner runa",
      "EUfr": "Balise",
      "EUit": "Puntina",
      "EUnl": "Markeren",
      "EUru": "Отметьте",
      "JPja": "ピンを{{ruby charSpan=\"1\" value=\"う\"}}打つ",
      "KRko": "핀 꽂기",
      "TWzh": "設置圖釘",
      "USen": "Place a pin",
      "USes": "Poner glifo",
      "USfr": "Balise"
    }
  },
  {
    "label": "Guide_GurdJust",
    "attribute": "0x10030000",
    "locale": {
      "CNzh": "完美防御",
      "EUde": "Perfekter Block",
      "EUen": "Perfect Guard",
      "EUes": "Guardia perfecta",
      "EUfr": "Garde optimale",
      "EUit": "La parata perfetta",
      "EUnl": "Perfecte afweer",
      "EUru": "Отличный блок",
      "JPja": "ガードジャスト",
      "KRko": "가드 저스트",
      "TWzh": "完美防禦",
      "USen": "Perfect Guard",
      "USes": "Guardia perfecta",
      "USfr": "Garde optimale"
    }
  },
  {
    "label": "Guide_GurdJust_Msg",
    "attribute": "0x32030000",
    "locale": {
      "CNzh": "在绝佳时机挥盾，可弹开对手的攻击。",
      "EUde": "Pariere im richtigen Moment feindliche Angriffe.",
      "EUen": "Parry at the right time to knock an enemy back.",
      "EUes": "Desvía un ataque enemigo en el momento ideal.",
      "EUfr": "Parez l'attaque ennemie au dernier moment.",
      "EUit": "Para al momento giusto per sbilanciare i nemici.",
      "EUnl": "Pareer een aanval op het juiste moment.",
      "EUru": "Отразите удар врага в последний момент.",
      "JPja": "タイミングよく{{ruby charSpan=\"1\" value=\"たて\"}}盾を{{ruby charSpan=\"1\" value=\"つ\"}}突きだすと{{ruby charSpan=\"2\" value=\"あいて\"}}相手の{{ruby charSpan=\"2\" value=\"こうげき\"}}攻撃を{{ruby charSpan=\"1\" value=\"はじ\"}}弾ける",
      "KRko": "타이밍 좋게 방패를 휘두르면 상대 공격을 튕겨낼 수 있다",
      "TWzh": "在絕佳時機揮盾，可彈開對手的攻擊。",
      "USen": "Parry at the right time to knock an enemy back.",
      "USes": "Desvía un ataque enemigo en el último instante.",
      "USfr": "Parez l'attaque ennemie au dernier moment."
    }
  },
  {
    "label": "Guide_GurdJust_Sub00",
    "attribute": "0x34030000",
    "locale": {
      "CNzh": "举盾",
      "EUde": "Schild heben",
      "EUen": "Ready shield",
      "EUes": "Sacar escudo",
      "EUfr": "Bouclier",
      "EUit": "Solleva lo scudo",
      "EUnl": "Verdedigen",
      "EUru": "Выставьте щит",
      "JPja": "盾をかまえて",
      "KRko": "방패를 들고",
      "TWzh": "舉盾",
      "USen": "Ready shield",
      "USes": "Sacar escudo",
      "USfr": "Bouclier"
    }
  },
  {
    "label": "Guide_GurdJust_Sub01",
    "attribute": "0x36030000",
    "locale": {
      "CNzh": "弹开攻击",
      "EUde": "Parieren",
      "EUen": "Parry",
      "EUes": "Contratacar",
      "EUfr": "Repousser",
      "EUit": "Para",
      "EUnl": "Afweren",
      "EUru": "Отразите удар",
      "JPja": "{{ruby charSpan=\"2\" value=\"こうげき\"}}攻撃をはじく",
      "KRko": "공격 튕기기",
      "TWzh": "彈開攻擊",
      "USen": "Parry",
      "USes": "Contratacar",
      "USfr": "Repousser"
    }
  },
  {
    "label": "Guide_BackStep",
    "attribute": "0x38030000",
    "locale": {
      "CNzh": "后空翻",
      "EUde": "Rückwärtssalto",
      "EUen": "Backflip",
      "EUes": "Salto hacia atrás",
      "EUfr": "Saut périlleux arrière",
      "EUit": "Il salto all'indietro ",
      "EUnl": "Achterwaartse sprong",
      "EUru": "Сальто назад",
      "JPja": "バク{{ruby charSpan=\"1\" value=\"ちゅう\"}}宙",
      "KRko": "뒤돌기",
      "TWzh": "後空翻",
      "USen": "Backflip",
      "USes": "Salto hacia atrás",
      "USfr": "Saut périlleux arrière"
    }
  },
  {
    "label": "Guide_BackStep_Msg",
    "attribute": "0x5A030000",
    "locale": {
      "CNzh": "当敌人使用横向攻击时，就用后空翻闪避。",
      "EUde": "Weiche horizontalen Angriffen nach hinten aus.",
      "EUen": "Dodge enemy attacks by flipping backward.",
      "EUes": "Esquiva los ataques horizontales de un salto.",
      "EUfr": "Esquivez d'un bond les attaques horizontales.",
      "EUit": "Salta all'indietro per evitare un attacco orizzontale.",
      "EUnl": "Ontwijk horizontale aanvallen met een sprong.",
      "EUru": "Позволяет избежать удара слева/справа.",
      "JPja": "敵が横になぎ払ってきた{{ruby charSpan=\"1\" value=\"とき\"}}時は バク{{ruby charSpan=\"1\" value=\"ちゅう\"}}宙でかわす",
      "KRko": "적이 가로로 휘두를 때는 뒤돌기로 피하자",
      "TWzh": "當敵人使用橫向攻擊時，就用後空翻閃避。",
      "USen": "Dodge enemy attacks by flipping backward.",
      "USes": "Esquiva los ataques horizontales de un salto.",
      "USfr": "Esquivez d'un bond les attaques horizontales."
    }
  },
  {
    "label": "Guide_BackStep_Sub00",
    "attribute": "0x5C030000",
    "locale": {
      "CNzh": "于注视状态下",
      "EUde": "Ziel erfasst",
      "EUen": "Target enemy",
      "EUes": "Fijar objetivo",
      "EUfr": "Cible verrouillée",
      "EUit": "Aggancia",
      "EUnl": "Terwijl je focust",
      "EUru": "Нацельтесь",
      "JPja": "{{ruby charSpan=\"3\" value=\"ちゅうもくちゅう\"}}注目中に",
      "KRko": "주목 중에",
      "TWzh": "於注視狀態下",
      "USen": "Target enemy",
      "USes": "Fijar objetivo",
      "USfr": "Cible verrouillée"
    }
  },
  {
    "label": "Guide_BackStep_Sub01",
    "attribute": "0x5E030000",
    "locale": {
      "CNzh": "往后方移动",
      "EUde": "Nach hinten",
      "EUen": "Backpedal",
      "EUes": "Ir hacia atrás",
      "EUfr": "Vers l'arrière",
      "EUit": "All'indietro",
      "EUnl": "Achteruit",
      "EUru": "Идите назад",
      "JPja": "{{ruby charSpan=\"2\" value=\"こうほう\"}}後方に{{ruby charSpan=\"2\" value=\"いどう\"}}移動",
      "KRko": "뒤로 이동",
      "TWzh": "往後方移動",
      "USen": "Backpedal",
      "USes": "Ir hacia atrás",
      "USfr": "Vers l'arrière"
    }
  },
  {
    "label": "Guide_BackStep_Sub02",
    "attribute": "0x60030000",
    "locale": {
      "CNzh": "跳跃",
      "EUde": "Springen",
      "EUen": "Jump",
      "EUes": "Saltar",
      "EUfr": "Sauter",
      "EUit": "Salta",
      "EUnl": "Springen",
      "EUru": "Прыгните",
      "JPja": "ジャンプ",
      "KRko": "점프",
      "TWzh": "跳躍",
      "USen": "Jump",
      "USes": "Saltar",
      "USfr": "Sauter"
    }
  },
  {
    "label": "Guide_SideStep",
    "attribute": "0x62030000",
    "locale": {
      "CNzh": "横跳",
      "EUde": "Sprung zur Seite",
      "EUen": "Side Hop",
      "EUes": "Salto lateral",
      "EUfr": "Saut latéral",
      "EUit": "Il salto laterale",
      "EUnl": "Zijwaartse sprong",
      "EUru": "Прыжок вбок",
      "JPja": "{{ruby charSpan=\"1\" value=\"よこ\"}}横{{ruby charSpan=\"1\" value=\"と\"}}跳び",
      "KRko": "옆으로 뛰기",
      "TWzh": "橫向跳",
      "USen": "Side Hop",
      "USes": "Salto lateral",
      "USfr": "Saut latéral"
    }
  },
  {
    "label": "Guide_SideStep_Msg",
    "attribute": "0x84030000",
    "locale": {
      "CNzh": "当敌人使用纵向攻击时，就用横跳闪避。",
      "EUde": "Weiche vertikalen Angriffen seitwärts aus.",
      "EUen": "Dodge enemy attacks by hopping sideways.",
      "EUes": "Esquiva los ataques verticales de un salto.",
      "EUfr": "Esquivez d'un bond les attaques verticales.",
      "EUit": "Salta di lato per evitare un attacco verticale.",
      "EUnl": "Ontwijk verticale aanvallen met een zijsprong.",
      "EUru": "Позволяет увернуться от удара по вертикали.",
      "JPja": "敵が縦に振りかぶった{{ruby charSpan=\"1\" value=\"とき\"}}時は {{ruby charSpan=\"1\" value=\"よこ\"}}横{{ruby charSpan=\"1\" value=\"と\"}}跳びでかわす",
      "KRko": "적이 세로로 휘두를 때는 옆으로 뛰기로 피하자",
      "TWzh": "當敵人使用縱向攻擊時，就用橫向跳閃避。",
      "USen": "Dodge enemy attacks by hopping sideways.",
      "USes": "Esquiva los ataques verticales de un salto.",
      "USfr": "Esquivez d'un bond les attaques verticales."
    }
  },
  {
    "label": "Guide_SideStep_Sub00",
    "attribute": "0x86030000",
    "locale": {
      "CNzh": "于注视状态下",
      "EUde": "Ziel erfasst",
      "EUen": "Target enemy",
      "EUes": "Fijar objetivo",
      "EUfr": "Cible verrouillée",
      "EUit": "Aggancia",
      "EUnl": "Terwijl je focust",
      "EUru": "Нацельтесь",
      "JPja": "{{ruby charSpan=\"3\" value=\"ちゅうもくちゅう\"}}注目中に",
      "KRko": "주목 중에",
      "TWzh": "於注視狀態下",
      "USen": "Target enemy",
      "USes": "Fijar objetivo",
      "USfr": "Cible verrouillée"
    }
  },
  {
    "label": "Guide_SideStep_Sub01",
    "attribute": "0x88030000",
    "locale": {
      "CNzh": "横向移动",
      "EUde": "Zur Seite",
      "EUen": "Strafe",
      "EUes": "Moverse",
      "EUfr": "Se déplacer",
      "EUit": "Di lato",
      "EUnl": "Zijwaarts",
      "EUru": "Идите вбок",
      "JPja": "横に{{ruby charSpan=\"2\" value=\"いどう\"}}移動",
      "KRko": "옆으로 이동",
      "TWzh": "往橫向移動",
      "USen": "Strafe",
      "USes": "Moverse",
      "USfr": "Se déplacer"
    }
  },
  {
    "label": "Guide_SideStep_Sub02",
    "attribute": "0x8A030000",
    "locale": {
      "CNzh": "跳跃",
      "EUde": "Springen",
      "EUen": "Jump",
      "EUes": "Saltar",
      "EUfr": "Sauter",
      "EUit": "Salta",
      "EUnl": "Springen",
      "EUru": "Прыгните",
      "JPja": "ジャンプ",
      "KRko": "점프",
      "TWzh": "跳躍",
      "USen": "Jump",
      "USes": "Saltar",
      "USfr": "Sauter"
    }
  },
  {
    "label": "Guide_JumpAtack",
    "attribute": "0x8C030000",
    "locale": {
      "CNzh": "跳斩",
      "EUde": "Sprungattacke",
      "EUen": "Jump Slash",
      "EUes": "Ataque en salto",
      "EUfr": "Attaque sautée",
      "EUit": "L'attacco con salto",
      "EUnl": "Sprongaanval",
      "EUru": "Удар в прыжке",
      "JPja": "ジャンプ{{ruby charSpan=\"1\" value=\"ぎ\"}}斬り",
      "KRko": "점프 베기",
      "TWzh": "跳斬",
      "USen": "Jump Slash",
      "USes": "Ataque en salto",
      "USfr": "Attaque sautée"
    }
  },
  {
    "label": "Guide_JumpAtack_Msg",
    "attribute": "0xAE030000",
    "locale": {
      "CNzh": "于跳跃或掉落中攻击，可朝广范围发动攻击。",
      "EUde": "Sprungangriffe treffen eine große Fläche.",
      "EUen": "Attack from above and do splash damage.",
      "EUes": "Inflige daño en una gran área al saltar o al caer.",
      "EUfr": "Une attaque en l'air couvre une large surface.",
      "EUit": "Per attaccare un'area mentre salti o cadi.",
      "EUnl": "Val aan met je zwaard tijdens een sprong of val.",
      "EUru": "Бьет по большой площади.",
      "JPja": "ジャンプ{{ruby charSpan=\"1\" value=\"ちゅう\"}}中や{{ruby charSpan=\"3\" value=\"らっかちゅう\"}}落下中の{{ruby charSpan=\"2\" value=\"こうげき\"}}攻撃で広い範囲に攻撃できる",
      "KRko": "점프 중이나 낙하 중 공격으로 광범위하게 공격하자",
      "TWzh": "於跳躍或落下中攻擊，可朝廣範圍發動攻擊。",
      "USen": "Attack from above and do splash damage.",
      "USes": "Ataca en área al saltar o al caer.",
      "USfr": "Une attaque en l'air couvre une large surface."
    }
  },
  {
    "label": "Guide_JumpAtack_Sub00",
    "attribute": "0xB0030000",
    "locale": {
      "CNzh": "跳跃／掉落中",
      "EUde": "In der Luft",
      "EUen": "In midair",
      "EUes": "Al saltar o caer",
      "EUfr": "Dans les airs",
      "EUit": "In aria",
      "EUnl": "Sprong of val",
      "EUru": "В воздухе",
      "JPja": "ジャンプ/{{ruby charSpan=\"3\" value=\"らっかちゅう\"}}落下中",
      "KRko": "점프/낙하 중",
      "TWzh": "跳躍／落下中",
      "USen": "In midair",
      "USes": "Al saltar o caer",
      "USfr": "Dans les airs"
    }
  },
  {
    "label": "Guide_SandSeal",
    "attribute": "0xB2030000",
    "locale": {
      "CNzh": "沙海象的操作",
      "EUde": "Sandrobben lenken",
      "EUen": "Sand-Seal Surfing",
      "EUes": "Morsa del desierto",
      "EUfr": "Morse des sables",
      "EUit": "Guidare le foche",
      "EUnl": "Woestijnwalrus",
      "EUru": "Песчаные котики",
      "JPja": "スナザラシの{{ruby charSpan=\"2\" value=\"そうさ\"}}操作",
      "KRko": "모래표범 조작",
      "TWzh": "沙海象的操作",
      "USen": "Sand-Seal Surfing",
      "USes": "Morsa del desierto",
      "USfr": "Morse des sables"
    }
  },
  {
    "label": "Guide_SandSeal_Msg",
    "attribute": "0xD4030000",
    "locale": {
      "CNzh": "骑乘前必须先装备盾牌。",
      "EUde": "Du benötigst einen Schild.",
      "EUen": "You will need to equip a shield before riding.",
      "EUes": "Equipa un escudo antes de empezar.",
      "EUfr": "Pour vous faire tracter, équipez un bouclier.",
      "EUit": "Per farti trascinare, devi imbracciare uno scudo.",
      "EUnl": "Je hebt een schild nodig om te beginnen.",
      "EUru": "Перед поездкой нужно выбрать щит.",
      "JPja": "{{ruby charSpan=\"1\" value=\"の\"}}乗る前には盾を{{ruby charSpan=\"2\" value=\"そうび\"}}装備する{{ruby charSpan=\"2\" value=\"ひつよう\"}}必要がある",
      "KRko": "타기 전에 방패를 장비해야 한다",
      "TWzh": "上去前必須先裝備盾牌。",
      "USen": "You will need to equip a shield before riding.",
      "USes": "Equipa un escudo antes de empezar.",
      "USfr": "Pour vous faire tracter, équipez un bouclier."
    }
  },
  {
    "label": "Guide_SandSeal_Sub00",
    "attribute": "0xD6030000",
    "locale": {
      "CNzh": "往左右移动",
      "EUde": "Steuern",
      "EUen": "Steer",
      "EUes": "Girar",
      "EUfr": "Tourner",
      "EUit": "Sterza",
      "EUnl": "Sturen",
      "EUru": "Повернуть",
      "JPja": "{{ruby charSpan=\"2\" value=\"さゆう\"}}左右へ{{ruby charSpan=\"2\" value=\"いどう\"}}移動",
      "KRko": "좌우로 이동",
      "TWzh": "往左右移動",
      "USen": "Steer",
      "USes": "Girar",
      "USfr": "Tourner"
    }
  },
  {
    "label": "Guide_SandSeal_Sub01",
    "attribute": "0xD8030000",
    "locale": {
      "CNzh": "下来",
      "EUde": "Loslassen",
      "EUen": "Let go",
      "EUes": "Bajarse",
      "EUfr": "Lâcher",
      "EUit": "Lascia",
      "EUnl": "Afstappen",
      "EUru": "Отпустить",
      "JPja": "おりる",
      "KRko": "내리기",
      "TWzh": "下來",
      "USen": "Let go",
      "USes": "Bajarse",
      "USfr": "Lâcher"
    }
  },
  {
    "label": "Guide_SandSeal_Sub02",
    "attribute": "0xDA030000",
    "locale": {
      "CNzh": "冲刺",
      "EUde": "Antreiben",
      "EUen": "Dash",
      "EUes": "Acelerar",
      "EUfr": "Accélérer",
      "EUit": "Scatta",
      "EUnl": "Sprinten",
      "EUru": "Ехать быстро",
      "JPja": "ダッシュ",
      "KRko": "대시",
      "TWzh": "衝刺",
      "USen": "Dash",
      "USes": "Acelerar",
      "USfr": "Accélérer"
    }
  },
  {
    "label": "Guide_PadMenu",
    "attribute": "0xDC030000",
    "locale": {
      "CNzh": "希卡之石",
      "EUde": "Shiekah-Stein",
      "EUen": "Check Sheikah Slate",
      "EUes": "{{wordInfo gender=\"2\" defArticle=\"1\" indefArticle=\"1\" isPlural=\"0\"}}Piedra sheikah",
      "EUfr": "Tablette sheikah",
      "EUit": "La tavoletta Sheikah",
      "EUnl": "Sheikah-steen",
      "EUru": "Камень шиика",
      "JPja": "シーカーストーン",
      "KRko": "시커 스톤",
      "TWzh": "希卡之石",
      "USen": "Check Sheikah Slate",
      "USes": "Tableta sheikah",
      "USfr": "Tablette Sheikah"
    }
  },
  {
    "label": "Guide_PadMenu_Msg",
    "attribute": "0xFE030000",
    "locale": {
      "CNzh": "开启使用希卡之石功能的画面。",
      "EUde": "Zeigt die Module des Shiekah-Steins.",
      "EUen": "Access your Sheikah Slate.",
      "EUes": "Usa las diversas funciones de la {{wordInfo gender=\"2\" defArticle=\"1\" indefArticle=\"1\" isPlural=\"0\"}}piedra sheikah.",
      "EUfr": "Accédez aux fonctionnalités de la tablette.",
      "EUit": "Per accedere alla tavoletta Sheikah.",
      "EUnl": "Bekijk de functies van de Sheikah-steen.",
      "EUru": "Использовать Камень шиика.",
      "JPja": "シーカーストーンの機能を使う画面を開く",
      "KRko": "시커 스톤의 기능을 사용하는 화면 열기",
      "TWzh": "開啟使用希卡之石功能的畫面。",
      "USen": "Access your Sheikah Slate.",
      "USes": "Usa las funciones de la tableta sheikah.",
      "USfr": "Accédez aux fonctionnalités de la tablette."
    }
  },
  {
    "label": "Guide_amiibo",
    "attribute": "0x00040000",
    "locale": {
      "CNzh": "使用amiibo",
      "EUde": "amiibo verwenden",
      "EUen": "Use amiibo",
      "EUes": "Usar amiibo",
      "EUfr": "amiibo",
      "EUit": "Usare gli amiibo",
      "EUnl": "amiibo gebruiken",
      "EUru": "Использование amiibo",
      "JPja": "amiiboを{{ruby charSpan=\"1\" value=\"つか\"}}使う",
      "KRko": "amiibo 사용하기",
      "TWzh": "使用amiibo",
      "USen": "Use amiibo",
      "USes": "Usar amiibo",
      "USfr": "amiibo"
    }
  },
  {
    "label": "Guide_amiibo_Msg",
    "attribute": "0x22040000",
    "locale": {
      "CNzh": "将amiibo点触NFC范围。",
      "EUde": "Berühre den NFC-Kontaktpunkt.",
      "EUen": "Touch an amiibo to the NFC touchpoint.",
      "EUes": "Acerca el amiibo al punto de contacto NFC.",
      "EUfr": "Placez un amiibo sur le point de contact NFC.",
      "EUit": "Tocca il sensore NFC con un amiibo.",
      "EUnl": "Houd een amiibo tegen de NFC-sensor aan.",
      "EUru": "Коснитесь аксессуаром amiibo метки NFC.",
      "JPja": "amiiboをNFCエリアにタッチする",
      "KRko": "amiibo를 NFC 영역에 터치",
      "TWzh": "將amiibo點觸NFC範圍。",
      "USen": "Touch an amiibo to the NFC touchpoint.",
      "USes": "Acerca el amiibo al área NFC.",
      "USfr": "Tenez un amiibo sur le point de contact CCP."
    }
  },
  {
    "label": "Guide_Whistle",
    "attribute": "0x24040000",
    "locale": {
      "CNzh": "吹口哨",
      "EUde": "Pfeifen",
      "EUen": "Whistle",
      "EUes": "Silbar",
      "EUfr": "Siffler",
      "EUit": "Fischiare",
      "EUnl": "Fluiten",
      "EUru": "Свист",
      "JPja": "{{ruby charSpan=\"2\" value=\"くちぶえ\"}}口笛を{{ruby charSpan=\"1\" value=\"ふ\"}}吹く",
      "KRko": "휘파람 불기",
      "TWzh": "吹口哨",
      "USen": "Whistle",
      "USes": "Silbar",
      "USfr": "Siffler"
    }
  },
  {
    "label": "Guide_Whistle_Msg",
    "attribute": "0x46040000",
    "locale": {
      "CNzh": "吹口哨可呼唤马匹等前来。",
      "EUde": "Pfeife, um dein Pferd herbeizurufen.",
      "EUen": "Call your horse or other companion to you.",
      "EUes": "Llama a tu caballo u otro acompañante.",
      "EUfr": "Appelez une monture ou un compagnon de loin.",
      "EUit": "Per richiamare a te il cavallo o un compagno.",
      "EUnl": "Roep je paard of ander rijdier bij je.",
      "EUru": "Свистом можно подозвать лошадь.",
      "JPja": "{{ruby charSpan=\"2\" value=\"くちぶえ\"}}口笛を{{ruby charSpan=\"1\" value=\"ふ\"}}吹くことで{{ruby charSpan=\"1\" value=\"うま\"}}馬などを{{ruby charSpan=\"1\" value=\"よ\"}}呼び{{ruby charSpan=\"1\" value=\"よ\"}}寄せる",
      "KRko": "휘파람을 불면 말 등을 부를 수 있다",
      "TWzh": "吹口哨可呼喚馬匹等前來。",
      "USen": "Call your horse or other companion to you.",
      "USes": "Llama a tu caballo u otro acompañante.",
      "USfr": "Appelez une monture ou un compagnon de loin."
    }
  },
  {
    "label": "Guide_SystemMenu",
    "attribute": "0x48040000",
    "locale": {
      "CNzh": "开启系统画面",
      "EUde": "Pausenbildschirm",
      "EUen": "Open System Menu",
      "EUes": "Abrir el menú",
      "EUfr": "Ouvrir le menu",
      "EUit": "Il menu di sistema",
      "EUnl": "Systeemmenu openen",
      "EUru": "Раздел «Система»",
      "JPja": "システム{{ruby charSpan=\"2\" value=\"がめん\"}}画面を{{ruby charSpan=\"1\" value=\"ひら\"}}開く",
      "KRko": "시스템 화면 열기",
      "TWzh": "開啟系統畫面",
      "USen": "Open System Menu",
      "USes": "Abrir el menú",
      "USfr": "Ouvrir le menu"
    }
  },
  {
    "label": "Guide_SystemMenu_Msg",
    "attribute": "0x6A040000",
    "locale": {
      "CNzh": "可进行确认操作、储存、变更选项等。",
      "EUde": "Steuerung, Speichern, Einstellungen und mehr.",
      "EUen": "Check controls, save, or adjust game options.",
      "EUes": "Guarda la partida, cambia los ajustes y más.",
      "EUfr": "Sauvegardez la partie et modifiez les options.",
      "EUit": "Per salvare, cambiare le opzioni e altro.",
      "EUnl": "Bekijk de besturing, de opties of sla je spel op.",
      "EUru": "Управление, сохранение игры, настройки...",
      "JPja": "{{ruby charSpan=\"2\" value=\"そうさ\"}}操作の{{ruby charSpan=\"2\" value=\"かくにん\"}}確認・セーブ・オプション{{ruby charSpan=\"2\" value=\"へんこう\"}}変更などを{{ruby charSpan=\"1\" value=\"おこな\"}}行う",
      "KRko": "조작 확인·저장·옵션 변경 등을 할 수 있다",
      "TWzh": "可進行確認操作、儲存、變更選項等。",
      "USen": "Check controls, save, or adjust game options.",
      "USes": "Guarda la partida, cambia los ajustes y más.",
      "USfr": "Sauvegardez la partie et modifiez les options."
    }
  },
  {
    "label": "Guide_ItemUse",
    "attribute": "0x6C040000",
    "locale": {
      "CNzh": "使用道具",
      "EUde": "Modul verwenden",
      "EUen": "Use Rune",
      "EUes": "Usar un módulo",
      "EUfr": "Module",
      "EUit": "Usare uno strumento",
      "EUnl": "Kracht gebruiken",
      "EUru": "Использование рун",
      "JPja": "アイテムを{{ruby charSpan=\"1\" value=\"つか\"}}使う",
      "KRko": "아이템 사용하기",
      "TWzh": "使用道具",
      "USen": "Use Rune",
      "USes": "Módulos",
      "USfr": "Module"
    }
  },
  {
    "label": "Guide_ItemUse_Msg",
    "attribute": "0x8E040000",
    "locale": {
      "CNzh": "使用希卡之石的道具。",
      "EUde": "Verwende die Module des Shiekah-Steins.",
      "EUen": "Use selected rune from your Sheikah Slate.",
      "EUes": "Accede a los módulos de la {{wordInfo gender=\"2\" defArticle=\"1\" indefArticle=\"1\" isPlural=\"0\"}}piedra sheikah.",
      "EUfr": "Utilisez un module de la tablette sheikah.",
      "EUit": "Per usare strumenti della tavoletta Sheikah.",
      "EUnl": "Gebruik de gekozen kracht van de Sheikah-steen.",
      "EUru": "Руны — это особые функции Камня шиика.",
      "JPja": "シーカーストーンのアイテムを{{ruby charSpan=\"1\" value=\"つか\"}}使う",
      "KRko": "시커 스톤의 아이템을 사용하기",
      "TWzh": "使用希卡之石的道具。",
      "USen": "Use selected rune from your Sheikah Slate.",
      "USes": "Usa un módulo de la {{wordInfo gender=\"2\" defArticle=\"1\" indefArticle=\"1\" isPlural=\"0\"}}tableta sheikah.",
      "USfr": "Utilisez un module de la tablette Sheikah."
    }
  },
  {
    "label": "Guide_ShortCutSword",
    "attribute": "0xB0040000",
    "locale": {
      "CNzh": "快速切换剑",
      "EUde": "Schnellauswahl Waffe",
      "EUen": "Change Weapon",
      "EUes": "Cambiar de arma",
      "EUfr": "Armes",
      "EUit": "Cambiare arma",
      "EUnl": "Wapen kiezen",
      "EUru": "Смена оружия",
      "JPja": "{{ruby charSpan=\"1\" value=\"けん\"}}剣をすばやく{{ruby charSpan=\"1\" value=\"き\"}}切り{{ruby charSpan=\"1\" value=\"か\"}}替える",
      "KRko": "무기 재빠르게 바꾸기",
      "TWzh": "快速切換武器",
      "USen": "Change Weapon",
      "USes": "Cambiar de arma",
      "USfr": "Armes"
    }
  },
  {
    "label": "Guide_ShortCutSword_Msg",
    "attribute": "0xD2040000",
    "locale": {
      "CNzh": "可快速切换持有的多把剑。",
      "EUde": "So kannst du schnell deine Waffe wechseln.",
      "EUen": "You can switch weapons quickly.",
      "EUes": "Elige entre las armas que lleves en la alforja.",
      "EUfr": "Passez facilement d'une arme à l'autre.",
      "EUit": "Per cambiare rapidamente l'arma.",
      "EUnl": "Wissel eenvoudig tussen je wapens.",
      "EUru": "Вы можете быстро сменить оружие.",
      "JPja": "{{ruby charSpan=\"3\" value=\"ふくすうも\"}}複数持つ{{ruby charSpan=\"1\" value=\"けん\"}}剣をすばやく{{ruby charSpan=\"1\" value=\"き\"}}切り{{ruby charSpan=\"1\" value=\"か\"}}替える{{ruby charSpan=\"1\" value=\"こと\"}}事ができる",
      "KRko": "여러 개의 무기를 재빨리 바꿀 수 있다",
      "TWzh": "可快速切換持有的武器。",
      "USen": "You can switch weapons quickly.",
      "USes": "Cambia de arma rápidamente.",
      "USfr": "Passez facilement d'une arme à l'autre."
    }
  },
  {
    "label": "Guide_ShortCutSword_Sub00",
    "attribute": "0xD4040000",
    "locale": {
      "CNzh": "长按",
      "EUde": "Gedrückt halten",
      "EUen": "Press and hold",
      "EUes": "Mantener",
      "EUfr": "Maintenir",
      "EUit": "Tieni premuto",
      "EUnl": "Ingedrukt houden",
      "EUru": "Удерживайте",
      "JPja": "{{ruby charSpan=\"2\" value=\"ながお\"}}長押し",
      "KRko": "길게 누르기",
      "TWzh": "長按",
      "USen": "Press and hold",
      "USes": "Mantener",
      "USfr": "Maintenir"
    }
  },
  {
    "label": "Guide_ShortCutSword_Sub01",
    "attribute": "0xD6040000",
    "locale": {
      "CNzh": "切换",
      "EUde": "Wechseln",
      "EUen": "Switch",
      "EUes": "Escoger",
      "EUfr": "Changer",
      "EUit": "Cambia",
      "EUnl": "Kiezen",
      "EUru": "Выберите",
      "JPja": "{{ruby charSpan=\"1\" value=\"き\"}}切り{{ruby charSpan=\"1\" value=\"か\"}}替え",
      "KRko": "바꾸기",
      "TWzh": "切換",
      "USen": "Switch",
      "USes": "Escoger",
      "USfr": "Changer"
    }
  },
  {
    "label": "Guide_ShortCutShield",
    "attribute": "0xD8040000",
    "locale": {
      "CNzh": "快速切换盾牌",
      "EUde": "Schnellauswahl Schild",
      "EUen": "Change Shield",
      "EUes": "Cambiar de escudo",
      "EUfr": "Boucliers",
      "EUit": "Cambiare scudo",
      "EUnl": "Schild kiezen",
      "EUru": "Смена щита",
      "JPja": "{{ruby charSpan=\"1\" value=\"たて\"}}盾をすばやく{{ruby charSpan=\"1\" value=\"き\"}}切り{{ruby charSpan=\"1\" value=\"か\"}}替える",
      "KRko": "방패 재빠르게 바꾸기",
      "TWzh": "快速切換盾牌",
      "USen": "Change Shield",
      "USes": "Cambiar de escudo",
      "USfr": "Boucliers"
    }
  },
  {
    "label": "Guide_ShortCutShield_Msg",
    "attribute": "0xFA040000",
    "locale": {
      "CNzh": "可快速切换持有的多面盾牌。",
      "EUde": "So kannst du schnell deinen Schild wechseln.",
      "EUen": "You can switch shields quickly.",
      "EUes": "Elige entre los escudos que lleves en la alforja.",
      "EUfr": "Passez facilement d'un bouclier à l'autre.",
      "EUit": "Per cambiare rapidamente lo scudo.",
      "EUnl": "Wissel eenvoudig tussen je schilden.",
      "EUru": "Вы можете быстро сменить щит.",
      "JPja": "{{ruby charSpan=\"3\" value=\"ふくすうも\"}}複数持つ{{ruby charSpan=\"1\" value=\"たて\"}}盾をすばやく{{ruby charSpan=\"1\" value=\"き\"}}切り{{ruby charSpan=\"1\" value=\"か\"}}替える{{ruby charSpan=\"1\" value=\"こと\"}}事ができる",
      "KRko": "여러 개의 방패를 재빨리 바꿀 수 있다",
      "TWzh": "可快速切換持有的盾牌。",
      "USen": "You can switch shields quickly.",
      "USes": "Cambia de escudo rápidamente.",
      "USfr": "Passez facilement d'un bouclier à l'autre."
    }
  },
  {
    "label": "Guide_ShortCutShield_Sub00",
    "attribute": "0xFC040000",
    "locale": {
      "CNzh": "长按",
      "EUde": "Gedrückt halten",
      "EUen": "Press and hold",
      "EUes": "Mantener",
      "EUfr": "Maintenir",
      "EUit": "Tieni premuto",
      "EUnl": "Ingedrukt houden",
      "EUru": "Удерживайте",
      "JPja": "{{ruby charSpan=\"2\" value=\"ながお\"}}長押し",
      "KRko": "길게 누르기",
      "TWzh": "長按",
      "USen": "Press and hold",
      "USes": "Mantener",
      "USfr": "Maintenir"
    }
  },
  {
    "label": "Guide_ShortCutShield_Sub01",
    "attribute": "0xFE040000",
    "locale": {
      "CNzh": "切换",
      "EUde": "Wechseln",
      "EUen": "Switch",
      "EUes": "Escoger",
      "EUfr": "Changer",
      "EUit": "Cambia",
      "EUnl": "Kiezen",
      "EUru": "Выберите",
      "JPja": "{{ruby charSpan=\"1\" value=\"き\"}}切り{{ruby charSpan=\"1\" value=\"か\"}}替え",
      "KRko": "바꾸기",
      "TWzh": "切換",
      "USen": "Switch",
      "USes": "Escoger",
      "USfr": "Changer"
    }
  },
  {
    "label": "Guide_ShortCutBow",
    "attribute": "0x00050000",
    "locale": {
      "CNzh": "快速切换弓",
      "EUde": "Schnellauswahl Bogen",
      "EUen": "Change Bow",
      "EUes": "Cambiar de arco",
      "EUfr": "Arcs",
      "EUit": "Cambiare arco",
      "EUnl": "Boog kiezen",
      "EUru": "Смена лука",
      "JPja": "{{ruby charSpan=\"1\" value=\"ゆみ\"}}弓をすばやく{{ruby charSpan=\"1\" value=\"き\"}}切り{{ruby charSpan=\"1\" value=\"か\"}}替える",
      "KRko": "활 재빠르게 바꾸기",
      "TWzh": "快速切換弓",
      "USen": "Change Bow",
      "USes": "Cambiar de arco",
      "USfr": "Arcs"
    }
  },
  {
    "label": "Guide_ShortCutBow_Msg",
    "attribute": "0x22050000",
    "locale": {
      "CNzh": "可快速切换持有的多把弓。",
      "EUde": "So kannst du schnell deinen Bogen wechseln.",
      "EUen": "You can switch bows quickly.",
      "EUes": "Elige entre los arcos que lleves en la alforja.",
      "EUfr": "Passez facilement d'un arc à l'autre.",
      "EUit": "Per cambiare rapidamente l'arco.",
      "EUnl": "Wissel eenvoudig tussen je bogen.",
      "EUru": "Вы можете быстро сменить лук.",
      "JPja": "{{ruby charSpan=\"3\" value=\"ふくすうも\"}}複数持つ{{ruby charSpan=\"1\" value=\"ゆみ\"}}弓をすばやく{{ruby charSpan=\"1\" value=\"き\"}}切り{{ruby charSpan=\"1\" value=\"か\"}}替える{{ruby charSpan=\"1\" value=\"こと\"}}事ができる",
      "KRko": "여러 개의 활을 재빨리 바꿀 수 있다",
      "TWzh": "可快速切換持有的弓。",
      "USen": "You can switch bows quickly.",
      "USes": "Cambia de arco rápidamente.",
      "USfr": "Passez facilement d'un arc à l'autre."
    }
  },
  {
    "label": "Guide_ShortCutBow_Sub00",
    "attribute": "0x24050000",
    "locale": {
      "CNzh": "装备弓",
      "EUde": "Bogen ziehen",
      "EUen": "Draw bow",
      "EUes": "Sacar el arco",
      "EUfr": "Équiper un arc",
      "EUit": "Impugna l'arco",
      "EUnl": "Boog gebruiken",
      "EUru": "Достаньте лук",
      "JPja": "{{ruby charSpan=\"1\" value=\"ゆみ\"}}弓を{{ruby charSpan=\"2\" value=\"そうび\"}}装備",
      "KRko": "활을 장비",
      "TWzh": "裝備弓",
      "USen": "Draw bow",
      "USes": "Sacar el arco",
      "USfr": "Équiper un arc"
    }
  },
  {
    "label": "Guide_ShortCutBow_Sub01",
    "attribute": "0x26050000",
    "locale": {
      "CNzh": "长按",
      "EUde": "Gedrückt halten",
      "EUen": "Press and hold",
      "EUes": "Mantener",
      "EUfr": "Maintenir",
      "EUit": "Tieni premuto",
      "EUnl": "Ingedrukt houden",
      "EUru": "Удерживайте",
      "JPja": "{{ruby charSpan=\"2\" value=\"ながお\"}}長押し",
      "KRko": "길게 누르기",
      "TWzh": "長按",
      "USen": "Press and hold",
      "USes": "Mantener",
      "USfr": "Maintenir"
    }
  },
  {
    "label": "Guide_ShortCutBow_Sub02",
    "attribute": "0x28050000",
    "locale": {
      "CNzh": "切换",
      "EUde": "Wechseln",
      "EUen": "Switch",
      "EUes": "Escoger",
      "EUfr": "Changer",
      "EUit": "Cambia",
      "EUnl": "Kiezen",
      "EUru": "Выберите",
      "JPja": "{{ruby charSpan=\"1\" value=\"き\"}}切り{{ruby charSpan=\"1\" value=\"か\"}}替え",
      "KRko": "바꾸기",
      "TWzh": "切換",
      "USen": "Switch",
      "USes": "Escoger",
      "USfr": "Changer"
    }
  },
  {
    "label": "Guide_ShortCutArrow",
    "attribute": "0x2A050000",
    "locale": {
      "CNzh": "快速切换箭",
      "EUde": "Schnellauswahl Pfeile",
      "EUen": "Change Arrows",
      "EUes": "Cambiar de flechas",
      "EUfr": "Flèches",
      "EUit": "Cambiare frecce",
      "EUnl": "Pijlen kiezen",
      "EUru": "Смена стрел",
      "JPja": "{{ruby charSpan=\"1\" value=\"や\"}}矢をすばやく{{ruby charSpan=\"1\" value=\"き\"}}切り{{ruby charSpan=\"1\" value=\"か\"}}替える",
      "KRko": "화살 재빠르게 바꾸기",
      "TWzh": "快速切換箭",
      "USen": "Change Arrows",
      "USes": "Cambiar de flechas",
      "USfr": "Flèches"
    }
  },
  {
    "label": "Guide_ShortCutArrow_Msg",
    "attribute": "0x4C050000",
    "locale": {
      "CNzh": "可快速切换持有的多种箭。",
      "EUde": "So kannst du schnell andere Pfeile ausrüsten.",
      "EUen": "You can switch arrows quickly.",
      "EUes": "Elige entre las flechas que lleves en la alforja.",
      "EUfr": "Passez facilement d'un type de flèche à l'autre.",
      "EUit": "Per cambiare rapidamente le frecce in uso.",
      "EUnl": "Wissel eenvoudig tussen je pijlen.",
      "EUru": "Вы можете быстро сменить стрелы.",
      "JPja": "{{ruby charSpan=\"2\" value=\"ふくすう\"}}複数の{{ruby charSpan=\"2\" value=\"しゅるい\"}}種類の{{ruby charSpan=\"1\" value=\"や\"}}矢をすばやく{{ruby charSpan=\"1\" value=\"き\"}}切り{{ruby charSpan=\"1\" value=\"か\"}}替える{{ruby charSpan=\"1\" value=\"こと\"}}事ができる",
      "KRko": "여러 개의 화살을 재빨리 바꿀 수 있다",
      "TWzh": "可快速切換持有的箭。",
      "USen": "You can switch arrows quickly.",
      "USes": "Cambia de flechas rápidamente.",
      "USfr": "Passez facilement d'un type de flèche à l'autre."
    }
  },
  {
    "label": "Guide_ShortCutArrow_Sub00",
    "attribute": "0x4E050000",
    "locale": {
      "CNzh": "装备弓",
      "EUde": "Bogen ziehen",
      "EUen": "Draw bow",
      "EUes": "Sacar el arco",
      "EUfr": "Équiper un arc",
      "EUit": "Impugna l'arco",
      "EUnl": "Boog gebruiken",
      "EUru": "Натяните лук",
      "JPja": "{{ruby charSpan=\"1\" value=\"ゆみ\"}}弓を{{ruby charSpan=\"2\" value=\"そうび\"}}装備",
      "KRko": "활을 장비",
      "TWzh": "裝備弓",
      "USen": "Draw bow",
      "USes": "Sacar el arco",
      "USfr": "Équiper un arc"
    }
  },
  {
    "label": "Guide_ShortCutArrow_Sub01",
    "attribute": "0x50050000",
    "locale": {
      "CNzh": "长按",
      "EUde": "Gedrückt halten",
      "EUen": "Press and hold",
      "EUes": "Mantener",
      "EUfr": "Maintenir",
      "EUit": "Tieni premuto",
      "EUnl": "Ingedrukt houden",
      "EUru": "Удерживайте",
      "JPja": "{{ruby charSpan=\"2\" value=\"ながお\"}}長押し",
      "KRko": "길게 누르기",
      "TWzh": "長按",
      "USen": "Press and hold",
      "USes": "Mantener",
      "USfr": "Maintenir"
    }
  },
  {
    "label": "Guide_ShortCutArrow_Sub02",
    "attribute": "0x52050000",
    "locale": {
      "CNzh": "切换",
      "EUde": "Wechseln",
      "EUen": "Switch",
      "EUes": "Escoger",
      "EUfr": "Changer",
      "EUit": "Cambia",
      "EUnl": "Kiezen",
      "EUru": "Выберите",
      "JPja": "{{ruby charSpan=\"1\" value=\"き\"}}切り{{ruby charSpan=\"1\" value=\"か\"}}替え",
      "KRko": "바꾸기",
      "TWzh": "切換",
      "USen": "Switch",
      "USes": "Escoger",
      "USfr": "Changer"
    }
  },
  {
    "label": "Guide_ShortCutItem",
    "attribute": "0x54050000",
    "locale": {
      "CNzh": "切换道具",
      "EUde": "Schnellauswahl Module",
      "EUen": "Change Runes",
      "EUes": "Cambiar de módulo",
      "EUfr": "Modules",
      "EUit": "Cambiare strumento",
      "EUnl": "Kracht kiezen",
      "EUru": "Смена руны",
      "JPja": "アイテムを{{ruby charSpan=\"1\" value=\"き\"}}切り{{ruby charSpan=\"1\" value=\"か\"}}替える",
      "KRko": "아이템 바꾸기",
      "TWzh": "切換道具",
      "USen": "Change Runes",
      "USes": "Cambiar de módulo",
      "USfr": "Modules"
    }
  },
  {
    "label": "Guide_ShortCutItem_Msg",
    "attribute": "0x76050000",
    "locale": {
      "CNzh": "可快速切换持有的多种道具。",
      "EUde": "So kannst du schnell das Modul wechseln.",
      "EUen": "You can switch runes quickly.",
      "EUes": "Alterna de un módulo a otro rápidamente.",
      "EUfr": "Passez facilement d'un module à l'autre.",
      "EUit": "Per cambiare rapidamente lo strumento in uso.",
      "EUnl": "Wissel eenvoudig tussen je krachten.",
      "EUru": "Вы можете быстро сменить руну.",
      "JPja": "{{ruby charSpan=\"2\" value=\"ふくすう\"}}複数のアイテムをすばやく{{ruby charSpan=\"1\" value=\"き\"}}切り{{ruby charSpan=\"1\" value=\"か\"}}替える",
      "KRko": "여러 아이템을 재빠르게 바꿀 수 있다",
      "TWzh": "可快速切換持有的道具。",
      "USen": "You can switch runes quickly.",
      "USes": "Cambia de módulos rápidamente.",
      "USfr": "Passez facilement d'un module à l'autre."
    }
  },
  {
    "label": "Guide_ShortCutItem_Sub00",
    "attribute": "0x78050000",
    "locale": {
      "CNzh": "长按",
      "EUde": "Gedrückt halten",
      "EUen": "Press and hold",
      "EUes": "Mantener",
      "EUfr": "Maintenir",
      "EUit": "Tieni premuto",
      "EUnl": "Ingedrukt houden",
      "EUru": "Удерживайте",
      "JPja": "{{ruby charSpan=\"2\" value=\"ながお\"}}長押し",
      "KRko": "길게 누르기",
      "TWzh": "長按",
      "USen": "Press and hold",
      "USes": "Mantener",
      "USfr": "Maintenir"
    }
  },
  {
    "label": "Guide_ShortCutItem_Sub01",
    "attribute": "0x7A050000",
    "locale": {
      "CNzh": "切换",
      "EUde": "Wechseln",
      "EUen": "Switch",
      "EUes": "Escoger",
      "EUfr": "Changer",
      "EUit": "Cambia",
      "EUnl": "Kiezen",
      "EUru": "Выберите",
      "JPja": "{{ruby charSpan=\"1\" value=\"き\"}}切り{{ruby charSpan=\"1\" value=\"か\"}}替え",
      "KRko": "바꾸기",
      "TWzh": "切換",
      "USen": "Switch",
      "USes": "Escoger",
      "USfr": "Changer"
    }
  },
  {
    "label": "Guide_Throw",
    "attribute": "0x7C050000",
    "locale": {
      "CNzh": "投掷武器",
      "EUde": "Waffen werfen",
      "EUen": "Throw Weapon",
      "EUes": "Atacar a distancia",
      "EUfr": "Lancer une arme",
      "EUit": "Lanciare l'arma",
      "EUnl": "Wapen gooien",
      "EUru": "Бросок оружия",
      "JPja": "{{ruby charSpan=\"2\" value=\"ぶき\"}}武器を{{ruby charSpan=\"1\" value=\"な\"}}投げる",
      "KRko": "무기 던지기",
      "TWzh": "投擲武器",
      "USen": "Throw Weapon",
      "USes": "Lanzar arma",
      "USfr": "Lancer une arme"
    }
  },
  {
    "label": "Guide_Throw_Msg",
    "attribute": "0x9E050000",
    "locale": {
      "CNzh": "可投掷手上的武器。",
      "EUde": "Du kannst deine aktive Waffe werfen.",
      "EUen": "You can throw the weapon in your hand.",
      "EUes": "Arroja el arma que empuñas o lanza un ataque.",
      "EUfr": "Lancez l'arme que vous avez en main.",
      "EUit": "Per lanciare un'arma, tieni premuto e rilascia. ",
      "EUnl": "Gooi met het wapen dat je vasthoudt.",
      "EUru": "Вы можете в любой момент метнуть оружие.",
      "JPja": "{{ruby charSpan=\"1\" value=\"て\"}}手に{{ruby charSpan=\"1\" value=\"も\"}}持った{{ruby charSpan=\"2\" value=\"ぶき\"}}武器を{{ruby charSpan=\"1\" value=\"な\"}}投げる{{ruby charSpan=\"1\" value=\"こと\"}}事ができる",
      "KRko": "손에 든 무기를 던질 수 있다",
      "TWzh": "可投擲手上的武器。",
      "USen": "You can throw the weapon in your hand.",
      "USes": "Arroja el arma que empuñas.",
      "USfr": "Lancez l'arme que vous avez en main."
    }
  },
  {
    "label": "Guide_Throw_Sub00",
    "attribute": "0xA0050000",
    "locale": {
      "CNzh": "高举",
      "EUde": "Ausholen",
      "EUen": "Aim (Hold)",
      "EUes": "Mantener",
      "EUfr": "Brandir",
      "EUit": "Premi per mirare",
      "EUnl": "Mikken",
      "EUru": "Удерживайте",
      "JPja": "ふりかぶって",
      "KRko": "조준하고",
      "TWzh": "高舉",
      "USen": "Aim (Hold)",
      "USes": "Levantar arma",
      "USfr": "Brandir"
    }
  },
  {
    "label": "Guide_Throw_Sub01",
    "attribute": "0xA2050000",
    "locale": {
      "CNzh": "投掷",
      "EUde": "Werfen",
      "EUen": "Throw (Release)",
      "EUes": "Soltar",
      "EUfr": "Lancer",
      "EUit": "Lancia",
      "EUnl": "Gooien (loslaten)",
      "EUru": "Отпустите",
      "JPja": "{{ruby charSpan=\"1\" value=\"な\"}}投げる",
      "KRko": "던지기",
      "TWzh": "投擲",
      "USen": "Throw (Release)",
      "USes": "Lanzar",
      "USfr": "Lancer"
    }
  }
]