[
  {
    "label": "Npc_HighMountain036_R_001",
    "attribute": "0x48000000",
    "locale": {
      "CNzh": "{{fun_0004_0003}}奇尔～！\n人跑去哪了～？",
      "EUde": "{{fun_0004_0003}}Kihl!{{delay1}}\nWo bist du?",
      "EUen": "{{fun_0004_0003}}Kheel!!\nWhere are you?!",
      "EUes": "{{fun_0004_0003}}¡Kumeli! ¿Dónde te has metido?",
      "EUfr": "{{fun_0004_0003}}Quill !\nOù es-tu passée ?",
      "EUit": "{{fun_0004_0003}}Quill!!!\nDove sei?",
      "EUnl": "{{fun_0004_0003}}Kheel! Waar ben je?",
      "EUru": "{{fun_0004_0003}}Кира-а-а!{{delay1}} Кира!",
      "JPja": "{{fun_0004_0003}}キール～！\nどこへ{{ruby charSpan=\"1\" value=\"い\"}}行ったの～？",
      "KRko": "{{fun_0004_0003}}키르~!\n어디 갔니~?",
      "TWzh": "{{fun_0004_0003}}奇爾～！\n人跑去哪了～？",
      "USen": "{{fun_0004_0003}}Kheel!!\nWhere are you?!",
      "USes": "{{fun_0004_0003}}¡Kumeli! ¿Dónde estááás?",
      "USfr": "{{fun_0004_0003}}Quill!\nOù es-tu passée?"
    }
  },
  {
    "label": "Npc_HighMountain036_R_001_2",
    "attribute": "0x70000000",
    "locale": {
      "CNzh": "{{fun_0003_0001 arg=\"0x0901\"}}{{anim2 type=\"Ease_00\"}}我找不到老幺奇尔。\n不知她跑去哪了……",
      "EUde": "{{fun_0003_0001 arg=\"0x0901\"}}{{anim2 type=\"Ease_00\"}}Unser Nesthäkchen, Kihl, ist\nverschwunden. {{delay1}}Ich frage mich,\nwo sie wohl sein könnte...",
      "EUen": "{{fun_0003_0001 arg=\"0x0901\"}}{{anim2 type=\"Ease_00\"}}I can't find Kheel anywhere!\nWhere could she be?",
      "EUes": "{{fun_0003_0001 arg=\"0x0901\"}}{{anim2 type=\"Ease_00\"}}No encuentro a Kumeli por ninguna\nparte. ¡A saber dónde estará!",
      "EUfr": "{{fun_0003_0001 arg=\"0x0901\"}}{{anim2 type=\"Ease_00\"}}J'ai cherché Quill partout, impossible\nde la retrouver ! Oh, où a-t-elle bien pu\nse fourrer...",
      "EUit": "{{fun_0003_0001 arg=\"0x0901\"}}{{anim2 type=\"Ease_00\"}}Non riesco a trovare Quill da nessuna\nparte! Dove sarà andata...?",
      "EUnl": "{{fun_0003_0001 arg=\"0x0901\"}}{{anim2 type=\"Ease_00\"}}Ik kan Kheel nergens vinden! Waar zou\nze zijn?",
      "EUru": "{{fun_0003_0001 arg=\"0x0901\"}}{{anim2 type=\"Ease_00\"}}Куда же она подевалась?",
      "JPja": "{{fun_0003_0001 arg=\"0x0901\"}}{{anim2 type=\"Ease_00\"}}{{ruby charSpan=\"2\" value=\"ごじょ\"}}五女のキールが {{ruby charSpan=\"2\" value=\"みあ\"}}見当たらないの\nどこへ{{ruby charSpan=\"1\" value=\"い\"}}行ったのかしら…",
      "KRko": "{{fun_0003_0001 arg=\"0x0901\"}}{{anim2 type=\"Ease_00\"}}다섯째 키르가 보이질 않아요\n어디 간 걸까…",
      "TWzh": "{{fun_0003_0001 arg=\"0x0901\"}}{{anim2 type=\"Ease_00\"}}我找不到老么奇爾。\n不知她跑去哪了……",
      "USen": "{{fun_0003_0001 arg=\"0x0901\"}}{{anim2 type=\"Ease_00\"}}I can't find Kheel anywhere!\nWhere could she be?",
      "USes": "{{fun_0003_0001 arg=\"0x0901\"}}{{anim2 type=\"Ease_00\"}}No encuentro a Kumeli por ninguna\nparte. ¡Quién sabe dónde estará!",
      "USfr": "{{fun_0003_0001 arg=\"0x0901\"}}{{anim2 type=\"Ease_00\"}}J'ai cherché Quill partout, impossible\nde la retrouver! Oh, où a-t-elle bien pu\nse terrer..."
    }
  },
  {
    "label": "Npc_HighMountain036_R_003",
    "attribute": "0x98000000",
    "locale": {
      "CNzh": "{{fun_0003_0001 arg=\"0x0B01\"}}……难不成奇尔\n是跑去{{color id=\"0\"}}兄弟岩{{color id=\"65535\"}}练习唱歌……？",
      "EUde": "{{fun_0003_0001 arg=\"0x0B01\"}}Sie wird doch nicht zu den {{color id=\"0\"}}Brüder-Felsen{{color id=\"65535\"}}\ngegangen sein, um ihr Lied zu üben...?",
      "EUen": "{{fun_0003_0001 arg=\"0x0B01\"}}Maybe she went to {{color id=\"0\"}}Warbler's Nest{{color id=\"65535\"}} to\npractice her singing...",
      "EUes": "{{fun_0003_0001 arg=\"0x0B01\"}}¿Habrá ido a {{color id=\"0\"}}Rocas Hermanas{{color id=\"65535\"}}\na ensayar canciones?",
      "EUfr": "{{fun_0003_0001 arg=\"0x0B01\"}}... Quill est peut-être partie aux\n{{color id=\"0\"}}Sœurs de pierre{{color id=\"65535\"}} pour répéter ?",
      "EUit": "{{fun_0003_0001 arg=\"0x0B01\"}}Che sia andata alle {{color id=\"0\"}}rocce della fratellanza{{color id=\"65535\"}}\nper esercitarsi a cantare?",
      "EUnl": "{{fun_0003_0001 arg=\"0x0B01\"}}Zou Kheel naar de {{color id=\"0\"}}Broederrotsen{{color id=\"65535\"}} zijn\ngegaan om te oefenen met zingen?",
      "EUru": "{{fun_0003_0001 arg=\"0x0B01\"}}Неужели опять в одиночку пошла\nрепетировать в {{color id=\"0\"}}Гнездо Певчих{{color id=\"65535\"}}?",
      "JPja": "{{fun_0003_0001 arg=\"0x0B01\"}}…まさかキールったら\n{{ruby charSpan=\"1\" value=\"うた\"}}歌を{{ruby charSpan=\"2\" value=\"れんしゅう\"}}練習しに {{color id=\"0\"}}{{ruby charSpan=\"3\" value=\"きょうだいいわ\"}}兄弟岩{{color id=\"65535\"}}へ…？",
      "KRko": "{{fun_0003_0001 arg=\"0x0B01\"}}…설마 키르 얘가\n노래 연습을 하러 {{color id=\"0\"}}형제 바위{{color id=\"65535\"}}에…?",
      "TWzh": "{{fun_0003_0001 arg=\"0x0B01\"}}……難不成奇爾\n是跑去{{color id=\"0\"}}兄弟岩{{color id=\"65535\"}}練習唱歌……？",
      "USen": "{{fun_0003_0001 arg=\"0x0B01\"}}Maybe she went to {{color id=\"0\"}}Warbler's Nest{{color id=\"65535\"}} to\npractice her singing...",
      "USes": "{{fun_0003_0001 arg=\"0x0B01\"}}¿Habrá ido otra vez a {{color id=\"0\"}}Rocas Hermanas{{color id=\"65535\"}}\na ensayar canciones?",
      "USfr": "{{fun_0003_0001 arg=\"0x0B01\"}}... Quill est peut-être partie aux\n{{color id=\"0\"}}Sœurs de pierre{{color id=\"65535\"}} pour répéter?"
    }
  },
  {
    "label": "Npc_HighMountain036_R_002",
    "attribute": "0xC0000000",
    "locale": {
      "CNzh": "是独自跑去那么远的地方吗……\n真让人担心……",
      "EUde": "Das ist doch viel zu weit weg, um ganz\nallein dahinzugehen... {{delay1}}So langsam mache\nich mir wirklich Sorgen...",
      "EUen": "But that's so far away. Could she\nhave made it there on her own?\nOh, I'm so worried...",
      "EUes": "Espero que no se le haya ocurrido\nir tan lejos sola...{{pageBreak}}Ay, no duermo de la preocupación.",
      "EUfr": "Mais c'est beaucoup trop loin pour une\nsi petite fille ! Oh, je suis si inquiète...",
      "EUit": "È andata così lontano da sola...?\nSono molto preoccupata.",
      "EUnl": "Zou ze in haar eentje zo ver weg zijn\ngegaan? Ik maak me zorgen...",
      "EUru": "Я так беспокоюсь...{{delay1}} Вдруг\nс ней что-то случится?",
      "JPja": "あんな{{ruby charSpan=\"1\" value=\"とお\"}}遠いところへ\nひとりで{{ruby charSpan=\"1\" value=\"い\"}}行ったのかしら… {{ruby charSpan=\"2\" value=\"しんぱい\"}}心配だわ…",
      "KRko": "그렇게 먼 곳에\n혼자 간 건 아니겠지… 걱정이네…",
      "TWzh": "是獨自跑去那麼遠的地方嗎……\n真讓人擔心……",
      "USen": "But that's so far away. Could she\nhave made it there on her own?\nOh, I'm so worried...",
      "USes": "Espero que no se le haya ocurrido\nir tan lejos sola...{{pageBreak}}Ay, no duermo de la preocupación.",
      "USfr": "Mais c'est beaucoup trop loin pour une\nsi petite fille! Oh, je suis si inquiète..."
    }
  },
  {
    "label": "Npc_HighMountain036_S01_001",
    "attribute": "0xE8000000",
    "locale": {
      "CNzh": "{{fun_0003_0001 arg=\"0x0B00\"}}我找不到老幺奇尔。\n难不成是跑去{{color id=\"0\"}}兄弟岩{{color id=\"65535\"}}练习唱歌……？",
      "EUde": "{{fun_0003_0001 arg=\"0x0B00\"}}Unser Nesthäkchen, Kihl, ist ver-\nschwunden. {{delay1}}Ob sie zu den {{color id=\"0\"}}Brüder-Felsen{{color id=\"65535\"}}\ngegangen ist, um ihr Lied zu üben...?",
      "EUen": "{{fun_0003_0001 arg=\"0x0B00\"}}I can't find Kheel anywhere!\nCould she have gone to {{color id=\"0\"}}Warbler's\nNest{{color id=\"65535\"}} to practice her singing?",
      "EUes": "{{fun_0003_0001 arg=\"0x0B00\"}}¡No consigo encontrar a Kumeli!\n¿Será posible que esté en {{color id=\"0\"}}Rocas\nHermanas{{color id=\"65535\"}} ensayando canciones?",
      "EUfr": "{{fun_0003_0001 arg=\"0x0B00\"}}Impossible de trouver Quill ! J'espère\nqu'elle ne s'est pas mise en tête d'aller\nrépéter aux {{color id=\"0\"}}Sœurs de pierre{{color id=\"65535\"}}...",
      "EUit": "{{fun_0003_0001 arg=\"0x0B00\"}}Non riesco a trovare Quill da nessuna\nparte! Che sia andata alle {{color id=\"0\"}}rocce della\nfratellanza {{color id=\"65535\"}}per esercitarsi a cantare?",
      "EUnl": "{{fun_0003_0001 arg=\"0x0B00\"}}Ik kan Kheel nergens vinden. Zou ze naar\nde {{color id=\"0\"}}Broederrotsen{{color id=\"65535\"}} zijn gegaan om te\noefenen met zingen?",
      "EUru": "{{fun_0003_0001 arg=\"0x0B00\"}}Где же моя Кира?{{delay1}} Может, ушла\nв {{color id=\"0\"}}Гнездо Певчих{{color id=\"65535\"}} репетировать?",
      "JPja": "{{fun_0003_0001 arg=\"0x0B00\"}}{{ruby charSpan=\"2\" value=\"ごじょ\"}}五女のキールが {{ruby charSpan=\"2\" value=\"みあ\"}}見当たらないの\nまさか{{ruby charSpan=\"1\" value=\"うた\"}}歌を{{ruby charSpan=\"2\" value=\"れんしゅう\"}}練習しに {{color id=\"0\"}}{{ruby charSpan=\"3\" value=\"きょうだいいわ\"}}兄弟岩{{color id=\"65535\"}}へ…？",
      "KRko": "{{fun_0003_0001 arg=\"0x0B00\"}}다섯째 키르가 보이질 않아요\n설마 노래 연습하러 {{color id=\"0\"}}형제 바위{{color id=\"65535\"}}에…?",
      "TWzh": "{{fun_0003_0001 arg=\"0x0B00\"}}我找不到老么奇爾。\n難不成是跑去{{color id=\"0\"}}兄弟岩{{color id=\"65535\"}}練習唱歌……？",
      "USen": "{{fun_0003_0001 arg=\"0x0B00\"}}I can't find Kheel anywhere!\nCould she have gone to {{color id=\"0\"}}Warbler's\nNest{{color id=\"65535\"}} to practice her singing?",
      "USes": "{{fun_0003_0001 arg=\"0x0B00\"}}¡No consigo encontrar a Kumeli!\n¿Será posible que esté en {{color id=\"0\"}}Rocas\nHermanas{{color id=\"65535\"}} ensayando canciones?",
      "USfr": "{{fun_0003_0001 arg=\"0x0B00\"}}Impossible de trouver Quill! J'espère\nqu'elle ne s'est pas mise en tête d'aller\nrépéter aux {{color id=\"0\"}}Sœurs de pierre{{color id=\"65535\"}}..."
    }
  },
  {
    "label": "Npc_HighMountain036_S01_002",
    "attribute": "0x10010000",
    "locale": {
      "CNzh": "是独自跑去那么远的地方吗……\n真让人担心……",
      "EUde": "Das ist doch viel zu weit weg, um ganz\nallein dahinzugehen... {{delay1}}So langsam mache\nich mir wirklich Sorgen...",
      "EUen": "But that's so far away. Could she\nhave made it there on her own?\nOh, I'm so worried...",
      "EUes": "Espero que no se le haya ocurrido\nalejarse tanto sola.{{pageBreak}}Ay, qué disgustos me da esta hija mía...",
      "EUfr": "C'est beaucoup trop loin pour une si\npetite fille ! Oh, je suis tellement\ninquiète...",
      "EUit": "È andata così lontano da sola...?\nSono molto preoccupata.",
      "EUnl": "Zou ze in haar eentje zo ver weg zijn\ngegaan? Ik maak me zorgen...",
      "EUru": "Я так беспокоюсь...{{delay1}} Вдруг\nс ней что-то случится?",
      "JPja": "あんな{{ruby charSpan=\"1\" value=\"とお\"}}遠いところへ\n{{ruby charSpan=\"2\" value=\"ひとり\"}}1人で{{ruby charSpan=\"1\" value=\"い\"}}行ったのかしら… {{ruby charSpan=\"2\" value=\"しんぱい\"}}心配だわ…",
      "KRko": "그렇게 먼 곳에\n혼자 간 건 아니겠지… 걱정이네…",
      "TWzh": "是獨自跑去那麼遠的地方嗎……\n真讓人擔心……",
      "USen": "But that's so far away. Could she\nhave made it there on her own?\nOh, I'm so worried...",
      "USes": "Espero que no se le haya ocurrido\nalejarse tanto sola.{{pageBreak}}Ay, qué angustias me da esta hija mía...",
      "USfr": "C'est beaucoup trop loin pour une si\npetite fille! Oh, je suis tellement\ninquiète..."
    }
  },
  {
    "label": "Npc_HighMountain036_F_001",
    "attribute": "0x38010000",
    "locale": {
      "CNzh": "{{fun_0003_0001 arg=\"0x0114\"}}……哎呀～\n你找到奇尔了吗？\n{{fun_0003_0001 arg=\"0x0B01\"}}……她果然在{{color id=\"0\"}}兄弟岩{{color id=\"65535\"}}呢。\n真是的！这孩子老让人担心……\n{{fun_0003_0001 arg=\"0x0000\"}}谢谢你告诉我。\n\n不介意的话，\n请收下这份谢礼～",
      "EUde": "{{fun_0003_0001 arg=\"0x0114\"}}Oh! {{delay1}}Du hast Kihl gefunden?{{pageBreak}}{{fun_0003_0001 arg=\"0x0B01\"}}Dann war sie also wirklich bei den\n{{color id=\"0\"}}Brüder-Felsen{{color id=\"65535\"}}!{{delay1}} Mit ihr hat man wirklich\nnichts als Sorgen...\n{{fun_0003_0001 arg=\"0x0000\"}}Kann ich dir das hier als Dank für\ndeine Hilfe anbieten?",
      "EUen": "{{fun_0003_0001 arg=\"0x0114\"}}You found Kheel?!\n\n\n{{fun_0003_0001 arg=\"0x0B01\"}}So she's at {{color id=\"0\"}}Warbler's Nest{{color id=\"65535\"}} after all.\nPhew... She really had me worried!\n\n{{fun_0003_0001 arg=\"0x0000\"}}Thank you for letting me know.\nPlease, take this for your trouble.",
      "EUes": "{{fun_0003_0001 arg=\"0x0114\"}}¡¿Has encontrado a Kumeli?!{{pageBreak}}{{fun_0003_0001 arg=\"0x0B01\"}}Ya sabía yo que se había ido a\n{{color id=\"0\"}}Rocas Hermanas{{color id=\"65535\"}}. ¡Qué disgustos\nme da esta niña!\n{{fun_0003_0001 arg=\"0x0000\"}}Bueno, gracias por venir a avisarme.\nAhora que ya sé dónde está, puedo\nquedarme tranquila.\nAcepta esto como muestra de\nmi agradecimiento, por favor.",
      "EUfr": "{{fun_0003_0001 arg=\"0x0114\"}}Oh ! Tu as retrouvé ma petite Quill !\n\n\n{{fun_0003_0001 arg=\"0x0B01\"}}Alors, elle était bien aux {{color id=\"0\"}}Sœurs de\npierre{{color id=\"65535\"}} ! Pff, cette enfant va me faire\ndevenir chèvre...\n{{fun_0003_0001 arg=\"0x0000\"}}Je suis rassurée, en tout cas. Tiens,\naccepte ce petit quelque chose pour\nte remercier.",
      "EUit": "{{fun_0003_0001 arg=\"0x0114\"}}... Oh!\nHai trovato Quill?\n\n{{fun_0003_0001 arg=\"0x0B01\"}}Era davvero andata alle {{color id=\"0\"}}rocce della\nfratellanza{{color id=\"65535\"}}? Ero così preoccupata!\n\n{{fun_0003_0001 arg=\"0x0000\"}}Grazie per avermelo fatto sapere.\nSono più tranquilla ora. Eccoti un\npiccolo segno della mia riconoscenza.",
      "EUnl": "{{fun_0003_0001 arg=\"0x0114\"}}O! Je hebt Kheel gevonden?{{pageBreak}}{{fun_0003_0001 arg=\"0x0B01\"}}Dus ze was bij de {{color id=\"0\"}}Broederrotsen{{color id=\"65535\"}}? Oef, ik\nmaakte me al zorgen!{{pageBreak}}{{fun_0003_0001 arg=\"0x0000\"}}Bedankt. Hier is een kleinigheidje voor\nje.",
      "EUru": "{{fun_0003_0001 arg=\"0x0114\"}}Ты нашел Киру?!{{pageBreak}}{{fun_0003_0001 arg=\"0x0B01\"}}Значит, она действительно\nходила в {{color id=\"0\"}}Гнездо Певчих{{color id=\"65535\"}}!{{delay1}}\nЯ вся переволновалась.{{pageBreak}}{{fun_0003_0001 arg=\"0x0000\"}}Спасибо, что успокоил.{{delay1}} Вот, это тебе.",
      "JPja": "{{fun_0003_0001 arg=\"0x0114\"}}…あら？\nキールを{{ruby charSpan=\"1\" value=\"み\"}}見つけてくれたの？\n{{fun_0003_0001 arg=\"0x0B01\"}}…やっぱり{{color id=\"0\"}}{{ruby charSpan=\"3\" value=\"きょうだいいわ\"}}兄弟岩{{color id=\"65535\"}}にいたのね\nもうっ！ {{ruby charSpan=\"2\" value=\"しんぱい\"}}心配させる{{ruby charSpan=\"1\" value=\"こ\"}}子なんだから…\n{{fun_0003_0001 arg=\"0x0000\"}}{{ruby charSpan=\"1\" value=\"おし\"}}教えてくれて ありがとう\n\nよかったらこれ\nお{{ruby charSpan=\"1\" value=\"れい\"}}礼にもらってくれないかしら？",
      "KRko": "{{fun_0003_0001 arg=\"0x0114\"}}…어머\n키르를 찾으셨나요?\n{{fun_0003_0001 arg=\"0x0B01\"}}…역시 {{color id=\"0\"}}형제 바위{{color id=\"65535\"}}에 있었군요\n어휴! 걱정만 끼친다니까…\n{{fun_0003_0001 arg=\"0x0000\"}}알려 줘서 고마워요\n\n괜찮다면 이것\n답례인데 받아 줄래요?",
      "TWzh": "{{fun_0003_0001 arg=\"0x0114\"}}……哎呀～\n你找到奇爾了嗎？\n{{fun_0003_0001 arg=\"0x0B01\"}}……她果然在{{color id=\"0\"}}兄弟岩{{color id=\"65535\"}}呢。\n真是的！這孩子老讓人擔心……\n{{fun_0003_0001 arg=\"0x0000\"}}謝謝你告訴我。\n\n不介意的話，\n請收下這份謝禮～",
      "USen": "{{fun_0003_0001 arg=\"0x0114\"}}You found Kheel?!\n\n\n{{fun_0003_0001 arg=\"0x0B01\"}}So she's at {{color id=\"0\"}}Warbler's Nest{{color id=\"65535\"}} after all.\nPhew... She really had me worried!\n\n{{fun_0003_0001 arg=\"0x0000\"}}Thank you for letting me know.\nPlease, take this for your trouble.",
      "USes": "{{fun_0003_0001 arg=\"0x0114\"}}¡¿Encontraste a Kumeli?!{{pageBreak}}{{fun_0003_0001 arg=\"0x0B01\"}}Ya sabía yo que se había ido a\n{{color id=\"0\"}}Rocas Hermanas{{color id=\"65535\"}}. ¡Qué angustias\nme da esta niña!\n{{fun_0003_0001 arg=\"0x0000\"}}Bueno, gracias por venir a avisarme.\nAhora que ya sé dónde está, puedo\nquedarme tranquila.\nAcepta esto como muestra de\nmi agradecimiento, por favor.",
      "USfr": "{{fun_0003_0001 arg=\"0x0114\"}}Oh! Tu as retrouvé ma petite Quill!\n\n\n{{fun_0003_0001 arg=\"0x0B01\"}}Alors, elle était bien aux {{color id=\"0\"}}Sœurs de\npierre{{color id=\"65535\"}}! Pff, cette enfant va me faire\ntourner en bourrique...\n{{fun_0003_0001 arg=\"0x0000\"}}Je suis rassurée, en tout cas. Tiens,\naccepte ce petit quelque chose pour\nte remercier."
    }
  },
  {
    "label": "Npc_HighMountain036_F_002",
    "attribute": "0x60010000",
    "locale": {
      "CNzh": "{{fun_0003_0001 arg=\"0x0001\"}}知道人在哪里让我放心多了。\n谢谢你。",
      "EUde": "{{fun_0003_0001 arg=\"0x0001\"}}Wenn ich weiß, wo sie ist, bin ich\nberuhigt. {{delay1}}Ich danke dir!",
      "EUen": "{{fun_0003_0001 arg=\"0x0001\"}}I feel much better now that I know where\nshe is. Thank you.",
      "EUes": "{{fun_0003_0001 arg=\"0x0001\"}}Ahora que sé dónde está, me quedo\nmucho más tranquila. ¡Gracias!{{pageBreak}}Menos mal que todavía quedan almas\ncaritativas como tú con las que contar\ncuando hace falta.",
      "EUfr": "{{fun_0003_0001 arg=\"0x0001\"}}Je me sens mieux maintenant que\nje sais où est ma petite Quill.",
      "EUit": "{{fun_0003_0001 arg=\"0x0001\"}}Ora che so dove si trova,\nsono più tranquilla. Grazie.",
      "EUnl": "{{fun_0003_0001 arg=\"0x0001\"}}Ik voel me al een stuk beter nu ik weet\nwaar ze is. Dank je!",
      "EUru": "{{fun_0003_0001 arg=\"0x0001\"}}Главное — теперь я знаю,\nгде она.{{delay1}} Еще раз спасибо.",
      "JPja": "{{fun_0003_0001 arg=\"0x0001\"}}{{ruby charSpan=\"3\" value=\"いばしょ\"}}居場所がわかったから {{ruby charSpan=\"3\" value=\"ひとあんしん\"}}一安心よ\nありがとう",
      "KRko": "{{fun_0003_0001 arg=\"0x0001\"}}어디 있는지 알았으니 안심이 되네요\n고마워요",
      "TWzh": "{{fun_0003_0001 arg=\"0x0001\"}}知道人在哪裡讓我放心多了。\n謝謝你。",
      "USen": "{{fun_0003_0001 arg=\"0x0001\"}}I feel much better now that I know where\nshe is. Thank you.",
      "USes": "{{fun_0003_0001 arg=\"0x0001\"}}Ahora que sé dónde está, me quedo\nmucho más tranquila. ¡Gracias!{{pageBreak}}Menos mal que todavía quedan almas\ncaritativas como tú con las que contar\ncuando hace falta.",
      "USfr": "{{fun_0003_0001 arg=\"0x0001\"}}Je me sens mieux maintenant que\nje sais où est ma petite Quill."
    }
  },
  {
    "label": "Npc_HighMountain036_F_101",
    "attribute": "0x88010000",
    "locale": {
      "CNzh": "{{fun_0003_0001 arg=\"0x0700\"}}……哎呀～\n你已经找到奇尔了吗？\n{{fun_0003_0001 arg=\"0x0B00\"}}……她果然在{{color id=\"0\"}}兄弟岩{{color id=\"65535\"}}呢。\n真是的！这孩子老让人担心……\n{{fun_0003_0001 arg=\"0x0000\"}}谢谢你告诉我。\n\n不介意的话，\n请收下这份谢礼～",
      "EUde": "{{fun_0003_0001 arg=\"0x0700\"}}Oh! {{delay1}}Du hast Kihl bereits gefunden?{{pageBreak}}{{fun_0003_0001 arg=\"0x0B00\"}}Dann war sie also wirklich bei den \n{{color id=\"0\"}}Brüder-Felsen{{color id=\"65535\"}}!{{delay1}} Mit ihr hat man wirklich\nnichts als Sorgen...\n{{fun_0003_0001 arg=\"0x0000\"}}Kann ich dir das hier als Dank für\ndeine Hilfe anbieten?",
      "EUen": "{{fun_0003_0001 arg=\"0x0700\"}}You found Kheel?!\n\n\n{{fun_0003_0001 arg=\"0x0B00\"}}So she was at {{color id=\"0\"}}Warbler's Nest{{color id=\"65535\"}} after all.\nPhew... She really had me worried!\n\n{{fun_0003_0001 arg=\"0x0000\"}}Thank you for letting me know.\nPlease, take this for your trouble.",
      "EUes": "{{fun_0003_0001 arg=\"0x0700\"}}¡¿Has dado con Kumeli?!{{pageBreak}}{{fun_0003_0001 arg=\"0x0B00\"}}Ya sabía yo que se había ido a\n{{color id=\"0\"}}Rocas Hermanas{{color id=\"65535\"}}. ¡Qué disgustos\nme da esta niña!\n{{fun_0003_0001 arg=\"0x0000\"}}Bueno, gracias por venir a decírmelo.\nAhora que ya sé dónde está, puedo\nquedarme tranquila.\nAcepta esto como muestra de\nmi agradecimiento, anda.",
      "EUfr": "{{fun_0003_0001 arg=\"0x0700\"}}Oh ! Tu as retrouvé ma petite Quill !\n\n\n{{fun_0003_0001 arg=\"0x0B00\"}}Alors, elle était bien aux {{color id=\"0\"}}Sœurs de\npierre{{color id=\"65535\"}} ! Pff, cette enfant va me faire\ndevenir chèvre...\n{{fun_0003_0001 arg=\"0x0000\"}}Je suis rassurée, en tout cas. Tiens,\naccepte ce petit quelque chose pour\nte remercier.",
      "EUit": "{{fun_0003_0001 arg=\"0x0700\"}}... Oh!\nHai trovato Quill?\n\n{{fun_0003_0001 arg=\"0x0B00\"}}Era davvero andata alle {{color id=\"0\"}}rocce della\nfratellanza{{color id=\"65535\"}}? Ero così preoccupata!\n\n{{fun_0003_0001 arg=\"0x0000\"}}Grazie per avermelo fatto sapere.\nSono più tranquilla ora. Eccoti un\npiccolo segno della mia riconoscenza.",
      "EUnl": "{{fun_0003_0001 arg=\"0x0700\"}}O! Je hebt Kheel gevonden?{{pageBreak}}{{fun_0003_0001 arg=\"0x0B00\"}}Dus ze was bij de {{color id=\"0\"}}Broederrotsen{{color id=\"65535\"}}? Oef,\nik maakte me al zorgen!{{pageBreak}}{{fun_0003_0001 arg=\"0x0000\"}}Bedankt. Hier is een kleinigheidje voor\nje.",
      "EUru": "{{fun_0003_0001 arg=\"0x0700\"}}Ты нашел Киру?!{{pageBreak}}{{fun_0003_0001 arg=\"0x0B00\"}}Значит, она действительно в {{color id=\"0\"}}Гнезде\nПевчих{{color id=\"65535\"}}!{{delay1}} Я вся переволновалась!{{pageBreak}}{{fun_0003_0001 arg=\"0x0000\"}}Спасибо, что успокоил.{{delay1}} Вот, это тебе.",
      "JPja": "{{fun_0003_0001 arg=\"0x0700\"}}…あら？\nもうキールを{{ruby charSpan=\"1\" value=\"み\"}}見つけてくれたの？\n{{fun_0003_0001 arg=\"0x0B00\"}}…やっぱり{{color id=\"0\"}}{{ruby charSpan=\"3\" value=\"きょうだいいわ\"}}兄弟岩{{color id=\"65535\"}}にいたのね\nまったく！ {{ruby charSpan=\"2\" value=\"しんぱい\"}}心配させる{{ruby charSpan=\"1\" value=\"こ\"}}子なんだから…\n{{fun_0003_0001 arg=\"0x0000\"}}{{ruby charSpan=\"1\" value=\"おし\"}}教えてくれて ありがとう\n\nよかったらこれ\nお{{ruby charSpan=\"1\" value=\"れい\"}}礼にもらってくれないかしら？",
      "KRko": "{{fun_0003_0001 arg=\"0x0700\"}}…어머\n키르를 벌써 찾으셨나요?\n{{fun_0003_0001 arg=\"0x0B00\"}}…역시 {{color id=\"0\"}}형제 바위{{color id=\"65535\"}}에 있었군요\n어휴! 걱정만 끼친다니까…\n{{fun_0003_0001 arg=\"0x0000\"}}알려 줘서 고마워요\n\n괜찮다면 이것\n답례인데 받아 줄래요?",
      "TWzh": "{{fun_0003_0001 arg=\"0x0700\"}}……哎呀～\n你已經找到奇爾了嗎？\n{{fun_0003_0001 arg=\"0x0B00\"}}……她果然在{{color id=\"0\"}}兄弟岩{{color id=\"65535\"}}呢。\n真是的！這孩子老讓人擔心……\n{{fun_0003_0001 arg=\"0x0000\"}}謝謝你告訴我。\n\n不介意的話，\n請收下這份謝禮～",
      "USen": "{{fun_0003_0001 arg=\"0x0700\"}}You found Kheel?!\n\n\n{{fun_0003_0001 arg=\"0x0B00\"}}So she was at {{color id=\"0\"}}Warbler's Nest{{color id=\"65535\"}} after all.\nPhew... She really had me worried!\n\n{{fun_0003_0001 arg=\"0x0000\"}}Thank you for letting me know.\nPlease, take this for your trouble.",
      "USes": "{{fun_0003_0001 arg=\"0x0700\"}}¡¿Encontraste a Kumeli?!{{pageBreak}}{{fun_0003_0001 arg=\"0x0B00\"}}Ya sabía yo que se había ido a\n{{color id=\"0\"}}Rocas Hermanas{{color id=\"65535\"}}. ¡Qué angustias\nme da esta niña!\n{{fun_0003_0001 arg=\"0x0000\"}}Bueno, gracias por venir a decírmelo.\nAhora que ya sé dónde está, puedo\nquedarme tranquila.\nAcepta esto como muestra de\nmi agradecimiento, anda.",
      "USfr": "{{fun_0003_0001 arg=\"0x0700\"}}Oh! Tu as retrouvé ma petite Quill!\n\n\n{{fun_0003_0001 arg=\"0x0B00\"}}Alors, elle était bien aux {{color id=\"0\"}}Sœurs de\npierre{{color id=\"65535\"}}! Pff, cette enfant va me faire\ntourner en bourrique...\n{{fun_0003_0001 arg=\"0x0000\"}}Je suis rassurée, en tout cas. Tiens,\naccepte ce petit quelque chose pour\nte remercier."
    }
  },
  {
    "label": "Npc_HighMountain036_F_102",
    "attribute": "0xB0010000",
    "locale": {
      "CNzh": "{{fun_0003_0001 arg=\"0x0000\"}}谢谢你帮我找到奇尔。\n看来她果然在{{color id=\"0\"}}兄弟岩{{color id=\"65535\"}}呢。\n{{fun_0003_0001 arg=\"0x0B00\"}}真是的！虽说{{color id=\"2\"}}梅德{{color id=\"65535\"}}已被镇压，\n但这孩子也太乱来了……\n{{fun_0003_0001 arg=\"0x0000\"}}不过她们几个姐妹\n好像能和乐融融地练习唱歌了。\n虽然不多，但还请收下\n帮忙找人的谢礼～",
      "EUde": "{{fun_0003_0001 arg=\"0x0000\"}}Danke, dass du Kihl für mich gefunden\nhast.{{delay1}} Sie war also wirklich bei den\n{{color id=\"0\"}}Brüder-Felsen{{color id=\"65535\"}}.{{pageBreak}}{{fun_0003_0001 arg=\"0x0B00\"}}{{color id=\"2\"}}Medoh{{color id=\"65535\"}} hat sich beruhigt, aber dieses\nKind ist so ungestüm wie eh und je...{{pageBreak}}{{fun_0003_0001 arg=\"0x0000\"}}Ich bin jedenfalls froh, dass ihre\nSchwestern das Lied mit ihr geübt\nhaben.\nViel ist es nicht, aber würdest du das\nhier als Dank für deine Hilfe annehmen?",
      "EUen": "{{fun_0003_0001 arg=\"0x0000\"}}Thank you for finding Kheel. I'm glad she\nwas just at {{color id=\"0\"}}Warbler's Nest {{color id=\"65535\"}}as I thought.\n\n{{fun_0003_0001 arg=\"0x0B00\"}}She thinks she can do whatever she\nwants just because {{color id=\"2\"}}Medoh {{color id=\"65535\"}}has\nbeen appeased.\n{{fun_0003_0001 arg=\"0x0000\"}}But at least she got to practice singing\nwith her sisters. It's only a small token\nof my gratitude, but please, take this.",
      "EUes": "{{fun_0003_0001 arg=\"0x0000\"}}Gracias por ir a buscar a Kumeli. Menos\nmal que tenía razón y ha resultado estar\nen {{color id=\"0\"}}Rocas Hermanas{{color id=\"65535\"}}.\n{{fun_0003_0001 arg=\"0x0B00\"}}Se cree que porque {{color id=\"2\"}}Medoh{{color id=\"65535\"}} ha dejado\nde dar guerra puede ir por ahí tan\ntranquila.\n{{fun_0003_0001 arg=\"0x0000\"}}Su única preocupación en esta\nvida es ensayar con sus hermanas.\n¡Ay, bendita juventud!\nEn fin, gracias por encargarte de todo.\nAcepta esto como recompensa, por favor.",
      "EUfr": "{{fun_0003_0001 arg=\"0x0000\"}}Merci d'avoir retrouvé Quill ! Quand je\npense que cette fillette a parcouru tout\nle chemin jusqu'aux {{color id=\"0\"}}Sœurs de pierre{{color id=\"65535\"}}...\n{{fun_0003_0001 arg=\"0x0B00\"}}Sous prétexte que {{color id=\"2\"}}Medoh {{color id=\"65535\"}}a cessé de\nnous tourmenter, elle croit qu'elle peut\nfaire tout ce qui lui passe par la tête.\n{{fun_0003_0001 arg=\"0x0000\"}}Enfin, au moins, elle est avec ses\nsœurs... Tiens, accepte ce petit cadeau\npour te remercier.",
      "EUit": "{{fun_0003_0001 arg=\"0x0000\"}}Grazie per aver trovato Quill.\nCome immaginavo, si era recata\nalle {{color id=\"0\"}}rocce della fratellanza{{color id=\"65535\"}}.\n{{fun_0003_0001 arg=\"0x0B00\"}}Ora che {{color id=\"2\"}}Medoh {{color id=\"65535\"}}si è un po' calmato,\nQuill pensa di poter fare tutto quello\nche vuole senza essere prudente...\n{{fun_0003_0001 arg=\"0x0000\"}}Perlomeno è riuscita a esercitarsi a\ncantare con le sue sorelle. Eccoti un\npiccolo segno della mia riconoscenza.",
      "EUnl": "{{fun_0003_0001 arg=\"0x0000\"}}Bedankt voor het vinden van Kheel.\nIk had al een vermoeden dat ze bij de\n{{color id=\"0\"}}Broederrotsen{{color id=\"65535\"}} was.\n{{fun_0003_0001 arg=\"0x0B00\"}}Omdat {{color id=\"2\"}}Medoh {{color id=\"65535\"}}is gekalmeerd, denkt ze\ndat ze zomaar overal naartoe kan...{{pageBreak}}{{fun_0003_0001 arg=\"0x0000\"}}Maar het lijkt erop dat ze toch nog heeft\nkunnen oefenen met zingen.{{pageBreak}}Hier is een klein teken van waardering.",
      "EUru": "{{fun_0003_0001 arg=\"0x0000\"}}Спасибо, что нашел Киру.{{delay1}}\nЗначит, она действительно\nходила в {{color id=\"0\"}}Гнездо Певчих{{color id=\"65535\"}}.{{pageBreak}}{{fun_0003_0001 arg=\"0x0B00\"}}Она, наверное, думает, что ей все\nдозволено, раз {{color id=\"2\"}}Медо {{color id=\"65535\"}}больше не\nкружит над нами!{{pageBreak}}{{fun_0003_0001 arg=\"0x0000\"}}Ну хотя бы она туда ради репетиций\nходит...{{delay1}} Вот, возьми, пожалуйста.",
      "JPja": "{{fun_0003_0001 arg=\"0x0000\"}}キールを{{ruby charSpan=\"1\" value=\"み\"}}見つけてくれてありがとう\nやっぱり{{color id=\"0\"}}{{ruby charSpan=\"3\" value=\"きょうだいいわ\"}}兄弟岩{{color id=\"65535\"}}にいたみたいね\n{{fun_0003_0001 arg=\"0x0B00\"}}まったく {{color id=\"2\"}}メドー{{color id=\"65535\"}}が{{ruby charSpan=\"1\" value=\"しず\"}}鎮まったからって\n{{ruby charSpan=\"2\" value=\"むちゃ\"}}無茶な{{ruby charSpan=\"1\" value=\"こ\"}}子だわ…\n{{fun_0003_0001 arg=\"0x0000\"}}でも {{ruby charSpan=\"4\" value=\"しまいなかよ\"}}姉妹仲良く\n{{ruby charSpan=\"1\" value=\"うた\"}}歌の{{ruby charSpan=\"2\" value=\"れんしゅう\"}}練習ができたみたいね\nささやかだけど {{ruby charSpan=\"1\" value=\"さが\"}}探してくれたお{{ruby charSpan=\"1\" value=\"れい\"}}礼\n{{ruby charSpan=\"1\" value=\"う\"}}受け{{ruby charSpan=\"1\" value=\"と\"}}取ってくれる？",
      "KRko": "{{fun_0003_0001 arg=\"0x0000\"}}키르를 찾아 줘서 고마워요\n역시 {{color id=\"0\"}}형제 바위{{color id=\"65535\"}}에 있었네요\n{{fun_0003_0001 arg=\"0x0B00\"}}얘도 참 {{color id=\"2\"}}메도{{color id=\"65535\"}}가 조용해졌다고는 해도\n정말 못말려…\n{{fun_0003_0001 arg=\"0x0000\"}}하지만 자매끼리 사이좋게\n노래 연습을 한 모양이네요\n별것 아니지만 아이를 찾아 준 답례예요\n받아 줄래요?",
      "TWzh": "{{fun_0003_0001 arg=\"0x0000\"}}謝謝你幫我找到奇爾。\n看來她果然在{{color id=\"0\"}}兄弟岩{{color id=\"65535\"}}呢。\n{{fun_0003_0001 arg=\"0x0B00\"}}真是的！雖說{{color id=\"2\"}}梅德{{color id=\"65535\"}}已被鎮壓，\n但這孩子也太亂來了……\n{{fun_0003_0001 arg=\"0x0000\"}}不過她們幾個姊妹\n好像有和樂融融地練習唱歌呢。\n雖然不多，但還請收下\n幫忙找人的謝禮～",
      "USen": "{{fun_0003_0001 arg=\"0x0000\"}}Thank you for finding Kheel. I'm glad she\nwas just at {{color id=\"0\"}}Warbler's Nest {{color id=\"65535\"}}as I thought.\n\n{{fun_0003_0001 arg=\"0x0B00\"}}She thinks she can do whatever she\nwants just because {{color id=\"2\"}}Medoh {{color id=\"65535\"}}has\nbeen appeased.\n{{fun_0003_0001 arg=\"0x0000\"}}But at least she got to practice singing\nwith her sisters. It's only a small token\nof my gratitude, but please, take this.",
      "USes": "{{fun_0003_0001 arg=\"0x0000\"}}Gracias por ir a buscar a Kumeli. Menos\nmal que tenía razón y en efecto está\nen {{color id=\"0\"}}Rocas Hermanas{{color id=\"65535\"}}.\n{{fun_0003_0001 arg=\"0x0B00\"}}Se cree que porque {{color id=\"2\"}}Medoh{{color id=\"65535\"}} ha dejado\nde dar guerra puede ir por ahí tan\ntranquila.\n{{fun_0003_0001 arg=\"0x0000\"}}Su única preocupación en esta\nvida es ensayar con sus hermanas.\n¡Ay, esa juventud!\nEn fin, gracias por encargarte de todo.\nAcepta esto como recompensa, por favor.",
      "USfr": "{{fun_0003_0001 arg=\"0x0000\"}}Merci d'avoir retrouvé Quill! Quand je\npense que cette fillette a parcouru tout\nle chemin jusqu'aux {{color id=\"0\"}}Sœurs de pierre{{color id=\"65535\"}}...\n{{fun_0003_0001 arg=\"0x0B00\"}}Sous prétexte que {{color id=\"2\"}}Medoh {{color id=\"65535\"}}a cessé de\nnous tourmenter, elle croit qu'elle peut\nfaire tout ce qui lui passe par la tête.\n{{fun_0003_0001 arg=\"0x0000\"}}Enfin, au moins, elle est avec ses\nsœurs... Tiens, accepte ce petit cadeau\npour te remercier."
    }
  },
  {
    "label": "Npc_HighMountain036_F_103",
    "attribute": "0xD8010000",
    "locale": {
      "CNzh": "{{fun_0003_0001 arg=\"0x0000\"}}好，得去煮饭给大家吃了！\n有五个孩子还挺辛苦的。",
      "EUde": "{{fun_0003_0001 arg=\"0x0000\"}}Gut, dann muss ich mal Essen machen\nfür die ganze Brut!{{delay1}} Fünf Schnäbel zu\nstopfen ist gar nicht so einfach.",
      "EUen": "{{fun_0003_0001 arg=\"0x0000\"}}Well, I should get to cooking. Kheel is\none of five daughters, which means five\nmouths to feed. Dinner won't make itself!",
      "EUes": "{{fun_0003_0001 arg=\"0x0000\"}}Y ahora debería preparar algo de\ncomer. Con cinco pequeñajas en casa,\nno veas la de trabajo que tengo...",
      "EUfr": "{{fun_0003_0001 arg=\"0x0000\"}}Oh, l'heure tourne ! Il est temps de me\nmettre aux fourneaux ! Quand on élève\ncinq enfants, il faut de l'organisation !",
      "EUit": "{{fun_0003_0001 arg=\"0x0000\"}}Beh, ora devo preparare da mangiare.\nQuando hai 5 figlie, non è un'impresa\nda poco, credimi!",
      "EUnl": "{{fun_0003_0001 arg=\"0x0000\"}}En dan is het nu tijd om eten te maken.\nHet is hard werken als je vijf kinderen\nhebt!",
      "EUru": "{{fun_0003_0001 arg=\"0x0000\"}}Ладно, пора готовить.{{delay1}} У меня же\nпять дочерей — их хлебом не корми\nхлебом накорми!",
      "JPja": "{{fun_0003_0001 arg=\"0x0000\"}}さて みんなのご{{ruby charSpan=\"1\" value=\"はん\"}}飯を{{ruby charSpan=\"1\" value=\"つく\"}}作らないと！\n5{{ruby charSpan=\"1\" value=\"にん\"}}人もいると {{ruby charSpan=\"2\" value=\"たいへん\"}}大変だわ",
      "KRko": "{{fun_0003_0001 arg=\"0x0000\"}}자, 아이들 먹을 밥을 해야지!\n다섯이나 있으니 힘드네요",
      "TWzh": "{{fun_0003_0001 arg=\"0x0000\"}}好，得去煮飯給大家吃了！\n有五個孩子還挺辛苦的呢。",
      "USen": "{{fun_0003_0001 arg=\"0x0000\"}}Well, I should get to cooking. Kheel is\none of five daughters, which means five\nmouths to feed. Dinner won't make itself!",
      "USes": "{{fun_0003_0001 arg=\"0x0000\"}}Y ahora debería preparar algo de\ncomer. Con cinco pequeñuelas en casa,\nya imaginarás el trabajo que tengo...",
      "USfr": "{{fun_0003_0001 arg=\"0x0000\"}}Oh, l'heure tourne! Il est temps de me\nmettre aux fourneaux! Quand on élève\ncinq enfants, il faut de l'organisation!"
    }
  },
  {
    "label": "Npc_HighMountain036_R_Near",
    "attribute": "0x00020000",
    "locale": {
      "CNzh": "你跑去哪了～？",
      "EUde": "Wo bist duuuu?",
      "EUen": "Where did you go?!",
      "EUes": "¡¿Dónde estás?!",
      "EUfr": "Où es-tu passée ?",
      "EUit": "Dove sei finita?!",
      "EUnl": "Waar ben je?",
      "EUru": "Ну где же она?..",
      "JPja": "どこへ{{ruby charSpan=\"1\" value=\"い\"}}行ったの～？",
      "KRko": "어디 있니~?",
      "TWzh": "人跑去哪了～？",
      "USen": "Where did you go?!",
      "USes": "¡¿Dónde estás?!",
      "USfr": "Où es-tu passée?"
    }
  },
  {
    "label": "Npc_HighMountain036_F_Near",
    "attribute": "0x28020000",
    "locale": {
      "CNzh": "奇尔～！",
      "EUde": "Kihl! Kihl!",
      "EUen": "Kheel!",
      "EUes": "¡Kumeli!",
      "EUfr": "Quill ! Quill !",
      "EUit": "Quill!",
      "EUnl": "Kheel!",
      "EUru": "Кира!",
      "JPja": "キール～！",
      "KRko": "키르~!",
      "TWzh": "奇爾～！",
      "USen": "Kheel!",
      "USes": "¡Kumeli!",
      "USfr": "Quill! Quill!"
    }
  },
  {
    "label": "Npc_HighMountain036_F_Near_Rock",
    "attribute": "0x50020000",
    "locale": {
      "CNzh": "真是的……",
      "EUde": "Also wirklich...",
      "EUen": "My goodness...",
      "EUes": "Qué pesadilla...",
      "EUfr": "Bonté divine...",
      "EUit": "Non posso crederci...",
      "EUnl": "Hemeltje...",
      "EUru": "Ох...",
      "JPja": "まったく…",
      "KRko": "어휴 정말…",
      "TWzh": "真是的……",
      "USen": "My goodness...",
      "USes": "Qué pesadilla...",
      "USfr": "Bonté divine..."
    }
  },
  {
    "label": "Npc_HighMountain036_R_004",
    "attribute": "0x78020000",
    "locale": {
      "CNzh": "{{fun_0003_0001 arg=\"0x0000\"}}……哎呀～\n\n{{fun_0003_0001 arg=\"0x0700\"}}你就是奇尔说的那个人吧！\n谢谢你愿意听奇尔的任性要求。\n{{fun_0003_0001 arg=\"0x0000\"}}多亏有你，她们几个姐妹\n似乎能和乐融融地练习唱歌了。\n不介意的话，\n请收下这份谢礼～",
      "EUde": "{{fun_0003_0001 arg=\"0x0000\"}}...Oh?{{pageBreak}}{{fun_0003_0001 arg=\"0x0700\"}}Du bist der, von dem Kihl mir erzählt hat!{{delay1}}\nVielen Dank, dass du dich mit ihren\nLaunen herumgeschlagen hast.\n{{fun_0003_0001 arg=\"0x0000\"}}Dank deiner Hilfe konnten alle\nSchwestern zusammen ihr Lied üben.{{pageBreak}}Kann ich dir das hier als Dankeschön\nanbieten?",
      "EUen": "{{fun_0003_0001 arg=\"0x0000\"}}Hmm?\n\n\n{{fun_0003_0001 arg=\"0x0700\"}}Oh, you must be the one Kheel told\nme about. Thanks for helping her out.\n\n{{fun_0003_0001 arg=\"0x0000\"}}The girls were able to practice their\nsinging thanks to you.\nPlease, take this. As a thank-you.",
      "EUes": "{{fun_0003_0001 arg=\"0x0000\"}}¿Eh?{{pageBreak}}{{fun_0003_0001 arg=\"0x0700\"}}Tú debes de ser el joven del que hablaba\nKumeli, ¿no es cierto? No sabes cómo te\nagradezco que la escuchases.\n{{fun_0003_0001 arg=\"0x0000\"}}Gracias a ti, mis niñas han podido\nensayar sin contratiempos, así que\nquiero darte esto a cambio.",
      "EUfr": "{{fun_0003_0001 arg=\"0x0000\"}}... Oh ?\n\n\n{{fun_0003_0001 arg=\"0x0700\"}}Oui, Quill n'arrête pas de parler de toi.\nMerci de l'avoir aidée !\n\n{{fun_0003_0001 arg=\"0x0000\"}}Les petites ont pu reprendre les\nrépétitions, et c'est grâce à toi ! Tiens,\naccepte ce cadeau en remerciement !",
      "EUit": "{{fun_0003_0001 arg=\"0x0000\"}}... Oh!\n\n\n{{fun_0003_0001 arg=\"0x0700\"}}Tu devi essere la persona di cui\nparlava Quill. Grazie per aver accolto\nle sue richieste.\n{{fun_0003_0001 arg=\"0x0000\"}}È merito tuo se le ragazze sono\nriuscite a esercitarsi nel canto.",
      "EUnl": "{{fun_0003_0001 arg=\"0x0000\"}}O?{{pageBreak}}{{fun_0003_0001 arg=\"0x0700\"}}Jij moet degene zijn waar Kheel het over\nhad. Bedankt voor het luisteren naar\nKheels verzoek.\n{{fun_0003_0001 arg=\"0x0000\"}}Dankzij jou konden de meiden oefenen\nmet zingen.{{pageBreak}}Hier is iets om je te bedanken.",
      "EUru": "{{fun_0003_0001 arg=\"0x0000\"}}Хм...{{pageBreak}}{{fun_0003_0001 arg=\"0x0700\"}}А!{{delay1}} Это о тебе рассказывала\nКира!{{delay1}} Спасибо, что помог ей.{{pageBreak}}{{fun_0003_0001 arg=\"0x0000\"}}Благодаря тебе они смогли\nпорепетировать.{{delay1}} Позволь\nтебя отблагодарить.",
      "JPja": "{{fun_0003_0001 arg=\"0x0000\"}}…あら？\n\n{{fun_0003_0001 arg=\"0x0700\"}}あなたがキールの{{ruby charSpan=\"1\" value=\"い\"}}言っていた{{ruby charSpan=\"1\" value=\"ひと\"}}人ね！\nキールのわがままを{{ruby charSpan=\"1\" value=\"き\"}}聞いてくれてありがとう\n{{fun_0003_0001 arg=\"0x0000\"}}あなたのおかげで {{ruby charSpan=\"4\" value=\"しまいなかよ\"}}姉妹仲良く\n{{ruby charSpan=\"1\" value=\"うた\"}}歌の{{ruby charSpan=\"2\" value=\"れんしゅう\"}}練習ができたみたいね\nよかったらこれ\nお{{ruby charSpan=\"1\" value=\"れい\"}}礼にもらってくれないかしら？",
      "KRko": "{{fun_0003_0001 arg=\"0x0000\"}}…어머\n\n{{fun_0003_0001 arg=\"0x0700\"}}당신이 키르가 말한 그 사람이군요!\n키르의 응석을 받아 줘서 고마워요\n{{fun_0003_0001 arg=\"0x0000\"}}덕분에 자매끼리 사이좋게\n노래 연습을 한 모양이네요\n괜찮다면 이것\n답례인데 받아 줄래요?",
      "TWzh": "{{fun_0003_0001 arg=\"0x0000\"}}……哎呀～\n\n{{fun_0003_0001 arg=\"0x0700\"}}你就是奇爾說的那個人吧！\n謝謝你願意聽奇爾的任性要求。\n{{fun_0003_0001 arg=\"0x0000\"}}多虧有你，她們幾個姊妹\n似乎有和樂融融地練習唱歌呢。\n不介意的話，\n請收下這份謝禮～",
      "USen": "{{fun_0003_0001 arg=\"0x0000\"}}Hmm?\n\n\n{{fun_0003_0001 arg=\"0x0700\"}}Oh, you must be the one Kheel told\nme about. Thanks for helping her out.\n\n{{fun_0003_0001 arg=\"0x0000\"}}The girls were able to practice their\nsinging thanks to you.\nPlease, take this. As a thank-you.",
      "USes": "{{fun_0003_0001 arg=\"0x0000\"}}¿Eh?{{pageBreak}}{{fun_0003_0001 arg=\"0x0700\"}}Tú debes de ser el joven del que hablaba\nKumeli, ¿no es cierto? No sabes cómo te\nagradezco que la escucharas.\n{{fun_0003_0001 arg=\"0x0000\"}}Gracias a ti, mis niñas han podido\nensayar sin contratiempos, así que\nquiero darte esto a cambio.",
      "USfr": "{{fun_0003_0001 arg=\"0x0000\"}}... Oh?\n\n\n{{fun_0003_0001 arg=\"0x0700\"}}Oui, Quill n'arrête pas de parler de toi.\nMerci de l'avoir aidée!\n\n{{fun_0003_0001 arg=\"0x0000\"}}Les petites ont pu reprendre les\nrépétitions, et c'est grâce à toi! Tiens,\naccepte ce cadeau en remerciement!"
    }
  },
  {
    "label": "Npc_HighMountain036_R_Near_01",
    "attribute": "0xA0020000",
    "locale": {
      "CNzh": "真是的……",
      "EUde": "Also wirklich...",
      "EUen": "My goodness...",
      "EUes": "Cielos...",
      "EUfr": "Bonté divine...",
      "EUit": "Non posso crederci...",
      "EUnl": "Jeetje...",
      "EUru": "Ох...",
      "JPja": "まったく…",
      "KRko": "정말…",
      "TWzh": "真是的……",
      "USen": "My goodness...",
      "USes": "Cielos...",
      "USfr": "Bonté divine..."
    }
  }
]