[
  {
    "label": "QL_bf2_collabo_Name",
    "attribute": "",
    "locale": {
      "CNzh": "联动：异度神剑２",
      "EUde": "[Xenoblade Chronicles 2]",
      "EUen": "[Xenoblade Chronicles 2]",
      "EUes": "[Xenoblade Chronicles 2]",
      "EUfr": "[Xenoblade Chronicles 2]",
      "EUit": "[Xenoblade Chronicles 2]",
      "EUnl": "*Xenoblade Chronicles 2*",
      "EUru": "«Xenoblade Chronicles 2»",
      "JPja": "コラボ：ゼノブレイド２",
      "KRko": "Xenoblade Chronicles 2",
      "TWzh": "合作：異度神劍２",
      "USen": "[Xenoblade Chronicles 2]",
      "USes": "[Xenoblade Chronicles 2]",
      "USfr": "[Xenoblade Chronicles 2]"
    }
  },
  {
    "label": "QL_bf2_collabo_Desc",
    "attribute": "",
    "locale": {
      "CNzh": "{{color id=\"0\"}}从最大桥的中央，看那南方的夜空，\n从骷髅的左眼，看那东方的夜空，\n从陡峭的雪山之巅，看那东南方的夜空。{{color id=\"65535\"}}\n\n仰望夜空，寻找红色的流星吧，\n尚未找到的星星还剩{{color id=\"0\"}}{{number ref=\"bf2_collabo_remaining\"}}颗{{color id=\"65535\"}}。",
      "EUde": "[Kooperation mit Xenoblade Chronicles 2]\n\n{{color id=\"0\"}}Vom Zentrum der größten Brücke nach Süden...\nVom linken Auges des Totenkopfs nach Osten...\nVom durchstochenen Gipfel nach Südosten...{{color id=\"65535\"}}\n\nBlicke in den Nachthimmel auf und folge den\nroten Sternschnuppen. Noch zu finden: {{color id=\"0\"}}{{number ref=\"bf2_collabo_remaining\"}}{{color id=\"65535\"}}.",
      "EUen": "[Collaboration with Xenoblade Chronicles 2]\n\n{{color id=\"0\"}}The southern sky from the middle of the largest\nbridge. The eastern sky from the skull's left eye.\nThe southeastern sky from the peak of the tall,\npierced snowy mountain.{{color id=\"65535\"}}\n\nLook to the night sky at these locations and\nfind the red shooting stars!\n\nStars left: {{color id=\"0\"}}{{number ref=\"bf2_collabo_remaining\"}}{{color id=\"65535\"}}",
      "EUes": "[Colaboración con Xenoblade Chronicles 2]\n\nAlza la vista al cielo nocturno y localiza\nlas estrellas fugaces rojas:\n{{color id=\"0\"}}Desde el centro del gran puente, hacia el sur.\nDesde el ojo izquierdo de la calavera, hacia\nel este. Desde la cima del horadado monte\ncubierto de nieve, hacia el sureste.{{color id=\"65535\"}}\n\nAún debes encontrar {{color id=\"0\"}}{{number ref=\"bf2_collabo_remaining\"}}{{color id=\"65535\"}}.",
      "EUfr": "[Partenariat avec Xenoblade Chronicles 2]\n{{color id=\"0\"}}Le ciel nocturne au sud depuis le centre du\nplus grand pont.\nLe ciel nocturne à l'est depuis l'œil gauche du\ncrâne.\nLe ciel nocturne au sud-est depuis la haute\nmontagne enneigée au sommet perforé.{{color id=\"65535\"}}\n\nLevez les yeux au ciel et trouvez les étoiles\nfilantes rouges. Il vous en reste {{color id=\"0\"}}{{number ref=\"bf2_collabo_remaining\"}}{{color id=\"65535\"}} à trouver.",
      "EUit": "[Collaborazione: Xenoblade Chronicles 2]\n\n{{color id=\"0\"}}Dal mezzo del ponte più grande, volgiti a sud.\nDall'orbita sinistra del teschio, volgiti a est.\nDalla vetta innevata del monte scavato, volgiti\na sud-est.{{color id=\"65535\"}}\n\nAlza lo sguardo al cielo notturno e segui\nle rosse stelle cadenti. Ne devi trovare\nancora {{color id=\"0\"}}{{number ref=\"bf2_collabo_remaining\"}}{{color id=\"65535\"}}.",
      "EUnl": "(Samenwerking met Xenoblade Chronicles 2)\n{{color id=\"0\"}}Naar het zuiden vanaf het midden van de\ngrootste brug.\nNaar het oosten vanuit het linkeroog van de\nschedel.\nNaar het zuidoosten vanaf de gehavende,\nbesneeuwde berg.{{color id=\"65535\"}}\n\nKijk 's nachts vanuit deze locaties naar de\nhemel en vind de rode vallende sterren.\nSterren te gaan: {{color id=\"0\"}}{{number ref=\"bf2_collabo_remaining\"}}{{color id=\"65535\"}}",
      "EUru": "[Совместно с Xenoblade Chronicles 2]\n{{color id=\"0\"}}На юг с середины самого большого моста...\nНа восток с левого «глаза» черепа...\nНа юго-восток из сквозной дыры в верхней\nчасти огромной заснеженной горы...{{color id=\"65535\"}}\n\nМне нужно найти три красные падающие\nзвезды. Заметить каждую из них можно\nлишь ночью в определенной части неба,\nесли стоять в указанном месте. Мне\nосталось отыскать {{color id=\"0\"}}{{number ref=\"bf2_collabo_remaining\"}}{{pluralCase arg1=\" звезду\" arg2=\" звезд\" arg3=\" звезды\"}}{{color id=\"65535\"}}.",
      "JPja": "{{color id=\"0\"}}最も大きな橋の中央 から南の夜空\nドクロの左眼 から東の夜空\nつらぬかれた高き雪山の{{ruby charSpan=\"2\" value=\"さんちょう\"}}山頂 から南東の夜空{{color id=\"65535\"}}\n\n夜空を見上げて 赤い流れ星を{{ruby charSpan=\"1\" value=\"み\"}}見つけよう\n{{ruby charSpan=\"1\" value=\"み\"}}見つけていない星は残り{{color id=\"0\"}}{{number ref=\"bf2_collabo_remaining\"}}{{ruby charSpan=\"1\" value=\"こ\"}}個{{color id=\"65535\"}}だ",
      "KRko": "{{color id=\"0\"}}가장 커다란 다리의 중앙에서 남쪽 밤하늘\n해골의 왼쪽 눈으로부터 동쪽 밤하늘\n꿰뚫린 높은 설산의 정상으로부터 남동쪽 밤하늘{{color id=\"65535\"}}\n\n밤하늘을 올려다보고 붉은 별똥별을 찾아보자\n아직 찾지 못한 별은 {{color id=\"0\"}}{{number ref=\"bf2_collabo_remaining\"}}개{{color id=\"65535\"}}다",
      "TWzh": "{{color id=\"0\"}}從最大的橋的中央，看那南方的夜空，\n從骷髏的左眼，看那東方的夜空，\n從陡峭的雪山之巔，看那東南方的夜空。{{color id=\"65535\"}}\n\n仰望夜空，尋找紅色的流星吧，\n尚未找到的星星還剩{{color id=\"0\"}}{{number ref=\"bf2_collabo_remaining\"}}顆{{color id=\"65535\"}}。",
      "USen": "[Collaboration with Xenoblade Chronicles 2]\n\n{{color id=\"0\"}}The southern sky from the middle of the largest\nbridge. The eastern sky from the skull's left eye.\nThe southeastern sky from the peak of the tall,\npierced snowy mountain.{{color id=\"65535\"}}\n\nLook to the night sky at these locations and\nfind the red shooting stars!\n\nStars left: {{color id=\"0\"}}{{number ref=\"bf2_collabo_remaining\"}}{{color id=\"65535\"}}",
      "USes": "[Colaboración: Xenoblade Chronicles 2]\n\nAlza la vista al cielo nocturno y localiza\nlas estrellas fugaces rojas:\n{{color id=\"0\"}}Desde el centro del gran puente, hacia\nel sur. Desde el ojo izquierdo de la calavera,\nhacia el este. Desde el monte perforado\ncubierto de nieve, hacia el sureste.{{color id=\"65535\"}}\n\nAún debes encontrar {{color id=\"0\"}}{{number ref=\"bf2_collabo_remaining\"}}{{color id=\"65535\"}}.",
      "USfr": "[Partenariat avec Xenoblade Chronicles 2]\n{{color id=\"0\"}}Le ciel nocturne au sud depuis le centre du\nplus grand pont.\nLe ciel nocturne à l'est depuis l'œil gauche du\ncrâne.\nLe ciel nocturne au sud-est depuis la haute\nmontagne enneigée au sommet perforé.{{color id=\"65535\"}}\n\nLevez les yeux au ciel et trouvez les étoiles\nfilantes rouges. Il vous en reste {{color id=\"0\"}}{{number ref=\"bf2_collabo_remaining\"}}{{color id=\"65535\"}} à trouver."
    }
  },
  {
    "label": "QL_bf2_collabo_Finish",
    "attribute": "",
    "locale": {
      "CNzh": "坠落在海拉鲁各地的3颗\n红色的流星已全部找到。\n\n在异度神剑２的世界里，\n冒险潜入云海回收沉没的遗物者，\n被称为打捞员。\n将得到的3件装备都穿戴在身上的话，\n就能体会到打捞员的感觉吧。",
      "EUde": "[Kooperation mit Xenoblade Chronicles 2]\n\nDu hast alle drei roten Sternschnuppen\ngefunden, die in Hyrule eingeschlagen sind.\n\nIn der Welt von Xenoblade Chronicles 2 stürzen\nsich todesmutige Bergungstaucher in die Tiefen\ndes Wolkenmeers, um wertvolle Schätze zu\nbergen. Mit den drei Ausrüstungsgegenständen,\ndie du gefunden hast, kannst du dich wie einer\nvon ihnen fühlen.",
      "EUen": "[Collaboration with Xenoblade Chronicles 2]\n\nYou found all three red shooting stars that\nlanded in various parts of Hyrule!\n\nIn Xenoblade Chronicles 2, the people who\ncollect sunken treasure in the Cloud Sea are\ncalled Salvagers. Use the three gears you've\ncollected like a true Salvager!",
      "EUes": "[Colaboración con Xenoblade Chronicles 2]\n\nHas encontrado las tres estrellas fugaces\nrojas que habían caído en distintas regiones\nde Hyrule.\n\nEn Xenoblade Chronicles 2, se conoce como\n«buceadores» a aquellos que buscan tesoros\nen el mar de nubes. Gracias a las tres prendas\nque has obtenido, podrás vestirte como uno\nde ellos.",
      "EUfr": "[Partenariat avec Xenoblade Chronicles 2]\nVous avez trouvé les trois étoiles filantes\nrouges qui se sont écrasées sur Hyrule !\n\nDans le monde de Xenoblade Chronicles 2,\non appelle « récupérateurs » ceux qui, bravant\ntous les dangers, remontent les reliques qui\nreposent au fond de la mer de nuages.\nRevêtez les trois pièces d'équipement que\nvous avez obtenues pour vous mettre dans\nla peau de l'un d'eux !",
      "EUit": "[Collaborazione: Xenoblade Chronicles 2]\n\nHai trovato le tre stelle rosse cadute su Hyrule.\n\nNel mondo di Xenoblade Chronicles 2, le\npersone che si immergono nel Mare di nuvole\nalla ricerca di tesori affondati si chiamano\n\"recuperatori\". Indossa le tre parti di\nequipaggiamento che hai trovato per sentirti\ncome uno di loro.",
      "EUnl": "(Samenwerking met Xenoblade Chronicles 2)\nJe hebt de drie vallende sterren gevonden die\nop verschillende plekken in Hyrule zijn\nneergekomen.\n\nIn Xenoblade Chronicles 2 worden degenen die\nin de Cloud Sea naar verloren schatten zoeken,\nbergers genoemd. Gebruik de gevonden\nuitrusting om zelf een berger te worden.",
      "EUru": "[Совместно с Xenoblade Chronicles 2]\nЯ нашел все три красные звезды,\nупавшие в разных частях Хайрула.\n\nВ Xenoblade Chronicles 2 тех, кто ищет\nзатонувшие сокровища в море Облаков,\nназывают кладоискателями. Теперь\nу меня есть их снаряжение.",
      "JPja": "ハイラルの各地に落下した赤い流れ星を\n3個すべて見つけた\n\nゼノブレイド２の世界では\n危険を冒して雲海に潜り 沈んだ遺物を\n回収する者をサルベージャーと呼ぶ\n手に入れた3つの装備品を身にまとえば\nサルベージャー気分を味わえるだろう",
      "KRko": "하이랄 각지에 낙하한 붉은 별똥별을\n3개 모두 찾았다\n\nXenoblade Chronicles 2의 세계에서는\n위험을 무릅쓰고 운해에 뛰어들어 가라앉은 유물을\n회수하는 자를 샐비저라고 부른다\n획득한 3개의 장비품을 몸에 두르면\n샐비저의 기분을 만끽할 수 있을 것이다",
      "TWzh": "墜落在海拉魯各地的3顆\n紅色的流星已全部找到。\n\n在異度神劍２的世界裡，\n冒險潛入雲海回收沉沒的遺物者\n會被稱為打撈員。\n把獲得的3件裝備都穿戴在身上的話，\n就能體會到打撈員的感覺吧。",
      "USen": "[Collaboration with Xenoblade Chronicles 2]\n\nYou found all three red shooting stars that\nlanded in various parts of Hyrule!\n\nIn Xenoblade Chronicles 2, the people who\ncollect sunken treasure in the Cloud Sea are\ncalled Salvagers. Use the three gears you've\ncollected like a true Salvager!",
      "USes": "[Colaboración: Xenoblade Chronicles 2]\n\nEncontraste las tres estrellas fugaces\nrojas que habían caído en distintas regiones\nde Hyrule.\n\nEn Xenoblade Chronicles 2, se conoce como\n\"buceadores\" a aquellos que buscan tesoros\nen el mar de nubes. Gracias a las tres prendas\nque obtuviste, podrás vestirte como uno\nde ellos.",
      "USfr": "[Partenariat avec Xenoblade Chronicles 2]\nVous avez trouvé les trois étoiles filantes\nrouges qui se sont écrasées à Hyrule!\n\nDans le monde de Xenoblade Chronicles 2,\non appelle « récupérateurs » ceux qui, bravant\ntous les dangers, remontent les reliques qui\nreposent au fond de la mer de nuages.\nRevêtez les trois pièces d'équipement que\nvous avez obtenues pour vous mettre dans\nla peau de l'un d'eux!"
    }
  }
]