[
  {
    "label": "QL_FairyFountain_Name",
    "attribute": "",
    "locale": {
      "CNzh": "寻找精灵之泉",
      "EUde": "Die legendäre Feenquelle",
      "EUen": "Find the Fairy Fountain",
      "EUes": "La fuente de la gran hada",
      "EUfr": "La fontaine dissimulée",
      "EUit": "Alla fonte della fata",
      "EUnl": "De mysterieuze feeënbron",
      "EUru": "«Родник большой феи»",
      "JPja": "妖精の泉探し",
      "KRko": "요정의 샘 찾기",
      "TWzh": "尋找妖精之泉",
      "USen": "Find the Fairy Fountain",
      "USes": "La fuente de la gran hada",
      "USfr": "La fontaine dissimulée"
    }
  },
  {
    "label": "QL_FairyFountain_Desc",
    "attribute": "",
    "locale": {
      "CNzh": "康吉思希望你能帮他寻找\n世上美丽的{{color id=\"2\"}}大精灵之泉{{color id=\"65535\"}}。\n\n首先，让知道泉水大概位置的\n康吉思为你带路吧。\n\n当你找到{{color id=\"2\"}}大精灵之泉{{color id=\"65535\"}}后，\n就把它拍下来给康吉思看看吧。",
      "EUde": "Kangis hat dich gebeten, die sagenumwobene,\nwunderschöne {{color id=\"2\"}}Quelle der Großen Fee {{color id=\"65535\"}}zu\nfinden.\n\nEr kann dir zeigen, wo die Quelle ungefähr\nliegen sollte.\n\nDu solltest Kangis ein Bild der {{color id=\"2\"}}Quelle{{color id=\"65535\"}} zeigen.",
      "EUen": "Pikango really wants to see the entrancing\n{{color id=\"2\"}}Great Fairy Fountain{{color id=\"65535\"}} behind Kakariko Village,\nbut all of his efforts to search for it have been\nstymied.\n\nIf you find the fountain, surely Pikango would\nappreciate proof of its location.",
      "EUes": "Dangis lo ha intentado todo para encontrar\nla {{color id=\"2\"}}fuente de la gran hada{{color id=\"65535\"}}.\n\nComo punto de partida, deja que te guíe hasta\nla zona donde piensa que puede estar.\n\nCuando averigües el lugar exacto donde\nse encuentra la fuente, házselo saber.",
      "EUfr": "Kangis est à la recherche d'une {{color id=\"2\"}}fontaine de\ngrande fée{{color id=\"65535\"}} supposément magnifique et il vous\na demandé de la trouver pour lui.\n\nIl pense avoir une vague idée de son\nemplacement, alors, dans un premier\ntemps, laissez-le vous guider.\n\nSi vous parvenez à la découvrir, montrez la\npreuve visuelle de son existence à Kangis !",
      "EUit": "Kanghis ti ha chiesto di trovare l'incantevole\n{{color id=\"2\"}}fonte della fata radiosa{{color id=\"65535\"}}.\n\nKanghis crede di sapere dove si trova.\nPer il momento, non ti resta che seguirlo.\n\nDopo aver trovato la posizione della\n{{color id=\"2\"}}fonte della fata radiosa{{color id=\"65535\"}}, scatta un'immagine\ne mostrala a Kanghis.",
      "EUnl": "Pikango heeft je gevraagd om de prachtige\n{{color id=\"2\"}}feeënbron{{color id=\"65535\"}} te vinden.\n\nHij denkt te weten waar je de bron kunt vinden.\nLaat hem je naar die locatie leiden.\n\nAls je de {{color id=\"2\"}}feeënbron{{color id=\"65535\"}} vindt, vertel Pikango dan\nwaar hij is.",
      "EUru": "Пиканго попросил меня найти невероятно\nкрасивый {{color id=\"2\"}}родник большой феи{{color id=\"65535\"}}. Он должен\nбыть в роще над Какарико, но Пиканго не\nудается до него дойти. Если найду родник,\nнужно будет его сфотографировать\nи показать снимок Пиканго.",
      "JPja": "カンギスから\n{{ruby charSpan=\"1\" value=\"よ\"}}世にも{{ruby charSpan=\"1\" value=\"うつく\"}}美しい{{color id=\"2\"}}{{ruby charSpan=\"3\" value=\"だいようせい\"}}大妖精の{{ruby charSpan=\"1\" value=\"いずみ\"}}泉{{color id=\"65535\"}}を {{ruby charSpan=\"1\" value=\"さが\"}}探してほしいと{{ruby charSpan=\"1\" value=\"たの\"}}頼まれた\n\n場所に心当たりがあるというカンギスに\nまずは そこまで案内してもらおう\n\n{{color id=\"2\"}}{{ruby charSpan=\"3\" value=\"だいようせい\"}}大妖精の{{ruby charSpan=\"1\" value=\"いずみ\"}}泉{{color id=\"65535\"}}の{{ruby charSpan=\"2\" value=\"ばしょ\"}}場所が{{ruby charSpan=\"1\" value=\"わ\"}}分かったら\n絵におさめて カンギスに見せてあげよう",
      "KRko": "칸기스에게 무척 아름다운\n{{color id=\"2\"}}대요정의 샘{{color id=\"65535\"}}을 찾아 달라고 부탁받았다\n\n짐작가는 장소가 있다는 칸기스에게\n우선은 그곳까지 안내해 달라고 하자\n\n{{color id=\"2\"}}대요정의 샘{{color id=\"65535\"}}이 있는 곳을 알았다면\n사진으로 담아 칸기스에게 보여 주자",
      "TWzh": "康吉思希望你可以幫他尋找\n美麗的{{color id=\"2\"}}大妖精之泉{{color id=\"65535\"}}。\n\n首先，讓大概知道泉水位置的\n康吉思為你帶路吧。\n\n找到{{color id=\"2\"}}大妖精之泉{{color id=\"65535\"}}後，\n將它拍下來給康吉思看看吧。",
      "USen": "Pikango really wants to see the entrancing\n{{color id=\"2\"}}Great Fairy Fountain{{color id=\"65535\"}} behind Kakariko Village,\nbut all of his efforts to search for it have been\nstymied.\n\nIf you find the fountain, surely Pikango would\nappreciate proof of its location.",
      "USes": "Domayo lo ha intentado todo para encontrar\nla fuente de la gran hada que se halla en\nla aldea Kakariko.\n\nCuando averigües el lugar donde se encuentra\nla fuente, házselo saber.",
      "USfr": "Kangis est à la recherche d'une {{color id=\"2\"}}fontaine de\ngrande fée{{color id=\"65535\"}} supposément magnifique et il vous\na demandé de la trouver pour lui.\n\nIl pense avoir une vague idée de son\nemplacement, alors, dans un premier\ntemps, laissez-le vous guider.\n\nSi vous parvenez à la découvrir, montrez la\npreuve visuelle de son existence à Kangis!"
    }
  },
  {
    "label": "QL_FairyFountain_Finish",
    "attribute": "",
    "locale": {
      "CNzh": "你给康吉思要找的大精灵之泉拍了照，\n并把拍好的{{color id=\"0\"}}照片{{color id=\"65535\"}}给康吉思看了看。",
      "EUde": "Du hast ein {{color id=\"0\"}}Foto{{color id=\"65535\"}} der Quelle der Großen Fee\nfür Kangis gemacht und es ihm gezeigt.",
      "EUen": "You took a {{color id=\"0\"}}picture {{color id=\"65535\"}}of the Great Fairy Fountain\nPikango was looking for and showed it to him.",
      "EUes": "Has sacado una {{color id=\"0\"}}foto{{color id=\"65535\"}} de la fuente de la gran\nhada y se la has mostrado a Dangis.",
      "EUfr": "Vous avez montré à Kangis une {{color id=\"0\"}}photographie{{color id=\"65535\"}}\nde la fontaine de la grande fée qu'il cherchait.",
      "EUit": "Hai scattato un'{{color id=\"0\"}}immagine{{color id=\"65535\"}} della fonte della fata\nradiosa e l'hai mostrata a Kanghis, che ne è\nrimasto molto colpito.",
      "EUnl": "Je hebt een {{color id=\"0\"}}foto{{color id=\"65535\"}} genomen van de feeënbron\nwaar Pikango naar op zoek was en deze aan\nhem laten zien.",
      "EUru": "Я нашел родник большой феи,\nсфотографировал его и показал\nснимок Пиканго.",
      "JPja": "カンギスが{{ruby charSpan=\"1\" value=\"さが\"}}探していた {{ruby charSpan=\"3\" value=\"だいようせい\"}}大妖精の{{ruby charSpan=\"1\" value=\"いずみ\"}}泉を\n{{color id=\"0\"}}{{ruby charSpan=\"1\" value=\"うつ\"}}写し{{ruby charSpan=\"1\" value=\"え\"}}絵{{color id=\"65535\"}}におさめて カンギスに{{ruby charSpan=\"1\" value=\"み\"}}見せてあげた",
      "KRko": "칸기스가 찾던 대요정의 샘을\n{{color id=\"0\"}}사진{{color id=\"65535\"}}으로 담아 칸기스에게 보여 주었다",
      "TWzh": "你拍攝了康吉思尋找的大妖精之泉，\n並且讓康吉思看看拍好的{{color id=\"0\"}}照片{{color id=\"65535\"}}。",
      "USen": "You took a {{color id=\"0\"}}picture {{color id=\"65535\"}}of the Great Fairy Fountain\nPikango was looking for and showed it to him.",
      "USes": "Tomaste una {{color id=\"0\"}}foto{{color id=\"65535\"}} de la fuente de la gran\nhada y se la mostraste a Domayo.",
      "USfr": "Vous avez montré à Kangis une {{color id=\"0\"}}photographie{{color id=\"65535\"}}\nde la fontaine de la grande fée qu'il cherchait."
    }
  }
]