[
  {
    "label": "QL_HigakkareMini_RedDragon_Name",
    "attribute": "",
    "locale": {
      "CNzh": "力量之泉的传说",
      "EUde": "Die Quelle der Kraft",
      "EUen": "The Spring of Power",
      "EUes": "La Fuente del Poder",
      "EUfr": "À la source de la Force",
      "EUit": "La fonte della forza",
      "EUnl": "De Bron der Kracht",
      "EUru": "«Источник Силы»",
      "JPja": "{{ruby charSpan=\"1\" value=\"ちから\"}}力の{{ruby charSpan=\"1\" value=\"いずみ\"}}泉の{{ruby charSpan=\"1\" value=\"い\"}}言い{{ruby charSpan=\"1\" value=\"つた\"}}伝え",
      "KRko": "힘의 샘의 전설",
      "TWzh": "力量之泉的傳說",
      "USen": "The Spring of Power",
      "USes": "La Fuente del Poder",
      "USfr": "À la source de la Force"
    }
  },
  {
    "label": "QL_HigakkareMini_RedDragon_Desc",
    "attribute": "",
    "locale": {
      "CNzh": "东阿卡莱驿站以{{color id=\"0\"}}西{{color id=\"65535\"}}的{{color id=\"0\"}}力量之泉{{color id=\"65535\"}}，\n流传着这样一个传说：\n“将神圣的{{color id=\"0\"}}神具{{color id=\"65535\"}}献给力量之泉吧。”\n\n神圣的{{color id=\"0\"}}神具{{color id=\"65535\"}}究竟是指什么呢？",
      "EUde": "Es gibt eine Legende über die {{color id=\"0\"}}Quelle der Kraft{{color id=\"65535\"}}\n{{color id=\"0\"}}westlich{{color id=\"65535\"}} vom Stall von Ost-Akkala:\n„Bringe der Quelle der Kraft das {{color id=\"0\"}}heilige\nFragment{{color id=\"65535\"}} dar.“\n\nWorum könnte es sich bei diesem {{color id=\"0\"}}heiligen\nFragment {{color id=\"65535\"}}wohl handeln?",
      "EUen": "You learned of a legend that says to offer a\n{{color id=\"0\"}}sacred relic{{color id=\"65535\"}} to the {{color id=\"0\"}}Spring of Power{{color id=\"65535\"}}, located\nto the {{color id=\"0\"}}west{{color id=\"65535\"}} of East Akkala Stable.\n\nThe legend didn't say what this {{color id=\"0\"}}sacred relic{{color id=\"65535\"}}\nmight be.",
      "EUes": "Nobunel, una viajera a la que has\nencontrado en la posta de Akkala este,\nte ha hablado sobre una leyenda. Según\nsus palabras, debes ofrecer un {{color id=\"0\"}}objeto\nsagrado{{color id=\"65535\"}} en la {{color id=\"0\"}}Fuente del Poder{{color id=\"65535\"}} que\nse encuentra al {{color id=\"0\"}}oeste {{color id=\"65535\"}}de la posta.",
      "EUfr": "Il existe un dicton concernant la {{color id=\"0\"}}source de la\nForce{{color id=\"65535\"}}, à l'{{color id=\"0\"}}ouest{{color id=\"65535\"}} du relais de l'est d'Akkala :\n\n« À la source de la Force, présente une\noffrande sacrée. »\n\nQue peut bien être cette {{color id=\"0\"}}offrande{{color id=\"65535\"}} sacrée ?",
      "EUit": "Una leggenda sulla {{color id=\"0\"}}fonte della forza{{color id=\"65535\"}}\na ovest dello stallaggio di Estakkala recita così:\n\"Offri il {{color id=\"0\"}}tributo divino {{color id=\"65535\"}}alla fonte della forza\".\n\nMa cos'è il {{color id=\"0\"}}tributo divino{{color id=\"65535\"}}?",
      "EUnl": "Je hebt gehoord van een legende die als volgt\nluidt:\n\n\"Schenk het {{color id=\"0\"}}rituele voorwerp{{color id=\"65535\"}} aan het water van\nde {{color id=\"0\"}}Bron der Kracht{{color id=\"65535\"}} ten {{color id=\"0\"}}westen{{color id=\"65535\"}} van de\nOost-Akkala-stal.\"\n\nOver welk {{color id=\"0\"}}ritueel voorwerp{{color id=\"65535\"}} zou het gaan?",
      "EUru": "Я узнал, что к {{color id=\"0\"}}западу {{color id=\"65535\"}}от конюшни\n«Ост-Аккала» находится {{color id=\"0\"}}Источник Силы{{color id=\"65535\"}}.\nКак гласит легенда, в него нужно опустить\nкакую-то {{color id=\"0\"}}реликвию{{color id=\"65535\"}}.\n\nЧто же это за {{color id=\"0\"}}реликвия{{color id=\"65535\"}}?",
      "JPja": "ヒガッカレ{{ruby charSpan=\"2\" value=\"うまやど\"}}馬宿の{{color id=\"0\"}}{{ruby charSpan=\"1\" value=\"にし\"}}西{{color id=\"65535\"}}にある{{color id=\"0\"}}{{ruby charSpan=\"1\" value=\"ちから\"}}力の{{ruby charSpan=\"1\" value=\"いずみ\"}}泉{{color id=\"65535\"}}には\n『{{ruby charSpan=\"1\" value=\"ちから\"}}力の{{ruby charSpan=\"1\" value=\"いずみ\"}}泉に{{ruby charSpan=\"1\" value=\"せい\"}}聖なる{{color id=\"0\"}}{{ruby charSpan=\"2\" value=\"しんぐ\"}}神具{{color id=\"65535\"}}を捧げよ』\nという{{ruby charSpan=\"1\" value=\"い\"}}言い{{ruby charSpan=\"1\" value=\"つた\"}}伝えがあるそうだ\n\n{{ruby charSpan=\"1\" value=\"は\"}}果たして {{ruby charSpan=\"1\" value=\"せい\"}}聖なる{{color id=\"0\"}}{{ruby charSpan=\"2\" value=\"しんぐ\"}}神具{{color id=\"65535\"}}とは{{ruby charSpan=\"1\" value=\"なん\"}}何だろう？",
      "KRko": "동추낙 마구간의 {{color id=\"0\"}}서쪽{{color id=\"65535\"}}에 있는 {{color id=\"0\"}}힘의 샘{{color id=\"65535\"}}에는\n『힘의 샘에 성스러운 {{color id=\"0\"}}신의 도구{{color id=\"65535\"}}를 바쳐라』\n라는 말이 전해져 내려오는 것 같다\n\n과연 성스러운 {{color id=\"0\"}}신의 도구{{color id=\"65535\"}}란 무엇일까?",
      "TWzh": "在東阿卡萊驛站{{color id=\"0\"}}西方{{color id=\"65535\"}}的{{color id=\"0\"}}力量之泉{{color id=\"65535\"}}\n流傳著這樣一個傳說：\n「將神聖的{{color id=\"0\"}}神具{{color id=\"65535\"}}獻給力量之泉吧。」\n\n神聖的{{color id=\"0\"}}神具{{color id=\"65535\"}}究竟是什麼呢？",
      "USen": "You learned of a legend that says to offer a\n{{color id=\"0\"}}sacred relic{{color id=\"65535\"}} to the {{color id=\"0\"}}Spring of Power{{color id=\"65535\"}}, located\nto the {{color id=\"0\"}}west{{color id=\"65535\"}} of East Akkala Stable.\n\nThe legend didn't say what this {{color id=\"0\"}}sacred relic{{color id=\"65535\"}}\nmight be.",
      "USes": "Nobunel, una viajera a la que encontraste\nen el rancho de Akkala este, te habló\nsobre una leyenda. Según sus palabras, \ndebes ofrecer un {{color id=\"0\"}}objeto sagrado{{color id=\"65535\"}} en la\n{{color id=\"0\"}}Fuente del Poder{{color id=\"65535\"}} que se encuentra al\n{{color id=\"0\"}}oeste {{color id=\"65535\"}}del rancho.",
      "USfr": "Il existe un dicton concernant la {{color id=\"0\"}}source de la\nForce{{color id=\"65535\"}}, à l'{{color id=\"0\"}}ouest{{color id=\"65535\"}} du relais de l'est d'Akkala :\n\n« À la source de la Force, présente une\noffrande sacrée. »\n\nQue peut bien être cette {{color id=\"0\"}}offrande{{color id=\"65535\"}} sacrée?"
    }
  },
  {
    "label": "QL_HigakkareMini_RedDragon_Step1",
    "attribute": "",
    "locale": {
      "CNzh": "你找到了{{color id=\"0\"}}力量之泉{{color id=\"65535\"}}，在泉边听到女神的低语。\n“向此力量之泉献上红色精灵\n  {{color id=\"0\"}}奥尔龙的鳞片{{color id=\"65535\"}}。”\n\n{{color id=\"0\"}}神具{{color id=\"65535\"}}是指{{color id=\"0\"}}奥尔龙的鳞片{{color id=\"65535\"}}吗？\n奥尔龙又是什么？",
      "EUde": "Du hast die {{color id=\"0\"}}Quelle der Kraft{{color id=\"65535\"}} gefunden.\nDie Stimme der Göttin sprach diese Worte:\n„Bringe der {{color id=\"2\"}}{{color id=\"0\"}}Quelle der Kraft{{color id=\"2\"}} {{color id=\"65535\"}}eine {{color id=\"0\"}}Schuppe {{color id=\"65535\"}}des\npurpurroten Geistes {{color id=\"0\"}}Eldra {{color id=\"65535\"}}dar.“\n\nDas heilige Fragment ist also wohl eine\n{{color id=\"0\"}}Schuppe von Eldra{{color id=\"65535\"}}... Aber woher kann man\ndiese wohl bekommen?",
      "EUen": "You found the {{color id=\"0\"}}Spring of Power{{color id=\"65535\"}} and heard the\nGoddess's voice: \"Offer {{color id=\"0\"}}Dinraal's scale{{color id=\"65535\"}} received\nfrom the red spirit to the Spring of Power.\"\n\nDoes this mean that the sacred relic is\n{{color id=\"0\"}}Dinraal's scale{{color id=\"65535\"}}? Who or what is Dinraal?",
      "EUes": "Has encontrado la {{color id=\"0\"}}Fuente del Poder{{color id=\"65535\"}} de la\nque te había hablado Nobunel y allí has\nescuchado las palabras de la Diosa:\n«Ofrece la {{color id=\"0\"}}{{wordInfo gender=\"2\" defArticle=\"1\" indefArticle=\"1\" isPlural=\"0\"}}escama de Elden{{color id=\"65535\"}}, el espíritu\nrojo, en la Fuente del Poder».\n\n¡Busca esa {{color id=\"0\"}}escama {{color id=\"65535\"}}y deposítala en las aguas!",
      "EUfr": "Vous avez trouvé la {{color id=\"0\"}}source de la Force{{color id=\"65535\"}} et y\navez entendu la voix de la Déesse :\n\n« Dépose une {{color id=\"0\"}}{{wordInfo gender=\"2\" defArticle=\"4\" indefArticle=\"1\" isPlural=\"0\"}}écaille d'Ordrac{{color id=\"65535\"}}, l'Esprit\nécarlate, dans la source de la Force. »\n\nL'offrande était-elle donc une {{color id=\"0\"}}{{wordInfo gender=\"2\" defArticle=\"4\" indefArticle=\"1\" isPlural=\"0\"}}écaille d'Ordrac{{color id=\"65535\"}} ?\nEt qui peut bien être Ordrac ?",
      "EUit": "Hai trovato la {{color id=\"0\"}}fonte della forza{{color id=\"65535\"}} e hai udito\nuna voce.\n\"Offri alla fonte della forza una\n{{color id=\"0\"}}{{wordInfo gender=\"2\" defArticle=\"2\" indefArticle=\"2\" isPlural=\"0\"}}squama di Oldra{{color id=\"65535\"}}, lo spirito rosso.\"\n\nAllora il tributo divino è la {{color id=\"0\"}}{{wordInfo gender=\"2\" defArticle=\"2\" indefArticle=\"2\" isPlural=\"0\"}}squama di Oldra{{color id=\"65535\"}}?\nE adesso... chi è Oldra?",
      "EUnl": "Je hebt de {{color id=\"0\"}}Bron der Kracht{{color id=\"65535\"}} gevonden. Eenmaal\naangekomen hoorde je de stem van de godin:\n\n\"Schenk {{color id=\"0\"}}Dinraals schub{{color id=\"65535\"}} aan het water van de\n{{color id=\"0\"}}Bron der Kracht{{color id=\"65535\"}}.\"\n\nZou dat betekenen dat {{color id=\"0\"}}Dinraals schub{{color id=\"65535\"}} het\nrituele voorwerp is? En wie is Dinraal eigenlijk?",
      "EUru": "На {{color id=\"0\"}}Источнике Силы{{color id=\"65535\"}} ко мне обратилась\nБогиня: «Опусти {{color id=\"0\"}}чешуйку Динраля{{color id=\"65535\"}}\nв Источник Силы».\n\nВидимо, {{color id=\"0\"}}реликвия {{color id=\"65535\"}}— это {{color id=\"0\"}}чешуйка Динраля{{color id=\"65535\"}}.\nНадо выяснить, кто такой Динраль.",
      "JPja": "{{color id=\"0\"}}{{ruby charSpan=\"1\" value=\"ちから\"}}力の{{ruby charSpan=\"1\" value=\"いずみ\"}}泉{{color id=\"65535\"}}を{{ruby charSpan=\"1\" value=\"み\"}}見つけ そこで{{ruby charSpan=\"3\" value=\"めがみさま\"}}女神様の{{ruby charSpan=\"1\" value=\"こえ\"}}声を{{ruby charSpan=\"1\" value=\"き\"}}聞いた\n『この{{ruby charSpan=\"1\" value=\"ちから\"}}力の{{ruby charSpan=\"1\" value=\"いずみ\"}}泉に {{ruby charSpan=\"1\" value=\"あか\"}}赤き{{ruby charSpan=\"2\" value=\"せいれい\"}}精霊\n{{color id=\"0\"}}オルドラのウロコ{{color id=\"65535\"}}を{{ruby charSpan=\"1\" value=\"ささ\"}}捧げなさい』\n\n{{color id=\"0\"}}{{ruby charSpan=\"2\" value=\"しんぐ\"}}神具{{color id=\"65535\"}}とは{{color id=\"0\"}}オルドラのウロコ{{color id=\"65535\"}}の{{ruby charSpan=\"1\" value=\"こと\"}}事だろうか？\nそして オルドラとは？",
      "KRko": "{{color id=\"0\"}}힘의 샘{{color id=\"65535\"}}을 찾아 그곳에서 여신님의 목소리를 들었다\n『이 힘의 샘에 붉은 정령\n{{color id=\"0\"}}올드래곤의 비늘{{color id=\"65535\"}}을 바치세요』\n\n{{color id=\"0\"}}신의 도구{{color id=\"65535\"}}란 {{color id=\"0\"}}올드래곤의 비늘{{color id=\"65535\"}}을 말하는 것일까?\n그리고 올드래곤이란?",
      "TWzh": "你找到了{{color id=\"0\"}}力量之泉{{color id=\"65535\"}}，在那裡聽見了女神的聲音。\n「向此力量之泉獻上\n紅色精靈{{color id=\"0\"}}奧爾龍的鱗片{{color id=\"65535\"}}。」\n\n{{color id=\"0\"}}神具{{color id=\"65535\"}}是指{{color id=\"0\"}}奧爾龍的鱗片{{color id=\"65535\"}}嗎？\n奧爾龍又是什麼？\n",
      "USen": "You found the {{color id=\"0\"}}Spring of Power{{color id=\"65535\"}} and heard the\nGoddess's voice: \"Offer {{color id=\"0\"}}Dinraal's scale{{color id=\"65535\"}} received\nfrom the red spirit to the Spring of Power.\"\n\nDoes this mean that the sacred relic is\n{{color id=\"0\"}}Dinraal's scale{{color id=\"65535\"}}? Who or what is Dinraal?",
      "USes": "Has encontrado la {{color id=\"0\"}}Fuente del Poder{{color id=\"65535\"}} de la\nque te había hablado Nobunel y allí has\nescuchado las palabras de la Diosa:\n\"Ofrece la {{color id=\"0\"}}{{wordInfo gender=\"2\" defArticle=\"1\" indefArticle=\"1\" isPlural=\"0\"}}escama de Eldra{{color id=\"65535\"}}, el espíritu\nrojo, en la Fuente del Poder\".\n\n¡Busca esa {{color id=\"0\"}}escama {{color id=\"65535\"}}y deposítala en el agua!",
      "USfr": "Vous avez trouvé la {{color id=\"0\"}}source de la Force{{color id=\"65535\"}} et y\navez entendu la voix de la Déesse :\n\n« Dépose une {{color id=\"0\"}}{{wordInfo gender=\"2\" defArticle=\"4\" indefArticle=\"1\" isPlural=\"0\"}}écaille d'Ordrac{{color id=\"65535\"}}, l'Esprit\nécarlate, dans la source de la Force. »\n\nL'offrande était-elle donc une {{color id=\"0\"}}{{wordInfo gender=\"2\" defArticle=\"4\" indefArticle=\"1\" isPlural=\"0\"}}écaille d'Ordrac{{color id=\"65535\"}}?\nEt que peut bien être Ordrac?"
    }
  },
  {
    "label": "QL_HigakkareMini_RedDragon_Finish",
    "attribute": "",
    "locale": {
      "CNzh": "“向此力量之泉献上红色精灵\n  奥尔龙的鳞片。”\n\n遵照女神像之言，\n将奥尔龙的鳞片漂浮在力量之泉上，\n古代神庙出现在你的眼前。\n\n神圣的神具好像就是指奥尔龙的鳞片。",
      "EUde": "„Bringe der Quelle der Kraft eine Schuppe des\npurpurroten Geistes Eldra dar.“\n\nAls du den Worten der Göttin gemäß Eldras\nSchuppe in die Quelle der Kraft geworfen\nhast, ist ein antiker Schrein erschienen.",
      "EUen": "\"Offer Dinraal's scale received from the red spirit\nto the Spring of Power.\"\n\nWhen you carried out the statue's suggestion\nand dropped Dinraal's scale into the\nSpring of Power, an ancient shrine\nrevealed itself.\n\nSo the sacred relic was indeed Dinraal's scale...",
      "EUes": "Has arrojado la {{wordInfo gender=\"2\" defArticle=\"1\" indefArticle=\"1\" isPlural=\"0\"}}escama de Elden a las aguas\nde la fuente, siguiendo las indicaciones de\nla Diosa. Al hacerlo, ha aparecido\nun santuario ancestral.\n\nParece que al fin has averiguado cuál\nera el objeto sagrado del que hablaba\nla leyenda.",
      "EUfr": "« Dépose une {{wordInfo gender=\"2\" defArticle=\"4\" indefArticle=\"1\" isPlural=\"0\"}}écaille d'Ordrac, l'Esprit\nécarlate, dans la source de la Force. »\n\nConformément aux instructions de la statue\nde la Déesse, vous avez fait flotter une écaille\nd'Ordrac dans la source de la Force et un\nsanctuaire antique est apparu.\nIl semble que l'offrande sacrée était une écaille\nd'Ordrac.",
      "EUit": "\"Offri alla fonte della forza una\n{{wordInfo gender=\"2\" defArticle=\"2\" indefArticle=\"2\" isPlural=\"0\"}}squama di Oldra, lo spirito rosso.\"\n\nHai eseguito gli ordini, offrendo una\n{{wordInfo gender=\"2\" defArticle=\"2\" indefArticle=\"2\" isPlural=\"0\"}}squama di Oldra alla fonte della forza.\nCosì è apparso un sacrario ancestrale.\n\nIl tributo divino era la {{wordInfo gender=\"2\" defArticle=\"2\" indefArticle=\"2\" isPlural=\"0\"}}squama di Oldra.",
      "EUnl": "\"Schenk Dinraals schub aan het water van de\nBron der Kracht.\"\n\nToen je Dinraals schub in de Bron der Kracht\nwierp, verscheen er een Tempel.\n\nHet rituele voorwerp bleek inderdaad\nDinraals schub te zijn.",
      "EUru": "Богиня велела мне «опустить чешуйку\nДинраля в Источник Силы». Когда я это\nсделал, появилось древнее святилище.\n\nЗначит, чешуйка Динраля действительно\nреликвия, о которой говорится в легенде.",
      "JPja": "『この{{ruby charSpan=\"1\" value=\"ちから\"}}力の{{ruby charSpan=\"1\" value=\"いずみ\"}}泉に {{ruby charSpan=\"1\" value=\"あか\"}}赤き{{ruby charSpan=\"2\" value=\"せいれい\"}}精霊\nオルドラのウロコを{{ruby charSpan=\"1\" value=\"ささ\"}}捧げなさい』\n\n女神{{ruby charSpan=\"1\" value=\"ぞう\"}}像の{{ruby charSpan=\"2\" value=\"ことば\"}}言葉に従い\n{{ruby charSpan=\"1\" value=\"ちから\"}}力の{{ruby charSpan=\"1\" value=\"いずみ\"}}泉にオルドラのウロコを{{ruby charSpan=\"1\" value=\"う\"}}浮かべると\n{{ruby charSpan=\"2\" value=\"こだい\"}}古代の{{ruby charSpan=\"1\" value=\"ほこら\"}}祠が{{ruby charSpan=\"1\" value=\"あらわ\"}}現れた\n\n{{ruby charSpan=\"1\" value=\"せい\"}}聖なる{{ruby charSpan=\"2\" value=\"しんぐ\"}}神具とは オルドラのウロコの{{ruby charSpan=\"1\" value=\"こと\"}}事だったようだ",
      "KRko": "『이 힘의 샘에 붉은 정령\n올드래곤의 비늘을 바치세요』\n\n여신상의 말에 따라\n힘의 샘에 올드래곤의 비늘을 띄우니\n고대의 사당이 나타났다\n\n성스러운 신의 도구란 올드래곤의 비늘이었던 모양이다",
      "TWzh": "「向此力量之泉獻上\n紅色精靈奧爾龍的鱗片。」\n\n你遵照女神之言，將奧爾龍的鱗片\n放在力量之泉的水面上，\n古代神廟就出現了。\n\n神聖的神具好像是指奧爾龍的鱗片。\n\n",
      "USen": "\"Offer Dinraal's scale received from the red spirit\nto the Spring of Power.\"\n\nWhen you carried out the statue's suggestion\nand dropped Dinraal's scale into the\nSpring of Power, an ancient shrine\nrevealed itself.\n\nSo the sacred relic was indeed Dinraal's scale...",
      "USes": "El objeto sagrado resultó ser\nuna {{wordInfo gender=\"2\" defArticle=\"1\" indefArticle=\"1\" isPlural=\"0\"}}escama de Eldra.\n\nTras arrojarla a las aguas de la fuente,\napareció un santuario ancestral.",
      "USfr": "« Dépose une {{wordInfo gender=\"2\" defArticle=\"4\" indefArticle=\"1\" isPlural=\"0\"}}écaille d'Ordrac, l'Esprit\nécarlate, dans la source de la Force. »\n\nConformément aux instructions de la statue\nde la Déesse, vous avez fait flotter une écaille\nd'Ordrac dans la source de la Force et un\nsanctuaire antique est apparu.\nIl semble que l'offrande sacrée était une écaille\nd'Ordrac."
    }
  }
]