[
  {
    "label": "QL_Kakariko_Ch_Cooking2_Name",
    "attribute": "",
    "locale": {
      "CNzh": "珂珂娜的厨房２",
      "EUde": "Kokos Küche 2",
      "EUen": "Cooking with Koko",
      "EUes": "Las recetas de Koko 2",
      "EUfr": "Les recettes de Coconoa 2",
      "EUit": "La cucina di Coco 2",
      "EUnl": "Koken met Koko 2",
      "EUru": "«Кухня Коко 2»",
      "JPja": "ココナ′ｓ キッチン２",
      "KRko": "코코나의 키친２",
      "TWzh": "珂珂娜的廚房２",
      "USen": "Cooking with Koko",
      "USes": "Las recetas de Koko 2",
      "USfr": "Les recettes de Coconoa 2"
    }
  },
  {
    "label": "QL_Kakariko_Ch_Cooking2_Desc",
    "attribute": "",
    "locale": {
      "CNzh": "珂珂娜干劲十足地拿起锅子\n正准备做黄油苹果，\n却发现她忘记买材料{{color id=\"0\"}}山羊黄油{{color id=\"65535\"}}，\n不知怎么办才好。\n\n如果有{{color id=\"0\"}}山羊黄油{{color id=\"65535\"}}就好了……",
      "EUde": "Koko wollte {{wordInfo gender=\"1\" defArticle=\"0\" indefArticle=\"0\" isPlural=\"0\"}}Butterapfel machen, aber sie hat\nvergessen, {{color id=\"0\"}}{{wordInfo gender=\"2\" defArticle=\"4\" indefArticle=\"4\" isPlural=\"0\"}}Ziegenbutter{{color id=\"65535\"}} zu kaufen. Wenn ihr\nnur irgendwer {{color id=\"0\"}}{{wordInfo gender=\"2\" defArticle=\"4\" indefArticle=\"4\" isPlural=\"0\"}}Ziegenbutter{{color id=\"65535\"}} besorgen würde...",
      "EUen": "Koko heated up the pot in an attempt to make\nhot buttered apples, but the lack of {{color id=\"0\"}}goat butter{{color id=\"65535\"}}\nhad her stymied.",
      "EUes": "Koko estaba muy entusiasmada por probar\nla receta de manzanas a la mantequilla, pero\nsin {{color id=\"0\"}}{{wordInfo gender=\"2\" defArticle=\"1\" indefArticle=\"1\" isPlural=\"0\"}}manteca de cabra{{color id=\"65535\"}} no puede cocinarlas.",
      "EUfr": "Coconoa était résolument décidée à faire des\npommes au four, mais elle a oublié d'acheter\nun des ingrédients : une {{color id=\"0\"}}{{wordInfo gender=\"2\" defArticle=\"1\" indefArticle=\"1\" isPlural=\"0\"}}motte de beurre{{color id=\"65535\"}}. La\npauvre malheureuse a l'air déboussolée. Si\nseulement vous aviez une {{color id=\"0\"}}{{wordInfo gender=\"2\" defArticle=\"1\" indefArticle=\"1\" isPlural=\"0\"}}motte de beurre{{color id=\"65535\"}}...",
      "EUit": "Coco affronta la prossima sfida culinaria\ncon grande entusiasmo: il piatto previsto\ndal menu è la mela al burro!\nPurtroppo, però, non ha del {{color id=\"0\"}}{{wordInfo gender=\"1\" defArticle=\"0\" indefArticle=\"7\" isPlural=\"0\"}}burro di capra{{color id=\"65535\"}}\ne non sa come procurarselo.\n\nOh, se solo qualcuno fosse così gentile\nda darle del {{color id=\"0\"}}{{wordInfo gender=\"1\" defArticle=\"0\" indefArticle=\"7\" isPlural=\"0\"}}burro di capra{{color id=\"65535\"}}...",
      "EUnl": "Koko wilde net boterappels maken, maar ze\nheeft geen {{color id=\"0\"}}geitenboter{{color id=\"65535\"}} en nu is ze radeloos.\n\nBracht iemand haar nu maar {{color id=\"0\"}}geitenboter{{color id=\"65535\"}}...",
      "EUru": "Коко собралась приготовить яблоко\nв масле, но вспомнила, что не купила\n{{color id=\"0\"}}козье масло{{color id=\"65535\"}}, и ужасно расстроилась.\nВот если бы кто-нибудь принес ей это\nмасло...",
      "JPja": "リンゴバターを{{ruby charSpan=\"1\" value=\"つく\"}}作ろうと\n{{ruby charSpan=\"4\" value=\"いきようよう\"}}意気揚々と{{ruby charSpan=\"1\" value=\"なべ\"}}鍋に{{ruby charSpan=\"1\" value=\"む\"}}向かったココナだが\n材料の{{color id=\"0\"}}ヤギのバター{{color id=\"65535\"}}を買い忘れ\n途方に暮れているようだ\n\n{{color id=\"0\"}}ヤギのバター{{color id=\"65535\"}}さえあれば…",
      "KRko": "버터 바른 사과를 만들겠다며\n의기양양하게 냄비로 향한 코코나였지만\n재료인 {{color id=\"0\"}}염소 버터{{color id=\"65535\"}}의 구입을 깜빡해\n망연자실한 모양이다\n\n{{color id=\"0\"}}염소 버터{{color id=\"65535\"}}만 있다면…",
      "TWzh": "珂珂娜充滿幹勁地拿起鍋子，\n正準備做奶油蘋果。\n卻發現自己忘了買材料{{color id=\"0\"}}山羊奶油{{color id=\"65535\"}}，\n正愁不知道怎麼辦才好。\n\n如果有{{color id=\"0\"}}山羊奶油{{color id=\"65535\"}}就好了……\n",
      "USen": "Koko heated up the pot in an attempt to make\nhot buttered apples, but the lack of {{color id=\"0\"}}goat butter{{color id=\"65535\"}}\nhad her stymied.",
      "USes": "Koko estaba muy entusiasmada por probar\nla receta de manzanas a la mantequilla,\npero sin {{color id=\"0\"}}{{wordInfo gender=\"2\" defArticle=\"1\" indefArticle=\"1\" isPlural=\"0\"}}mantequilla de cabra{{color id=\"65535\"}} no puede\ncocinarlas.",
      "USfr": "Coconoa était résolument décidée à faire des\npommes au four, mais elle a oublié d'acheter\nun des ingrédients : une {{color id=\"0\"}}{{wordInfo gender=\"2\" defArticle=\"1\" indefArticle=\"1\" isPlural=\"0\"}}motte de beurre{{color id=\"65535\"}}. La\npauvre malheureuse a l'air déboussolée. Si\nseulement vous aviez une {{color id=\"0\"}}{{wordInfo gender=\"2\" defArticle=\"1\" indefArticle=\"1\" isPlural=\"0\"}}motte de beurre{{color id=\"65535\"}}..."
    }
  },
  {
    "label": "QL_Kakariko_Ch_Cooking2_Finish",
    "attribute": "",
    "locale": {
      "CNzh": "珂珂娜干劲十足地拿起锅子\n正准备做黄油苹果，\n却发现她忘记买材料山羊黄油，\n不知怎么办才好。\n你将山羊黄油交给她，\n黄油苹果大功告成！\n珂珂娜脸上恢复了笑容。\n{{color id=\"0\"}}/////食谱备忘/////{{color id=\"65535\"}}\n苹果、山羊黄油",
      "EUde": "Koko wollte {{wordInfo gender=\"1\" defArticle=\"0\" indefArticle=\"0\" isPlural=\"0\"}}Butterapfel machen, aber hatte\nvergessen, {{wordInfo gender=\"2\" defArticle=\"4\" indefArticle=\"4\" isPlural=\"0\"}}Ziegenbutter zu kaufen. Dank deiner\n{{wordInfo gender=\"2\" defArticle=\"4\" indefArticle=\"4\" isPlural=\"0\"}}Ziegenbutter konnte sie das Gericht vollenden.\n\n{{color id=\"0\"}}Zutaten „Butterapfel“{{color id=\"65535\"}}\n{{wordInfo gender=\"1\" defArticle=\"0\" indefArticle=\"0\" isPlural=\"0\"}}Apfel, {{wordInfo gender=\"2\" defArticle=\"4\" indefArticle=\"4\" isPlural=\"0\"}}Ziegenbutter",
      "EUen": "Koko heated up the pot in an attempt to make\nhot buttered apples, but the lack of goat butter\nhad her stymied.\nYou provided some goat butter, and the dish\nwas saved.\n\n　　\t{{color id=\"0\"}}/////Koko's Recipe Corner/////{{color id=\"65535\"}}\nOne bushel of hot buttered apples:\n\nCoat apples evenly in goat butter and apply\nheat so it forms a nice, thick glaze.",
      "EUes": "Koko se ha puesto muy contenta cuando\nle has dado la {{wordInfo gender=\"2\" defArticle=\"1\" indefArticle=\"1\" isPlural=\"0\"}}manteca de cabra. Por fin ha\npodido cocinar las manzanas a la mantequilla\nde su madre, ¡y le han salido fenomenal!\n\n{{color id=\"0\"}}Ingredientes para la receta:{{color id=\"65535\"}}\n{{wordInfo gender=\"2\" defArticle=\"1\" indefArticle=\"1\" isPlural=\"0\"}}Manzana\n{{wordInfo gender=\"2\" defArticle=\"1\" indefArticle=\"1\" isPlural=\"0\"}}Manteca de cabra",
      "EUfr": "Coconoa était résolument décidée à faire des\npommes au four, mais elle avait oublié d'acheter\nune {{wordInfo gender=\"2\" defArticle=\"1\" indefArticle=\"1\" isPlural=\"0\"}}motte de beurre. La pauvre malheureuse\nétait déboussolée. Heureusement, vous lui en\navez apporté une, et elle a enfin pu cuisiner\nson plat, retrouvant ainsi le sourire !\n\n　　　　{{color id=\"0\"}}Ingrédients pour la recette :{{color id=\"65535\"}}\n{{wordInfo gender=\"2\" defArticle=\"1\" indefArticle=\"1\" isPlural=\"0\"}}pomme et {{wordInfo gender=\"2\" defArticle=\"1\" indefArticle=\"1\" isPlural=\"0\"}}motte de beurre.",
      "EUit": "Coco voleva cimentarsi nella preparazione\ndella mela al burro, ma era senza {{wordInfo gender=\"1\" defArticle=\"0\" indefArticle=\"7\" isPlural=\"0\"}}burro di capra\ne non sapeva come fare. Quando le hai dato\ndel {{wordInfo gender=\"1\" defArticle=\"0\" indefArticle=\"7\" isPlural=\"0\"}}burro di capra, ha preparato un'ottima\nmela al burro anche per te.\n\n\t    {{color id=\"0\"}}Ingredienti{{color id=\"65535\"}}\n{{wordInfo gender=\"2\" defArticle=\"2\" indefArticle=\"2\" isPlural=\"0\"}}Mela, {{wordInfo gender=\"1\" defArticle=\"0\" indefArticle=\"7\" isPlural=\"0\"}}burro di capra.",
      "EUnl": "Koko wilde net boterappels maken, maar ze\nhad geen geitenboter en was radeloos.\nToen je haar geitenboter gaf, kon ze eindelijk\nboterappels maken.\n\n{{color id=\"0\"}}Ingrediënten{{color id=\"65535\"}}:\nappels, geitenboter.",
      "EUru": "Коко собралась приготовить яблоко\nв масле, но вспомнила, что не купила\nкозье масло и ужасно расстроилась.\nКогда я принес ей его, она приготовила\nвкуснейшее яблоко в масле.\n\n{{color id=\"0\"}}Состав блюда:{{color id=\"65535\"}} яблоко, козье масло.",
      "JPja": "リンゴバターを{{ruby charSpan=\"1\" value=\"つく\"}}作ろうと\n{{ruby charSpan=\"4\" value=\"いきようよう\"}}意気揚々と{{ruby charSpan=\"1\" value=\"なべ\"}}鍋に{{ruby charSpan=\"1\" value=\"む\"}}向かったココナだが\n材料のヤギのバターを買い忘れ途方に暮れていた\nヤギのバターを{{ruby charSpan=\"1\" value=\"わた\"}}渡してあげると\n{{ruby charSpan=\"2\" value=\"ぶじ\"}}無事 リンゴバターが{{ruby charSpan=\"2\" value=\"かんせい\"}}完成！\nココナの{{ruby charSpan=\"1\" value=\"かお\"}}顔に{{ruby charSpan=\"2\" value=\"えがお\"}}笑顔が{{ruby charSpan=\"1\" value=\"もど\"}}戻った\n{{color id=\"0\"}}/////レシピメモ/////{{color id=\"65535\"}}\nリンゴ   ヤギのバター",
      "KRko": "버터 바른 사과를 만들겠다며\n의기양양하게 냄비로 향한 코코나였지만\n재료인 염소 버터의 구입을 깜빡해 망연자실해 있었다\n염소 버터를 건네주었더니\n무사히 버터 바른 사과가 완성!\n코코나의 얼굴에 미소가 돌아왔다\n{{color id=\"0\"}}/////조리법 메모/////{{color id=\"65535\"}}\n사과   염소 버터",
      "TWzh": "珂珂娜本來充滿幹勁地拿起鍋子，\n正準備做奶油蘋果。\n卻發現自己忘了買材料山羊奶油，\n正愁不知道怎麼辦才好。\n你將山羊奶油交給她，終於做出了奶油蘋果。\n珂珂娜的臉上恢復了笑容。\n{{color id=\"0\"}}/////食譜備忘錄/////{{color id=\"65535\"}}\n蘋果、山羊奶油",
      "USen": "Koko heated up the pot in an attempt to make\nhot buttered apples, but the lack of goat butter\nhad her stymied.\nYou provided some goat butter, and the dish\nwas saved.\n\n　　\t{{color id=\"0\"}}/////Koko's Recipe Corner/////{{color id=\"65535\"}}\nOne bushel of hot buttered apples:\n\nCoat apples evenly in goat butter and apply\nheat so it forms a nice, thick glaze.",
      "USes": "Koko se puso muy contenta cuando le\ndiste la {{wordInfo gender=\"2\" defArticle=\"1\" indefArticle=\"1\" isPlural=\"0\"}}mantequilla de cabra. Por fin pudo\ncocinar las manzanas a la mantequilla\nde su madre, ¡y le salieron deliciosas!\n\n{{color id=\"0\"}}Ingredientes para la receta:{{color id=\"65535\"}}\n{{wordInfo gender=\"2\" defArticle=\"1\" indefArticle=\"1\" isPlural=\"0\"}}Manzana\n{{wordInfo gender=\"2\" defArticle=\"1\" indefArticle=\"1\" isPlural=\"0\"}}Mantequilla de cabra",
      "USfr": "Coconoa était résolument décidée à faire des\npommes au four, mais elle avait oublié d'acheter\nune {{wordInfo gender=\"2\" defArticle=\"1\" indefArticle=\"1\" isPlural=\"0\"}}motte de beurre. La pauvre malheureuse\nétait déboussolée. Heureusement, vous lui en\navez apporté une, et elle a enfin pu cuisiner\nson plat, retrouvant ainsi le sourire!\n\n　　　　{{color id=\"0\"}}Ingrédients pour la recette :{{color id=\"65535\"}}\n{{wordInfo gender=\"2\" defArticle=\"1\" indefArticle=\"1\" isPlural=\"0\"}}pomme et {{wordInfo gender=\"2\" defArticle=\"1\" indefArticle=\"1\" isPlural=\"0\"}}motte de beurre."
    }
  }
]