[
  {
    "label": "QL_TreasureHunt01_Name",
    "attribute": "",
    "locale": {
      "CNzh": "Ex 奇妙的面具谣传",
      "EUde": "EX: Die seltsame Maske",
      "EUen": "EX Strange Mask Rumors",
      "EUes": "Extra: La máscara singular",
      "EUfr": "EX Un drôle de masque",
      "EUit": "Una strana maschera (EX)",
      "EUnl": "Mysterieus masker EX",
      "EUru": "«EX Загадочная маска»",
      "JPja": "Ｅｘ 奇妙なお面のウワサ",
      "KRko": "Ex 기묘한 가면의 소문",
      "TWzh": "Ex 奇妙的面具謠傳",
      "USen": "EX Strange Mask Rumors",
      "USes": "La máscara misteriosa",
      "USfr": "EX Un drôle de masque"
    }
  },
  {
    "label": "QL_TreasureHunt01_Desc",
    "attribute": "",
    "locale": {
      "CNzh": "据说有一种道具名为克洛格的面具，\n会告诉你隐藏在附近的克洛格。\n\n记载有这个传闻的\n《传闻中的三叶 Ex增刊号》\n好像摆放在{{color id=\"0\"}}森林驿站{{color id=\"65535\"}}中。",
      "EUde": "Man munkelt von einer Krog-Maske, die ihrem\nTräger verrät, wenn sich Krogs in der Nähe\naufhalten.\n\nAm {{color id=\"0\"}}Stall des Waldes{{color id=\"65535\"}} soll es eine Extra-Ausgabe\nvon „Kletis' Gerüchteküche“ mit Gerüchten zu\ndiesem Gegenstand geben.",
      "EUen": "Rumor has it there's an item called the\nKorok Mask that has the power to alert its\nwearer when a Korok is hiding nearby.\n\nApparently the {{color id=\"0\"}}Woodland Stable{{color id=\"65535\"}} has a copy of\nSuper Rumor Mill EX, which details some rumors\nabout this rare mask.",
      "EUes": "Según ciertos rumores, existe una\n{{wordInfo gender=\"2\" defArticle=\"1\" indefArticle=\"1\" isPlural=\"0\"}}máscara de kolog que alerta a su portador\nsi algún kolog se oculta cerca de él.\n\nEn la {{color id=\"0\"}}posta del bosque{{color id=\"65535\"}} se encuentra\nun libro de cotilleos jugosos de Mirene\ncon más información al respecto.",
      "EUfr": "La rumeur prétend qu'il existe un objet appelé\n{{wordInfo gender=\"1\" defArticle=\"0\" indefArticle=\"0\" isPlural=\"0\"}}masque de Korogu capable de révéler à son\nporteur la présence de Korogus cachés à\nproximité.\n\nIl semble que l'édition spéciale EX de\n« Bourgette sait tout », consultable au\n{{color id=\"0\"}}relais de la forêt{{color id=\"65535\"}}, contienne des détails\nsur le sujet.",
      "EUit": "Si narra dell'esistenza di un oggetto, chiamato\nmaschera Korogu, che avrebbe il potere\ndi allertare chi lo indossa se nelle vicinanze\nsi nasconde un Korogu.\n\nPare che allo {{color id=\"0\"}}stallaggio del bosco{{color id=\"65535\"}} ci sia una\ncopia dell'edizione speciale di \"Trifoglia sa\ntutto\", all'interno della quale sarebbero\ncontenute informazioni su questa maschera.",
      "EUnl": "Volgens de geruchten bestaat er een\nKorok-masker dat de drager waarschuwt als er\neen Korok in de buurt is.\n\nIn de {{color id=\"0\"}}woudstal{{color id=\"65535\"}} schijnt een exemplaar van\nTraysi's Tamtam Extra te liggen. Daar staat\nmisschien meer informatie in over het masker.",
      "EUru": "По слухам, существует некая маска\nкорока, которая позволяет понять,\nчто рядом прячется корок.\n\nКажется, {{color id=\"0\"}}в конюшне «Лесная»{{color id=\"65535\"}} лежит\nжурнал «Слухи Хайрула EX» — в нем-то\nи упоминается эта редкая маска.",
      "JPja": "{{ruby charSpan=\"1\" value=\"かく\"}}隠れコログが{{ruby charSpan=\"1\" value=\"ちか\"}}近くにいると{{ruby charSpan=\"1\" value=\"おし\"}}教えてくれる\nコログのお{{ruby charSpan=\"1\" value=\"めん\"}}面 というものがあるらしい\n\n{{color id=\"0\"}}{{ruby charSpan=\"1\" value=\"もり\"}}森の{{ruby charSpan=\"2\" value=\"うまやど\"}}馬宿{{color id=\"65535\"}}に そのウワサが{{ruby charSpan=\"1\" value=\"か\"}}書かれた\n「ウワサのミツバちゃん Ex{{ruby charSpan=\"3\" value=\"ぞうかんごう\"}}増刊号」が\n{{ruby charSpan=\"1\" value=\"お\"}}置かれているそうだ",
      "KRko": "숨겨진 코로그가 근처에 있으면 알려주는\n코로그의 가면이라는 것이 있는 모양이다\n\n{{color id=\"0\"}}숲의 마구간{{color id=\"65535\"}}에 그것에 관한 소문이 적힌\n「세나의 뜬소문 Ex 증간」이 놓여 있다고 한다",
      "TWzh": "據說有一種名叫「克洛格的面具」的道具，\n如果附近藏有克洛格，它就會告訴你。\n\n記載這個傳聞的\n「傳聞中的三葉 Ex增刊號」\n似乎就放在{{color id=\"0\"}}森林驛站{{color id=\"65535\"}}裡。",
      "USen": "Rumor has it there's an item called the\nKorok Mask that has the power to alert its\nwearer when a Korok is hiding nearby.\n\nApparently the {{color id=\"0\"}}Woodland Stable{{color id=\"65535\"}} has a copy of\nSuper Rumor Mill EX, which details some rumors\nabout this rare mask.",
      "USes": "Según ciertos rumores, existe una\n{{wordInfo gender=\"2\" defArticle=\"1\" indefArticle=\"1\" isPlural=\"0\"}}máscara de kolog que alerta a su portador\nsi algún kolog se oculta en sus inmediaciones.\n\nEn el {{color id=\"0\"}}rancho del bosque{{color id=\"65535\"}} se encuentra\nun libro de chismes jugosos de Mirene\ncon más información al respecto.",
      "USfr": "La rumeur prétend qu'il existe un objet appelé\n{{wordInfo gender=\"1\" defArticle=\"0\" indefArticle=\"0\" isPlural=\"0\"}}masque de Korogu capable de révéler à son\nporteur la présence de Korogus cachés à\nproximité.\n\nIl semble que l'édition spéciale EX de\n« Bourgette sait tout », consultable au\n{{color id=\"0\"}}relais de la forêt{{color id=\"65535\"}}, contienne des détails\nsur le sujet."
    }
  },
  {
    "label": "QL_TreasureHunt01_Step01",
    "attribute": "",
    "locale": {
      "CNzh": "你阅读了传闻中的三叶 Ex增刊号Vol.1。\n据书中记载，有一种寄宿着灵魂的道具，\n名为克洛格的面具。\n\n据说放有克洛格的面具的宝箱藏在\n{{color id=\"0\"}}蛊惑前进者的森林里的可怕树洞中{{color id=\"65535\"}}。\n找到那座森林，寻找宝箱吧！\n好像也有某种便捷的寻找方法……",
      "EUde": "In der Extra-Ausgabe Nr. 1 von „Kletis'\nGerüchteküche“ hast du gelesen, dass es\neine {{wordInfo gender=\"2\" defArticle=\"1\" indefArticle=\"1\" isPlural=\"0\"}}Krog-Maske geben soll, die ein Eigenleben\nentwickelt hat.\n\nSie soll {{color id=\"0\"}}im Schlund eines Furcht einflößenden\nBaums in einem Wald{{color id=\"65535\"}} versteckt sein, {{color id=\"0\"}}der alle\nBesucher in die Irre führt{{color id=\"65535\"}}. Angeblich gibt es eine\neinfache Methode, sie zu finden...",
      "EUen": "You read Super Rumor Mill EX: Volume 1!\nAccording to this special issue, there are\nrumors of an item called the Korok Mask\nthat has been inhabited by a friendly spirit.\n\nThe treasure chest containing the Korok Mask\nis hidden {{color id=\"0\"}}in the hollow of a terrifying tree in a\nforest that causes those who enter to lose their\nway{{color id=\"65535\"}}. Find that forest and locate the treasure\nchest! It also seems there's a convenient way\nto search for it...",
      "EUes": "Según el libro de cotilleos jugosos, existe\nuna {{wordInfo gender=\"2\" defArticle=\"1\" indefArticle=\"1\" isPlural=\"0\"}}máscara de kolog en cuyo interior\nhabita un espíritu.\n\nAl parecer, se encuentra dentro de un cofre\nen {{color id=\"0\"}}el tronco de un árbol del bosque donde\ntodo aquel que entra se pierde{{color id=\"65535\"}}. Según el libro,\nexiste un modo de dar con el cofre...",
      "EUfr": "L'édition spéciale EX de « Bourgette sait tout »\nconfirme la rumeur : il existerait un objet, appelé\n{{wordInfo gender=\"1\" defArticle=\"0\" indefArticle=\"0\" isPlural=\"0\"}}masque de Korogu, habité par un esprit.\n\nCet objet reposerait {{color id=\"0\"}}dans une forêt où les\nvoyageurs perdent souvent leur chemin, dans\nun coffre dissimulé dans le creux d'un vieil arbre\nterrifiant{{color id=\"65535\"}}.\n\nIl semble qu'il existe une méthode bien pratique\npour localiser le coffre...",
      "EUit": "Leggendo il primo volume dell'edizione speciale\ndi \"Trifoglia sa tutto\", hai appreso dell'esistenza\ndella maschera Korogu, posseduta da uno\nspirito.\n\nLa maschera è contenuta in uno scrigno\nnascosto {{color id=\"0\"}}nell'incavo di un terrificante albero,\nnel cuore di un bosco in cui ogni avventuriero\nsmarrisce la via{{color id=\"65535\"}}. Trova questo luogo e cerca\nlo scrigno! Pare esista un modo molto pratico\ndi cercarlo... ",
      "EUnl": "Je hebt het eerste nummer van Traysi's Tamtam\nExtra gelezen. Er stond een gerucht in over een\nKorok-masker waar een geest in woont.\n\nDe schatkist met het Korok-masker is verstopt\n{{color id=\"0\"}}in een enge, holle boom in een verwarrend bos{{color id=\"65535\"}}.\nGa op zoek naar het bos en de schatkist. Er\nschijnt ook een eenvoudige manier te zijn om\nte zoeken...",
      "EUru": "Я прочитал первый выпуск журнала\n«Слухи Хайрула EX» и узнал, что внутри\nмаски корока живет дух.\n\nСундук с маской спрятан {{color id=\"0\"}}в лесу, где\nпостоянно теряются люди{{color id=\"65535\"}}. Возможно,\nон лежит {{color id=\"0\"}}в дупле одного из деревьев{{color id=\"65535\"}}.\nПожалуй, стоит поискать этот сундук.\nНадо только придумать, как облегчить\nпоиски.",
      "JPja": "ウワサのミツバちゃん Ex{{ruby charSpan=\"3\" value=\"ぞうかんごう\"}}増刊号Vol.1を{{ruby charSpan=\"1\" value=\"よ\"}}読んだ\n{{ruby charSpan=\"1\" value=\"ほん\"}}本によると コログのお{{ruby charSpan=\"1\" value=\"めん\"}}面という\n{{ruby charSpan=\"1\" value=\"たましい\"}}魂が{{ruby charSpan=\"1\" value=\"やど\"}}宿った{{ruby charSpan=\"2\" value=\"どうぐ\"}}道具があるらしい\n\nコログのお{{ruby charSpan=\"1\" value=\"めん\"}}面が{{ruby charSpan=\"1\" value=\"はい\"}}入った{{ruby charSpan=\"2\" value=\"たからばこ\"}}宝箱は {{color id=\"0\"}}{{ruby charSpan=\"1\" value=\"すす\"}}進む{{ruby charSpan=\"1\" value=\"もの\"}}者を{{ruby charSpan=\"1\" value=\"まよ\"}}迷わす{{ruby charSpan=\"1\" value=\"もり\"}}森の\n{{ruby charSpan=\"1\" value=\"おそ\"}}恐ろしげな{{ruby charSpan=\"1\" value=\"き\"}}木の{{ruby charSpan=\"1\" value=\"うろ\"}}洞{{color id=\"65535\"}}に{{ruby charSpan=\"1\" value=\"かく\"}}隠されているそうだ\nその{{ruby charSpan=\"1\" value=\"もり\"}}森を{{ruby charSpan=\"1\" value=\"み\"}}見つけて {{ruby charSpan=\"2\" value=\"たからばこ\"}}宝箱を{{ruby charSpan=\"1\" value=\"さが\"}}探そう！\n{{ruby charSpan=\"1\" value=\"なに\"}}何やら{{ruby charSpan=\"2\" value=\"べんり\"}}便利な{{ruby charSpan=\"1\" value=\"さが\"}}探し{{ruby charSpan=\"1\" value=\"かた\"}}方も あるらしいが…",
      "KRko": "세나의 뜬소문 Ex 증간 1호를 읽었다\n책에 따르면 코로그의 가면이라는\n영혼이 깃든 도구가 있는 모양이다\n\n코로그의 가면이 들어 있는 보물 상자는 {{color id=\"0\"}}행인을 헤매게\n하는 숲의 무서운 나무의 구멍{{color id=\"65535\"}}에 숨겨져 있다고 한다\n그 숲으로 가서 보물 상자를 찾자!\n아무래도 편하게 찾을 수 있는 방법도 있는 모양인데…",
      "TWzh": "你讀了「傳聞中的三葉 Ex增刊號Vol.1」。\n根據書中所說，有一種寄宿著靈魂，\n名為克洛格的面具的道具。\n\n據說收藏克洛格的面具的寶箱放在{{color id=\"0\"}}會使人迷路的\n森林{{color id=\"65535\"}}裡，而且藏在{{color id=\"0\"}}看起來很可怕的樹洞{{color id=\"65535\"}}中。\n找到那座森林，尋找寶箱吧！\n似乎也有某種便捷的尋找方法……",
      "USen": "You read Super Rumor Mill EX: Volume 1!\nAccording to this special issue, there are\nrumors of an item called the Korok Mask\nthat has been inhabited by a friendly spirit.\n\nThe treasure chest containing the Korok Mask\nis hidden {{color id=\"0\"}}in the hollow of a terrifying tree in a\nforest that causes those who enter to lose their\nway{{color id=\"65535\"}}. Find that forest and locate the treasure\nchest! It also seems there's a convenient way\nto search for it...",
      "USes": "Según el libro de chismes jugosos, existe\nuna {{wordInfo gender=\"2\" defArticle=\"1\" indefArticle=\"1\" isPlural=\"0\"}}máscara de kolog en cuyo interior\nhabita un espíritu.\n\nAl parecer, se encuentra dentro de un cofre\nen {{color id=\"0\"}}el tronco de un árbol del bosque donde\ntodo aquel que entra se pierde{{color id=\"65535\"}}. Según el libro,\nexiste un modo de dar con el cofre...",
      "USfr": "L'édition spéciale EX de « Bourgette sait tout »\nconfirme la rumeur : il existerait un objet, appelé\n{{wordInfo gender=\"1\" defArticle=\"0\" indefArticle=\"0\" isPlural=\"0\"}}masque de Korogu, habité par un esprit.\n\nCet objet reposerait {{color id=\"0\"}}dans une forêt où les\nvoyageurs perdent souvent leur chemin,\ndans un coffre dissimulé dans le creux\nd'un vieil arbre terrifiant{{color id=\"65535\"}}.\n\nIl semble qu'il existe une méthode bien\npratique pour localiser le coffre..."
    }
  },
  {
    "label": "QL_TreasureHunt01_Finish",
    "attribute": "",
    "locale": {
      "CNzh": "在迷失的森林的可怕树洞中\n找到了{{color id=\"0\"}}克洛格的面具{{color id=\"65535\"}}！\n\n据说只要戴着克洛格的面具行走，\n面具就会告诉你隐藏在附近的克洛格。",
      "EUde": "Im Schlund eines Furcht einflößenden Baums\nin den Verlorenen Wäldern hast du die\n{{color id=\"0\"}}{{wordInfo gender=\"2\" defArticle=\"1\" indefArticle=\"1\" isPlural=\"0\"}}Krog-Maske {{color id=\"65535\"}}gefunden!\n\nWenn du sie trägst, gibt sie dir Hinweise\nauf in der Nähe versteckte Krogs.",
      "EUen": "You found the {{color id=\"0\"}}Korok Mask{{color id=\"65535\"}} in the spooky tree's\nhollow within the Lost Woods!\n\nThe Korok Mask will inform you when a Korok\nis hiding nearby.",
      "EUes": "Has localizado la {{color id=\"0\"}}{{wordInfo gender=\"2\" defArticle=\"1\" indefArticle=\"1\" isPlural=\"0\"}}máscara de kolog{{color id=\"65535\"}} en un\ntétrico tronco de árbol en el Bosque Perdido.\n\nEste objeto te avisará si hay kolog\nocultos en las proximidades.",
      "EUfr": "Vous avez trouvé le {{color id=\"0\"}}{{wordInfo gender=\"1\" defArticle=\"0\" indefArticle=\"0\" isPlural=\"0\"}}masque de Korogu{{color id=\"65535\"}} au\ncreux d'un vieil arbre effrayant des bois\nPerdus !\n\nCe masque vous révélera la présence de\nKorogus cachés à proximité.",
      "EUit": "Hai trovato la {{color id=\"0\"}}maschera Korogu{{color id=\"65535\"}} nell'incavo\ndi uno spaventoso albero nel cuore del Bosco\nPerduto!\n\nLa maschera Korogu ti avviserà se c'è\nun Korogu nascosto nelle vicinanze.",
      "EUnl": "Je hebt het Korok-masker gevonden in de enge\nholle boom in het Verdwaalwoud.\n\nHet Korok-masker geeft je een seintje als er\neen Korok in de buurt is.",
      "EUru": "Я нашел {{color id=\"0\"}}маску корока{{color id=\"65535\"}} в одном из страшных\nдеревьев Затерянных лесов! Теперь с ее\nпомощью я легко могу понять, что рядом\nпрячется корок.",
      "JPja": "{{ruby charSpan=\"1\" value=\"まよ\"}}迷いの{{ruby charSpan=\"1\" value=\"もり\"}}森にある {{ruby charSpan=\"1\" value=\"おそ\"}}恐ろしげな{{ruby charSpan=\"1\" value=\"き\"}}木の{{ruby charSpan=\"1\" value=\"うろ\"}}洞で\n{{color id=\"0\"}}コログのお{{ruby charSpan=\"1\" value=\"めん\"}}面{{color id=\"65535\"}}を{{ruby charSpan=\"1\" value=\"み\"}}見つけた！\n\nコログのお{{ruby charSpan=\"1\" value=\"めん\"}}面を{{ruby charSpan=\"1\" value=\"かぶ\"}}被って{{ruby charSpan=\"1\" value=\"ある\"}}歩くと\n{{ruby charSpan=\"1\" value=\"ちか\"}}近くに{{ruby charSpan=\"1\" value=\"かく\"}}隠れたコログがいれば {{ruby charSpan=\"1\" value=\"おし\"}}教えてくれるらしい",
      "KRko": "미로숲에 있는 무서운 나무의 구멍에서\n{{color id=\"0\"}}코로그의 가면{{color id=\"65535\"}}을 찾았다!\n\n코로그의 가면을 쓰고 걷다 보면\n근처에 숨어 있는 코로그가 있을 때 알려 준다고 한다",
      "TWzh": "你在迷途森林看起來很可怕的樹洞中\n找到了{{color id=\"0\"}}克洛格面具{{color id=\"65535\"}}！\n\n只要戴著克洛格面具，\n要是附近藏有克洛格，面具就會告訴你。",
      "USen": "You found the {{color id=\"0\"}}Korok Mask{{color id=\"65535\"}} in the spooky tree's\nhollow within the Lost Woods!\n\nThe Korok Mask will inform you when a Korok\nis hiding nearby.",
      "USes": "Encontraste la {{color id=\"0\"}}{{wordInfo gender=\"2\" defArticle=\"1\" indefArticle=\"1\" isPlural=\"0\"}}máscara de kolog{{color id=\"65535\"}} en\nun tronco de árbol en el Bosque Perdido.\n\nEste objeto te avisará si hay kolog\nocultos en las proximidades.",
      "USfr": "Vous avez trouvé le {{color id=\"0\"}}{{wordInfo gender=\"1\" defArticle=\"0\" indefArticle=\"0\" isPlural=\"0\"}}masque de Korogu{{color id=\"65535\"}}\nau creux d'un vieil arbre effrayant de la\nforêt des Méandres!\n\nCe masque vous révélera la présence de\nKorogus cachés à proximité."
    }
  }
]