[
  {
    "label": "QL_Thunder_Sword_Name",
    "attribute": "",
    "locale": {
      "CNzh": "闪电开启的试练",
      "EUde": "Die Donnerprüfung",
      "EUen": "A Song of Storms",
      "EUes": "La prueba del trueno",
      "EUfr": "L'épreuve de la foudre",
      "EUit": "La prova del fulmine",
      "EUnl": "De donderproef",
      "EUru": "«Грозовое испытание»",
      "JPja": "稲妻が開く試練",
      "KRko": "번개가 여는 시련",
      "TWzh": "閃電開啟的考驗",
      "USen": "A Song of Storms",
      "USes": "La prueba del trueno",
      "USfr": "L'épreuve de la foudre"
    }
  },
  {
    "label": "QL_Thunder_Sword_Desc",
    "attribute": "",
    "locale": {
      "CNzh": "“古代勇者挥引掣电，\n  开启沉睡于巨岩中的勇者的试练。”\n\n解开卡西瓦告诉你的古诗之谜，\n找出勇者的试练吧。",
      "EUde": "„Dem Blitz vom Himmel\ntrotzt der Held aus alter Zeit\nund öffnet die Heldenprüfung\nunterm Hügel weit.“\n\nLöse das Rätsel des alten Liedes, das du\nvon Kashiwa gelernt hast, und suche nach\nder Heldenprüfung.",
      "EUen": "\"When a lost hero calls down lightning{{color id=\"0\"}}{{color id=\"65535\"}}\nfrom the sky / The monk responds from\na giant mound{{color id=\"0\"}} {{color id=\"65535\"}}on high.\"\n\nSolve the riddle of the song you learned from\nKass and seek out the hero's trial.",
      "EUes": "«Héroe ancestral, de tu destino vasallo,\nno te abrirán la prueba del gran risco\nni lluvia ni pedrisco. ¡Invoca el rayo!»\n\nResuelve el acertijo que Nyel ha compartido\ncontigo y trata de localizar la prueba heroica.",
      "EUfr": "« Une épreuve est dissimulée\nAu cœur du rocher escarpé.\nÔ toi Héros des temps anciens...\nPour démontrer ton potentiel,\nInvoque la foudre du ciel,\nCela ouvrira le chemin. »\n\nRésolvez l'énigme contenue dans cet ancien\nchant que vous a récité Asarim pour révéler une\népreuve du Héros.",
      "EUit": "\"Eroe ancestrale, invoca un lampo\nin cielo che apra il sentiero alla prova\ndell'eroe, che si cela nella grande roccia.\"\n\nRisolvi questo indovinello sentito da Kashiwa\nper trovare l'entrata alla prova dell'eroe.",
      "EUnl": "\"De held van weleer haalde de bliksem uit\nde lucht, en het geheim in de grote rots\nverscheen in een vloek en een zucht.\"\n\nLos het raadsel op van het oude lied dat Kass\nvoor je zong, en vind een tempel.",
      "EUru": "Касс спел мне старую песню озера Калора:\n«Под камнем святилище дремлет. Откроешь\nпуть к нему, лишь молнию с небес призвав».\n\nИнтересно, как бы я мог {{color id=\"0\"}}«призвать\nмолнию с небес»{{color id=\"65535\"}}?",
      "JPja": "『{{ruby charSpan=\"1\" value=\"いにしえ\"}}古の{{ruby charSpan=\"2\" value=\"ゆうしゃ\"}}勇者 {{ruby charSpan=\"1\" value=\"てん\"}}天の{{ruby charSpan=\"2\" value=\"いなずま\"}}稲妻を{{ruby charSpan=\"1\" value=\"みちび\"}}導き\n{{ruby charSpan=\"2\" value=\"おおいわ\"}}大岩に{{ruby charSpan=\"1\" value=\"ねむ\"}}眠る {{ruby charSpan=\"2\" value=\"ゆうしゃ\"}}勇者の{{ruby charSpan=\"2\" value=\"しれん\"}}試練への{{ruby charSpan=\"1\" value=\"みち\"}}道を{{ruby charSpan=\"1\" value=\"ひら\"}}開く』\n\nカッシーワから{{ruby charSpan=\"1\" value=\"おし\"}}教えてもらった\n{{ruby charSpan=\"1\" value=\"いにしえ\"}}古の{{ruby charSpan=\"1\" value=\"うた\"}}詩の{{ruby charSpan=\"1\" value=\"なぞ\"}}謎を{{ruby charSpan=\"1\" value=\"と\"}}解き\n{{ruby charSpan=\"2\" value=\"ゆうしゃ\"}}勇者の{{ruby charSpan=\"2\" value=\"しれん\"}}試練を{{ruby charSpan=\"1\" value=\"み\"}}見つけ{{ruby charSpan=\"1\" value=\"だ\"}}出そう",
      "KRko": "『고대의 용사 하늘의 번개를 이끌어 \n  바위에 잠든 용사의 시련을 향한 길을 연다』\n\n카시와가 가르쳐 준\n고대의 노래의 수수께끼를 풀어\n용사의 시련을 찾아내자",
      "TWzh": "「古代勇者引導雷電，\n開啟沉睡於巨岩中的考驗」\n\n解開卡西瓦告訴你的古詩之謎，\n找出勇者的考驗吧。",
      "USen": "\"When a lost hero calls down lightning{{color id=\"0\"}}{{color id=\"65535\"}}\nfrom the sky / The monk responds from\na giant mound{{color id=\"0\"}} {{color id=\"65535\"}}on high.\"\n\nSolve the riddle of the song you learned from\nKass and seek out the hero's trial.",
      "USes": "\"Héroe ancestral, de tu destino vasallo,\nno te abrirán la prueba del gran risco\nni lluvia ni pedrisco. ¡Invoca el rayo!\".\n\nResuelve el acertijo que Nyel compartió\ncontigo y trata de localizar la prueba heroica.",
      "USfr": "« Une épreuve est dissimulée\nAu cœur du rocher escarpé.\nÔ toi Héros des temps anciens...\nPour démontrer ton potentiel,\nInvoque la foudre du ciel,\nCela ouvrira le chemin. »\n\nRésolvez l'énigme contenue dans cet ancien\nchant que vous a récité Asarim pour révéler une\népreuve du Héros."
    }
  },
  {
    "label": "QL_Thunder_Sword_Step010",
    "attribute": "",
    "locale": {
      "CNzh": "“古代勇者挥引掣电，\n  开启沉睡于巨岩中的勇者的试练。”\n\n通过落雷击碎了巨岩，\n岩石中出现一座古代神庙！",
      "EUde": "„Dem Blitz vom Himmel\ntrotzt der Held aus alter Zeit\nund öffnet die Heldenprüfung\nunterm Hügel weit.“\n\nMit einem Blitz ist es dir gelungen, den großen\nHügel zu zertrümmern. Darunter ist ein\nverborgener antiker Schrein sichtbar geworden.",
      "EUen": "\"When a lost hero calls down lightning{{color id=\"0\"}}{{color id=\"65535\"}}\nfrom the sky / The monk responds from\na giant mound{{color id=\"0\"}} {{color id=\"65535\"}}on high.\"\n\nBy attracting a lightning strike, you shattered\nthe large rock and revealed an ancient shrine\nconcealed within.",
      "EUes": "«Héroe ancestral, de tu destino vasallo,\nno te abrirán la prueba del gran risco\nni lluvia ni pedrisco. ¡Invoca el rayo!»\n\nAl hacer que cayese un rayo, has podido\nromper el enorme risco. De su interior\nha surgido un santuario ancestral.",
      "EUfr": "« Une épreuve est dissimulée\nAu cœur du rocher escarpé.\nÔ toi Héros des temps anciens...\nPour démontrer ton potentiel,\nInvoque la foudre du ciel,\nCela ouvrira le chemin. »\n\nEn s'abattant, la foudre a fait voler le rocher\nen éclats, révélant un sanctuaire antique.",
      "EUit": "\"Eroe ancestrale, invoca un lampo\nin cielo che apra il sentiero alla prova\ndell'eroe, che si cela nella grande roccia.\"\n\nHai evocato un fulmine e sei riuscito\na spaccare la grande roccia, al cui interno\nera nascosto un sacrario ancestrale.",
      "EUnl": "\"De held van weleer haalde de bliksem uit\nde lucht, en het geheim in de grote rots\nverscheen in een vloek en een zucht.\"\n\nMet behulp van een bliksemflits heb je de grote\nrots vernietigd. Er zat een tempel in de rots.",
      "EUru": "Касс спел мне старую песню озера Калора:\n«Под камнем святилище дремлет. Откроешь\nпуть к нему, лишь молнию с небес призвав».\n\nОт удара молнии камень раскололся,\nи под ним действительно оказалось\nсвятилище.",
      "JPja": "『{{ruby charSpan=\"1\" value=\"いにしえ\"}}古の{{ruby charSpan=\"2\" value=\"ゆうしゃ\"}}勇者 {{ruby charSpan=\"1\" value=\"てん\"}}天の{{ruby charSpan=\"2\" value=\"いなずま\"}}稲妻を{{ruby charSpan=\"1\" value=\"みちび\"}}導き\n{{ruby charSpan=\"2\" value=\"おおいわ\"}}大岩に{{ruby charSpan=\"1\" value=\"ねむ\"}}眠る {{ruby charSpan=\"2\" value=\"ゆうしゃ\"}}勇者の{{ruby charSpan=\"2\" value=\"しれん\"}}試練への{{ruby charSpan=\"1\" value=\"みち\"}}道を{{ruby charSpan=\"1\" value=\"ひら\"}}開く』\n\n{{ruby charSpan=\"1\" value=\"かみなり\"}}雷を{{ruby charSpan=\"1\" value=\"お\"}}落とすことで\n{{ruby charSpan=\"1\" value=\"おお\"}}大きな{{ruby charSpan=\"1\" value=\"いわ\"}}岩が{{ruby charSpan=\"1\" value=\"くだ\"}}砕け{{ruby charSpan=\"1\" value=\"ち\"}}散り\n{{ruby charSpan=\"1\" value=\"いわ\"}}岩の{{ruby charSpan=\"1\" value=\"なか\"}}中から {{ruby charSpan=\"2\" value=\"こだい\"}}古代の{{ruby charSpan=\"1\" value=\"ほこら\"}}祠が{{ruby charSpan=\"1\" value=\"すがた\"}}姿を{{ruby charSpan=\"1\" value=\"あらわ\"}}現した",
      "KRko": "『고대의 용사 하늘의 번개를 이끌어\n  바위에 잠든 용사의 시련을 향한 길을 연다』\n\n번개를 떨어트리자\n커다란 바위가 깨지면서\n그 안에서 고대의 사당이 모습을 드러냈다",
      "TWzh": "「古代勇者引導雷電，\n開啟沉睡於巨岩中的考驗」\n\n你利用落雷擊碎了巨岩，\n岩石中出現了一座古代神廟。",
      "USen": "\"When a lost hero calls down lightning{{color id=\"0\"}}{{color id=\"65535\"}}\nfrom the sky / The monk responds from\na giant mound{{color id=\"0\"}} {{color id=\"65535\"}}on high.\"\n\nBy attracting a lightning strike, you shattered\nthe large rock and revealed an ancient shrine\nconcealed within.",
      "USes": "\"Héroe ancestral, de tu destino vasallo,\nno te abrirán la prueba del gran risco\nni lluvia ni pedrisco. ¡Invoca el rayo!\".\n\nAl hacer que cayera un rayo, pudiste\nromper el enorme risco. De su interior\nsurgió un santuario ancestral.",
      "USfr": "« Une épreuve est dissimulée\nAu cœur du rocher escarpé.\nÔ toi Héros des temps anciens...\nPour démontrer ton potentiel,\nInvoque la foudre du ciel,\nCela ouvrira le chemin. »\n\nEn s'abattant, la foudre a fait voler le rocher\nen éclats, révélant un sanctuaire antique."
    }
  },
  {
    "label": "QL_Thunder_Sword_Finish",
    "attribute": "",
    "locale": {
      "CNzh": "“古代勇者挥引掣电，\n  开启沉睡于巨岩中的勇者的试练。”\n\n被雷击碎的岩石中出现了一座古代神庙！",
      "EUde": "„Dem Blitz vom Himmel\ntrotzt der Held aus alter Zeit\nund öffnet die Heldenprüfung\nunterm Hügel weit.“\n\nIn dem Hügel, den du mit einem Blitz\nzertrümmert hast, hast du einen antiken\nSchrein gefunden!",
      "EUen": "\"When a lost hero calls down lightning{{color id=\"0\"}}{{color id=\"65535\"}}\nfrom the sky / The monk responds from\na giant mound{{color id=\"0\"}} {{color id=\"65535\"}}on high.\"\n\nYou found an ancient shrine inside the rock \nthat you shattered with lightning!",
      "EUes": "«Héroe ancestral, de tu destino vasallo,\nno te abrirán la prueba del gran risco\nni lluvia ni pedrisco. ¡Invoca el rayo!»\n\nHas dado con un santuario ancestral dentro\ndel risco que quebraste con la fuerza del rayo.",
      "EUfr": "« Une épreuve est dissimulée\nAu cœur du rocher escarpé.\nÔ toi Héros des temps anciens...\nPour démontrer ton potentiel,\nInvoque la foudre du ciel,\nCela ouvrira le chemin. »\n\nVous avez découvert un sanctuaire antique\nà l'intérieur du rocher sur lequel vous avez\nfait s'abattre la foudre.",
      "EUit": "\"Eroe ancestrale, invoca un lampo\nin cielo che apra il sentiero alla prova\ndell'eroe, che si cela nella grande roccia.\"\n\nDentro alla roccia che hai frantumato con\nun fulmine c'era un sacrario ancestrale.",
      "EUnl": "\"De held van weleer haalde de bliksem uit\nde lucht, en het geheim in de grote rots\nverscheen in een vloek en een zucht.\"\n\nJe hebt een tempel gevonden in de rots die je\nmet behulp van een bliksemflits hebt vernietigd.",
      "EUru": "Касс спел мне старую песню озера Калора:\n«Под камнем святилище дремлет. Откроешь\nпуть к нему, лишь молнию с небес призвав».\n\nОт удара молнии камень раскололся,\nи под ним действительно оказалось\nсвятилище.",
      "JPja": "『{{ruby charSpan=\"1\" value=\"いにしえ\"}}古の{{ruby charSpan=\"2\" value=\"ゆうしゃ\"}}勇者 {{ruby charSpan=\"1\" value=\"てん\"}}天の{{ruby charSpan=\"2\" value=\"いなずま\"}}稲妻を{{ruby charSpan=\"1\" value=\"みちび\"}}導き\n{{ruby charSpan=\"2\" value=\"おおいわ\"}}大岩に{{ruby charSpan=\"1\" value=\"ねむ\"}}眠る {{ruby charSpan=\"2\" value=\"ゆうしゃ\"}}勇者の{{ruby charSpan=\"2\" value=\"しれん\"}}試練への{{ruby charSpan=\"1\" value=\"みち\"}}道を{{ruby charSpan=\"1\" value=\"ひら\"}}開く』\n\n{{ruby charSpan=\"1\" value=\"かみなり\"}}雷で{{ruby charSpan=\"1\" value=\"くだ\"}}砕けた{{ruby charSpan=\"1\" value=\"いわ\"}}岩の{{ruby charSpan=\"1\" value=\"なか\"}}中から\n{{ruby charSpan=\"2\" value=\"こだい\"}}古代の{{ruby charSpan=\"1\" value=\"ほこら\"}}祠が{{ruby charSpan=\"1\" value=\"すがた\"}}姿を{{ruby charSpan=\"1\" value=\"あらわ\"}}現した",
      "KRko": "『고대의 용사 하늘의 번개를 이끌어\n  바위에 잠든 용사의 시련을 향한 길을 연다』\n\n번개로 깨진 바위 안에서\n고대의 사당이 모습을 드러냈다",
      "TWzh": "「古代勇者引導雷電，\n開啟沉睡於巨岩中的考驗」\n\n被雷電擊碎的岩石中\n出現了一座古代神廟！",
      "USen": "\"When a lost hero calls down lightning{{color id=\"0\"}}{{color id=\"65535\"}}\nfrom the sky / The monk responds from\na giant mound{{color id=\"0\"}} {{color id=\"65535\"}}on high.\"\n\nYou found an ancient shrine inside the rock \nthat you shattered with lightning!",
      "USes": "\"Héroe ancestral, de tu destino vasallo,\nno te abrirán la prueba del gran risco\nni lluvia ni pedrisco. ¡Invoca el rayo!\".\n\nDiste con un santuario ancestral dentro\ndel risco que quebraste con la fuerza del rayo.",
      "USfr": "« Une épreuve est dissimulée\nAu cœur du rocher escarpé.\nÔ toi Héros des temps anciens...\nPour démontrer ton potentiel,\nInvoque la foudre du ciel,\nCela ouvrira le chemin. »\n\nVous avez découvert un sanctuaire antique\nà l'intérieur du rocher sur lequel vous avez\nfait s'abattre la foudre."
    }
  }
]