[
  {
    "label": "QL_TreasureHunt_touzoku04_Name",
    "attribute": "",
    "locale": {
      "CNzh": "Ex 拉姆达的秘宝 梦幻铠甲",
      "EUde": "EX: Geisterhafte Rüstung",
      "EUen": "EX Treasure: Phantasma",
      "EUes": "Extra: El tesoro espectral",
      "EUfr": "EX Le trésor spectral",
      "EUit": "L'armatura spettrale (EX)",
      "EUnl": "Geestenpantser EX",
      "EUru": "«EX Броня фантома»",
      "JPja": "Ｅｘ ラムダの秘宝 夢幻の鎧",
      "KRko": "Ex 람다의 비보 몽환의 갑옷",
      "TWzh": "Ex 拉姆達的秘寶 夢幻鎧甲",
      "USen": "EX Treasure: Phantasma",
      "USes": "Extra: El tesoro espectral",
      "USfr": "EX Le trésor spectral"
    }
  },
  {
    "label": "QL_TreasureHunt_touzoku04_Desc",
    "attribute": "",
    "locale": {
      "CNzh": "海拉鲁王族珍藏的极具历史价值的服饰，\n被名为拉姆达的大盗夺去了。\n被盗珍宝之一名为梦幻铠甲。\n\n据说记载着藏匿之处的随笔，\n位于{{color id=\"0\"}}海拉鲁驿站村废墟{{color id=\"65535\"}}的某处。",
      "EUde": "Die Königsfamilie von Hyrule besaß historisch\nwertvolle Gewandungen, die von einem Räuber\nnamens Ramda gestohlen wurden. Eines dieser\nStücke war eine geisterhafte Rüstung.\n\nIn den {{color id=\"0\"}}Hyrule-Stallruinen{{color id=\"65535\"}} sollen sich\nAufzeichnungen befinden, die verraten, wo sich\ndieser Schatz befindet.",
      "EUen": "The royal family of Hyrule collected historically\nsignificant outfits, but they were stolen by a\nbandit named Misko. Among the items stolen\nwas some phantasmal armor.\n\nThere's a journal that places the locations of\nthe treasure somewhere in the {{color id=\"0\"}}Outpost Ruins{{color id=\"65535\"}}...",
      "EUes": "La familia real de Hyrule poseía una\ncolección de atuendos de gran relevancia\nhistórica, pero desaparecieron a manos\nde un forajido llamado Nambod.\n\nParte de los objetos que robó componían\nun atuendo espectral. En los alrededores\nde la {{color id=\"0\"}}caballeriza de Hyrule{{color id=\"65535\"}} puede encontrarse\nun diario que señala dónde están las partes\nde dicho atuendo...",
      "EUfr": "Les collections de la famille royale d'Hyrule\nrenfermaient certaines pièces d'une valeur\nhistorique inestimable qui furent dérobées\npar un bandit du nom de Lambda. L'une\nd'entre elles était une armure spectrale.\n\nL'emplacement de ce trésor est consigné dans\nun carnet conservé dans les {{color id=\"0\"}}ruines de l'étape\nd'Hyrule{{color id=\"65535\"}}.",
      "EUit": "La collezione di storici oggetti e indumenti\nraccolti dalla famiglia reale di Hyrule è stata\nrubata da un ladro di nome Lambda. Tra gli\noggetti rubati c'era un'armatura spettrale.\n\nUn diario, nascosto da qualche parte presso\nla {{color id=\"0\"}}stazione di posta di Hyrule{{color id=\"65535\"}}, indica dove\nsi trova questo tesoro.",
      "EUnl": "De koninklijke familie van Hyrule had een\ncollectie historische kostuums, maar die werd\ngestolen door een bandiet genaamd Lambda.\nEen van de gestolen kostuums was de groene\nkleding van een fee.\n\nVolgens een dagboek ligt deze schat ergens in\nde {{color id=\"0\"}}Hyrule-stalruïne{{color id=\"65535\"}}...",
      "EUru": "Бандит по имени Лямбда украл бесценные\nреликвии, принадлежавшие королевскому\nроду Хайрула. Среди тех реликвий есть\nнекое «снаряжение фантома».\n\nМестонахождение снаряжения должно\nбыть описано в дневнике, который можно\nнайти {{color id=\"0\"}}в месте под названием «Старое\nподворье»{{color id=\"65535\"}}.",
      "JPja": "ハイラル{{ruby charSpan=\"2\" value=\"おうけ\"}}王家 {{ruby charSpan=\"2\" value=\"ひぞう\"}}秘蔵の {{ruby charSpan=\"5\" value=\"れきしてきかち\"}}歴史的価値の{{ruby charSpan=\"1\" value=\"たか\"}}高い{{ruby charSpan=\"2\" value=\"いしょう\"}}衣装が\nラムダという{{ruby charSpan=\"2\" value=\"とうぞく\"}}盗賊に {{ruby charSpan=\"1\" value=\"うば\"}}奪われていた\nそのうちの１つは {{ruby charSpan=\"2\" value=\"むげん\"}}夢幻の{{ruby charSpan=\"1\" value=\"よろい\"}}鎧 と{{ruby charSpan=\"1\" value=\"よ\"}}呼ばれている\n\nその{{ruby charSpan=\"1\" value=\"かく\"}}隠し{{ruby charSpan=\"2\" value=\"ばしょ\"}}場所を{{ruby charSpan=\"1\" value=\"しる\"}}記した{{ruby charSpan=\"2\" value=\"しゅき\"}}手記が\n{{color id=\"0\"}}ハイラル{{ruby charSpan=\"3\" value=\"しゅくばまち\"}}宿場町 {{ruby charSpan=\"2\" value=\"あとち\"}}跡地{{color id=\"65535\"}}のどこかにあるらしい",
      "KRko": "하이랄 왕가에서도 역사적 가치가 높은 의복이\n람다라는 도적에 의해 도난당했다\n그 중에 하나는 몽환의 갑옷이라 불리는 물건이다\n\n그것을 숨긴 장소를 기록한 수기가\n{{color id=\"0\"}}하이랄 역참 마을 옛터{{color id=\"65535\"}}의 어딘가에 있다고 한다",
      "TWzh": "海拉魯王族秘藏，極具歷史價值的服裝\n被名為拉姆達的大盜奪走了。\n其中有一項叫做夢幻鎧甲的珍寶。\n\n記載著其藏匿之處的隨筆\n據說在{{color id=\"0\"}}海拉魯驛站村廢墟{{color id=\"65535\"}}的某處。",
      "USen": "The royal family of Hyrule collected historically\nsignificant outfits, but they were stolen by a\nbandit named Misko. Among the items stolen\nwas some phantasmal armor.\n\nThere's a journal that places the locations of\nthe treasure somewhere in the {{color id=\"0\"}}Outpost Ruins{{color id=\"65535\"}}...",
      "USes": "La familia real de Hyrule poseía una\ncolección de atuendos de gran relevancia\nhistórica, pero desaparecieron a manos\nde un forajido llamado Nambod.\n\nParte de los objetos que robó componían\nun atuendo espectral. En los alrededores\nde la {{color id=\"0\"}}caballeriza de Hyrule{{color id=\"65535\"}} puede encontrarse\nun diario que señala dónde están las partes\nde dicho atuendo...",
      "USfr": "Les collections de la famille royale d'Hyrule\nrenfermaient certaines pièces d'une valeur\nhistorique inestimable qui furent dérobées\npar un bandit du nom de Lambda. L'une\nd'entre elles était une armure spectrale.\n\nL'emplacement de ce trésor est consigné dans\nun carnet conservé dans les {{color id=\"0\"}}ruines de l'étape\nd'Hyrule{{color id=\"65535\"}}."
    }
  },
  {
    "label": "QL_TreasureHunt_touzoku04_Step01",
    "attribute": "",
    "locale": {
      "CNzh": "拉姆达的随笔Ex中记载着梦幻铠甲的藏匿之处。\n“勇者畏惧之怪物盔甲，\n  藏于{{color id=\"0\"}}海拉鲁平原古迹{{color id=\"65535\"}}。\n  一于{{color id=\"0\"}}竞技战斗之遗迹{{color id=\"65535\"}}，\n  一于{{color id=\"0\"}}赞赏近卫之骑士，\n  行表彰之祭奠场遗迹{{color id=\"65535\"}}，\n  一于{{color id=\"0\"}}海拉鲁屯兵遗迹{{color id=\"65535\"}}。”\n尚未找到的服饰剩下{{color id=\"0\"}}{{number ref=\"TreasureHunt_touzoku04_RemainingBox\"}}件{{color id=\"65535\"}}。",
      "EUde": "„Die Rüstung eines Ungeheuers, das\nselbst der Held fürchtete, ist {{color id=\"0\"}}in den\nRuinen der Ebene von Hyrule{{color id=\"65535\"}} versteckt.\nEin Teil ist an einem Ort zu finden, {{color id=\"0\"}}an\ndem Kämpfer ihre Fähigkeiten schulten{{color id=\"65535\"}}.\nEin Teil ist an einem Ort zu finden, {{color id=\"0\"}}an dem die\nkönigliche Garde ihren Ruhm besang{{color id=\"65535\"}}.\nUnd ein Teil ist {{color id=\"0\"}}in den Ruinen, in denen sich die\nSoldaten von Hyrule einst versammelten{{color id=\"65535\"}}.“\nNoch zu finden: {{number ref=\"TreasureHunt_touzoku04_RemainingBox\"}}.",
      "EUen": "\"Armor worn by fierce phantoms, feared even by\nheroes, is hidden {{color id=\"0\"}}in the ruins of Hyrule Field{{color id=\"65535\"}}.\nFind these pieces {{color id=\"0\"}}at a battleground where brave\nsouls tested their skill{{color id=\"65535\"}}...{{color id=\"0\"}}at ceremonial grounds\nwhere royal guards are honored{{color id=\"65535\"}}...and {{color id=\"0\"}}at the\nruins where the soldiers of Hyrule gathers{{color id=\"65535\"}}.\"\n\nMisko's EX Journal gives the location\nof the phantasmal armor.\nEquipment still hidden: {{color id=\"0\"}}{{number ref=\"TreasureHunt_touzoku04_RemainingBox\"}}{{color id=\"65535\"}}",
      "EUes": "«He desperdigado las distintas piezas de la\narmadura de los temibles espectros del pasado\npor la llanura de Hyrule. La primera se esconde\nen {{color id=\"0\"}}el campo de batalla donde los más valientes\nponían a prueba su destreza{{color id=\"65535\"}}. La segunda se\noculta en {{color id=\"0\"}}el lugar ceremonial donde se rendía\nhomenaje a la guardia real hyliana{{color id=\"65535\"}}. La última\nse encuentra en {{color id=\"0\"}}las ruinas donde se reunían\nlos soldados hylianos{{color id=\"65535\"}}.»\nEl diario de Nambod indica la ubicación de\ncada prenda. Aún debes encontrar {{color id=\"0\"}}{{number ref=\"TreasureHunt_touzoku04_RemainingBox\"}}{{color id=\"65535\"}}.",
      "EUfr": "« La cuirasse du puissant fantôme, craint de\nplus d'un héros, repose {{color id=\"0\"}}dans les ruines de la\nplaine d'Hyrule{{color id=\"65535\"}}. {{color id=\"0\"}}Sur l'arène qui vit les braves\nmettre leurs talents à l'épreuve{{color id=\"65535\"}}... {{color id=\"0\"}}En un lieu\nrituel où furent chantées les louanges des\ngardes royaux{{color id=\"65535\"}}... {{color id=\"0\"}}Dans les ruines où se\nréunissaient les soldats de l'armée d'Hyrule{{color id=\"65535\"}}. »\n\nC'est ainsi que le carnet EX de Lambda décrit\nles trois emplacements de l'armure spectrale.\nNombre de pièces restant à trouver : {{color id=\"0\"}}{{number ref=\"TreasureHunt_touzoku04_RemainingBox\"}}{{color id=\"65535\"}}",
      "EUit": "Un'intera armatura, come quelle indossate da\nfantasmi temuti dagli eroi, giace {{color id=\"0\"}}tra le rovine\ndella piana di Hyrule{{color id=\"65535\"}}. Il primo elemento si trova\n{{color id=\"0\"}}in un campo di battaglia dove i più coraggiosi si\nmettevano alla prova{{color id=\"65535\"}}. Il secondo elemento giace\n{{color id=\"0\"}}in un luogo cerimoniale dove vengono celebrate\nle guardie reali{{color id=\"65535\"}}. Il terzo elemento è nascosto\n{{color id=\"0\"}}dove si radunavano i soldati di Hyrule{{color id=\"65535\"}}.\nIl diario di Lambda (EX) indica dove sono celate\nle diverse parti. Devi trovarne ancora {{number ref=\"TreasureHunt_touzoku04_RemainingBox\"}}.",
      "EUnl": "\"Het harnas van de monsters die zelfs helden\nschrik aanjoegen, is verstopt {{color id=\"0\"}}in ruïnes verspreid\nover de Hyrule-vlakte{{color id=\"65535\"}}. Een deel ervan is\nverstopt {{color id=\"0\"}}op het slagveld waar krachtmetingen\nplaatsvonden{{color id=\"65535\"}}, een ander deel is verstopt {{color id=\"0\"}}op het\ngewijde grondstuk waar leden van de koninklijke\ngarde hun overwinningen vierden{{color id=\"65535\"}} en een deel\nis verstopt {{color id=\"0\"}}in de ruïnes waar de soldaten van\nHyrule samenkwamen{{color id=\"65535\"}}...\" In\nLambda's dagboek EX wordt de locatie van de\ndelen van het harnas beschreven. Nog: {{color id=\"0\"}}{{number ref=\"TreasureHunt_touzoku04_RemainingBox\"}}{{color id=\"65535\"}}",
      "EUru": "«Снаряжение призрака, приводившего\nв ужас даже отважных героев, я спрятал\n{{color id=\"0\"}}в руинах на Хайрульской равнине{{color id=\"65535\"}}. Одна\nвещь лежит {{color id=\"0\"}}там, где солдаты оттачивали\nсвое мастерство{{color id=\"65535\"}}, другая — {{color id=\"0\"}}в месте прове-\nдения торжеств и посвящения в рыцари{{color id=\"65535\"}},\nа третья — {{color id=\"0\"}}среди руин гарнизона{{color id=\"65535\"}}».\n\nНаверное, стоит отыскать все элементы\nэтого снаряжения. Осталось найти {{number ref=\"TreasureHunt_touzoku04_RemainingBox\"}}.",
      "JPja": "『{{ruby charSpan=\"2\" value=\"ゆうしゃ\"}}勇者ですら{{ruby charSpan=\"1\" value=\"おそ\"}}恐れた {{ruby charSpan=\"2\" value=\"まもの\"}}魔物がまといし{{ruby charSpan=\"2\" value=\"かっちゅう\"}}甲冑は\n{{color id=\"0\"}}ハイラル{{ruby charSpan=\"2\" value=\"へいげん\"}}平原の{{ruby charSpan=\"2\" value=\"こせき\"}}古跡{{color id=\"65535\"}}に{{ruby charSpan=\"1\" value=\"かく\"}}隠す\n1つは {{color id=\"0\"}}{{ruby charSpan=\"1\" value=\"わざ\"}}技を{{ruby charSpan=\"1\" value=\"きそ\"}}競いし {{ruby charSpan=\"1\" value=\"たたか\"}}闘いの{{ruby charSpan=\"1\" value=\"ば\"}}場の{{ruby charSpan=\"1\" value=\"あと\"}}跡{{color id=\"65535\"}}に\n1つは {{color id=\"0\"}}{{ruby charSpan=\"2\" value=\"このえ\"}}近衛の{{ruby charSpan=\"2\" value=\"きし\"}}騎士を{{ruby charSpan=\"1\" value=\"たた\"}}讃えし {{ruby charSpan=\"2\" value=\"しきてん\"}}式典の{{ruby charSpan=\"1\" value=\"ば\"}}場の{{ruby charSpan=\"1\" value=\"あと\"}}跡{{color id=\"65535\"}}に\n1つは {{color id=\"0\"}}ハイラルの{{ruby charSpan=\"1\" value=\"つわもの\"}}兵が{{ruby charSpan=\"1\" value=\"つど\"}}集いし{{ruby charSpan=\"1\" value=\"ち\"}}地の{{ruby charSpan=\"1\" value=\"あと\"}}跡{{color id=\"65535\"}}』\nラムダの手記Exに {{ruby charSpan=\"2\" value=\"むげん\"}}夢幻の{{ruby charSpan=\"1\" value=\"よろい\"}}鎧を\n{{ruby charSpan=\"1\" value=\"かく\"}}隠した{{ruby charSpan=\"2\" value=\"ばしょ\"}}場所が {{ruby charSpan=\"1\" value=\"しる\"}}記されていた\nまだ{{ruby charSpan=\"1\" value=\"み\"}}見つけていない{{ruby charSpan=\"2\" value=\"そうび\"}}装備は {{ruby charSpan=\"1\" value=\"のこ\"}}残り{{color id=\"0\"}}{{number ref=\"TreasureHunt_touzoku04_RemainingBox\"}}{{ruby charSpan=\"1\" value=\"こ\"}}個{{color id=\"65535\"}}だ",
      "KRko": "『용사조차 두려워한 몬스터가 입었던 장비는\n{{color id=\"0\"}}하이랄 평원의 고적지{{color id=\"65535\"}}에 숨긴다\n하나는 {{color id=\"0\"}}솜씨를 겨루던 전투 장소의 옛터{{color id=\"65535\"}}에\n하나는 {{color id=\"0\"}}근위 기사를 기리는 의식 장소의 옛터{{color id=\"65535\"}}에\n하나는 {{color id=\"0\"}}하이랄 병사들이 모이는 땅의 옛터{{color id=\"65535\"}}』\n람다의 수기 Ex에 몽환의 갑옷을\n숨긴 장소가 기록되어 있었다\n아직 찾지 못한 장비는 {{color id=\"0\"}}{{number ref=\"TreasureHunt_touzoku04_RemainingBox\"}}개{{color id=\"65535\"}}다",
      "TWzh": "「勇者畏懼之怪物所身著的鎧甲，\n藏於{{color id=\"0\"}}海拉魯平原的古蹟裡{{color id=\"65535\"}}。\n一於{{color id=\"0\"}}競技戰場之遺跡{{color id=\"65535\"}}。\n一於{{color id=\"0\"}}讚揚近衛騎士之祭奠場遺跡{{color id=\"65535\"}}。\n一於{{color id=\"0\"}}海拉魯兵駐地遺跡{{color id=\"65535\"}}。」\n拉姆達的隨筆Ex記載了\n夢幻鎧甲的藏匿之處。\n還有{{color id=\"0\"}}{{number ref=\"TreasureHunt_touzoku04_RemainingBox\"}}件{{color id=\"65535\"}}裝備沒被找到。",
      "USen": "\"Armor worn by fierce phantoms, feared even by\nheroes, is hidden {{color id=\"0\"}}in the ruins of Hyrule Field{{color id=\"65535\"}}.\nFind these pieces {{color id=\"0\"}}at a battleground where brave\nsouls tested their skill{{color id=\"65535\"}}...{{color id=\"0\"}}at ceremonial grounds\nwhere royal guards are honored{{color id=\"65535\"}}...and {{color id=\"0\"}}at the\nruins where the soldiers of Hyrule gathers{{color id=\"65535\"}}.\"\n\nMisko's EX Journal gives the location\nof the phantasmal armor.\nEquipment still hidden: {{color id=\"0\"}}{{number ref=\"TreasureHunt_touzoku04_RemainingBox\"}}{{color id=\"65535\"}}",
      "USes": "\"Dispersé las distintas piezas de la\narmadura de los temibles espectros del pasado\npor la llanura de Hyrule. La primera se esconde\nen {{color id=\"0\"}}el campo de batalla donde los más valientes\nponían a prueba su destreza{{color id=\"65535\"}}. La segunda se\noculta en {{color id=\"0\"}}el lugar ceremonial donde se rendía\nhomenaje a la guardia real hyliana{{color id=\"65535\"}}. La última\nse encuentra en {{color id=\"0\"}}las ruinas donde se reunían\nlos soldados hylianos{{color id=\"65535\"}}\".\nEl diario de Nambod indica la ubicación de\ncada prenda. Aún debes encontrar {{color id=\"0\"}}{{number ref=\"TreasureHunt_touzoku04_RemainingBox\"}}{{color id=\"65535\"}}.",
      "USfr": "« La cuirasse de puissants fantômes, craints\nde plus d'un héros, repose {{color id=\"0\"}}dans les ruines de\nla plaine d'Hyrule{{color id=\"65535\"}}.{{color id=\"0\"}} Sur l'arène qui vit les braves\nmettre leurs talents à l'épreuve{{color id=\"65535\"}}... {{color id=\"0\"}}En un lieu\nrituel où furent chantées les louanges des\ngardes royaux{{color id=\"65535\"}}... {{color id=\"0\"}}Dans les ruines où se\nréunissaient les soldats de l'armée d'Hyrule{{color id=\"65535\"}}. »\n\nC'est ainsi que le carnet EX de Lambda décrit\nles trois emplacements de l'armure spectrale.\nNombre de pièces restant à trouver : {{color id=\"0\"}}{{number ref=\"TreasureHunt_touzoku04_RemainingBox\"}}{{color id=\"65535\"}}"
    }
  },
  {
    "label": "QL_TreasureHunt_touzoku04_Finish",
    "attribute": "",
    "locale": {
      "CNzh": "“勇者畏惧之怪物盔甲，\n  藏于海拉鲁平原古迹。\n  一于竞技战斗之遗迹，\n  一于赞赏近卫之骑士，\n  行表彰之祭奠场遗迹，\n  一于海拉鲁屯兵遗迹。”\n分别从埋藏于“竞技场遗迹”、“祭奠场遗迹”、\n“海拉鲁驻军地遗迹”的宝箱中获得{{color id=\"0\"}}幻影装备{{color id=\"65535\"}}！",
      "EUde": "„Die Rüstung eines Ungeheuers, das\nselbst der Held fürchtete, ist in den\nRuinen der Ebene von Hyrule versteckt.“\n\nDu hast die versteckten Schätze in der\nArena-Ruine, am alten Festplatz und in der\nHyrule-Garnisonsruine aufgespürt und die\n{{color id=\"0\"}}Phantom-Rüstung{{color id=\"65535\"}} erhalten!",
      "EUen": "\"Armor worn by fierce phantoms, feared even by\nheroes, is hidden in the ruins of Hyrule Field.\nFind these pieces at a battleground where brave\nsouls tested their skill...at ceremonial grounds\nwhere royal guards are honored...and at the\nruins where the soldiers of Hyrule gathered.\"\n\nYou found the treasure that was hidden at\nColiseum Ruins, Sacred Ground Ruins,\nand Hyrule Garrison Ruins. You obtained\nthe {{color id=\"0\"}}Phantom Equipment{{color id=\"65535\"}}!",
      "EUes": "Has encontrado los cofres enterrados\nen el coliseo, en el altar ceremonial\ny en el cuartel de Hyrule.\n\n¡Ya tienes el {{color id=\"0\"}}atuendo espectral {{color id=\"65535\"}}en tu poder!",
      "EUfr": "« La cuirasse du puissant fantôme, craint de\nplus d'un héros, repose dans les ruines de la\nplaine d'Hyrule. Sur l'arène qui vit les braves\nmettre leurs talents à l'épreuve... En un lieu\nrituel où furent chantées les louanges des\ngardes royaux... Dans les ruines où se\nréunissaient les soldats de l'armée d'Hyrule. »\n\nLes coffres des ruines de l'amphithéâtre, des\nruines de l'autel et des ruines du camp militaire\ncontenaient la{{color id=\"0\"}} tenue de Spectre{{color id=\"65535\"}} !",
      "EUit": "Un'intera armatura, come quelle indossate da\nfantasmi temuti dagli eroi, giace tra le rovine\ndella piana di Hyrule. Il primo elemento si trova\nin un campo di battaglia dove i più coraggiosi si\nmettevano alla prova. Il secondo elemento giace\nin un luogo cerimoniale dove vengono celebrate\nle guardie reali. Il terzo elemento è nascosto\ndove si radunavano i soldati di Hyrule.\nHai trovato gli elementi all'arena, al padiglione\ncerimoniale e al presidio di Hyrule e hai\nottenuto l'{{color id=\"0\"}}equipaggiamento da Spettro{{color id=\"65535\"}}!",
      "EUnl": "\"Het harnas van de monsters die zelfs helden\nschrik aanjoegen, is verstopt in ruïnes verspreid\nover de Hyrule-vlakte. Een deel ervan is\nverstopt op het slagveld waar krachtmetingen\nplaatsvonden, een ander deel is verstopt op het\ngewijde grondstuk waar leden van de koninklijke\ngarde hun overwinningen vierden en een deel\nis verstopt in de ruïnes waar de soldaten van\nHyrule samenkwamen...\" Je hebt de schat\nhier gevonden: de arena, de heilige grond en\nhet Hyrule-fort. Je hebt nu het {{color id=\"0\"}}fantoomharnas{{color id=\"65535\"}}!",
      "EUru": "«Снаряжение призрака, приводившего\nв ужас даже отважных героев, я спрятал\nв руинах на Хайрульской равнине. Одна\nвещь лежит там, где солдаты оттачивали\nсвое мастерство, другая — в месте прове-\nдения торжеств и посвящения в рыцари,\nа третья — среди руин гарнизона».\n\nОбыскав Хайрульский гарнизон, Колизей\nи Священный Сад, я нашел все {{color id=\"0\"}}снаряжение\nфантома{{color id=\"65535\"}}.",
      "JPja": "『{{ruby charSpan=\"2\" value=\"ゆうしゃ\"}}勇者ですら{{ruby charSpan=\"1\" value=\"おそ\"}}恐れた {{ruby charSpan=\"2\" value=\"まもの\"}}魔物がまといし{{ruby charSpan=\"2\" value=\"かっちゅう\"}}甲冑は\nハイラル{{ruby charSpan=\"2\" value=\"へいげん\"}}平原の{{ruby charSpan=\"2\" value=\"こせき\"}}古跡に{{ruby charSpan=\"1\" value=\"かく\"}}隠す\n1つは {{ruby charSpan=\"1\" value=\"わざ\"}}技を{{ruby charSpan=\"1\" value=\"きそ\"}}競いし {{ruby charSpan=\"1\" value=\"たたか\"}}闘いの{{ruby charSpan=\"1\" value=\"ば\"}}場の{{ruby charSpan=\"1\" value=\"あと\"}}跡に\n1つは {{ruby charSpan=\"2\" value=\"このえ\"}}近衛の{{ruby charSpan=\"2\" value=\"きし\"}}騎士を{{ruby charSpan=\"1\" value=\"たた\"}}讃えし {{ruby charSpan=\"2\" value=\"しきてん\"}}式典の{{ruby charSpan=\"1\" value=\"ば\"}}場の{{ruby charSpan=\"1\" value=\"あと\"}}跡に\n1つは ハイラルの{{ruby charSpan=\"1\" value=\"つわもの\"}}兵が{{ruby charSpan=\"1\" value=\"つど\"}}集いし{{ruby charSpan=\"1\" value=\"ち\"}}地の{{ruby charSpan=\"1\" value=\"あと\"}}跡』\n「{{ruby charSpan=\"5\" value=\"とうぎじょうあとち\"}}闘技場跡地」「{{ruby charSpan=\"4\" value=\"しきてんじょうあと\"}}式典場跡」\n「ハイラル{{ruby charSpan=\"5\" value=\"ぐんちゅうとんちあと\"}}軍駐屯地跡」にそれぞれ{{ruby charSpan=\"1\" value=\"う\"}}埋められた\n{{ruby charSpan=\"2\" value=\"たからばこ\"}}宝箱の{{ruby charSpan=\"1\" value=\"なか\"}}中から {{color id=\"0\"}}ファントム{{ruby charSpan=\"2\" value=\"そうび\"}}装備{{color id=\"65535\"}}を{{ruby charSpan=\"1\" value=\"て\"}}手に{{ruby charSpan=\"1\" value=\"い\"}}入れた！",
      "KRko": "『용사조차 두려워한 몬스터가 입었던 장비는\n하이랄 평원의 고적지에 숨긴다\n하나는 솜씨를 겨루던 전투 장소의 옛터에\n하나는 근위 기사를 기리는 의식 장소의 옛터에\n하나는 하이랄 병사들이 모이는 땅의 옛터』\n각각 「투기장 옛터」「의식장 옛터」\n「하이랄군 주둔지 옛터」에 묻혀 있던\n보물 상자 안에서 {{color id=\"0\"}}팬텀의 장비{{color id=\"65535\"}}를 획득했다!",
      "TWzh": "「勇者畏懼之怪物所身著的鎧甲，\n藏於海拉魯平原的古蹟裡。\n一於競技戰場之遺跡。\n一於讚揚近衛騎士之祭奠場遺跡。\n一於海拉魯士兵駐地遺跡。」\n你從分別埋在「競技場遺跡」、「祭奠場遺跡」和\n「海拉魯駐軍地遺跡」的寶箱裡獲得了{{color id=\"0\"}}幻影裝備{{color id=\"65535\"}}！",
      "USen": "\"Armor worn by fierce phantoms, feared even by\nheroes, is hidden in the ruins of Hyrule Field.\nFind these pieces at a battleground where brave\nsouls tested their skill...at ceremonial grounds\nwhere royal guards are honored...and at the\nruins where the soldiers of Hyrule gathered.\"\n\nYou found the treasure that was hidden at\nColiseum Ruins, Sacred Ground Ruins,\nand Hyrule Garrison Ruins. You obtained\nthe {{color id=\"0\"}}Phantom Equipment{{color id=\"65535\"}}!",
      "USes": "Encontraste los tesoros enterrados en\nel coliseo, en el altar ceremonial y en\nel cuartel de Hyrule.\n\n¡Ya tienes el {{color id=\"0\"}}atuendo espectral {{color id=\"65535\"}}en tu poder!",
      "USfr": "« La cuirasse de puissants fantômes, craints\nde plus d'un héros, repose dans les ruines de\nla plaine d'Hyrule. Sur l'arène qui vit les braves\nmettre leurs talents à l'épreuve... En un lieu\nrituel où furent chantées les louanges des\ngardes royaux... Dans les ruines où se\nréunissaient les soldats de l'armée d'Hyrule. »\n\nLes coffres des ruines de l'amphithéâtre,\ndes ruines de l'autel et des ruines du camp\nmilitaire contenaient la{{color id=\"0\"}} tenue de Spectre{{color id=\"65535\"}}!"
    }
  }
]