[
  {
    "label": "QL_TreasureHunt02_Name",
    "attribute": "",
    "locale": {
      "CNzh": "Ex 瞬间移动？！的谣传",
      "EUde": "EX: Teleportation!?",
      "EUen": "EX Teleportation Rumors!",
      "EUes": "Extra: El artefacto mágico",
      "EUfr": "EX Téléportation ?!",
      "EUit": "Un utile amuleto (EX)",
      "EUnl": "Reizende geruchten EX",
      "EUru": "«EX Чудо-медальон»",
      "JPja": "Ｅｘ 瞬間移動？！のウワサ",
      "KRko": "Ex 순간 이동？！의 소문",
      "TWzh": "Ex 瞬間移動？！的謠傳",
      "USen": "EX Teleportation Rumors!",
      "USes": "Extra: El artefacto mágico",
      "USfr": "EX Téléportation?!"
    }
  },
  {
    "label": "QL_TreasureHunt02_Desc",
    "attribute": "",
    "locale": {
      "CNzh": "据说有一种道具\n可以瞬间移动到自己喜欢的地方。\n\n记载有这个传闻的\n《传闻中的三叶 Ex增刊号》\n好像摆放在{{color id=\"0\"}}南阿卡莱驿站{{color id=\"65535\"}}中。",
      "EUde": "Es soll einen Gegenstand geben, der einem\nerlaubt, sich an den Ort zu teleportieren, an\ndem man ihn platziert hat.\n\nAm {{color id=\"0\"}}Stall von Süd-Akkala{{color id=\"65535\"}} soll es eine Extra-\nAusgabe von „Kletis' Gerüchteküche“ mit\nGerüchten zu diesem Gegenstand geben.",
      "EUen": "Rumor has it there's a tool that allows you to\ninstantly travel to wherever you've placed it.\n\nApparently {{color id=\"0\"}}South Akkala Stable{{color id=\"65535\"}} has a copy \nof Super Rumor Mill EX, which details some\nrumors about this rare item...",
      "EUes": "Según ciertos rumores, existe un artefacto\nque permite teletransportarse hasta el lugar\nen el que se haya activado.\n\nEn la {{color id=\"0\"}}posta de Akkala sur{{color id=\"65535\"}} se encuentra\nun libro de cotilleos jugosos de Mirene\ncon más información al respecto.",
      "EUfr": "La rumeur prétend qu'il existe un objet\npermettant de se téléporter en un instant\nà l'endroit où il a été déposé.\n\nIl semble que l'édition spéciale EX de\n« Bourgette sait tout », consultable au\n{{color id=\"0\"}}relais du sud d'Akkala{{color id=\"65535\"}}, contienne des détails\nsur le sujet.",
      "EUit": "Si narra dell'esistenza di uno strumento che\nsarebbe in grado di teletrasportare chi lo\npossiede in qualunque punto venga collocato. \n\nPare che nello {{color id=\"0\"}}stallaggio di Sudakkala{{color id=\"65535\"}} ci sia\nuna copia dell'edizione speciale di \"Trifoglia\nsa tutto\", all'interno della quale sarebbero\ncontenute informazioni su questo oggetto raro.",
      "EUnl": "Er doet een gerucht de ronde over een\nvoorwerp waarmee je vliegensvlug naar de plek\nkunt reizen waar je het hebt geplaatst.\n\nIn de {{color id=\"0\"}}Zuid-Akkala-stal{{color id=\"65535\"}} schijnt een exemplaar\nvan Traysi's Tamtam Extra te liggen. Daar staat\nvast wel iets in over dit bijzondere voorwerp...",
      "EUru": "По слухам, существует некое устройство,\nпозволяющее мгновенно вернуться туда,\nгде оно было использовано ранее.\n\nКажется, {{color id=\"0\"}}в конюшне «Аккала»{{color id=\"65535\"}} лежит\nжурнал «Слухи Хайрула EX» — в нем-то\nи упоминается эта редкая вещь.",
      "JPja": "{{ruby charSpan=\"2\" value=\"じぶん\"}}自分が{{ruby charSpan=\"1\" value=\"す\"}}好きな{{ruby charSpan=\"2\" value=\"ばしょ\"}}場所に {{ruby charSpan=\"4\" value=\"しゅんかんいどう\"}}瞬間移動が{{ruby charSpan=\"2\" value=\"でき\"}}出来る\n{{ruby charSpan=\"2\" value=\"どうぐ\"}}道具があるらしい\n\n{{color id=\"0\"}}ミナッカレ{{ruby charSpan=\"2\" value=\"うまやど\"}}馬宿{{color id=\"65535\"}}に そのウワサが{{ruby charSpan=\"1\" value=\"か\"}}書かれた\n「ウワサのミツバちゃん Ex{{ruby charSpan=\"3\" value=\"ぞうかんごう\"}}増刊号」が\n{{ruby charSpan=\"1\" value=\"お\"}}置かれているそうだ",
      "KRko": "자신이 원하는 장소로 순간 이동할 수 있는\n도구가 있는 모양이다\n\n{{color id=\"0\"}}남추낙 마구간{{color id=\"65535\"}}에 그것에 관한 소문이 적힌\n「세나의 뜬소문 Ex 증간」이 놓여 있다고 한다",
      "TWzh": "據說有一種道具\n可以瞬間移動到自己想去的地方。\n\n記載這個傳聞的\n「傳聞中的三葉 Ex增刊號」\n似乎就放在{{color id=\"0\"}}南阿卡萊驛站{{color id=\"65535\"}}裡。",
      "USen": "Rumor has it there's a tool that allows you to\ninstantly travel to wherever you've placed it.\n\nApparently {{color id=\"0\"}}South Akkala Stable{{color id=\"65535\"}} has a copy \nof Super Rumor Mill EX, which details some\nrumors about this rare item...",
      "USes": "Según ciertos rumores, existe un artefacto\nque permite teletransportarse hasta el lugar\nen el que se haya activado.\n\nEn el {{color id=\"0\"}}rancho de Akkala sur{{color id=\"65535\"}} se encuentra\nun libro de chismes jugosos de Mirene\ncon más información al respecto.",
      "USfr": "La rumeur prétend qu'il existe un objet\npermettant de se téléporter en un instant\nà l'endroit où il a été déposé.\n\nIl semble que l'édition spéciale EX de\n« Bourgette sait tout », consultable au\n{{color id=\"0\"}}relais du sud d'Akkala{{color id=\"65535\"}}, contienne\ndes détails sur le sujet."
    }
  },
  {
    "label": "QL_TreasureHunt02_Step01",
    "attribute": "",
    "locale": {
      "CNzh": "你阅读了传闻中的三叶 Ex增刊号Vol.2。\n据书中记载，传闻有一种道具\n可以瞬间返回设置好的地方。\n据说放有道具的宝箱藏在\n{{color id=\"0\"}}阿卡莱地区东北部的迷宫地下{{color id=\"65535\"}}。\n\n如果你相信传闻，\n就找出迷宫，寻找宝箱吧！",
      "EUde": "In der Extra-Ausgabe Nr. 2 von „Kletis'\nGerüchteküche“ hast du gelesen, dass es ein\nMedaillon geben soll, das den Besitzer an die\nStelle teleportieren kann, an der es abgelegt\nwurde. Es soll {{color id=\"0\"}}in einem Labyrinth im Nordosten\nvon Akkala unterirdisch{{color id=\"65535\"}} versteckt sein.\n\nWenn du diesem Gerücht Glauben schenkst,\nsolltest du dich auf die Suche nach diesem\nLabyrinth machen!",
      "EUen": "You read Super Rumor Mill EX: Volume 2!\nAccording to this special issue, there are\nrumors of an item that lets you instantly\ntravel to a location of your choosing.\n\nThe treasure chest containing this item is\nsupposedly located {{color id=\"0\"}}in northeast Akkala,\nhidden beneath a labyrinth{{color id=\"65535\"}}.\n\nIf you believe the rumors, try to find the\nlabyrinth and locate the treasure chest!",
      "EUes": "Según el libro de cotilleos jugosos, existe\nun artefacto que te permite regresar\nal punto que hayas seleccionado.\n\nEl cofre del tesoro que lo contiene\nse esconde {{color id=\"0\"}}bajo un laberinto en\nel noroeste de la región de Akkala{{color id=\"65535\"}}.\n\n¡Localiza el laberinto y luego da con el cofre!",
      "EUfr": "L'édition spéciale EX de « Bourgette sait tout »\nconfirme la rumeur : il existerait un objet qui\npermet de se téléporter en un instant là où on\nchoisit de le poser.\n\nCet objet reposerait dans un coffre dissimulé\n{{color id=\"0\"}}sous un labyrinthe, au nord-est d'Akkala{{color id=\"65535\"}}.\n\nSi vous pensez que cette rumeur est fondée,\nmettez-vous en quête du labyrinthe !",
      "EUit": "Leggendo il secondo volume dell'edizione\nspeciale di \"Trifoglia sa tutto\", hai appreso\ndell'esistenza di un oggetto che ti permette\ndi tornare istantaneamente in un luogo\nda te prescelto.\n\nQuesto strumento è contenuto {{color id=\"0\"}}in uno scrigno\nposto al termine di un labirinto, nelle Terre di\nAkkala nord-orientali{{color id=\"65535\"}}.\n\nProva a localizzare il labirinto e trova lo scrigno!",
      "EUnl": "Je hebt het tweede nummer van Traysi's\nTamtam Extra gelezen. Er stond een gerucht\nin over een voorwerp waarmee je vliegensvlug\nkunt terugkeren naar een vooraf vastgestelde\nplek.\n\nDe schatkist met het voorwerp zou zich {{color id=\"0\"}}in het\nnoordoosten van Akkala{{color id=\"65535\"}} moeten bevinden,\n{{color id=\"0\"}}onder een labyrint{{color id=\"65535\"}}. Als je het gerucht gelooft,\nga dan op zoek naar de schatkist!",
      "EUru": "Я прочитал второй выпуск журнала\n«Слухи Хайрула EX» и узнал некоторые\nподробности о необычном медальоне\nдля мгновенного перемещения.\n\nСундук с медальоном должен быть где-то\n{{color id=\"0\"}}под лабиринтом на северо-востоке Аккалы{{color id=\"65535\"}}.\nНадеюсь, это правда — нужно обыскать тот\nлабиринт и найти медальон!",
      "JPja": "ウワサのミツバちゃん Ex{{ruby charSpan=\"3\" value=\"ぞうかんごう\"}}増刊号Vol.2を{{ruby charSpan=\"1\" value=\"よ\"}}読んだ\n本によると {{ruby charSpan=\"2\" value=\"せっち\"}}設置した{{ruby charSpan=\"2\" value=\"ばしょ\"}}場所に{{ruby charSpan=\"2\" value=\"いっしゅん\"}}一瞬で{{ruby charSpan=\"1\" value=\"もど\"}}戻れる\n{{ruby charSpan=\"2\" value=\"どうぐ\"}}道具が{{ruby charSpan=\"2\" value=\"そんざい\"}}存在するというウワサがあるらしい\n{{ruby charSpan=\"2\" value=\"どうぐ\"}}道具が{{ruby charSpan=\"1\" value=\"はい\"}}入った{{ruby charSpan=\"2\" value=\"たからばこ\"}}宝箱は {{color id=\"0\"}}アッカレ{{ruby charSpan=\"2\" value=\"ちほう\"}}地方の{{ruby charSpan=\"2\" value=\"ほくとう\"}}北東にある\n{{ruby charSpan=\"2\" value=\"めいきゅう\"}}迷宮の{{ruby charSpan=\"2\" value=\"ちか\"}}地下{{color id=\"65535\"}}に{{ruby charSpan=\"1\" value=\"かく\"}}隠されているそうだ\n\nウワサを{{ruby charSpan=\"1\" value=\"しん\"}}信じるなら\n{{ruby charSpan=\"2\" value=\"めいきゅう\"}}迷宮を{{ruby charSpan=\"1\" value=\"み\"}}見つけて その{{ruby charSpan=\"2\" value=\"たからばこ\"}}宝箱を{{ruby charSpan=\"1\" value=\"さが\"}}探そう！",
      "KRko": "세나의 뜬소문 Ex 증간 2호를 읽었다\n책에 따르면 설치한 장소로 순식간에 갈 수 있는\n도구가 존재한다는 소문이 있는 모양이다\n도구가 든 보물 상자는 {{color id=\"0\"}}추낙 지방의 북동쪽에 있는\n미궁의 지하{{color id=\"65535\"}}에 숨겨져 있다고 한다\n\n소문을 믿는다면\n미궁으로 가서 그 보물 상자를 찾아보자!",
      "TWzh": "你讀了「傳聞中的三葉 Ex增刊號Vol.2」。\n根據書中所說，傳聞有一種道具\n可以讓人瞬間回到設置的地方。\n據說那個道具藏在位於{{color id=\"0\"}}阿卡萊地區東北方\n的迷宮地下{{color id=\"65535\"}}。\n\n如果你相信這個傳聞，\n就找到那座迷宮，尋找寶箱吧！",
      "USen": "You read Super Rumor Mill EX: Volume 2!\nAccording to this special issue, there are\nrumors of an item that lets you instantly\ntravel to a location of your choosing.\n\nThe treasure chest containing this item is\nsupposedly located {{color id=\"0\"}}in northeast Akkala,\nhidden beneath a labyrinth{{color id=\"65535\"}}.\n\nIf you believe the rumors, try to find the\nlabyrinth and locate the treasure chest!",
      "USes": "Según el libro de chismes jugosos, existe\nun artefacto que te permite regresar\nal punto que hayas seleccionado.\n\nEl cofre del tesoro que lo contiene\nse esconde {{color id=\"0\"}}bajo un laberinto en\nel noroeste de la región de Akkala{{color id=\"65535\"}}.\n\n¡Localiza el laberinto y luego da con el cofre!",
      "USfr": "L'édition spéciale EX de « Bourgette sait tout »,\nvolume 2, confirme la rumeur : il existerait un \nobjet qui permet de se téléporter en un instant \nlà où on choisit de le poser.\n\nCet objet reposerait dans un coffre dissimulé\n{{color id=\"0\"}}sous un labyrinthe, au nord-est d'Akkala{{color id=\"65535\"}}.\n\nSi vous pensez que cette rumeur est fondée,\nmettez-vous en quête du labyrinthe!"
    }
  },
  {
    "label": "QL_TreasureHunt02_Finish",
    "attribute": "",
    "locale": {
      "CNzh": "到达洛美岛的迷宫，\n在隐藏于地下深处的大房间里\n成功找到了{{color id=\"0\"}}传送标注器{{color id=\"65535\"}}！\n\n正如传闻一样，传送标注器\n能让你瞬间移动到设置好的地方。\n\n相信传闻准没错！",
      "EUde": "In einem versteckten Raum in den Tiefen von\nIrrland hast du das {{color id=\"0\"}}{{wordInfo gender=\"3\" defArticle=\"2\" indefArticle=\"2\" isPlural=\"0\"}}Teleport-Medaillon{{color id=\"65535\"}}\ngefunden!\n\nDieses Artefakt kann dich tatsächlich an den\nOrt teleportieren, an dem du es ablegst.\n\nManchmal lohnt es sich, auch den\nunglaubwürdigsten Gerüchten nachzugehen!",
      "EUen": "You managed to reach Lomei Labyrinth Island\nand found the {{color id=\"0\"}}Travel Medallion{{color id=\"65535\"}} in a secret\nunderground room!\n\nJust as the rumors said, the Travel Medallion\nlets you travel instantly to whatever location\nyou've placed it at.\n\nIt seems believing those rumors paid off!",
      "EUes": "Has recorrido el laberinto de la isla Lomei\nhasta dar con el {{color id=\"0\"}}{{wordInfo gender=\"1\" defArticle=\"0\" indefArticle=\"0\" isPlural=\"0\"}}teletransportador{{color id=\"65535\"}}\nen una sala subterránea.\n\nTal y como aseguraba el libro, te permite\ndesplazarte hasta la ubicación donde\nlo hayas activado previamente.",
      "EUfr": "Vous avez exploré le labyrinthe de l'île d'Edal\net découvert l'{{color id=\"0\"}}{{wordInfo gender=\"2\" defArticle=\"4\" indefArticle=\"1\" isPlural=\"0\"}}amulette de téléportation{{color id=\"65535\"}} dans\nune pièce enfouie dans le sol !\n\nCet objet permet effectivement à celui qui le\nplace au sol de se téléporter jusqu'à lui en\nun instant.\n\nComme quoi, certaines rumeurs valent le coup\nqu'on s'y intéresse !",
      "EUit": "Sei arrivato al labirinto sull'Isola Dadelo e hai\ntrovato lo scrigno con l'{{color id=\"0\"}}{{wordInfo gender=\"1\" defArticle=\"3\" indefArticle=\"0\" isPlural=\"0\"}}amuleto del teletrasporto{{color id=\"65535\"}}\nin una stanza nascosta sottoterra.\n\nCome predetto, l'{{wordInfo gender=\"1\" defArticle=\"3\" indefArticle=\"0\" isPlural=\"0\"}}amuleto del teletrasporto\nè uno strumento che ti permette di ritornare\nistantaneamente in un luogo da te prescelto.\n\nCoraggio, fai una prova!",
      "EUnl": "Je hebt het {{lowercaseNextWord}}{{color id=\"0\"}}Reismedaillon{{color id=\"65535\"}} gevonden in een\nruimte onder het Lomei-labyrint.\n\nHet reismedaillon is een voorwerp waarmee je\nvliegensvlug kunt terugkeren naar de plek waar\nje het hebt geplaatst.\n\nSoms is het de moeite waard om zelfs de meest\nongeloofwaardige geruchten nader te\nonderzoeken!",
      "EUru": "Я обыскал остров Лабиринта и нашел\n{{color id=\"0\"}}медальон перемещения{{color id=\"65535\"}} — спрятан он\nбыл очень хорошо.\n\nСлух подтвердился: медальон позволяет\nвернуться в то место, где его использовали\nранее. Я рад, что нашел его.",
      "JPja": "ローメイ{{ruby charSpan=\"1\" value=\"とう\"}}島の{{ruby charSpan=\"2\" value=\"めいきゅう\"}}迷宮に{{ruby charSpan=\"1\" value=\"たど\"}}辿り{{ruby charSpan=\"1\" value=\"つ\"}}着き\n{{ruby charSpan=\"3\" value=\"ちかふか\"}}地下深くに{{ruby charSpan=\"1\" value=\"かく\"}}隠された{{ruby charSpan=\"1\" value=\"おお\"}}大きな{{ruby charSpan=\"2\" value=\"へや\"}}部屋で\n{{color id=\"0\"}}ワープマーカー{{color id=\"65535\"}}を{{ruby charSpan=\"1\" value=\"み\"}}見つけることが{{ruby charSpan=\"2\" value=\"でき\"}}出来た！\n\nワープマーカーは ウワサ{{ruby charSpan=\"1\" value=\"どお\"}}通り\n{{ruby charSpan=\"2\" value=\"せっち\"}}設置した{{ruby charSpan=\"2\" value=\"ばしょ\"}}場所に{{ruby charSpan=\"2\" value=\"しゅんかん\"}}瞬間{{ruby charSpan=\"2\" value=\"いどう\"}}移動できるアイテムだった\n\nウワサを{{ruby charSpan=\"1\" value=\"しん\"}}信じて {{ruby charSpan=\"2\" value=\"せいかい\"}}正解だった！",
      "KRko": "로미섬의 미궁에 도착해\n지하 깊이 숨겨져 있던 커다란 방에서\n{{color id=\"0\"}}워프 마커{{color id=\"65535\"}}를 발견했다!\n\n워프 마커는 소문대로\n설치한 장소로 순간 이동할 수 있는 아이템이었다\n\n소문을 믿길 잘했다!",
      "TWzh": "你抵達了洛美島的迷宮，\n在藏在地下身處的大房間裡，\n找到了{{color id=\"0\"}}傳送標記器{{color id=\"65535\"}}！\n\n傳送標記器正如傳聞所說，\n是可以瞬間移動到先前設置地點的道具。\n\n相信傳聞準沒錯！",
      "USen": "You managed to reach Lomei Labyrinth Island\nand found the {{color id=\"0\"}}Travel Medallion{{color id=\"65535\"}} in a secret\nunderground room!\n\nJust as the rumors said, the Travel Medallion\nlets you travel instantly to whatever location\nyou've placed it at.\n\nIt seems believing those rumors paid off!",
      "USes": "Recorriste el laberinto de la isla Lomei\nhasta dar con el {{color id=\"0\"}}{{wordInfo gender=\"1\" defArticle=\"0\" indefArticle=\"0\" isPlural=\"0\"}}teletransportador{{color id=\"65535\"}}\nen una sala subterránea.\n\nTal y como aseguraba el libro, te permite\ndesplazarte hasta la ubicación donde lo\nhayas activado previamente.\n",
      "USfr": "Vous avez exploré le labyrinthe de l'île d'Edal\net découvert l'{{color id=\"0\"}}{{wordInfo gender=\"2\" defArticle=\"4\" indefArticle=\"1\" isPlural=\"0\"}}amulette de téléportation{{color id=\"65535\"}} dans\nune pièce enfouie dans le sol!\n\nCet objet permet effectivement à quiconque le\nplace au sol de se téléporter jusqu'à lui en\nun instant.\n\nComme quoi, certaines rumeurs valent\nle coup qu'on s'y intéresse!"
    }
  }
]