[
  {
    "label": "QL_Zora_FlogMini_Name",
    "attribute": "",
    "locale": {
      "CNzh": "雨天的青蛙",
      "EUde": "Frischer Froschregen",
      "EUen": "Frog Catching",
      "EUes": "La lluvia llama a la rana",
      "EUfr": "Pluie de grenouilles",
      "EUit": "Rovesci sparsi con rane",
      "EUnl": "Regen met kans op kikkers",
      "EUru": "«Дождь из лягушек»",
      "JPja": "雨ときどきカエル",
      "KRko": "비 때때로 개구리",
      "TWzh": "雨天的青蛙",
      "USen": "Frog Catching",
      "USes": "La lluvia llama a la rana",
      "USfr": "Pluie de grenouilles"
    }
  },
  {
    "label": "QL_Zora_FlogMini_Desc",
    "attribute": "",
    "locale": {
      "CNzh": "卓拉领地的彭特拜托你\n送他{{color id=\"0\"}}5只速速蛙{{color id=\"65535\"}}。\n他打算变卖充当生活费。\n\n速速蛙似乎多在{{color id=\"0\"}}雨天{{color id=\"65535\"}}出现。",
      "EUde": "Tembo im Dorf der Zoras möchte, dass du\nihm {{color id=\"0\"}}5 {{wordInfo gender=\"2\" defArticle=\"1\" indefArticle=\"1\" isPlural=\"0\"}}Spurtkröten{{color id=\"65535\"}} spendest.\n\n{{wordInfo gender=\"2\" defArticle=\"1\" indefArticle=\"1\" isPlural=\"0\"}}Spurtkröten sollen {{color id=\"0\"}}an regnerischen Tagen{{color id=\"65535\"}} in\ngroßer Zahl zu finden sein.",
      "EUen": "Tumbo in Zora's Domain wants you to donate\nfive {{color id=\"0\"}}hot-footed frogs {{color id=\"65535\"}}to his cause.\n{{color id=\"0\"}}{{color id=\"65535\"}}\nApparently hot-footed frogs are pretty easy to\nfind on {{color id=\"0\"}}rainy days{{color id=\"65535\"}}.",
      "EUes": "Rudan, de la región de los zora, necesita\nque le dones {{color id=\"0\"}}cinco ejemplares de {{wordInfo gender=\"2\" defArticle=\"1\" indefArticle=\"1\" isPlural=\"0\"}}rana rauda{{color id=\"65535\"}}.\n\nSegún dice, suelen verse {{color id=\"0\"}}cuando llueve{{color id=\"65535\"}}.",
      "EUfr": "Au domaine Zora, Pemto vous a demandé de\nlui apporter {{color id=\"0\"}}cinq grenouilles tempo{{color id=\"65535\"}}. Il semble\nvouloir les revendre pour gagner un peu\nd'argent.\n\nIl paraît que les grenouilles tempo sortent les\n{{color id=\"0\"}}jours de pluie{{color id=\"65535\"}}.",
      "EUit": "Al villaggio degli Zora hai conosciuto il piccolo\nPotem, che ti ha chiesto {{color id=\"0\"}}cinque rane leste{{color id=\"65535\"}}.\n\nA quanto pare le rane leste appaiono in\ngran numero durante i {{color id=\"0\"}}giorni di pioggia{{color id=\"65535\"}}.",
      "EUnl": "Tumbo in het Zora-paleis wil dat je hem {{color id=\"0\"}}vijf\nsprintkikkers{{color id=\"65535\"}} geeft.\n\nHet lijkt erop dat er veel sprintkikkers\ntevoorschijn komen als het {{color id=\"0\"}}regent{{color id=\"65535\"}}.",
      "EUru": "Малыш Тумбо, который живет во владениях\nзора, попросил поймать ему {{color id=\"0\"}}пять прыть-\nлягушек{{color id=\"65535\"}}. Он говорит, что этих лягушек\nпроще всего найти в {{color id=\"0\"}}дождливую погоду{{color id=\"65535\"}}.",
      "JPja": "ゾーラの{{ruby charSpan=\"1\" value=\"さと\"}}里のポンテから\n{{color id=\"0\"}}ゴーゴーガエル{{color id=\"65535\"}}を{{color id=\"0\"}}5匹{{color id=\"65535\"}} {{ruby charSpan=\"2\" value=\"きふ\"}}寄附するよう{{ruby charSpan=\"1\" value=\"たの\"}}頼まれた\nどうやらそれを{{ruby charSpan=\"1\" value=\"う\"}}売って {{ruby charSpan=\"3\" value=\"せいかつひ\"}}生活費に{{ruby charSpan=\"1\" value=\"あ\"}}充てるようだ\n\nゴーゴーガエルは\n{{color id=\"0\"}}{{ruby charSpan=\"1\" value=\"あめ\"}}雨の{{ruby charSpan=\"1\" value=\"ひ\"}}日{{color id=\"65535\"}}に {{ruby charSpan=\"1\" value=\"おお\"}}多く{{ruby charSpan=\"2\" value=\"しゅつげん\"}}出現するらしい",
      "KRko": "조라의 마을의 폰테가\n{{color id=\"0\"}}고고개구리 5마리{{color id=\"65535\"}}를 기부해 달라고 부탁했다\n그것을 팔아 생활비에 보탤 모양이다\n\n고고개구리는\n{{color id=\"0\"}}비오는 날{{color id=\"65535\"}} 많이 돌아다닌다고 한다",
      "TWzh": "卓拉領地的彭特拜託你\n捐贈{{color id=\"0\"}}5隻速速青蛙{{color id=\"65535\"}}給他。\n他打算變賣賺取生活費。\n\n速速青蛙似乎大多在{{color id=\"0\"}}雨天{{color id=\"65535\"}}出現。",
      "USen": "Tumbo in Zora's Domain wants you to donate\nfive {{color id=\"0\"}}hot-footed frogs {{color id=\"65535\"}}to his cause.\n{{color id=\"0\"}}{{color id=\"65535\"}}\nApparently hot-footed frogs are pretty easy to\nfind on {{color id=\"0\"}}rainy days{{color id=\"65535\"}}.",
      "USes": "Rudan, de la región de los zora, necesita\nque le dones {{color id=\"0\"}}cinco ejemplares de\n{{wordInfo gender=\"2\" defArticle=\"1\" indefArticle=\"1\" isPlural=\"0\"}}rana escurridiza{{color id=\"65535\"}}.\n\nSegún dice, suelen verse {{color id=\"0\"}}cuando llueve{{color id=\"65535\"}}.",
      "USfr": "Au domaine des Zoras, Pemto vous a demandé\nde lui apporter {{color id=\"0\"}}cinq grenouilles tempo{{color id=\"65535\"}}.\nIl semble vouloir les revendre pour gagner\nun peu d'argent.\n\nIl paraît que les grenouilles tempo sortent\nles {{color id=\"0\"}}jours de pluie{{color id=\"65535\"}}."
    }
  },
  {
    "label": "QL_Zora_FlogMini_Finish",
    "attribute": "",
    "locale": {
      "CNzh": "为彭特送去了5只速速蛙。\n获得铠甲草作为谢礼。\n\n彭特似乎非常高兴。",
      "EUde": "Du hast Tembo 5 {{wordInfo gender=\"2\" defArticle=\"1\" indefArticle=\"1\" isPlural=\"0\"}}Spurtkröten gebracht\nund im Gegenzug {{wordInfo gender=\"3\" defArticle=\"4\" indefArticle=\"4\" isPlural=\"0\"}}Rüstgras erhalten.\n\nTembo wirkt sehr zufrieden mit diesem Tausch.",
      "EUen": "Tumbo gave you an armoranth in exchange for\nfive hot-footed frogs. He seemed pretty\npleased with the whole arrangement.",
      "EUes": "Le has dado cinco ejemplares de\n{{wordInfo gender=\"2\" defArticle=\"1\" indefArticle=\"1\" isPlural=\"0\"}}rana rauda a Rudan, y este te ha entregado\nun {{wordInfo gender=\"1\" defArticle=\"0\" indefArticle=\"0\" isPlural=\"0\"}}bulbo robusto como recompensa. Parecía\nmuy contento con la transacción.",
      "EUfr": "Vous avez donné cinq grenouilles tempo à\nPemto et avez reçu une {{wordInfo gender=\"2\" defArticle=\"1\" indefArticle=\"1\" isPlural=\"0\"}}fleur armo en\néchange.\n\nPemto avait l'air ravi.",
      "EUit": "Hai dato a Potem cinque rane leste\ne in cambio hai ottenuto un {{wordInfo gender=\"1\" defArticle=\"0\" indefArticle=\"0\" isPlural=\"0\"}}carapacciofo.\nIl piccolo pareva molto contento dell'affare.",
      "EUnl": "Je hebt Tumbo vijf sprintkikkers gegeven en\nhebt in ruil daarvoor van hem schutkruid\ngekregen. Hij leek erg in zijn nopjes.",
      "EUru": "Я принес Тумбо пять прыть-лягушек.\nОн был очень доволен и подарил мне\nлатноцвет.",
      "JPja": "ポンテに ゴーゴーガエルを5匹{{ruby charSpan=\"1\" value=\"わた\"}}渡し\nお{{ruby charSpan=\"1\" value=\"れい\"}}礼にヨロイソウをもらった\n\nポンテは とても{{ruby charSpan=\"1\" value=\"よろこ\"}}喜んでくれたようだ",
      "KRko": "폰테에게 고고개구리 5마리를 주고\n답례로 갑옷초를 받았다\n\n폰테는 매우 기뻐했다",
      "TWzh": "你將5隻速速青蛙交給了彭特，\n得到謝禮鎧甲草。\n\n彭特好像非常高興。",
      "USen": "Tumbo gave you an armoranth in exchange for\nfive hot-footed frogs. He seemed pretty\npleased with the whole arrangement.",
      "USes": "Le diste cinco ejemplares de {{wordInfo gender=\"2\" defArticle=\"1\" indefArticle=\"1\" isPlural=\"0\"}}rana escurridiza\na Rudan, y este te entregó como recompensa\nun {{wordInfo gender=\"1\" defArticle=\"0\" indefArticle=\"0\" isPlural=\"0\"}}bulbo del amparo . Parecía muy contento\ncon la transacción.",
      "USfr": "Vous avez donné cinq grenouilles tempo à\nPemto et avez reçu une {{wordInfo gender=\"2\" defArticle=\"1\" indefArticle=\"1\" isPlural=\"0\"}}fleur armo en\néchange.\n\nPemto avait l'air ravi."
    }
  }
]